[
  {
    "total_img": 85,
    "number_page": 1,
    "title": "Kemono Friends",
    "tag": "Sky, Aardwolf Kemono Friends, Sand Cat Kemono Friends, Night, Moon, Grey Wolf Kemono Friends, Blacktailed Prairie Dog Kemono Friends, Silhouette, Kaban Kemono Friends, Fennec Kemono Friends, Northern Whitefaced Owl Kemono Friends, Reindeer Kemono Friends, Shoebill Kemono Friends, Caracal Kemono Friends, Lucky Beast Kemono Friends, Jaguar Kemono Friends, Humboldt Penguin Kemono Friends, Moose Kemono Friends, bow Clothing, Tail, Yuri, Heterochromia, Leaf, Nana Kemono Friends, Guitar, Grapekun, Nature, Gray Wolf Kemono Friends, Raccoon Kemono Friends, Silver Fox Kemono Friends, Lion Kemono Friends, Scarlet Ibis Kemono Friends, Skirt, Sunset, Smallclawed Otter Kemono Friends, Crested Ibis Kemono Friends, Eurasian Eagle Owl Kemono Friends, Blush, Ezo Red Fox Kemono Friends, Suri Alpaca Kemono Friends, Hat, Desert, Animal Ears, Kemono Friends, Serval Kemono Friends, Whitenaped Crane Kemono Friends, Alpaca Suri Kemono Friends",
    "description": "Kemono Friends",
    "link_thumb": "https://live.staticflickr.com/65535/48047873962_b77f024060_n.jpg",
    "id_album": "-2090768994",
    "total_view": 85
  },
  {
    "total_img": 15,
    "number_page": 1,
    "title": "Crested Ibis Kemono Friends",
    "tag": "Crested Ibis Kemono Friends,",
    "description": "Crested Ibis Kemono Friends",
    "link_thumb": "https://live.staticflickr.com/65535/48047903157_f043c4f3a4_n.jpg",
    "id_album": "-1641843079",
    "total_view": 15
  },
  {
    "total_img": 12,
    "number_page": 1,
    "title": "Ezo Red Fox Kemono Friends",
    "tag": "Ezo Red Fox Kemono Friends,",
    "description": "Ezo Red Fox Kemono Friends",
    "link_thumb": "https://live.staticflickr.com/65535/48047815816_7eb4b203fb_n.jpg",
    "id_album": "1111574292",
    "total_view": 12
  },
  {
    "total_img": 11,
    "number_page": 1,
    "title": "Fennec Kemono Friends",
    "tag": "Fennec Kemono Friends,",
    "description": "Fennec Kemono Friends",
    "link_thumb": "https://live.staticflickr.com/65535/48047820431_42c4fd0b5f_n.jpg",
    "id_album": "-1326830122",
    "total_view": 11
  },
  {
    "total_img": 37,
    "number_page": 1,
    "title": "Kaban Kemono Friends",
    "tag": "Kaban Kemono Friends,",
    "description": "Kaban Kemono Friends",
    "link_thumb": "https://live.staticflickr.com/65535/48047904642_b9accca6d0_n.jpg",
    "id_album": "-1010683390",
    "total_view": 37
  },
  {
    "total_img": 11,
    "number_page": 1,
    "title": "Raccoon Kemono Friends",
    "tag": "Raccoon Kemono Friends,",
    "description": "Raccoon Kemono Friends",
    "link_thumb": "https://live.staticflickr.com/65535/48047901072_7a135cb64e_n.jpg",
    "id_album": "-719360477",
    "total_view": 11
  },
  {
    "total_img": 44,
    "number_page": 1,
    "title": "Serval Kemono Friends",
    "tag": "Serval Kemono Friends,",
    "description": "Serval Kemono Friends",
    "link_thumb": "https://live.staticflickr.com/65535/48047821821_acc879b939_n.jpg",
    "id_album": "1587740219",
    "total_view": 44
  }
]