[
  {
    "link_thumb": "https://live.staticflickr.com/65535/48071326887_0372c8dcc6_n.jpg",
    "id_album": "1073592386",
    "description": "MoujuutsukaitoOujisama_833128",
    "title": "MoujuutsukaitoOujisama_833128",
    "link_img": "https://live.staticflickr.com/65535/48071326887_7756c66602_o.jpg",
    "id_image": "MoujuutsukaitoOujisama_833128",
    "count_view": 0
  },
  {
    "link_thumb": "https://live.staticflickr.com/65535/48071224151_868a650d4f_n.jpg",
    "id_album": "1073592386",
    "description": "MoujuutsukaitoOujisama_833135",
    "title": "MoujuutsukaitoOujisama_833135",
    "link_img": "https://live.staticflickr.com/65535/48071224151_36647e2977_o.jpg",
    "id_image": "MoujuutsukaitoOujisama_833135",
    "count_view": 0
  },
  {
    "link_thumb": "https://live.staticflickr.com/65535/48071330347_031743b07a_n.jpg",
    "id_album": "1073592386",
    "description": "MoujuutsukaitoOujisama_833138",
    "title": "MoujuutsukaitoOujisama_833138",
    "link_img": "https://live.staticflickr.com/65535/48071330347_5bcfd5e10e_o.jpg",
    "id_image": "MoujuutsukaitoOujisama_833138",
    "count_view": 0
  },
  {
    "link_thumb": "https://live.staticflickr.com/65535/48071226356_107a472c7b_n.jpg",
    "id_album": "1073592386",
    "description": "MoujuutsukaitoOujisama_833140",
    "title": "MoujuutsukaitoOujisama_833140",
    "link_img": "https://live.staticflickr.com/65535/48071226356_db4c68ffde_o.jpg",
    "id_image": "MoujuutsukaitoOujisama_833140",
    "count_view": 0
  }
]