[
  {
    "link_thumb": "https://live.staticflickr.com/65535/47891906241_fa09205bd1_n.jpg",
    "id_album": "2121760730",
    "description": "AngelBeats_110390",
    "title": "AngelBeats_110390",
    "link_img": "https://live.staticflickr.com/65535/47891906241_d9b51ebd95_o.jpg",
    "id_image": "AngelBeats_110390",
    "count_view": 0
  },
  {
    "link_thumb": "https://live.staticflickr.com/65535/40925587823_f4812e951e_n.jpg",
    "id_album": "2121760730",
    "description": "AngelBeats_121593",
    "title": "AngelBeats_121593",
    "link_img": "https://live.staticflickr.com/65535/40925587823_8dcb425e5e_o.jpg",
    "id_image": "AngelBeats_121593",
    "count_view": 0
  },
  {
    "link_thumb": "https://live.staticflickr.com/65535/47102651574_a6e60d059a_n.jpg",
    "id_album": "2121760730",
    "description": "AngelBeats_123225",
    "title": "AngelBeats_123225",
    "link_img": "https://live.staticflickr.com/65535/47102651574_973b9bcb46_o.jpg",
    "id_image": "AngelBeats_123225",
    "count_view": 0
  },
  {
    "link_thumb": "https://live.staticflickr.com/65535/47891926411_61916eaab9_n.jpg",
    "id_album": "2121760730",
    "description": "AngelBeats_155875",
    "title": "AngelBeats_155875",
    "link_img": "https://live.staticflickr.com/65535/47891926411_b4e2d8c7a0_o.jpg",
    "id_image": "AngelBeats_155875",
    "count_view": 0
  },
  {
    "link_thumb": "https://live.staticflickr.com/65535/47102658914_058e1cdc3f_n.jpg",
    "id_album": "2121760730",
    "description": "AngelBeats_166641",
    "title": "AngelBeats_166641",
    "link_img": "https://live.staticflickr.com/65535/47102658914_17a16a5366_o.jpg",
    "id_image": "AngelBeats_166641",
    "count_view": 0
  },
  {
    "link_thumb": "https://live.staticflickr.com/65535/47891946361_10b5818ea6_n.jpg",
    "id_album": "2121760730",
    "description": "AngelBeats_166664",
    "title": "AngelBeats_166664",
    "link_img": "https://live.staticflickr.com/65535/47891946361_4686c4a849_o.jpg",
    "id_image": "AngelBeats_166664",
    "count_view": 0
  },
  {
    "link_thumb": "https://live.staticflickr.com/65535/47891947671_b0cb357e92_n.jpg",
    "id_album": "2121760730",
    "description": "AngelBeats_166666",
    "title": "AngelBeats_166666",
    "link_img": "https://live.staticflickr.com/65535/47891947671_839dc04c12_o.jpg",
    "id_image": "AngelBeats_166666",
    "count_view": 0
  },
  {
    "link_thumb": "https://live.staticflickr.com/65535/47840043392_51f2ddd93b_n.jpg",
    "id_album": "2121760730",
    "description": "AngelBeats_166758",
    "title": "AngelBeats_166758",
    "link_img": "https://live.staticflickr.com/65535/47840043392_4fe811d9d2_o.jpg",
    "id_image": "AngelBeats_166758",
    "count_view": 0
  },
  {
    "link_thumb": "https://live.staticflickr.com/65535/46975891055_c0cc31062e_n.jpg",
    "id_album": "2121760730",
    "description": "AngelBeats_183375",
    "title": "AngelBeats_183375",
    "link_img": "https://live.staticflickr.com/65535/46975891055_e0d27b87c6_o.jpg",
    "id_image": "AngelBeats_183375",
    "count_view": 0
  },
  {
    "link_thumb": "https://live.staticflickr.com/65535/47102701524_af2b4c20ca_n.jpg",
    "id_album": "2121760730",
    "description": "AngelBeats_183390",
    "title": "AngelBeats_183390",
    "link_img": "https://live.staticflickr.com/65535/47102701524_e7995bed00_o.jpg",
    "id_image": "AngelBeats_183390",
    "count_view": 0
  },
  {
    "link_thumb": "https://live.staticflickr.com/65535/40925643173_eb650c69ab_n.jpg",
    "id_album": "2121760730",
    "description": "AngelBeats_195991",
    "title": "AngelBeats_195991",
    "link_img": "https://live.staticflickr.com/65535/40925643173_f961898d9d_o.jpg",
    "id_image": "AngelBeats_195991",
    "count_view": 0
  },
  {
    "link_thumb": "https://live.staticflickr.com/65535/47102718414_3a0a109efa_n.jpg",
    "id_album": "2121760730",
    "description": "AngelBeats_195993",
    "title": "AngelBeats_195993",
    "link_img": "https://live.staticflickr.com/65535/47102718414_778f567776_o.jpg",
    "id_image": "AngelBeats_195993",
    "count_view": 0
  },
  {
    "link_thumb": "https://live.staticflickr.com/65535/47102753874_65ab131ba2_n.jpg",
    "id_album": "2121760730",
    "description": "AngelBeats_256773",
    "title": "AngelBeats_256773",
    "link_img": "https://live.staticflickr.com/65535/47102753874_175b74d9eb_o.jpg",
    "id_image": "AngelBeats_256773",
    "count_view": 0
  },
  {
    "link_thumb": "https://live.staticflickr.com/65535/46975953435_7beea3b699_n.jpg",
    "id_album": "2121760730",
    "description": "AngelBeats_256805",
    "title": "AngelBeats_256805",
    "link_img": "https://live.staticflickr.com/65535/46975953435_06e947658d_o.jpg",
    "id_image": "AngelBeats_256805",
    "count_view": 0
  },
  {
    "link_thumb": "https://live.staticflickr.com/65535/40925685493_218703052a_n.jpg",
    "id_album": "2121760730",
    "description": "AngelBeats_256814",
    "title": "AngelBeats_256814",
    "link_img": "https://live.staticflickr.com/65535/40925685493_6282a87f8f_o.jpg",
    "id_image": "AngelBeats_256814",
    "count_view": 0
  },
  {
    "link_thumb": "https://live.staticflickr.com/65535/47840119582_572215ae80_n.jpg",
    "id_album": "2121760730",
    "description": "AngelBeats_256853",
    "title": "AngelBeats_256853",
    "link_img": "https://live.staticflickr.com/65535/47840119582_6660ab3394_o.jpg",
    "id_image": "AngelBeats_256853",
    "count_view": 0
  },
  {
    "link_thumb": "https://live.staticflickr.com/65535/47892039861_570ff43af3_n.jpg",
    "id_album": "2121760730",
    "description": "AngelBeats_257811",
    "title": "AngelBeats_257811",
    "link_img": "https://live.staticflickr.com/65535/47892039861_c42a5986af_o.jpg",
    "id_image": "AngelBeats_257811",
    "count_view": 0
  },
  {
    "link_thumb": "https://live.staticflickr.com/65535/46976004145_2216b1e297_n.jpg",
    "id_album": "2121760730",
    "description": "AngelBeats_258473",
    "title": "AngelBeats_258473",
    "link_img": "https://live.staticflickr.com/65535/46976004145_7ce3106279_o.jpg",
    "id_image": "AngelBeats_258473",
    "count_view": 0
  },
  {
    "link_thumb": "https://live.staticflickr.com/65535/47102833044_0c1949edb4_n.jpg",
    "id_album": "2121760730",
    "description": "AngelBeats_258546",
    "title": "AngelBeats_258546",
    "link_img": "https://live.staticflickr.com/65535/47102833044_1d37d77ac8_o.jpg",
    "id_image": "AngelBeats_258546",
    "count_view": 0
  },
  {
    "link_thumb": "https://live.staticflickr.com/65535/47840190772_86828c4108_n.jpg",
    "id_album": "2121760730",
    "description": "AngelBeats_258595",
    "title": "AngelBeats_258595",
    "link_img": "https://live.staticflickr.com/65535/47840190772_66af4fd9fd_o.jpg",
    "id_image": "AngelBeats_258595",
    "count_view": 0
  },
  {
    "link_thumb": "https://live.staticflickr.com/65535/47102854264_8060b69052_n.jpg",
    "id_album": "2121760730",
    "description": "AngelBeats_258617",
    "title": "AngelBeats_258617",
    "link_img": "https://live.staticflickr.com/65535/47102854264_2100a91658_o.jpg",
    "id_image": "AngelBeats_258617",
    "count_view": 0
  },
  {
    "link_thumb": "https://live.staticflickr.com/65535/47102857084_d7f8910917_n.jpg",
    "id_album": "2121760730",
    "description": "AngelBeats_258624",
    "title": "AngelBeats_258624",
    "link_img": "https://live.staticflickr.com/65535/47102857084_c38aff5997_o.jpg",
    "id_image": "AngelBeats_258624",
    "count_view": 0
  },
  {
    "link_thumb": "https://live.staticflickr.com/65535/40925808523_385a9ef294_n.jpg",
    "id_album": "2121760730",
    "description": "AngelBeats_258692",
    "title": "AngelBeats_258692",
    "link_img": "https://live.staticflickr.com/65535/40925808523_dbd93c9536_o.jpg",
    "id_image": "AngelBeats_258692",
    "count_view": 0
  },
  {
    "link_thumb": "https://live.staticflickr.com/65535/47892155331_ed8e40ee84_n.jpg",
    "id_album": "2121760730",
    "description": "AngelBeats_258700",
    "title": "AngelBeats_258700",
    "link_img": "https://live.staticflickr.com/65535/47892155331_82d1f1218f_o.jpg",
    "id_image": "AngelBeats_258700",
    "count_view": 0
  },
  {
    "link_thumb": "https://live.staticflickr.com/65535/47840241222_31c32c8f08_n.jpg",
    "id_album": "2121760730",
    "description": "AngelBeats_258719",
    "title": "AngelBeats_258719",
    "link_img": "https://live.staticflickr.com/65535/47840241222_18b72a042f_o.jpg",
    "id_image": "AngelBeats_258719",
    "count_view": 0
  },
  {
    "link_thumb": "https://live.staticflickr.com/65535/47840249262_4a57aed43a_n.jpg",
    "id_album": "2121760730",
    "description": "AngelBeats_258732",
    "title": "AngelBeats_258732",
    "link_img": "https://live.staticflickr.com/65535/47840249262_f597322cb1_o.jpg",
    "id_image": "AngelBeats_258732",
    "count_view": 0
  },
  {
    "link_thumb": "https://live.staticflickr.com/65535/40925827023_b1255450d7_n.jpg",
    "id_album": "2121760730",
    "description": "AngelBeats_258735",
    "title": "AngelBeats_258735",
    "link_img": "https://live.staticflickr.com/65535/40925827023_165442079b_o.jpg",
    "id_image": "AngelBeats_258735",
    "count_view": 0
  },
  {
    "link_thumb": "https://live.staticflickr.com/65535/47102909904_7390d11d48_n.jpg",
    "id_album": "2121760730",
    "description": "AngelBeats_258738",
    "title": "AngelBeats_258738",
    "link_img": "https://live.staticflickr.com/65535/47102909904_9e7aec8e6d_o.jpg",
    "id_image": "AngelBeats_258738",
    "count_view": 0
  },
  {
    "link_thumb": "https://live.staticflickr.com/65535/46976114795_442a441373_n.jpg",
    "id_album": "2121760730",
    "description": "AngelBeats_258739",
    "title": "AngelBeats_258739",
    "link_img": "https://live.staticflickr.com/65535/46976114795_f9a185abe7_o.jpg",
    "id_image": "AngelBeats_258739",
    "count_view": 0
  },
  {
    "link_thumb": "https://live.staticflickr.com/65535/40925831273_b568bcaa14_n.jpg",
    "id_album": "2121760730",
    "description": "AngelBeats_258743",
    "title": "AngelBeats_258743",
    "link_img": "https://live.staticflickr.com/65535/40925831273_8cc4ebaebe_o.jpg",
    "id_image": "AngelBeats_258743",
    "count_view": 0
  },
  {
    "link_thumb": "https://live.staticflickr.com/65535/47840258702_d9b5f29c7e_n.jpg",
    "id_album": "2121760730",
    "description": "AngelBeats_258744",
    "title": "AngelBeats_258744",
    "link_img": "https://live.staticflickr.com/65535/47840258702_7f72368f29_o.jpg",
    "id_image": "AngelBeats_258744",
    "count_view": 0
  },
  {
    "link_thumb": "https://live.staticflickr.com/65535/46976123075_cb0fc6b88a_n.jpg",
    "id_album": "2121760730",
    "description": "AngelBeats_258758",
    "title": "AngelBeats_258758",
    "link_img": "https://live.staticflickr.com/65535/46976123075_0c28933319_o.jpg",
    "id_image": "AngelBeats_258758",
    "count_view": 0
  },
  {
    "link_thumb": "https://live.staticflickr.com/65535/47840268322_453844365c_n.jpg",
    "id_album": "2121760730",
    "description": "AngelBeats_258762",
    "title": "AngelBeats_258762",
    "link_img": "https://live.staticflickr.com/65535/47840268322_4ceb00b144_o.jpg",
    "id_image": "AngelBeats_258762",
    "count_view": 0
  },
  {
    "link_thumb": "https://live.staticflickr.com/65535/47892189611_25734584b1_n.jpg",
    "id_album": "2121760730",
    "description": "AngelBeats_258763",
    "title": "AngelBeats_258763",
    "link_img": "https://live.staticflickr.com/65535/47892189611_b748a80acf_o.jpg",
    "id_image": "AngelBeats_258763",
    "count_view": 0
  },
  {
    "link_thumb": "https://live.staticflickr.com/65535/47103008434_193bcbb2c7_n.jpg",
    "id_album": "2121760730",
    "description": "AngelBeats_258871",
    "title": "AngelBeats_258871",
    "link_img": "https://live.staticflickr.com/65535/47103008434_a88ac320bb_o.jpg",
    "id_image": "AngelBeats_258871",
    "count_view": 0
  },
  {
    "link_thumb": "https://live.staticflickr.com/65535/46976238135_6bf1d3258b_n.jpg",
    "id_album": "2121760730",
    "description": "AngelBeats_258916",
    "title": "AngelBeats_258916",
    "link_img": "https://live.staticflickr.com/65535/46976238135_46fe66a8d4_o.jpg",
    "id_image": "AngelBeats_258916",
    "count_view": 0
  },
  {
    "link_thumb": "https://live.staticflickr.com/65535/47892281881_da50140a65_n.jpg",
    "id_album": "2121760730",
    "description": "AngelBeats_258919",
    "title": "AngelBeats_258919",
    "link_img": "https://live.staticflickr.com/65535/47892281881_1747514daa_o.jpg",
    "id_image": "AngelBeats_258919",
    "count_view": 0
  },
  {
    "link_thumb": "https://live.staticflickr.com/65535/40925972913_e7ac3f894a_n.jpg",
    "id_album": "2121760730",
    "description": "AngelBeats_563578",
    "title": "AngelBeats_563578",
    "link_img": "https://live.staticflickr.com/65535/40925972913_99224bfb03_o.jpg",
    "id_image": "AngelBeats_563578",
    "count_view": 0
  },
  {
    "link_thumb": "https://live.staticflickr.com/65535/47103097374_260c32f280_n.jpg",
    "id_album": "2121760730",
    "description": "AngelBeats_563628",
    "title": "AngelBeats_563628",
    "link_img": "https://live.staticflickr.com/65535/47103097374_6ef6124b64_o.jpg",
    "id_image": "AngelBeats_563628",
    "count_view": 0
  },
  {
    "link_thumb": "https://live.staticflickr.com/65535/47840400232_f71368e56f_n.jpg",
    "id_album": "2121760730",
    "description": "AngelBeats_563635",
    "title": "AngelBeats_563635",
    "link_img": "https://live.staticflickr.com/65535/47840400232_b180bcc219_o.jpg",
    "id_image": "AngelBeats_563635",
    "count_view": 0
  },
  {
    "link_thumb": "https://live.staticflickr.com/65535/46976336765_6a11d6ef0c_n.jpg",
    "id_album": "2121760730",
    "description": "AngelBeats_717982",
    "title": "AngelBeats_717982",
    "link_img": "https://live.staticflickr.com/65535/46976336765_cc706ea0fc_o.jpg",
    "id_image": "AngelBeats_717982",
    "count_view": 0
  }
]