[
  {
    "total_img": 10,
    "number_page": 1,
    "title": "Natsu No Ame",
    "tag": "Rikako Segawa, Segawa Rikako, Natsu No Ame, Midori Miyazawa, Itou Hinako, Nene Shinooka, Misa Shinooka",
    "description": "Natsu No Ame",
    "link_thumb": "https://live.staticflickr.com/65535/48072452718_caa861a3cf_n.jpg",
    "id_album": "-1676897521",
    "total_view": 10
  },
  {
    "total_img": 3,
    "number_page": 1,
    "title": "Segawa Rikako",
    "tag": "Segawa Rikako,",
    "description": "Segawa Rikako",
    "link_thumb": "https://live.staticflickr.com/65535/48072406206_182b3ea13f_n.jpg",
    "id_album": "-1237802193",
    "total_view": 3
  }
]