[
  {
    "link_thumb": "https://live.staticflickr.com/65535/47992677641_d3ab071fda_n.jpg",
    "id_album": "703357101",
    "description": "GoldenKamuy_866099",
    "title": "GoldenKamuy_866099",
    "link_img": "https://live.staticflickr.com/65535/47992677641_1346193957_o.jpg",
    "id_image": "GoldenKamuy_866099",
    "count_view": 0
  },
  {
    "link_thumb": "https://live.staticflickr.com/65535/47992631833_f86f667baf_n.jpg",
    "id_album": "703357101",
    "description": "GoldenKamuy_913107",
    "title": "GoldenKamuy_913107",
    "link_img": "https://live.staticflickr.com/65535/47992631833_9c8c2a9fb4_o.jpg",
    "id_image": "GoldenKamuy_913107",
    "count_view": 0
  },
  {
    "link_thumb": "https://live.staticflickr.com/65535/47992680431_3184dcbd2a_n.jpg",
    "id_album": "703357101",
    "description": "GoldenKamuy_919303",
    "title": "GoldenKamuy_919303",
    "link_img": "https://live.staticflickr.com/65535/47992680431_226716ca7b_o.jpg",
    "id_image": "GoldenKamuy_919303",
    "count_view": 0
  },
  {
    "link_thumb": "https://live.staticflickr.com/65535/47992680901_5f4e3f7abe_n.jpg",
    "id_album": "703357101",
    "description": "GoldenKamuy_922311",
    "title": "GoldenKamuy_922311",
    "link_img": "https://live.staticflickr.com/65535/47992680901_5d289a04f5_o.jpg",
    "id_image": "GoldenKamuy_922311",
    "count_view": 0
  },
  {
    "link_thumb": "https://live.staticflickr.com/65535/47992681546_663635015c_n.jpg",
    "id_album": "703357101",
    "description": "GoldenKamuy_922328",
    "title": "GoldenKamuy_922328",
    "link_img": "https://live.staticflickr.com/65535/47992681546_426dbe3b2d_o.jpg",
    "id_image": "GoldenKamuy_922328",
    "count_view": 0
  },
  {
    "link_thumb": "https://live.staticflickr.com/65535/47992682006_fbf5df3cd2_n.jpg",
    "id_album": "703357101",
    "description": "GoldenKamuy_925534",
    "title": "GoldenKamuy_925534",
    "link_img": "https://live.staticflickr.com/65535/47992682006_8ce89c1508_o.jpg",
    "id_image": "GoldenKamuy_925534",
    "count_view": 0
  },
  {
    "link_thumb": "https://live.staticflickr.com/65535/47992636268_2b2e415464_n.jpg",
    "id_album": "703357101",
    "description": "GoldenKamuy_935071",
    "title": "GoldenKamuy_935071",
    "link_img": "https://live.staticflickr.com/65535/47992636268_5d1fc37263_o.jpg",
    "id_image": "GoldenKamuy_935071",
    "count_view": 0
  },
  {
    "link_thumb": "https://live.staticflickr.com/65535/47992682686_b4017aabb5_n.jpg",
    "id_album": "703357101",
    "description": "GoldenKamuy_952725",
    "title": "GoldenKamuy_952725",
    "link_img": "https://live.staticflickr.com/65535/47992682686_6cf9528f36_o.jpg",
    "id_image": "GoldenKamuy_952725",
    "count_view": 0
  }
]