[
  {
    "total_img": 208,
    "number_page": 2,
    "title": "KonoSuba  Gods blessing on this wonderful world",
    "tag": "KonoSuba, Eris KonoSuba, Iris KonoSuba, Black Hair, Staff, KonoSuba  Gods blessing on this wonderful world, Yunyun KonoSuba, Drink, Aqua KonoSuba, Chomusuke KonoSuba, Komekko KonoSuba, Bikini, Megumin KonoSuba, Short Hair, Witch, Face, Fireworks, Wiz KonoSuba, Kazuma Satou, Glove, Darkness KonoSuba, Nekomimi, Brown Hair, Demon, Witch Hat, Chibi, Vanir KonoSuba, Cecily KonoSuba, Smile, Red Eyes, Chris KonoSuba, Blue Eyes, Blue Hair, Blush, Kono Subarashii Sekai ni Shukufuku wo, Hat, Animal Ears, Yukata, Robot",
    "description": "KonoSuba  Gods blessing on this wonderful world",
    "link_thumb": "https://live.staticflickr.com/65535/48048276776_6daa49bb02_n.jpg",
    "id_album": "630632862",
    "total_view": 208
  },
  {
    "total_img": 62,
    "number_page": 1,
    "title": "Aqua KonoSuba",
    "tag": "Aqua KonoSuba,",
    "description": "Aqua KonoSuba",
    "link_thumb": "https://live.staticflickr.com/65535/48048470072_3206b0aca1_n.jpg",
    "id_album": "-1836427300",
    "total_view": 62
  },
  {
    "total_img": 29,
    "number_page": 1,
    "title": "Darkness KonoSuba",
    "tag": "Darkness KonoSuba,",
    "description": "Darkness KonoSuba",
    "link_thumb": "https://live.staticflickr.com/65535/48048470072_3206b0aca1_n.jpg",
    "id_album": "-1613960855",
    "total_view": 29
  },
  {
    "total_img": 23,
    "number_page": 1,
    "title": "Kazuma Satou",
    "tag": "Kazuma Satou,",
    "description": "Kazuma Satou",
    "link_thumb": "https://live.staticflickr.com/65535/48048470072_3206b0aca1_n.jpg",
    "id_album": "1646574147",
    "total_view": 23
  },
  {
    "total_img": 146,
    "number_page": 1,
    "title": "Megumin KonoSuba",
    "tag": "Megumin KonoSuba,",
    "description": "Megumin KonoSuba",
    "link_thumb": "https://live.staticflickr.com/65535/48048470072_3206b0aca1_n.jpg",
    "id_album": "-1521300529",
    "total_view": 146
  }
]