[
  {
    "total_img": 4,
    "number_page": 1,
    "title": "Tokyo Mew Mew",
    "tag": "bow Clothing, Tail, Mew Zakuro, Mew Lettuce, Pink Eyes, Short Hair, Mew Ichigo, Pink Hair, Mew Mint, Animal Ears, Tokyo Mew Mew, Mew Pudding",
    "description": "Tokyo Mew Mew",
    "link_thumb": "https://live.staticflickr.com/65535/48060638267_eaebb5e02c_n.jpg",
    "id_album": "1254321898",
    "total_view": 4
  },
  {
    "total_img": 3,
    "number_page": 1,
    "title": "Mew Ichigo",
    "tag": "Mew Ichigo,",
    "description": "Mew Ichigo",
    "link_thumb": "https://live.staticflickr.com/65535/48060639947_09beaeb3a2_n.jpg",
    "id_album": "-665163113",
    "total_view": 3
  },
  {
    "total_img": 2,
    "number_page": 1,
    "title": "Mew Pudding",
    "tag": "Mew Pudding,",
    "description": "Mew Pudding",
    "link_thumb": "https://live.staticflickr.com/65535/48060543816_c5f51fcbda_n.jpg",
    "id_album": "1005029665",
    "total_view": 2
  }
]