[
  {
    "link_thumb": "https://live.staticflickr.com/65535/47975946161_eace631317_n.jpg",
    "id_album": "468317835",
    "description": "FateGrandOrder_785389",
    "title": "FateGrandOrder_785389",
    "link_img": "https://live.staticflickr.com/65535/47975946161_816dcf2f34_o.jpg",
    "id_image": "FateGrandOrder_785389",
    "count_view": 0
  },
  {
    "link_thumb": "https://live.staticflickr.com/65535/47976558478_fe7fc6099c_n.jpg",
    "id_album": "468317835",
    "description": "FateGrandOrder_859448",
    "title": "FateGrandOrder_859448",
    "link_img": "https://live.staticflickr.com/65535/47976558478_1c7fe99a38_o.jpg",
    "id_image": "FateGrandOrder_859448",
    "count_view": 0
  },
  {
    "link_thumb": "https://live.staticflickr.com/65535/47976562563_bf2094ccf6_n.jpg",
    "id_album": "468317835",
    "description": "FateGrandOrder_861421",
    "title": "FateGrandOrder_861421",
    "link_img": "https://live.staticflickr.com/65535/47976562563_3143bc4fbb_o.jpg",
    "id_image": "FateGrandOrder_861421",
    "count_view": 0
  },
  {
    "link_thumb": "https://live.staticflickr.com/65535/47976627016_c9c5d5de06_n.jpg",
    "id_album": "468317835",
    "description": "FateGrandOrder_868649",
    "title": "FateGrandOrder_868649",
    "link_img": "https://live.staticflickr.com/65535/47976627016_074ef0296f_o.jpg",
    "id_image": "FateGrandOrder_868649",
    "count_view": 0
  },
  {
    "link_thumb": "https://live.staticflickr.com/65535/47976575832_b800673b0b_n.jpg",
    "id_album": "468317835",
    "description": "FateGrandOrder_870082",
    "title": "FateGrandOrder_870082",
    "link_img": "https://live.staticflickr.com/65535/47976575832_16308f0f9c_o.jpg",
    "id_image": "FateGrandOrder_870082",
    "count_view": 0
  },
  {
    "link_thumb": "https://live.staticflickr.com/65535/47976615612_4f75e7a134_n.jpg",
    "id_album": "468317835",
    "description": "FateGrandOrder_880356",
    "title": "FateGrandOrder_880356",
    "link_img": "https://live.staticflickr.com/65535/47976615612_ff80f1cfe1_o.jpg",
    "id_image": "FateGrandOrder_880356",
    "count_view": 0
  },
  {
    "link_thumb": "https://live.staticflickr.com/65535/47977149548_93ae855fd5_n.jpg",
    "id_album": "468317835",
    "description": "FateGrandOrder_928405",
    "title": "FateGrandOrder_928405",
    "link_img": "https://live.staticflickr.com/65535/47977149548_d4ddb2b584_o.jpg",
    "id_image": "FateGrandOrder_928405",
    "count_view": 0
  },
  {
    "link_thumb": "https://live.staticflickr.com/65535/47977179948_6db8cf4da0_n.jpg",
    "id_album": "468317835",
    "description": "FateGrandOrder_938722",
    "title": "FateGrandOrder_938722",
    "link_img": "https://live.staticflickr.com/65535/47977179948_2c8a0ef6d5_o.jpg",
    "id_image": "FateGrandOrder_938722",
    "count_view": 0
  },
  {
    "link_thumb": "https://live.staticflickr.com/65535/47977248497_b26570267e_n.jpg",
    "id_album": "468317835",
    "description": "FateGrandOrder_968410",
    "title": "FateGrandOrder_968410",
    "link_img": "https://live.staticflickr.com/65535/47977248497_5a4fe787cc_o.jpg",
    "id_image": "FateGrandOrder_968410",
    "count_view": 0
  }
]