[
  {
    "link_thumb": "https://live.staticflickr.com/65535/47121166904_73169796c2_n.jpg",
    "id_album": "618109644",
    "description": "BungouStrayDogs_698501,[isBoyAnime],[isSadAnime],[isSadAnimeBoy],[Bungou Stray Dogs],[BungouStrayDogs]",
    "title": "BungouStrayDogs_698501",
    "link_img": "https://live.staticflickr.com/65535/47121166904_fe953c15ef_o.jpg",
    "id_image": "BungouStrayDogs_698501",
    "count_view": 0
  },
  {
    "link_thumb": "https://live.staticflickr.com/65535/47121168504_9938de79a7_n.jpg",
    "id_album": "618109644",
    "description": "BungouStrayDogs_700760,[isGirlAnime],[isBoyAnime],[isSadAnime],[isSadAnimeGirl],[isSadAnimeBoy],[isKimonoAnime],[Bungou Stray Dogs],[BungouStrayDogs]",
    "title": "BungouStrayDogs_700760",
    "link_img": "https://live.staticflickr.com/65535/47121168504_670470e28d_o.jpg",
    "id_image": "BungouStrayDogs_700760",
    "count_view": 0
  },
  {
    "link_thumb": "https://live.staticflickr.com/65535/47858499392_df632bc631_n.jpg",
    "id_album": "618109644",
    "description": "BungouStrayDogs_701765,[isGirlAnime],[isBoyAnime],[Bungou Stray Dogs],[BungouStrayDogs]",
    "title": "BungouStrayDogs_701765",
    "link_img": "https://live.staticflickr.com/65535/47858499392_e4372f4d47_o.jpg",
    "id_image": "BungouStrayDogs_701765",
    "count_view": 0
  },
  {
    "link_thumb": "https://live.staticflickr.com/65535/47910524841_8aae7201cb_n.jpg",
    "id_album": "618109644",
    "description": "BungouStrayDogs_701767,[isGirlAnime],[isSadAnime],[isSadAnimeGirl],[isCuteAnime],[isGirlsLoliAnime],[Bungou Stray Dogs],[BungouStrayDogs]",
    "title": "BungouStrayDogs_701767",
    "link_img": "https://live.staticflickr.com/65535/47910524841_5c476f5f4c_o.jpg",
    "id_image": "BungouStrayDogs_701767",
    "count_view": 0
  },
  {
    "link_thumb": "https://live.staticflickr.com/65535/47858501672_8eb7f77135_n.jpg",
    "id_album": "618109644",
    "description": "BungouStrayDogs_711169,[isGirlAnime],[isBoyAnime],[isRandom],[Bungou Stray Dogs],[BungouStrayDogs]",
    "title": "BungouStrayDogs_711169",
    "link_img": "https://live.staticflickr.com/65535/47858501672_cd935e0e25_o.jpg",
    "id_image": "BungouStrayDogs_711169",
    "count_view": 0
  },
  {
    "link_thumb": "https://live.staticflickr.com/65535/47121174124_bf7ec590e4_n.jpg",
    "id_album": "618109644",
    "description": "BungouStrayDogs_720823,[isBoyAnime],[isSadAnime],[isSadAnimeBoy],[Bungou Stray Dogs],[BungouStrayDogs]",
    "title": "BungouStrayDogs_720823",
    "link_img": "https://live.staticflickr.com/65535/47121174124_45775d3826_o.jpg",
    "id_image": "BungouStrayDogs_720823",
    "count_view": 0
  },
  {
    "link_thumb": "https://live.staticflickr.com/65535/46994536295_f1fb300228_n.jpg",
    "id_album": "618109644",
    "description": "BungouStrayDogs_720824,[isBoyAnime],[isSadAnime],[isSadAnimeBoy],[Bungou Stray Dogs],[BungouStrayDogs]",
    "title": "BungouStrayDogs_720824",
    "link_img": "https://live.staticflickr.com/65535/46994536295_61c767bc83_o.jpg",
    "id_image": "BungouStrayDogs_720824",
    "count_view": 0
  },
  {
    "link_thumb": "https://live.staticflickr.com/65535/46994537175_8091988f81_n.jpg",
    "id_album": "618109644",
    "description": "BungouStrayDogs_720825,[isGirlAnime],[isSadAnime],[isCuteAnime],[isGirlsLoliAnime],[isKimonoAnime],[Bungou Stray Dogs],[BungouStrayDogs]",
    "title": "BungouStrayDogs_720825",
    "link_img": "https://live.staticflickr.com/65535/46994537175_d1696df135_o.jpg",
    "id_image": "BungouStrayDogs_720825",
    "count_view": 0
  },
  {
    "link_thumb": "https://live.staticflickr.com/65535/46994540475_cb07a1156a_n.jpg",
    "id_album": "618109644",
    "description": "BungouStrayDogs_720826,[isBoyAnime],[Bungou Stray Dogs],[BungouStrayDogs]",
    "title": "BungouStrayDogs_720826",
    "link_img": "https://live.staticflickr.com/65535/46994540475_2ba25298c8_o.jpg",
    "id_image": "BungouStrayDogs_720826",
    "count_view": 0
  },
  {
    "link_thumb": "https://live.staticflickr.com/65535/47858513522_7bec41af3e_n.jpg",
    "id_album": "618109644",
    "description": "BungouStrayDogs_720827,[isBoyAnime],[Bungou Stray Dogs],[BungouStrayDogs]",
    "title": "BungouStrayDogs_720827",
    "link_img": "https://live.staticflickr.com/65535/47858513522_c4800cf062_o.jpg",
    "id_image": "BungouStrayDogs_720827",
    "count_view": 0
  },
  {
    "link_thumb": "https://live.staticflickr.com/65535/47858521462_ce02627c71_n.jpg",
    "id_album": "618109644",
    "description": "BungouStrayDogs_725902,[isBoyAnime],[Bungou Stray Dogs],[BungouStrayDogs]",
    "title": "BungouStrayDogs_725902",
    "link_img": "https://live.staticflickr.com/65535/47858521462_239f8cfa17_o.jpg",
    "id_image": "BungouStrayDogs_725902",
    "count_view": 0
  },
  {
    "link_thumb": "https://live.staticflickr.com/65535/40943929893_87c9d71c38_n.jpg",
    "id_album": "618109644",
    "description": "BungouStrayDogs_731799,[isGirlAnime],[isBoyAnime],[isBlackAnime],[Bungou Stray Dogs],[BungouStrayDogs]",
    "title": "BungouStrayDogs_731799",
    "link_img": "https://live.staticflickr.com/65535/40943929893_4fe6ea34c5_o.jpg",
    "id_image": "BungouStrayDogs_731799",
    "count_view": 0
  },
  {
    "link_thumb": "https://live.staticflickr.com/65535/47910548491_dc4f9ae4c2_n.jpg",
    "id_album": "618109644",
    "description": "BungouStrayDogs_731802,[isBoyAnime],[isSadAnime],[isSadAnimeBoy],[isBlackAnime],[Bungou Stray Dogs],[BungouStrayDogs]",
    "title": "BungouStrayDogs_731802",
    "link_img": "https://live.staticflickr.com/65535/47910548491_85ffab6020_o.jpg",
    "id_image": "BungouStrayDogs_731802",
    "count_view": 0
  },
  {
    "link_thumb": "https://live.staticflickr.com/65535/47910550151_0582e42907_n.jpg",
    "id_album": "618109644",
    "description": "BungouStrayDogs_738647,[isBoyAnime],[Bungou Stray Dogs],[BungouStrayDogs]",
    "title": "BungouStrayDogs_738647",
    "link_img": "https://live.staticflickr.com/65535/47910550151_710b8fbefb_o.jpg",
    "id_image": "BungouStrayDogs_738647",
    "count_view": 0
  },
  {
    "link_thumb": "https://live.staticflickr.com/65535/46994568185_a2b82cfbb4_n.jpg",
    "id_album": "618109644",
    "description": "BungouStrayDogs_738648,[isGirlAnime],[isBoyAnime],[Bungou Stray Dogs],[BungouStrayDogs]",
    "title": "BungouStrayDogs_738648",
    "link_img": "https://live.staticflickr.com/65535/46994568185_2c5b3882e9_o.jpg",
    "id_image": "BungouStrayDogs_738648",
    "count_view": 0
  },
  {
    "link_thumb": "https://live.staticflickr.com/65535/47121208354_8a98bcd4f8_n.jpg",
    "id_album": "618109644",
    "description": "BungouStrayDogs_739819,[isBoyAnime],[isBlackAnime],[Bungou Stray Dogs],[BungouStrayDogs]",
    "title": "BungouStrayDogs_739819",
    "link_img": "https://live.staticflickr.com/65535/47121208354_59833bfcbd_o.jpg",
    "id_image": "BungouStrayDogs_739819",
    "count_view": 0
  },
  {
    "link_thumb": "https://live.staticflickr.com/65535/40943948753_38b0260baf_n.jpg",
    "id_album": "618109644",
    "description": "BungouStrayDogs_739821,[isBoyAnime],[Bungou Stray Dogs],[BungouStrayDogs]",
    "title": "BungouStrayDogs_739821",
    "link_img": "https://live.staticflickr.com/65535/40943948753_d2d8504852_o.jpg",
    "id_image": "BungouStrayDogs_739821",
    "count_view": 0
  },
  {
    "link_thumb": "https://live.staticflickr.com/65535/47910564041_17b4c2f1c1_n.jpg",
    "id_album": "618109644",
    "description": "BungouStrayDogs_739822,[isBoyAnime],[Bungou Stray Dogs],[BungouStrayDogs]",
    "title": "BungouStrayDogs_739822",
    "link_img": "https://live.staticflickr.com/65535/47910564041_bb6d618280_o.jpg",
    "id_image": "BungouStrayDogs_739822",
    "count_view": 0
  },
  {
    "link_thumb": "https://live.staticflickr.com/65535/47910564711_a3341f9f23_n.jpg",
    "id_album": "618109644",
    "description": "BungouStrayDogs_739826,[isBoyAnime],[isSadAnime],[isSadAnimeBoy],[Bungou Stray Dogs],[BungouStrayDogs]",
    "title": "BungouStrayDogs_739826",
    "link_img": "https://live.staticflickr.com/65535/47910564711_e075b07071_o.jpg",
    "id_image": "BungouStrayDogs_739826",
    "count_view": 0
  },
  {
    "link_thumb": "https://live.staticflickr.com/65535/46994578005_098e28faea_n.jpg",
    "id_album": "618109644",
    "description": "BungouStrayDogs_739827,[isBoyAnime],[Bungou Stray Dogs],[BungouStrayDogs]",
    "title": "BungouStrayDogs_739827",
    "link_img": "https://live.staticflickr.com/65535/46994578005_6ce95a577a_o.jpg",
    "id_image": "BungouStrayDogs_739827",
    "count_view": 0
  },
  {
    "link_thumb": "https://live.staticflickr.com/65535/47858542112_4ab4a5c34c_n.jpg",
    "id_album": "618109644",
    "description": "BungouStrayDogs_739829,[isBoyAnime],[isSadAnime],[isSadAnimeBoy],[Bungou Stray Dogs],[BungouStrayDogs]",
    "title": "BungouStrayDogs_739829",
    "link_img": "https://live.staticflickr.com/65535/47858542112_097b5b920c_o.jpg",
    "id_image": "BungouStrayDogs_739829",
    "count_view": 0
  },
  {
    "link_thumb": "https://live.staticflickr.com/65535/40943950863_915e36e09b_n.jpg",
    "id_album": "618109644",
    "description": "BungouStrayDogs_739831,[isBoyAnime],[Bungou Stray Dogs],[BungouStrayDogs]",
    "title": "BungouStrayDogs_739831",
    "link_img": "https://live.staticflickr.com/65535/40943950863_138365c41b_o.jpg",
    "id_image": "BungouStrayDogs_739831",
    "count_view": 0
  },
  {
    "link_thumb": "https://live.staticflickr.com/65535/46994579735_7595e900aa_n.jpg",
    "id_album": "618109644",
    "description": "BungouStrayDogs_739836,[isBoyAnime],[isSadAnime],[isSadAnimeBoy],[Bungou Stray Dogs],[BungouStrayDogs]",
    "title": "BungouStrayDogs_739836",
    "link_img": "https://live.staticflickr.com/65535/46994579735_3a93b8b21c_o.jpg",
    "id_image": "BungouStrayDogs_739836",
    "count_view": 0
  },
  {
    "link_thumb": "https://live.staticflickr.com/65535/47858546712_bd44ff3704_n.jpg",
    "id_album": "618109644",
    "description": "BungouStrayDogs_739863,[isBoyAnime],[Bungou Stray Dogs],[BungouStrayDogs]",
    "title": "BungouStrayDogs_739863",
    "link_img": "https://live.staticflickr.com/65535/47858546712_9f0d75aed5_o.jpg",
    "id_image": "BungouStrayDogs_739863",
    "count_view": 0
  },
  {
    "link_thumb": "https://live.staticflickr.com/65535/47121220844_b338f14abe_n.jpg",
    "id_album": "618109644",
    "description": "BungouStrayDogs_739885,[isBoyAnime],[Bungou Stray Dogs],[BungouStrayDogs]",
    "title": "BungouStrayDogs_739885",
    "link_img": "https://live.staticflickr.com/65535/47121220844_f90e78f1cd_o.jpg",
    "id_image": "BungouStrayDogs_739885",
    "count_view": 0
  },
  {
    "link_thumb": "https://live.staticflickr.com/65535/47858557832_ef106cd8c2_n.jpg",
    "id_album": "618109644",
    "description": "BungouStrayDogs_739886,[isGirlAnime],[isBoyAnime],[Bungou Stray Dogs],[BungouStrayDogs]",
    "title": "BungouStrayDogs_739886",
    "link_img": "https://live.staticflickr.com/65535/47858557832_c44a84c744_o.jpg",
    "id_image": "BungouStrayDogs_739886",
    "count_view": 0
  },
  {
    "link_thumb": "https://live.staticflickr.com/65535/47858564622_65702d572a_n.jpg",
    "id_album": "618109644",
    "description": "BungouStrayDogs_739888,[isBoyAnime],[isSadAnime],[isSadAnimeBoy],[Bungou Stray Dogs],[BungouStrayDogs]",
    "title": "BungouStrayDogs_739888",
    "link_img": "https://live.staticflickr.com/65535/47858564622_4fbf9b7388_o.jpg",
    "id_image": "BungouStrayDogs_739888",
    "count_view": 0
  },
  {
    "link_thumb": "https://live.staticflickr.com/65535/46994602725_25b8faca8a_n.jpg",
    "id_album": "618109644",
    "description": "BungouStrayDogs_739889,[isGirlAnime],[isBoyAnime],[isSadAnime],[isSadAnimeGirl],[isSadAnimeBoy],[Bungou Stray Dogs],[BungouStrayDogs]",
    "title": "BungouStrayDogs_739889",
    "link_img": "https://live.staticflickr.com/65535/46994602725_61b9c7532d_o.jpg",
    "id_image": "BungouStrayDogs_739889",
    "count_view": 0
  },
  {
    "link_thumb": "https://live.staticflickr.com/65535/47910585021_ecdc86823a_n.jpg",
    "id_album": "618109644",
    "description": "BungouStrayDogs_739890,[isGirlAnime],[isBoyAnime],[isSadAnimeBoy],[Bungou Stray Dogs],[BungouStrayDogs]",
    "title": "BungouStrayDogs_739890",
    "link_img": "https://live.staticflickr.com/65535/47910585021_8618dd5ed9_o.jpg",
    "id_image": "BungouStrayDogs_739890",
    "count_view": 0
  },
  {
    "link_thumb": "https://live.staticflickr.com/65535/46994604145_f573a2c8d3_n.jpg",
    "id_album": "618109644",
    "description": "BungouStrayDogs_739891,[isBoyAnime],[isSadAnime],[isSadAnimeBoy],[Bungou Stray Dogs],[BungouStrayDogs]",
    "title": "BungouStrayDogs_739891",
    "link_img": "https://live.staticflickr.com/65535/46994604145_1ebfe3e101_o.jpg",
    "id_image": "BungouStrayDogs_739891",
    "count_view": 0
  },
  {
    "link_thumb": "https://live.staticflickr.com/65535/47121230204_a94eaa160c_n.jpg",
    "id_album": "618109644",
    "description": "BungouStrayDogs_739892,[isBoyAnime],[isSadAnime],[isSadAnimeBoy],[Bungou Stray Dogs],[BungouStrayDogs]",
    "title": "BungouStrayDogs_739892",
    "link_img": "https://live.staticflickr.com/65535/47121230204_cb33263879_o.jpg",
    "id_image": "BungouStrayDogs_739892",
    "count_view": 0
  },
  {
    "link_thumb": "https://live.staticflickr.com/65535/47910586991_21afd02bfd_n.jpg",
    "id_album": "618109644",
    "description": "BungouStrayDogs_739893,[isBoyAnime],[isSadAnime],[isSadAnimeBoy],[Bungou Stray Dogs],[BungouStrayDogs]",
    "title": "BungouStrayDogs_739893",
    "link_img": "https://live.staticflickr.com/65535/47910586991_f23f865896_o.jpg",
    "id_image": "BungouStrayDogs_739893",
    "count_view": 0
  },
  {
    "link_thumb": "https://live.staticflickr.com/65535/40943969703_6b1e2c12a5_n.jpg",
    "id_album": "618109644",
    "description": "BungouStrayDogs_743201,[isGirlAnime],[isBoyAnime],[isSadAnime],[isSadAnimeBoy],[Bungou Stray Dogs],[BungouStrayDogs]",
    "title": "BungouStrayDogs_743201",
    "link_img": "https://live.staticflickr.com/65535/40943969703_34e456ede1_o.jpg",
    "id_image": "BungouStrayDogs_743201",
    "count_view": 0
  },
  {
    "link_thumb": "https://live.staticflickr.com/65535/40943970133_098bae43b0_n.jpg",
    "id_album": "618109644",
    "description": "BungouStrayDogs_743438,[isBoyAnime],[isSadAnime],[isSadAnimeBoy],[Bungou Stray Dogs],[BungouStrayDogs]",
    "title": "BungouStrayDogs_743438",
    "link_img": "https://live.staticflickr.com/65535/40943970133_df825d2c91_o.jpg",
    "id_image": "BungouStrayDogs_743438",
    "count_view": 0
  },
  {
    "link_thumb": "https://live.staticflickr.com/65535/46994607435_05d19be6a4_n.jpg",
    "id_album": "618109644",
    "description": "BungouStrayDogs_743439,[isBoyAnime],[isSadAnime],[isSadAnimeBoy],[Bungou Stray Dogs],[BungouStrayDogs]",
    "title": "BungouStrayDogs_743439",
    "link_img": "https://live.staticflickr.com/65535/46994607435_f59ef7d204_o.jpg",
    "id_image": "BungouStrayDogs_743439",
    "count_view": 0
  },
  {
    "link_thumb": "https://live.staticflickr.com/65535/40943971073_5d156c0dab_n.jpg",
    "id_album": "618109644",
    "description": "BungouStrayDogs_743442,[isBoyAnime],[isSadAnime],[isSadAnimeBoy],[Bungou Stray Dogs],[BungouStrayDogs]",
    "title": "BungouStrayDogs_743442",
    "link_img": "https://live.staticflickr.com/65535/40943971073_073660d924_o.jpg",
    "id_image": "BungouStrayDogs_743442",
    "count_view": 0
  },
  {
    "link_thumb": "https://live.staticflickr.com/65535/47910590521_11bb7d413f_n.jpg",
    "id_album": "618109644",
    "description": "BungouStrayDogs_747588,[isBoyAnime],[isSadAnime],[isSadAnimeBoy],[Bungou Stray Dogs],[BungouStrayDogs]",
    "title": "BungouStrayDogs_747588",
    "link_img": "https://live.staticflickr.com/65535/47910590521_f3bf3f3fb3_o.jpg",
    "id_image": "BungouStrayDogs_747588",
    "count_view": 0
  },
  {
    "link_thumb": "https://live.staticflickr.com/65535/47858567882_3fb300d228_n.jpg",
    "id_album": "618109644",
    "description": "BungouStrayDogs_747589,[isBoyAnime],[isSadAnime],[isSadAnimeBoy],[Bungou Stray Dogs],[BungouStrayDogs]",
    "title": "BungouStrayDogs_747589",
    "link_img": "https://live.staticflickr.com/65535/47858567882_fb1d9651d3_o.jpg",
    "id_image": "BungouStrayDogs_747589",
    "count_view": 0
  },
  {
    "link_thumb": "https://live.staticflickr.com/65535/47121236824_c19c39da2f_n.jpg",
    "id_album": "618109644",
    "description": "BungouStrayDogs_747590,[isBoyAnime],[isSadAnime],[isSadAnimeBoy],[Bungou Stray Dogs],[BungouStrayDogs]",
    "title": "BungouStrayDogs_747590",
    "link_img": "https://live.staticflickr.com/65535/47121236824_82d47c7aab_o.jpg",
    "id_image": "BungouStrayDogs_747590",
    "count_view": 0
  },
  {
    "link_thumb": "https://live.staticflickr.com/65535/47121237414_8d82e15c5f_n.jpg",
    "id_album": "618109644",
    "description": "BungouStrayDogs_747591,[isBoyAnime],[isSadAnime],[isSadAnimeBoy],[Bungou Stray Dogs],[BungouStrayDogs]",
    "title": "BungouStrayDogs_747591",
    "link_img": "https://live.staticflickr.com/65535/47121237414_a5b131dbd5_o.jpg",
    "id_image": "BungouStrayDogs_747591",
    "count_view": 0
  },
  {
    "link_thumb": "https://live.staticflickr.com/65535/47858571642_107c90e922_n.jpg",
    "id_album": "618109644",
    "description": "BungouStrayDogs_747592,[isBoyAnime],[isSadAnime],[isSadAnimeBoy],[Bungou Stray Dogs],[BungouStrayDogs]",
    "title": "BungouStrayDogs_747592",
    "link_img": "https://live.staticflickr.com/65535/47858571642_e0d72645c6_o.jpg",
    "id_image": "BungouStrayDogs_747592",
    "count_view": 0
  },
  {
    "link_thumb": "https://live.staticflickr.com/65535/46994612865_fea09c282d_n.jpg",
    "id_album": "618109644",
    "description": "BungouStrayDogs_747593,[isBoyAnime],[isSadAnime],[isSadAnimeBoy],[Bungou Stray Dogs],[BungouStrayDogs]",
    "title": "BungouStrayDogs_747593",
    "link_img": "https://live.staticflickr.com/65535/46994612865_f200ca68ac_o.jpg",
    "id_image": "BungouStrayDogs_747593",
    "count_view": 0
  },
  {
    "link_thumb": "https://live.staticflickr.com/65535/47858573442_6c308bfc46_n.jpg",
    "id_album": "618109644",
    "description": "BungouStrayDogs_748363,[isBoyAnime],[isSadAnime],[isSadAnimeBoy],[Bungou Stray Dogs],[BungouStrayDogs]",
    "title": "BungouStrayDogs_748363",
    "link_img": "https://live.staticflickr.com/65535/47858573442_46ed1e9210_o.jpg",
    "id_image": "BungouStrayDogs_748363",
    "count_view": 0
  },
  {
    "link_thumb": "https://live.staticflickr.com/65535/46994621715_2281468e97_n.jpg",
    "id_album": "618109644",
    "description": "BungouStrayDogs_752992,[isBoyAnime],[isSadAnime],[isSadAnimeBoy],[Bungou Stray Dogs],[BungouStrayDogs]",
    "title": "BungouStrayDogs_752992",
    "link_img": "https://live.staticflickr.com/65535/46994621715_0ab05acfc4_o.jpg",
    "id_image": "BungouStrayDogs_752992",
    "count_view": 0
  },
  {
    "link_thumb": "https://live.staticflickr.com/65535/47910599991_60e74c1c85_n.jpg",
    "id_album": "618109644",
    "description": "BungouStrayDogs_752993,[isBoyAnime],[Bungou Stray Dogs],[BungouStrayDogs]",
    "title": "BungouStrayDogs_752993",
    "link_img": "https://live.staticflickr.com/65535/47910599991_319c0e4728_o.jpg",
    "id_image": "BungouStrayDogs_752993",
    "count_view": 0
  },
  {
    "link_thumb": "https://live.staticflickr.com/65535/47910601141_ea62032441_n.jpg",
    "id_album": "618109644",
    "description": "BungouStrayDogs_772148,[isGirlAnime],[isBoyAnime],[isCoupleAnime],[isCuteAnime],[isGirlsLoliAnime],[isKimonoAnime],[Bungou Stray Dogs],[BungouStrayDogs]",
    "title": "BungouStrayDogs_772148",
    "link_img": "https://live.staticflickr.com/65535/47910601141_ffc6048078_o.jpg",
    "id_image": "BungouStrayDogs_772148",
    "count_view": 0
  },
  {
    "link_thumb": "https://live.staticflickr.com/65535/40944003633_2c4fe4a0da_n.jpg",
    "id_album": "618109644",
    "description": "BungouStrayDogs_830918,[isBoyAnime],[isSadAnime],[isSadAnimeBoy],[Bungou Stray Dogs],[BungouStrayDogs]",
    "title": "BungouStrayDogs_830918",
    "link_img": "https://live.staticflickr.com/65535/40944003633_4d1177b724_o.jpg",
    "id_image": "BungouStrayDogs_830918",
    "count_view": 0
  },
  {
    "link_thumb": "https://live.staticflickr.com/65535/47858593122_dfb9a3efae_n.jpg",
    "id_album": "618109644",
    "description": "BungouStrayDogs_830919,[isBoyAnime],[isSadAnime],[isSadAnimeBoy],[Bungou Stray Dogs],[BungouStrayDogs]",
    "title": "BungouStrayDogs_830919",
    "link_img": "https://live.staticflickr.com/65535/47858593122_508c066686_o.jpg",
    "id_image": "BungouStrayDogs_830919",
    "count_view": 0
  },
  {
    "link_thumb": "https://live.staticflickr.com/65535/47121260364_acc48eda82_n.jpg",
    "id_album": "618109644",
    "description": "BungouStrayDogs_830920,[isBoyAnime],[isSadAnime],[isSadAnimeBoy],[Bungou Stray Dogs],[BungouStrayDogs]",
    "title": "BungouStrayDogs_830920",
    "link_img": "https://live.staticflickr.com/65535/47121260364_a399fcd06f_o.jpg",
    "id_image": "BungouStrayDogs_830920",
    "count_view": 0
  },
  {
    "link_thumb": "https://live.staticflickr.com/65535/46994638055_e137dbaae0_n.jpg",
    "id_album": "618109644",
    "description": "BungouStrayDogs_830921,[isBoyAnime],[isSadAnime],[isSadAnimeBoy],[Bungou Stray Dogs],[BungouStrayDogs]",
    "title": "BungouStrayDogs_830921",
    "link_img": "https://live.staticflickr.com/65535/46994638055_d1ecb70f68_o.jpg",
    "id_image": "BungouStrayDogs_830921",
    "count_view": 0
  },
  {
    "link_thumb": "https://live.staticflickr.com/65535/47121262024_1c32fd8df4_n.jpg",
    "id_album": "618109644",
    "description": "BungouStrayDogs_830922,[isBoyAnime],[isSadAnime],[isSadAnimeBoy],[Bungou Stray Dogs],[BungouStrayDogs]",
    "title": "BungouStrayDogs_830922",
    "link_img": "https://live.staticflickr.com/65535/47121262024_ec8b67c77f_o.jpg",
    "id_image": "BungouStrayDogs_830922",
    "count_view": 0
  },
  {
    "link_thumb": "https://live.staticflickr.com/65535/40944006713_4f03cd822d_n.jpg",
    "id_album": "618109644",
    "description": "BungouStrayDogs_830923,[isBoyAnime],[Bungou Stray Dogs],[BungouStrayDogs]",
    "title": "BungouStrayDogs_830923",
    "link_img": "https://live.staticflickr.com/65535/40944006713_6382e7fbc7_o.jpg",
    "id_image": "BungouStrayDogs_830923",
    "count_view": 0
  },
  {
    "link_thumb": "https://live.staticflickr.com/65535/40944007553_6002efce42_n.jpg",
    "id_album": "618109644",
    "description": "BungouStrayDogs_830934,[isBoyAnime],[Bungou Stray Dogs],[BungouStrayDogs]",
    "title": "BungouStrayDogs_830934",
    "link_img": "https://live.staticflickr.com/65535/40944007553_1bdd71528b_o.jpg",
    "id_image": "BungouStrayDogs_830934",
    "count_view": 0
  },
  {
    "link_thumb": "https://live.staticflickr.com/65535/46994640175_090b4065e9_n.jpg",
    "id_album": "618109644",
    "description": "BungouStrayDogs_859925,[isBoyAnime],[isSadAnime],[isSadAnimeBoy],[Bungou Stray Dogs],[BungouStrayDogs]",
    "title": "BungouStrayDogs_859925",
    "link_img": "https://live.staticflickr.com/65535/46994640175_81806f239a_o.jpg",
    "id_image": "BungouStrayDogs_859925",
    "count_view": 0
  },
  {
    "link_thumb": "https://live.staticflickr.com/65535/47121267174_5ccdc7a07f_n.jpg",
    "id_album": "618109644",
    "description": "BungouStrayDogs_917635,[isBoyAnime],[isSadAnime],[isSadAnimeBoy],[Bungou Stray Dogs],[BungouStrayDogs]",
    "title": "BungouStrayDogs_917635",
    "link_img": "https://live.staticflickr.com/65535/47121267174_b523ee281e_o.jpg",
    "id_image": "BungouStrayDogs_917635",
    "count_view": 0
  },
  {
    "link_thumb": "https://live.staticflickr.com/65535/47910621851_6f2374742c_n.jpg",
    "id_album": "618109644",
    "description": "BungouStrayDogs_917696,[isBoyAnime],[isSadAnime],[isSadAnimeBoy],[Bungou Stray Dogs],[BungouStrayDogs]",
    "title": "BungouStrayDogs_917696",
    "link_img": "https://live.staticflickr.com/65535/47910621851_d8d84c3b6a_o.jpg",
    "id_image": "BungouStrayDogs_917696",
    "count_view": 0
  },
  {
    "link_thumb": "https://live.staticflickr.com/65535/47910623301_c2b3e087f2_n.jpg",
    "id_album": "618109644",
    "description": "BungouStrayDogs_932405,[isGirlAnime],[isSadAnime],[isSadAnimeGirl],[isCuteAnime],[isGirlEarsNekoAnime],[isGirlsHatsHoodieAnime],[isGirlsLoliAnime],[isBlackAnime],[Bungou Stray Dogs],[BungouStrayDogs]",
    "title": "BungouStrayDogs_932405",
    "link_img": "https://live.staticflickr.com/65535/47910623301_1c26625041_o.jpg",
    "id_image": "BungouStrayDogs_932405",
    "count_view": 0
  },
  {
    "link_thumb": "https://live.staticflickr.com/65535/46994643075_ecabe3eb08_n.jpg",
    "id_album": "618109644",
    "description": "BungouStrayDogs_939973,[isBoyAnime],[isSadAnime],[isSadAnimeBoy],[isBlackAnime],[Bungou Stray Dogs],[BungouStrayDogs]",
    "title": "BungouStrayDogs_939973",
    "link_img": "https://live.staticflickr.com/65535/46994643075_18eb604f5a_o.jpg",
    "id_image": "BungouStrayDogs_939973",
    "count_view": 0
  },
  {
    "link_thumb": "https://live.staticflickr.com/65535/47121271384_e5b86cc0fd_n.jpg",
    "id_album": "618109644",
    "description": "BungouStrayDogs_940703,[isBoyAnime],[isSadAnime],[isSadAnimeBoy],[Bungou Stray Dogs],[BungouStrayDogs]",
    "title": "BungouStrayDogs_940703",
    "link_img": "https://live.staticflickr.com/65535/47121271384_59ceed5e9d_o.jpg",
    "id_image": "BungouStrayDogs_940703",
    "count_view": 0
  },
  {
    "link_thumb": "https://live.staticflickr.com/65535/47858600902_45cfd6d738_n.jpg",
    "id_album": "618109644",
    "description": "BungouStrayDogs_940704,[isGirlAnime],[isBoyAnime],[isSadAnime],[isSadAnimeGirl],[isSadAnimeBoy],[Bungou Stray Dogs],[BungouStrayDogs]",
    "title": "BungouStrayDogs_940704",
    "link_img": "https://live.staticflickr.com/65535/47858600902_062bfd22c6_o.jpg",
    "id_image": "BungouStrayDogs_940704",
    "count_view": 0
  },
  {
    "link_thumb": "https://live.staticflickr.com/65535/40944016463_e1ccbeae4b_n.jpg",
    "id_album": "618109644",
    "description": "BungouStrayDogs_941996,[isBoyAnime],[isSadAnime],[isSadAnimeBoy],[Bungou Stray Dogs],[BungouStrayDogs]",
    "title": "BungouStrayDogs_941996",
    "link_img": "https://live.staticflickr.com/65535/40944016463_9ed842fd7d_o.jpg",
    "id_image": "BungouStrayDogs_941996",
    "count_view": 0
  },
  {
    "link_thumb": "https://live.staticflickr.com/65535/47121274134_6705a7b8f8_n.jpg",
    "id_album": "618109644",
    "description": "BungouStrayDogs_956516,[isBoyAnime],[isSadAnime],[isSadAnimeBoy],[isBlackAnime],[Bungou Stray Dogs],[BungouStrayDogs]",
    "title": "BungouStrayDogs_956516",
    "link_img": "https://live.staticflickr.com/65535/47121274134_ff57e2966b_o.jpg",
    "id_image": "BungouStrayDogs_956516",
    "count_view": 0
  },
  {
    "link_thumb": "https://live.staticflickr.com/65535/47858602362_e913bea4ae_n.jpg",
    "id_album": "618109644",
    "description": "BungouStrayDogs_956517,[isBoyAnime],[isSadAnime],[isSadAnimeBoy],[Bungou Stray Dogs],[BungouStrayDogs]",
    "title": "BungouStrayDogs_956517",
    "link_img": "https://live.staticflickr.com/65535/47858602362_79b026d50c_o.jpg",
    "id_image": "BungouStrayDogs_956517",
    "count_view": 0
  },
  {
    "link_thumb": "https://live.staticflickr.com/65535/46994645915_9574ecc0e1_n.jpg",
    "id_album": "618109644",
    "description": "BungouStrayDogs_956518,[isBoyAnime],[isSadAnime],[isSadAnimeBoy],[Bungou Stray Dogs],[BungouStrayDogs]",
    "title": "BungouStrayDogs_956518",
    "link_img": "https://live.staticflickr.com/65535/46994645915_9831af8e89_o.jpg",
    "id_image": "BungouStrayDogs_956518",
    "count_view": 0
  },
  {
    "link_thumb": "https://live.staticflickr.com/65535/47858603482_b97eff16cc_n.jpg",
    "id_album": "618109644",
    "description": "BungouStrayDogs_956521,[isBoyAnime],[isSadAnime],[isSadAnimeBoy],[Bungou Stray Dogs],[BungouStrayDogs]",
    "title": "BungouStrayDogs_956521",
    "link_img": "https://live.staticflickr.com/65535/47858603482_45c1032feb_o.jpg",
    "id_image": "BungouStrayDogs_956521",
    "count_view": 0
  },
  {
    "link_thumb": "https://live.staticflickr.com/65535/47910628651_a5851c2666_n.jpg",
    "id_album": "618109644",
    "description": "BungouStrayDogs_956522,[isGirlAnime],[isSadAnime],[isSadAnimeGirl],[isCuteAnime],[isGirlsLoliAnime],[isKimonoAnime],[Bungou Stray Dogs],[BungouStrayDogs]",
    "title": "BungouStrayDogs_956522",
    "link_img": "https://live.staticflickr.com/65535/47910628651_1a31ee8668_o.jpg",
    "id_image": "BungouStrayDogs_956522",
    "count_view": 0
  },
  {
    "link_thumb": "https://live.staticflickr.com/65535/47121277674_7178d77f46_n.jpg",
    "id_album": "618109644",
    "description": "BungouStrayDogs_956524,[isBoyAnime],[isSadAnime],[isSadAnimeBoy],[Bungou Stray Dogs],[BungouStrayDogs]",
    "title": "BungouStrayDogs_956524",
    "link_img": "https://live.staticflickr.com/65535/47121277674_4ed0e76d32_o.jpg",
    "id_image": "BungouStrayDogs_956524",
    "count_view": 0
  },
  {
    "link_thumb": "https://live.staticflickr.com/65535/47121278854_6c7cef67d0_n.jpg",
    "id_album": "618109644",
    "description": "BungouStrayDogs_956528,[isGirlAnime],[isSadAnime],[isSadAnimeGirl],[isCuteAnime],[isGirlsHatsHoodieAnime],[isGirlsLoliAnime],[isBlackAnime],[Bungou Stray Dogs],[BungouStrayDogs]",
    "title": "BungouStrayDogs_956528",
    "link_img": "https://live.staticflickr.com/65535/47121278854_74e12765f0_o.jpg",
    "id_image": "BungouStrayDogs_956528",
    "count_view": 0
  },
  {
    "link_thumb": "https://live.staticflickr.com/65535/40944022473_a8ebe71bdf_n.jpg",
    "id_album": "618109644",
    "description": "BungouStrayDogs_958264,[isBoyAnime],[isBlackAnime],[Bungou Stray Dogs],[BungouStrayDogs]",
    "title": "BungouStrayDogs_958264",
    "link_img": "https://live.staticflickr.com/65535/40944022473_ac2e8b11e6_o.jpg",
    "id_image": "BungouStrayDogs_958264",
    "count_view": 0
  },
  {
    "link_thumb": "https://live.staticflickr.com/65535/47910631531_38978e7e6c_n.jpg",
    "id_album": "618109644",
    "description": "BungouStrayDogs_958267,[isBoyAnime],[isSadAnime],[isSadAnimeBoy],[isBlackAnime],[Bungou Stray Dogs],[BungouStrayDogs]",
    "title": "BungouStrayDogs_958267",
    "link_img": "https://live.staticflickr.com/65535/47910631531_5c647eebf3_o.jpg",
    "id_image": "BungouStrayDogs_958267",
    "count_view": 0
  },
  {
    "link_thumb": "https://live.staticflickr.com/65535/40944024233_e7e309b498_n.jpg",
    "id_album": "618109644",
    "description": "BungouStrayDogs_965355,[isBoyAnime],[isSadAnime],[isSadAnimeBoy],[Bungou Stray Dogs],[BungouStrayDogs]",
    "title": "BungouStrayDogs_965355",
    "link_img": "https://live.staticflickr.com/65535/40944024233_f6c88098c1_o.jpg",
    "id_image": "BungouStrayDogs_965355",
    "count_view": 0
  },
  {
    "link_thumb": "https://live.staticflickr.com/65535/47858611532_9253c9b29d_n.jpg",
    "id_album": "618109644",
    "description": "BungouStrayDogs_965359,[isGirlAnime],[isBoyAnime],[isSadAnime],[isSadAnimeBoy],[Bungou Stray Dogs],[BungouStrayDogs]",
    "title": "BungouStrayDogs_965359",
    "link_img": "https://live.staticflickr.com/65535/47858611532_1e25eea7b4_o.jpg",
    "id_image": "BungouStrayDogs_965359",
    "count_view": 0
  },
  {
    "link_thumb": "https://live.staticflickr.com/65535/46994652035_d2fedf22fd_n.jpg",
    "id_album": "618109644",
    "description": "BungouStrayDogs_965360,[isBoyAnime],[isSadAnime],[isSadAnimeBoy],[Bungou Stray Dogs],[BungouStrayDogs]",
    "title": "BungouStrayDogs_965360",
    "link_img": "https://live.staticflickr.com/65535/46994652035_da3bdfef5b_o.jpg",
    "id_image": "BungouStrayDogs_965360",
    "count_view": 0
  },
  {
    "link_thumb": "https://live.staticflickr.com/65535/47858613922_314b0635e9_n.jpg",
    "id_album": "618109644",
    "description": "BungouStrayDogs_965362,[isGirlAnime],[isBoyAnime],[Bungou Stray Dogs],[BungouStrayDogs]",
    "title": "BungouStrayDogs_965362",
    "link_img": "https://live.staticflickr.com/65535/47858613922_b2978e220f_o.jpg",
    "id_image": "BungouStrayDogs_965362",
    "count_view": 0
  },
  {
    "link_thumb": "https://live.staticflickr.com/65535/40944027733_2ee5321f78_n.jpg",
    "id_album": "618109644",
    "description": "BungouStrayDogs_965363,[isBoyAnime],[isSadAnime],[isSadAnimeBoy],[Bungou Stray Dogs],[BungouStrayDogs]",
    "title": "BungouStrayDogs_965363",
    "link_img": "https://live.staticflickr.com/65535/40944027733_7cfecfeabd_o.jpg",
    "id_image": "BungouStrayDogs_965363",
    "count_view": 0
  },
  {
    "link_thumb": "https://live.staticflickr.com/65535/47910637401_bf201fe1c7_n.jpg",
    "id_album": "618109644",
    "description": "BungouStrayDogs_965364,[isBoyAnime],[isSadAnime],[isSadAnimeBoy],[Bungou Stray Dogs],[BungouStrayDogs]",
    "title": "BungouStrayDogs_965364",
    "link_img": "https://live.staticflickr.com/65535/47910637401_27ed8b9c2a_o.jpg",
    "id_image": "BungouStrayDogs_965364",
    "count_view": 0
  },
  {
    "link_thumb": "https://live.staticflickr.com/65535/46994653115_da8b2761ae_n.jpg",
    "id_album": "618109644",
    "description": "BungouStrayDogs_965365,[isBoyAnime],[isSadAnime],[isSadAnimeBoy],[Bungou Stray Dogs],[BungouStrayDogs]",
    "title": "BungouStrayDogs_965365",
    "link_img": "https://live.staticflickr.com/65535/46994653115_69d2967388_o.jpg",
    "id_image": "BungouStrayDogs_965365",
    "count_view": 0
  },
  {
    "link_thumb": "https://live.staticflickr.com/65535/47858617682_6e33f52886_n.jpg",
    "id_album": "618109644",
    "description": "BungouStrayDogs_965366,[isBoyAnime],[isSadAnime],[isSadAnimeBoy],[Bungou Stray Dogs],[BungouStrayDogs]",
    "title": "BungouStrayDogs_965366",
    "link_img": "https://live.staticflickr.com/65535/47858617682_80bebb41f7_o.jpg",
    "id_image": "BungouStrayDogs_965366",
    "count_view": 0
  },
  {
    "link_thumb": "https://live.staticflickr.com/65535/47910639561_edf9141cdf_n.jpg",
    "id_album": "618109644",
    "description": "BungouStrayDogs_965367,[isGirlAnime],[isBoyAnime],[isSadAnime],[isSadAnimeBoy],[Bungou Stray Dogs],[BungouStrayDogs]",
    "title": "BungouStrayDogs_965367",
    "link_img": "https://live.staticflickr.com/65535/47910639561_b8a5096f85_o.jpg",
    "id_image": "BungouStrayDogs_965367",
    "count_view": 0
  },
  {
    "link_thumb": "https://live.staticflickr.com/65535/47858618962_8523849d92_n.jpg",
    "id_album": "618109644",
    "description": "BungouStrayDogs_965368,[isBoyAnime],[Bungou Stray Dogs],[BungouStrayDogs]",
    "title": "BungouStrayDogs_965368",
    "link_img": "https://live.staticflickr.com/65535/47858618962_8dfa8b3278_o.jpg",
    "id_image": "BungouStrayDogs_965368",
    "count_view": 0
  },
  {
    "link_thumb": "https://live.staticflickr.com/65535/40944030453_7aeac03dcf_n.jpg",
    "id_album": "618109644",
    "description": "BungouStrayDogs_965369,[isBoyAnime],[isSadAnime],[isSadAnimeBoy],[Bungou Stray Dogs],[BungouStrayDogs]",
    "title": "BungouStrayDogs_965369",
    "link_img": "https://live.staticflickr.com/65535/40944030453_8cec466550_o.jpg",
    "id_image": "BungouStrayDogs_965369",
    "count_view": 0
  },
  {
    "link_thumb": "https://live.staticflickr.com/65535/47121287534_32a3a0d148_n.jpg",
    "id_album": "618109644",
    "description": "BungouStrayDogs_965370,[isBoyAnime],[isSadAnime],[isSadAnimeBoy],[Bungou Stray Dogs],[BungouStrayDogs]",
    "title": "BungouStrayDogs_965370",
    "link_img": "https://live.staticflickr.com/65535/47121287534_2b85ec5166_o.jpg",
    "id_image": "BungouStrayDogs_965370",
    "count_view": 0
  },
  {
    "link_thumb": "https://live.staticflickr.com/65535/47910642581_673c8fd886_n.jpg",
    "id_album": "618109644",
    "description": "BungouStrayDogs_965371,[isBoyAnime],[isSadAnime],[isSadAnimeBoy],[Bungou Stray Dogs],[BungouStrayDogs]",
    "title": "BungouStrayDogs_965371",
    "link_img": "https://live.staticflickr.com/65535/47910642581_b2da86c8e9_o.jpg",
    "id_image": "BungouStrayDogs_965371",
    "count_view": 0
  },
  {
    "link_thumb": "https://live.staticflickr.com/65535/47910643101_59cda06ed1_n.jpg",
    "id_album": "618109644",
    "description": "BungouStrayDogs_965372,[isBoyAnime],[isSadAnime],[isSadAnimeBoy],[Bungou Stray Dogs],[BungouStrayDogs]",
    "title": "BungouStrayDogs_965372",
    "link_img": "https://live.staticflickr.com/65535/47910643101_85aac960ef_o.jpg",
    "id_image": "BungouStrayDogs_965372",
    "count_view": 0
  },
  {
    "link_thumb": "https://live.staticflickr.com/65535/40944033443_e894f4cb7d_n.jpg",
    "id_album": "618109644",
    "description": "BungouStrayDogs_965374,[isBoyAnime],[isSadAnime],[isSadAnimeBoy],[Bungou Stray Dogs],[BungouStrayDogs]",
    "title": "BungouStrayDogs_965374",
    "link_img": "https://live.staticflickr.com/65535/40944033443_2fa32283fd_o.jpg",
    "id_image": "BungouStrayDogs_965374",
    "count_view": 0
  },
  {
    "link_thumb": "https://live.staticflickr.com/65535/46994657355_53c6e6f78a_n.jpg",
    "id_album": "618109644",
    "description": "BungouStrayDogs_965375,[isBoyAnime],[isSadAnime],[isSadAnimeBoy],[Bungou Stray Dogs],[BungouStrayDogs]",
    "title": "BungouStrayDogs_965375",
    "link_img": "https://live.staticflickr.com/65535/46994657355_dae37c930c_o.jpg",
    "id_image": "BungouStrayDogs_965375",
    "count_view": 0
  },
  {
    "link_thumb": "https://live.staticflickr.com/65535/47910648161_7074c4155b_n.jpg",
    "id_album": "618109644",
    "description": "BungouStrayDogs_965378,[isBoyAnime],[isSadAnime],[isSadAnimeBoy],[Bungou Stray Dogs],[BungouStrayDogs]",
    "title": "BungouStrayDogs_965378",
    "link_img": "https://live.staticflickr.com/65535/47910648161_dcb971505f_o.jpg",
    "id_image": "BungouStrayDogs_965378",
    "count_view": 0
  },
  {
    "link_thumb": "https://live.staticflickr.com/65535/47858621762_a848b067ba_n.jpg",
    "id_album": "618109644",
    "description": "BungouStrayDogs_965379,[isBoyAnime],[isSadAnime],[isSadAnimeBoy],[Bungou Stray Dogs],[BungouStrayDogs]",
    "title": "BungouStrayDogs_965379",
    "link_img": "https://live.staticflickr.com/65535/47858621762_777816e690_o.jpg",
    "id_image": "BungouStrayDogs_965379",
    "count_view": 0
  },
  {
    "link_thumb": "https://live.staticflickr.com/65535/46994660445_a4d67ca0d5_n.jpg",
    "id_album": "618109644",
    "description": "BungouStrayDogs_965380,[isBoyAnime],[isSadAnime],[isSadAnimeBoy],[Bungou Stray Dogs],[BungouStrayDogs]",
    "title": "BungouStrayDogs_965380",
    "link_img": "https://live.staticflickr.com/65535/46994660445_7eaee65c12_o.jpg",
    "id_image": "BungouStrayDogs_965380",
    "count_view": 0
  },
  {
    "link_thumb": "https://live.staticflickr.com/65535/46994661035_1f8998965e_n.jpg",
    "id_album": "618109644",
    "description": "BungouStrayDogs_965381,[isBoyAnime],[isSadAnime],[isSadAnimeBoy],[Bungou Stray Dogs],[BungouStrayDogs]",
    "title": "BungouStrayDogs_965381",
    "link_img": "https://live.staticflickr.com/65535/46994661035_855a9bf468_o.jpg",
    "id_image": "BungouStrayDogs_965381",
    "count_view": 0
  },
  {
    "link_thumb": "https://live.staticflickr.com/65535/40944038213_3bc1711028_n.jpg",
    "id_album": "618109644",
    "description": "BungouStrayDogs_965382,[isBoyAnime],[isSadAnime],[isSadAnimeBoy],[Bungou Stray Dogs],[BungouStrayDogs]",
    "title": "BungouStrayDogs_965382",
    "link_img": "https://live.staticflickr.com/65535/40944038213_d8493778e8_o.jpg",
    "id_image": "BungouStrayDogs_965382",
    "count_view": 0
  },
  {
    "link_thumb": "https://live.staticflickr.com/65535/47910651741_988127e4f5_n.jpg",
    "id_album": "618109644",
    "description": "BungouStrayDogs_965383,[isBoyAnime],[isSadAnime],[isSadAnimeBoy],[Bungou Stray Dogs],[BungouStrayDogs]",
    "title": "BungouStrayDogs_965383",
    "link_img": "https://live.staticflickr.com/65535/47910651741_feae89f8dc_o.jpg",
    "id_image": "BungouStrayDogs_965383",
    "count_view": 0
  },
  {
    "link_thumb": "https://live.staticflickr.com/65535/40944039113_71667d7153_n.jpg",
    "id_album": "618109644",
    "description": "BungouStrayDogs_965384,[isBoyAnime],[isBlackAnime],[Bungou Stray Dogs],[BungouStrayDogs]",
    "title": "BungouStrayDogs_965384",
    "link_img": "https://live.staticflickr.com/65535/40944039113_bc4bafc13f_o.jpg",
    "id_image": "BungouStrayDogs_965384",
    "count_view": 0
  },
  {
    "link_thumb": "https://live.staticflickr.com/65535/47910653951_ec258478cf_n.jpg",
    "id_album": "618109644",
    "description": "BungouStrayDogs_966451,[isBoyAnime],[Bungou Stray Dogs],[BungouStrayDogs]",
    "title": "BungouStrayDogs_966451",
    "link_img": "https://live.staticflickr.com/65535/47910653951_b6982de0b9_o.jpg",
    "id_image": "BungouStrayDogs_966451",
    "count_view": 0
  },
  {
    "link_thumb": "https://live.staticflickr.com/65535/47910654571_9cf0391321_n.jpg",
    "id_album": "618109644",
    "description": "BungouStrayDogs_966452,[isBoyAnime],[isSadAnime],[isSadAnimeBoy],[Bungou Stray Dogs],[BungouStrayDogs]",
    "title": "BungouStrayDogs_966452",
    "link_img": "https://live.staticflickr.com/65535/47910654571_94661d7992_o.jpg",
    "id_image": "BungouStrayDogs_966452",
    "count_view": 0
  },
  {
    "link_thumb": "https://live.staticflickr.com/65535/47910656701_c056692476_n.jpg",
    "id_album": "618109644",
    "description": "BungouStrayDogs_966457,[isBoyAnime],[isSadAnime],[isSadAnimeBoy],[Bungou Stray Dogs],[BungouStrayDogs]",
    "title": "BungouStrayDogs_966457",
    "link_img": "https://live.staticflickr.com/65535/47910656701_c2fd22596e_o.jpg",
    "id_image": "BungouStrayDogs_966457",
    "count_view": 0
  },
  {
    "link_thumb": "https://live.staticflickr.com/65535/47910657281_3cd36b863f_n.jpg",
    "id_album": "618109644",
    "description": "BungouStrayDogs_966458,[isBoyAnime],[isSadAnime],[isSadAnimeBoy],[Bungou Stray Dogs],[BungouStrayDogs]",
    "title": "BungouStrayDogs_966458",
    "link_img": "https://live.staticflickr.com/65535/47910657281_7565b1e2bc_o.jpg",
    "id_image": "BungouStrayDogs_966458",
    "count_view": 0
  },
  {
    "link_thumb": "https://live.staticflickr.com/65535/47910657831_04082a24ed_n.jpg",
    "id_album": "618109644",
    "description": "BungouStrayDogs_966460,[isBoyAnime],[isSadAnime],[isSadAnimeBoy],[Bungou Stray Dogs],[BungouStrayDogs]",
    "title": "BungouStrayDogs_966460",
    "link_img": "https://live.staticflickr.com/65535/47910657831_62f112cd9a_o.jpg",
    "id_image": "BungouStrayDogs_966460",
    "count_view": 0
  },
  {
    "link_thumb": "https://live.staticflickr.com/65535/47910658431_6c70a851f0_n.jpg",
    "id_album": "618109644",
    "description": "BungouStrayDogs_966461,[isBoyAnime],[isSadAnime],[isSadAnimeBoy],[Bungou Stray Dogs],[BungouStrayDogs]",
    "title": "BungouStrayDogs_966461",
    "link_img": "https://live.staticflickr.com/65535/47910658431_bb59370e3d_o.jpg",
    "id_image": "BungouStrayDogs_966461",
    "count_view": 0
  },
  {
    "link_thumb": "https://live.staticflickr.com/65535/47121298034_4b04f0539c_n.jpg",
    "id_album": "618109644",
    "description": "BungouStrayDogs_966462,[isBoyAnime],[isSadAnime],[isSadAnimeBoy],[Bungou Stray Dogs],[BungouStrayDogs]",
    "title": "BungouStrayDogs_966462",
    "link_img": "https://live.staticflickr.com/65535/47121298034_066bfb0413_o.jpg",
    "id_image": "BungouStrayDogs_966462",
    "count_view": 0
  },
  {
    "link_thumb": "https://live.staticflickr.com/65535/47121298414_c61a3e781b_n.jpg",
    "id_album": "618109644",
    "description": "BungouStrayDogs_966463,[isBoyAnime],[isSadAnime],[isSadAnimeBoy],[Bungou Stray Dogs],[BungouStrayDogs]",
    "title": "BungouStrayDogs_966463",
    "link_img": "https://live.staticflickr.com/65535/47121298414_56f3b79c0c_o.jpg",
    "id_image": "BungouStrayDogs_966463",
    "count_view": 0
  },
  {
    "link_thumb": "https://live.staticflickr.com/65535/47858631482_ea3697f688_n.jpg",
    "id_album": "618109644",
    "description": "BungouStrayDogs_966486,[isBoyAnime],[isSadAnime],[isSadAnimeBoy],[Bungou Stray Dogs],[BungouStrayDogs]",
    "title": "BungouStrayDogs_966486",
    "link_img": "https://live.staticflickr.com/65535/47858631482_fbc723d617_o.jpg",
    "id_image": "BungouStrayDogs_966486",
    "count_view": 0
  },
  {
    "link_thumb": "https://live.staticflickr.com/65535/47121301104_c2b051f75a_n.jpg",
    "id_album": "618109644",
    "description": "BungouStrayDogs_966488,[isBoyAnime],[Bungou Stray Dogs],[BungouStrayDogs]",
    "title": "BungouStrayDogs_966488",
    "link_img": "https://live.staticflickr.com/65535/47121301104_f438ca7ea9_o.jpg",
    "id_image": "BungouStrayDogs_966488",
    "count_view": 0
  },
  {
    "link_thumb": "https://live.staticflickr.com/65535/47858633372_79bd8e2936_n.jpg",
    "id_album": "618109644",
    "description": "BungouStrayDogs_966489,[isBoyAnime],[isSadAnime],[isSadAnimeBoy],[Bungou Stray Dogs],[BungouStrayDogs]",
    "title": "BungouStrayDogs_966489",
    "link_img": "https://live.staticflickr.com/65535/47858633372_28d9564670_o.jpg",
    "id_image": "BungouStrayDogs_966489",
    "count_view": 0
  },
  {
    "link_thumb": "https://live.staticflickr.com/65535/46994670925_545d1f3727_n.jpg",
    "id_album": "618109644",
    "description": "BungouStrayDogs_966490,[isBoyAnime],[isSadAnime],[isSadAnimeBoy],[Bungou Stray Dogs],[BungouStrayDogs]",
    "title": "BungouStrayDogs_966490",
    "link_img": "https://live.staticflickr.com/65535/46994670925_28837012f0_o.jpg",
    "id_image": "BungouStrayDogs_966490",
    "count_view": 0
  },
  {
    "link_thumb": "https://live.staticflickr.com/65535/40944049103_2e9e1b53d0_n.jpg",
    "id_album": "618109644",
    "description": "BungouStrayDogs_966492,[isBoyAnime],[isSadAnime],[isSadAnimeBoy],[Bungou Stray Dogs],[BungouStrayDogs]",
    "title": "BungouStrayDogs_966492",
    "link_img": "https://live.staticflickr.com/65535/40944049103_e98a818fdc_o.jpg",
    "id_image": "BungouStrayDogs_966492",
    "count_view": 0
  },
  {
    "link_thumb": "https://live.staticflickr.com/65535/47910663411_7845a74607_n.jpg",
    "id_album": "618109644",
    "description": "BungouStrayDogs_966495,[isBoyAnime],[Bungou Stray Dogs],[BungouStrayDogs]",
    "title": "BungouStrayDogs_966495",
    "link_img": "https://live.staticflickr.com/65535/47910663411_78d891e25f_o.jpg",
    "id_image": "BungouStrayDogs_966495",
    "count_view": 0
  },
  {
    "link_thumb": "https://live.staticflickr.com/65535/47121306354_563360d5cb_n.jpg",
    "id_album": "618109644",
    "description": "BungouStrayDogs_966496,[isBoyAnime],[isSadAnime],[isSadAnimeBoy],[Bungou Stray Dogs],[BungouStrayDogs]",
    "title": "BungouStrayDogs_966496",
    "link_img": "https://live.staticflickr.com/65535/47121306354_749a56f320_o.jpg",
    "id_image": "BungouStrayDogs_966496",
    "count_view": 0
  },
  {
    "link_thumb": "https://live.staticflickr.com/65535/46994674885_fec4143090_n.jpg",
    "id_album": "618109644",
    "description": "BungouStrayDogs_966498,[isBoyAnime],[isSadAnime],[isSadAnimeBoy],[Bungou Stray Dogs],[BungouStrayDogs]",
    "title": "BungouStrayDogs_966498",
    "link_img": "https://live.staticflickr.com/65535/46994674885_83227e82ca_o.jpg",
    "id_image": "BungouStrayDogs_966498",
    "count_view": 0
  },
  {
    "link_thumb": "https://live.staticflickr.com/65535/47910666091_e2de590a6a_n.jpg",
    "id_album": "618109644",
    "description": "BungouStrayDogs_966499,[isBoyAnime],[isSadAnime],[isSadAnimeBoy],[Bungou Stray Dogs],[BungouStrayDogs]",
    "title": "BungouStrayDogs_966499",
    "link_img": "https://live.staticflickr.com/65535/47910666091_c1437fd848_o.jpg",
    "id_image": "BungouStrayDogs_966499",
    "count_view": 0
  },
  {
    "link_thumb": "https://live.staticflickr.com/65535/47121309914_4ba532d8a4_n.jpg",
    "id_album": "618109644",
    "description": "BungouStrayDogs_966500,[isBoyAnime],[isSadAnime],[isSadAnimeBoy],[Bungou Stray Dogs],[BungouStrayDogs]",
    "title": "BungouStrayDogs_966500",
    "link_img": "https://live.staticflickr.com/65535/47121309914_da2b030c0f_o.jpg",
    "id_image": "BungouStrayDogs_966500",
    "count_view": 0
  },
  {
    "link_thumb": "https://live.staticflickr.com/65535/40944054433_8f9c9b8059_n.jpg",
    "id_album": "618109644",
    "description": "BungouStrayDogs_966503,[isBoyAnime],[isSadAnime],[isSadAnimeBoy],[Bungou Stray Dogs],[BungouStrayDogs]",
    "title": "BungouStrayDogs_966503",
    "link_img": "https://live.staticflickr.com/65535/40944054433_70665a54f7_o.jpg",
    "id_image": "BungouStrayDogs_966503",
    "count_view": 0
  },
  {
    "link_thumb": "https://live.staticflickr.com/65535/46994679095_bfa90ee4f7_n.jpg",
    "id_album": "618109644",
    "description": "BungouStrayDogs_966504,[isBoyAnime],[isSadAnime],[isSadAnimeBoy],[Bungou Stray Dogs],[BungouStrayDogs]",
    "title": "BungouStrayDogs_966504",
    "link_img": "https://live.staticflickr.com/65535/46994679095_74721f5167_o.jpg",
    "id_image": "BungouStrayDogs_966504",
    "count_view": 0
  },
  {
    "link_thumb": "https://live.staticflickr.com/65535/47858642272_990e8a9278_n.jpg",
    "id_album": "618109644",
    "description": "BungouStrayDogs_966506,[isBoyAnime],[isSadAnime],[isSadAnimeBoy],[Bungou Stray Dogs],[BungouStrayDogs]",
    "title": "BungouStrayDogs_966506",
    "link_img": "https://live.staticflickr.com/65535/47858642272_8037204905_o.jpg",
    "id_image": "BungouStrayDogs_966506",
    "count_view": 0
  },
  {
    "link_thumb": "https://live.staticflickr.com/65535/47121315344_eef274f805_n.jpg",
    "id_album": "618109644",
    "description": "BungouStrayDogs_966507,[isBoyAnime],[isSadAnime],[isSadAnimeBoy],[Bungou Stray Dogs],[BungouStrayDogs]",
    "title": "BungouStrayDogs_966507",
    "link_img": "https://live.staticflickr.com/65535/47121315344_7a753e9d0b_o.jpg",
    "id_image": "BungouStrayDogs_966507",
    "count_view": 0
  },
  {
    "link_thumb": "https://live.staticflickr.com/65535/47858643812_980ebdaf90_n.jpg",
    "id_album": "618109644",
    "description": "BungouStrayDogs_966508,[isBoyAnime],[isSadAnime],[isSadAnimeBoy],[Bungou Stray Dogs],[BungouStrayDogs]",
    "title": "BungouStrayDogs_966508",
    "link_img": "https://live.staticflickr.com/65535/47858643812_14b79f3efe_o.jpg",
    "id_image": "BungouStrayDogs_966508",
    "count_view": 0
  },
  {
    "link_thumb": "https://live.staticflickr.com/65535/47121316804_885d331054_n.jpg",
    "id_album": "618109644",
    "description": "BungouStrayDogs_966510,[isBoyAnime],[Bungou Stray Dogs],[BungouStrayDogs]",
    "title": "BungouStrayDogs_966510",
    "link_img": "https://live.staticflickr.com/65535/47121316804_6ca8ee8c5e_o.jpg",
    "id_image": "BungouStrayDogs_966510",
    "count_view": 0
  },
  {
    "link_thumb": "https://live.staticflickr.com/65535/47858645832_23efc2f747_n.jpg",
    "id_album": "618109644",
    "description": "BungouStrayDogs_966511,[isBoyAnime],[Bungou Stray Dogs],[BungouStrayDogs]",
    "title": "BungouStrayDogs_966511",
    "link_img": "https://live.staticflickr.com/65535/47858645832_2ab9ab70db_o.jpg",
    "id_image": "BungouStrayDogs_966511",
    "count_view": 0
  },
  {
    "link_thumb": "https://live.staticflickr.com/65535/40944061753_40ab475d59_n.jpg",
    "id_album": "618109644",
    "description": "BungouStrayDogs_966512,[isBoyAnime],[isSadAnime],[isSadAnimeBoy],[Bungou Stray Dogs],[BungouStrayDogs]",
    "title": "BungouStrayDogs_966512",
    "link_img": "https://live.staticflickr.com/65535/40944061753_ae1c5a30b1_o.jpg",
    "id_image": "BungouStrayDogs_966512",
    "count_view": 0
  },
  {
    "link_thumb": "https://live.staticflickr.com/65535/47910673951_e3527cd440_n.jpg",
    "id_album": "618109644",
    "description": "BungouStrayDogs_966684,[isGirlAnime],[isBoyAnime],[Bungou Stray Dogs],[BungouStrayDogs]",
    "title": "BungouStrayDogs_966684",
    "link_img": "https://live.staticflickr.com/65535/47910673951_2b25270612_o.jpg",
    "id_image": "BungouStrayDogs_966684",
    "count_view": 0
  },
  {
    "link_thumb": "https://live.staticflickr.com/65535/47858649682_63827c7e7e_n.jpg",
    "id_album": "618109644",
    "description": "BungouStrayDogs_966685,[isBoyAnime],[Bungou Stray Dogs],[BungouStrayDogs]",
    "title": "BungouStrayDogs_966685",
    "link_img": "https://live.staticflickr.com/65535/47858649682_410621a6b2_o.jpg",
    "id_image": "BungouStrayDogs_966685",
    "count_view": 0
  },
  {
    "link_thumb": "https://live.staticflickr.com/65535/46994686505_1ebd3d37f0_n.jpg",
    "id_album": "618109644",
    "description": "BungouStrayDogs_966686,[isBoyAnime],[Bungou Stray Dogs],[BungouStrayDogs]",
    "title": "BungouStrayDogs_966686",
    "link_img": "https://live.staticflickr.com/65535/46994686505_e3508f9042_o.jpg",
    "id_image": "BungouStrayDogs_966686",
    "count_view": 0
  },
  {
    "link_thumb": "https://live.staticflickr.com/65535/46994686965_86e0093c22_n.jpg",
    "id_album": "618109644",
    "description": "BungouStrayDogs_966687,[isBoyAnime],[Bungou Stray Dogs],[BungouStrayDogs]",
    "title": "BungouStrayDogs_966687",
    "link_img": "https://live.staticflickr.com/65535/46994686965_8502ebb0b6_o.jpg",
    "id_image": "BungouStrayDogs_966687",
    "count_view": 0
  },
  {
    "link_thumb": "https://live.staticflickr.com/65535/40944070183_ff1520c792_n.jpg",
    "id_album": "618109644",
    "description": "BungouStrayDogs_966688,[isBoyAnime],[Bungou Stray Dogs],[BungouStrayDogs]",
    "title": "BungouStrayDogs_966688",
    "link_img": "https://live.staticflickr.com/65535/40944070183_b2303d0698_o.jpg",
    "id_image": "BungouStrayDogs_966688",
    "count_view": 0
  },
  {
    "link_thumb": "https://live.staticflickr.com/65535/47858654122_fe00dae698_n.jpg",
    "id_album": "618109644",
    "description": "BungouStrayDogs_966692,[isBoyAnime],[isSadAnime],[isSadAnimeBoy],[Bungou Stray Dogs],[BungouStrayDogs]",
    "title": "BungouStrayDogs_966692",
    "link_img": "https://live.staticflickr.com/65535/47858654122_b4b7ec1e21_o.jpg",
    "id_image": "BungouStrayDogs_966692",
    "count_view": 0
  },
  {
    "link_thumb": "https://live.staticflickr.com/65535/47910679521_da85fb5ae7_n.jpg",
    "id_album": "618109644",
    "description": "BungouStrayDogs_966938,[isBoyAnime],[Bungou Stray Dogs],[BungouStrayDogs]",
    "title": "BungouStrayDogs_966938",
    "link_img": "https://live.staticflickr.com/65535/47910679521_46846a14b8_o.jpg",
    "id_image": "BungouStrayDogs_966938",
    "count_view": 0
  },
  {
    "link_thumb": "https://live.staticflickr.com/65535/40944078763_ccf8263e9d_n.jpg",
    "id_album": "618109644",
    "description": "BungouStrayDogs_966939,[isBoyAnime],[Bungou Stray Dogs],[BungouStrayDogs]",
    "title": "BungouStrayDogs_966939",
    "link_img": "https://live.staticflickr.com/65535/40944078763_a3132ce2b1_o.jpg",
    "id_image": "BungouStrayDogs_966939",
    "count_view": 0
  },
  {
    "link_thumb": "https://live.staticflickr.com/65535/46994692985_d7a24f805b_n.jpg",
    "id_album": "618109644",
    "description": "BungouStrayDogs_966941,[isBoyAnime],[Bungou Stray Dogs],[BungouStrayDogs]",
    "title": "BungouStrayDogs_966941",
    "link_img": "https://live.staticflickr.com/65535/46994692985_ca06616634_o.jpg",
    "id_image": "BungouStrayDogs_966941",
    "count_view": 0
  },
  {
    "link_thumb": "https://live.staticflickr.com/65535/47910682121_497b6e55e4_n.jpg",
    "id_album": "618109644",
    "description": "BungouStrayDogs_966942,[isBoyAnime],[isSadAnime],[isSadAnimeBoy],[Bungou Stray Dogs],[BungouStrayDogs]",
    "title": "BungouStrayDogs_966942",
    "link_img": "https://live.staticflickr.com/65535/47910682121_92153a2a21_o.jpg",
    "id_image": "BungouStrayDogs_966942",
    "count_view": 0
  },
  {
    "link_thumb": "https://live.staticflickr.com/65535/47121329514_6fb5c01b14_n.jpg",
    "id_album": "618109644",
    "description": "BungouStrayDogs_966943,[isBoyAnime],[Bungou Stray Dogs],[BungouStrayDogs]",
    "title": "BungouStrayDogs_966943",
    "link_img": "https://live.staticflickr.com/65535/47121329514_ae99c4746e_o.jpg",
    "id_image": "BungouStrayDogs_966943",
    "count_view": 0
  },
  {
    "link_thumb": "https://live.staticflickr.com/65535/47910685661_e39f1622a2_n.jpg",
    "id_album": "618109644",
    "description": "BungouStrayDogs_966947,[isBoyAnime],[isSadAnime],[isSadAnimeBoy],[Bungou Stray Dogs],[BungouStrayDogs]",
    "title": "BungouStrayDogs_966947",
    "link_img": "https://live.staticflickr.com/65535/47910685661_9da336743d_o.jpg",
    "id_image": "BungouStrayDogs_966947",
    "count_view": 0
  },
  {
    "link_thumb": "https://live.staticflickr.com/65535/46994699645_11bdf7633b_n.jpg",
    "id_album": "618109644",
    "description": "BungouStrayDogs_966948,[isBoyAnime],[Bungou Stray Dogs],[BungouStrayDogs]",
    "title": "BungouStrayDogs_966948",
    "link_img": "https://live.staticflickr.com/65535/46994699645_f2635723b3_o.jpg",
    "id_image": "BungouStrayDogs_966948",
    "count_view": 0
  },
  {
    "link_thumb": "https://live.staticflickr.com/65535/47858662952_2091268046_n.jpg",
    "id_album": "618109644",
    "description": "BungouStrayDogs_966949,[isBoyAnime],[Bungou Stray Dogs],[BungouStrayDogs]",
    "title": "BungouStrayDogs_966949",
    "link_img": "https://live.staticflickr.com/65535/47858662952_46cd2b6c91_o.jpg",
    "id_image": "BungouStrayDogs_966949",
    "count_view": 0
  },
  {
    "link_thumb": "https://live.staticflickr.com/65535/47910687921_1e91166423_n.jpg",
    "id_album": "618109644",
    "description": "BungouStrayDogs_966950,[isBoyAnime],[isSadAnime],[isSadAnimeBoy],[Bungou Stray Dogs],[BungouStrayDogs]",
    "title": "BungouStrayDogs_966950",
    "link_img": "https://live.staticflickr.com/65535/47910687921_49c35f6582_o.jpg",
    "id_image": "BungouStrayDogs_966950",
    "count_view": 0
  },
  {
    "link_thumb": "https://live.staticflickr.com/65535/46994703505_f2d71a76f4_n.jpg",
    "id_album": "618109644",
    "description": "BungouStrayDogs_966952,[isBoyAnime],[isSadAnime],[isSadAnimeBoy],[Bungou Stray Dogs],[BungouStrayDogs]",
    "title": "BungouStrayDogs_966952",
    "link_img": "https://live.staticflickr.com/65535/46994703505_67ff31e1e3_o.jpg",
    "id_image": "BungouStrayDogs_966952",
    "count_view": 0
  },
  {
    "link_thumb": "https://live.staticflickr.com/65535/47121339394_2e8ffb30a6_n.jpg",
    "id_album": "618109644",
    "description": "BungouStrayDogs_966953,[isBoyAnime],[isBlackAnime],[Bungou Stray Dogs],[BungouStrayDogs]",
    "title": "BungouStrayDogs_966953",
    "link_img": "https://live.staticflickr.com/65535/47121339394_025931f72a_o.jpg",
    "id_image": "BungouStrayDogs_966953",
    "count_view": 0
  },
  {
    "link_thumb": "https://live.staticflickr.com/65535/46994705595_ff51c7dcf0_n.jpg",
    "id_album": "618109644",
    "description": "BungouStrayDogs_966955,[isBoyAnime],[Bungou Stray Dogs],[BungouStrayDogs]",
    "title": "BungouStrayDogs_966955",
    "link_img": "https://live.staticflickr.com/65535/46994705595_ec6d49ac43_o.jpg",
    "id_image": "BungouStrayDogs_966955",
    "count_view": 0
  },
  {
    "link_thumb": "https://live.staticflickr.com/65535/47121342284_d7fb736876_n.jpg",
    "id_album": "618109644",
    "description": "BungouStrayDogs_966957,[isBoyAnime],[isSadAnime],[isSadAnimeBoy],[Bungou Stray Dogs],[BungouStrayDogs]",
    "title": "BungouStrayDogs_966957",
    "link_img": "https://live.staticflickr.com/65535/47121342284_3b2f4b785c_o.jpg",
    "id_image": "BungouStrayDogs_966957",
    "count_view": 0
  },
  {
    "link_thumb": "https://live.staticflickr.com/65535/40944092643_3e1c832083_n.jpg",
    "id_album": "618109644",
    "description": "BungouStrayDogs_966962,[isBoyAnime],[isSadAnime],[isSadAnimeBoy],[Bungou Stray Dogs],[BungouStrayDogs]",
    "title": "BungouStrayDogs_966962",
    "link_img": "https://live.staticflickr.com/65535/40944092643_122c231310_o.jpg",
    "id_image": "BungouStrayDogs_966962",
    "count_view": 0
  },
  {
    "link_thumb": "https://live.staticflickr.com/65535/40944095653_9a68831e7e_n.jpg",
    "id_album": "618109644",
    "description": "BungouStrayDogs_966963,[isBoyAnime],[isSadAnime],[isSadAnimeBoy],[Bungou Stray Dogs],[BungouStrayDogs]",
    "title": "BungouStrayDogs_966963",
    "link_img": "https://live.staticflickr.com/65535/40944095653_502d5f34f2_o.jpg",
    "id_image": "BungouStrayDogs_966963",
    "count_view": 0
  },
  {
    "link_thumb": "https://live.staticflickr.com/65535/47121356174_4d2b9abc18_n.jpg",
    "id_album": "618109644",
    "description": "BungouStrayDogs_966964,[isBoyAnime],[isSadAnime],[isSadAnimeBoy],[isBlackAnime],[Bungou Stray Dogs],[BungouStrayDogs]",
    "title": "BungouStrayDogs_966964",
    "link_img": "https://live.staticflickr.com/65535/47121356174_dc4fc9db71_o.jpg",
    "id_image": "BungouStrayDogs_966964",
    "count_view": 0
  },
  {
    "link_thumb": "https://live.staticflickr.com/65535/47121359704_9a502b7372_n.jpg",
    "id_album": "618109644",
    "description": "BungouStrayDogs_966971,[isBoyAnime],[isSadAnime],[isSadAnimeBoy],[Bungou Stray Dogs],[BungouStrayDogs]",
    "title": "BungouStrayDogs_966971",
    "link_img": "https://live.staticflickr.com/65535/47121359704_854546ba2f_o.jpg",
    "id_image": "BungouStrayDogs_966971",
    "count_view": 0
  },
  {
    "link_thumb": "https://live.staticflickr.com/65535/40944098473_a1d2512054_n.jpg",
    "id_album": "618109644",
    "description": "BungouStrayDogs_966972,[isBoyAnime],[Bungou Stray Dogs],[BungouStrayDogs]",
    "title": "BungouStrayDogs_966972",
    "link_img": "https://live.staticflickr.com/65535/40944098473_ac1f2b49dc_o.jpg",
    "id_image": "BungouStrayDogs_966972",
    "count_view": 0
  },
  {
    "link_thumb": "https://live.staticflickr.com/65535/47858691202_91aba95432_n.jpg",
    "id_album": "618109644",
    "description": "BungouStrayDogs_966974,[isBoyAnime],[isSadAnime],[isSadAnimeBoy],[Bungou Stray Dogs],[BungouStrayDogs]",
    "title": "BungouStrayDogs_966974",
    "link_img": "https://live.staticflickr.com/65535/47858691202_8022c42b84_o.jpg",
    "id_image": "BungouStrayDogs_966974",
    "count_view": 0
  },
  {
    "link_thumb": "https://live.staticflickr.com/65535/46994727865_7b35b9c720_n.jpg",
    "id_album": "618109644",
    "description": "BungouStrayDogs_966977,[isGirlAnime],[isSadAnime],[isSadAnimeGirl],[isCuteAnime],[isGirlsLoliAnime],[isKimonoAnime],[Bungou Stray Dogs],[BungouStrayDogs]",
    "title": "BungouStrayDogs_966977",
    "link_img": "https://live.staticflickr.com/65535/46994727865_5b0ecf68f0_o.jpg",
    "id_image": "BungouStrayDogs_966977",
    "count_view": 0
  },
  {
    "link_thumb": "https://live.staticflickr.com/65535/47121366774_fd6ec7e391_n.jpg",
    "id_album": "618109644",
    "description": "BungouStrayDogs_966979,[isGirlAnime],[isCuteAnime],[isGirlsLoliAnime],[Bungou Stray Dogs],[BungouStrayDogs]",
    "title": "BungouStrayDogs_966979",
    "link_img": "https://live.staticflickr.com/65535/47121366774_8a58773690_o.jpg",
    "id_image": "BungouStrayDogs_966979",
    "count_view": 0
  },
  {
    "link_thumb": "https://live.staticflickr.com/65535/47858694932_12229ca90a_n.jpg",
    "id_album": "618109644",
    "description": "BungouStrayDogs_966984,[isBoyAnime],[Bungou Stray Dogs],[BungouStrayDogs]",
    "title": "BungouStrayDogs_966984",
    "link_img": "https://live.staticflickr.com/65535/47858694932_14bf6abc2c_o.jpg",
    "id_image": "BungouStrayDogs_966984",
    "count_view": 0
  },
  {
    "link_thumb": "https://live.staticflickr.com/65535/47121376374_f3d08eafc7_n.jpg",
    "id_album": "618109644",
    "description": "BungouStrayDogs_966992,[isBoyAnime],[isSadAnime],[isSadAnimeBoy],[Bungou Stray Dogs],[BungouStrayDogs]",
    "title": "BungouStrayDogs_966992",
    "link_img": "https://live.staticflickr.com/65535/47121376374_2e99c1635d_o.jpg",
    "id_image": "BungouStrayDogs_966992",
    "count_view": 0
  },
  {
    "link_thumb": "https://live.staticflickr.com/65535/40944106343_9537075179_n.jpg",
    "id_album": "618109644",
    "description": "BungouStrayDogs_966993,[isBoyAnime],[Bungou Stray Dogs],[BungouStrayDogs]",
    "title": "BungouStrayDogs_966993",
    "link_img": "https://live.staticflickr.com/65535/40944106343_ce6fbcf5c3_o.jpg",
    "id_image": "BungouStrayDogs_966993",
    "count_view": 0
  },
  {
    "link_thumb": "https://live.staticflickr.com/65535/47121378034_c94d905061_n.jpg",
    "id_album": "618109644",
    "description": "BungouStrayDogs_966994,[isBoyAnime],[isSadAnime],[isSadAnimeBoy],[Bungou Stray Dogs],[BungouStrayDogs]",
    "title": "BungouStrayDogs_966994",
    "link_img": "https://live.staticflickr.com/65535/47121378034_0c3b675170_o.jpg",
    "id_image": "BungouStrayDogs_966994",
    "count_view": 0
  },
  {
    "link_thumb": "https://live.staticflickr.com/65535/47858699832_d05a2aea74_n.jpg",
    "id_album": "618109644",
    "description": "BungouStrayDogs_966995,[isBoyAnime],[isSadAnime],[isSadAnimeBoy],[Bungou Stray Dogs],[BungouStrayDogs]",
    "title": "BungouStrayDogs_966995",
    "link_img": "https://live.staticflickr.com/65535/47858699832_e21c95123e_o.jpg",
    "id_image": "BungouStrayDogs_966995",
    "count_view": 0
  },
  {
    "link_thumb": "https://live.staticflickr.com/65535/46994736705_d4a6338ef1_n.jpg",
    "id_album": "618109644",
    "description": "BungouStrayDogs_966997,[isGirlAnime],[isBoyAnime],[isSadAnime],[isSadAnimeGirl],[isSadAnimeBoy],[isCuteAnime],[isGirlsLoliAnime],[Bungou Stray Dogs],[BungouStrayDogs]",
    "title": "BungouStrayDogs_966997",
    "link_img": "https://live.staticflickr.com/65535/46994736705_8f9758abc3_o.jpg",
    "id_image": "BungouStrayDogs_966997",
    "count_view": 0
  },
  {
    "link_thumb": "https://live.staticflickr.com/65535/47858701982_462bce52a6_n.jpg",
    "id_album": "618109644",
    "description": "BungouStrayDogs_967000,[isBoyAnime],[isSadAnime],[isSadAnimeBoy],[Bungou Stray Dogs],[BungouStrayDogs]",
    "title": "BungouStrayDogs_967000",
    "link_img": "https://live.staticflickr.com/65535/47858701982_1c9ed1e8e6_o.jpg",
    "id_image": "BungouStrayDogs_967000",
    "count_view": 0
  },
  {
    "link_thumb": "https://live.staticflickr.com/65535/47858704432_2aba1cc367_n.jpg",
    "id_album": "618109644",
    "description": "BungouStrayDogs_973030,[isBoyAnime],[Bungou Stray Dogs],[BungouStrayDogs]",
    "title": "BungouStrayDogs_973030",
    "link_img": "https://live.staticflickr.com/65535/47858704432_427138575f_o.jpg",
    "id_image": "BungouStrayDogs_973030",
    "count_view": 0
  },
  {
    "link_thumb": "https://live.staticflickr.com/65535/46994742135_8b84a885bd_n.jpg",
    "id_album": "618109644",
    "description": "BungouStrayDogs_975079,[isBoyAnime],[isSadAnime],[isSadAnimeBoy],[Bungou Stray Dogs],[BungouStrayDogs]",
    "title": "BungouStrayDogs_975079",
    "link_img": "https://live.staticflickr.com/65535/46994742135_b34409e6c9_o.jpg",
    "id_image": "BungouStrayDogs_975079",
    "count_view": 0
  }
]