[
  {
    "total_img": 61,
    "number_page": 1,
    "title": "Boku Wa Tomodachi Ga Sukunai",
    "tag": "Sky, Yozora Mikazuki, Penguin 1 Penguindrum, Kobato Hasegawa, Sena Kashiwazaki, Kodaka Hasegawa, Blonde, Long Hair, Anime, Wings, Boku Wa Tomodachi Ga Sukunai, Star, Penguin 2 Penguindrum, Kimono, Feather, Heterochromia, Woman, Fireworks, Flower, Maria Takayama, Dress, Scarf, Brown Eyes, Brown Hair, Apron, Headband, Pink Hair, School Uniform, Maid, Rika Shiguma, Smile, Aqua Eyes, Blue Eyes, Pokemon Go, Belt, Yukimura Kusunoki, Hat, Petal, Pillow",
    "description": "Boku Wa Tomodachi Ga Sukunai",
    "link_thumb": "https://live.staticflickr.com/65535/47119893094_346379dc09_n.jpg",
    "id_album": "776875825",
    "total_view": 61
  },
  {
    "total_img": 11,
    "number_page": 1,
    "title": "Kobato Hasegawa",
    "tag": "Kobato Hasegawa,",
    "description": "Kobato Hasegawa",
    "link_thumb": "https://live.staticflickr.com/65535/40942727123_cb277c09f4_n.jpg",
    "id_album": "1668362238",
    "total_view": 11
  },
  {
    "total_img": 9,
    "number_page": 1,
    "title": "Maria Takayama",
    "tag": "Maria Takayama,",
    "description": "Maria Takayama",
    "link_thumb": "https://live.staticflickr.com/65535/46993241465_a1b988381e_n.jpg",
    "id_album": "1407441993",
    "total_view": 9
  }
]