[
  {
    "total_img": 7,
    "number_page": 1,
    "title": "Kourin No Machi Lavender No Shoujo",
    "tag": "Kamiyama Reika, Kourin No Machi Lavender No Shoujo, Kiryuu Koume, Suzuki Haruka, Nanahoshi Itsuki, Sawamura Akina, Akuragi Hikaru, Akina Sawamura, Akatsuki Setsuna, Hikaru Sakuragi, Sakuragi Hikaru, Kon Shizuru",
    "description": "Kourin No Machi Lavender No Shoujo",
    "link_thumb": "https://live.staticflickr.com/65535/48048392331_81cfdcee26_n.jpg",
    "id_album": "1134601108",
    "total_view": 7
  }
]