[
  {
    "link_thumb": "https://live.staticflickr.com/65535/48074067992_da939360d6_n.jpg",
    "id_album": "1937971401",
    "description": "OnePiece_900754",
    "title": "OnePiece_900754",
    "link_img": "https://live.staticflickr.com/65535/48074067992_90b4838299_o.jpg",
    "id_image": "OnePiece_900754",
    "count_view": 0
  },
  {
    "link_thumb": "https://live.staticflickr.com/65535/48074085522_faaea3def4_n.jpg",
    "id_album": "1937971401",
    "description": "OnePiece_932871",
    "title": "OnePiece_932871",
    "link_img": "https://live.staticflickr.com/65535/48074085522_4652cdf293_o.jpg",
    "id_image": "OnePiece_932871",
    "count_view": 0
  },
  {
    "link_thumb": "https://live.staticflickr.com/65535/48074067936_bc214bc349_n.jpg",
    "id_album": "1937971401",
    "description": "OnePiece_949549",
    "title": "OnePiece_949549",
    "link_img": "https://live.staticflickr.com/65535/48074067936_325354e06d_o.jpg",
    "id_image": "OnePiece_949549",
    "count_view": 0
  },
  {
    "link_thumb": "https://live.staticflickr.com/65535/48074166928_a740440a70_n.jpg",
    "id_album": "1937971401",
    "description": "OnePiece_965789",
    "title": "OnePiece_965789",
    "link_img": "https://live.staticflickr.com/65535/48074166928_2ef5ff3ecc_o.jpg",
    "id_image": "OnePiece_965789",
    "count_view": 0
  }
]