[
  {
    "total_img": 12,
    "number_page": 1,
    "title": "Fatekaleid liner Prisma Illya",
    "tag": "Orange Eyes, Night, Wink, Staff, Black Hair, Sitting, Weapon, Blonde, Fate Series, Long Hair, Thigh Highs, Anime, Shirt, Sword, White Hair, bow Clothing, Kimono, Short Hair, Braid, Coat, Eating, Glove, Flower, Fatekaleid liner Prisma Illya, Illyasviel Von Einzbern, Kuro von Einzbern, Saber Fate Series, Brown Hair, Irisviel Von Einzbern, Pink Eyes, Pink Hair, Smile, Yellow Eyes, Miyu Edelfelt, Skirt, Thigh Boots, Blush, Boots, Cloud, Lying Down, Hat, Rin Tohsaka, Saber Lily, Chloe von Einzbern, Sakura Blossom, Kiritsugu Emiya",
    "description": "Fatekaleid liner Prisma Illya",
    "link_thumb": "https://live.staticflickr.com/65535/47977269023_1bc268a3f9_n.jpg",
    "id_album": "776248867",
    "total_view": 12
  },
  {
    "total_img": 22,
    "number_page": 1,
    "title": "Illyasviel Von Einzbern",
    "tag": "Illyasviel Von Einzbern,",
    "description": "Illyasviel Von Einzbern",
    "link_thumb": "https://live.staticflickr.com/65535/47980110623_54cf92c6c7_n.jpg",
    "id_album": "2124445051",
    "total_view": 22
  }
]