[
  {
    "link_thumb": "https://live.staticflickr.com/65535/48066934671_dfcd9ac7ca_n.jpg",
    "id_album": "46611051",
    "description": "ZeroNoTsukaima_109299",
    "title": "ZeroNoTsukaima_109299",
    "link_img": "https://live.staticflickr.com/65535/48066934671_51d7404a8c_o.jpg",
    "id_image": "ZeroNoTsukaima_109299",
    "count_view": 0
  },
  {
    "link_thumb": "https://live.staticflickr.com/65535/48067002293_a62652f5b2_n.jpg",
    "id_album": "46611051",
    "description": "ZeroNoTsukaima_696063",
    "title": "ZeroNoTsukaima_696063",
    "link_img": "https://live.staticflickr.com/65535/48067002293_3765b15690_o.jpg",
    "id_image": "ZeroNoTsukaima_696063",
    "count_view": 0
  },
  {
    "link_thumb": "https://live.staticflickr.com/65535/48067059612_03e4d50121_n.jpg",
    "id_album": "46611051",
    "description": "ZeroNoTsukaima_848944",
    "title": "ZeroNoTsukaima_848944",
    "link_img": "https://live.staticflickr.com/65535/48067059612_de425d74bd_o.jpg",
    "id_image": "ZeroNoTsukaima_848944",
    "count_view": 0
  }
]