[
  {
    "total_img": 192,
    "number_page": 1,
    "title": "Air",
    "tag": "Sky, Shiraho air, Saika Shino, Haruko Kamio, Grass, Urban, Potato Air, Anime, Star, Kannabi no Mikoto, Uraha Air, Misuzu Kamio, Michiru Air, Hijiri Kirishima, Yaobikuni Air, Blue, Kano Kirishima, Maika Shino, Air, Yukito Kunisaki, Yoabikuni Air, Sun, Sunset, Minagi Tohno, Sora Air, Ryuya Air, Minagis Mother, Fantasy, Air Anime",
    "description": "Air",
    "link_thumb": "https://live.staticflickr.com/65535/40923861933_133532e62d_n.jpg",
    "id_album": "1391204847",
    "total_view": 192
  },
  {
    "total_img": 14,
    "number_page": 1,
    "title": "Michiru Air",
    "tag": "Michiru Air,",
    "description": "Michiru Air",
    "link_thumb": "https://live.staticflickr.com/65535/47955599722_81864637f2_n.jpg",
    "id_album": "-651596547",
    "total_view": 14
  },
  {
    "total_img": 8,
    "number_page": 1,
    "title": "Potato Air",
    "tag": "Potato Air,",
    "description": "Potato Air",
    "link_thumb": "https://live.staticflickr.com/65535/47955661798_b48dfc0333_n.jpg",
    "id_album": "2058494492",
    "total_view": 8
  }
]