[
  {
    "link_thumb": "https://live.staticflickr.com/65535/48047709333_bc797c209a_n.jpg",
    "id_album": "-382479774",
    "description": "KaranoKyokai_111631,[isGirlAnime],[isSadAnime],[isSadAnimeGirl],[Kara no Kyokai],[KaranoKyokai]",
    "title": "KaranoKyokai_111631",
    "link_img": "https://live.staticflickr.com/65535/48047709333_fc08a44a84_o.jpg",
    "id_image": "KaranoKyokai_111631",
    "count_view": 0
  },
  {
    "link_thumb": "https://live.staticflickr.com/65535/48047670156_cf43ce3e21_n.jpg",
    "id_album": "-382479774",
    "description": "KaranoKyokai_146587,[isGirlAnime],[isSadAnime],[isSadAnimeGirl],[isBlackAnime],[Kara no Kyokai],[KaranoKyokai]",
    "title": "KaranoKyokai_146587",
    "link_img": "https://live.staticflickr.com/65535/48047670156_8f3bf1401a_o.jpg",
    "id_image": "KaranoKyokai_146587",
    "count_view": 0
  },
  {
    "link_thumb": "https://live.staticflickr.com/65535/48047672541_ce53ff26fc_n.jpg",
    "id_album": "-382479774",
    "description": "KaranoKyokai_261161,[isGirlAnime],[isSadAnime],[isSadAnimeGirl],[Kara no Kyokai],[KaranoKyokai]",
    "title": "KaranoKyokai_261161",
    "link_img": "https://live.staticflickr.com/65535/48047672541_9df99269d2_o.jpg",
    "id_image": "KaranoKyokai_261161",
    "count_view": 0
  },
  {
    "link_thumb": "https://live.staticflickr.com/65535/48047676186_ac5535a872_n.jpg",
    "id_album": "-382479774",
    "description": "KaranoKyokai_688034,[isGirlAnime],[isSadAnime],[isSadAnimeGirl],[isKimonoAnime],[Kara no Kyokai],[KaranoKyokai]",
    "title": "KaranoKyokai_688034",
    "link_img": "https://live.staticflickr.com/65535/48047676186_d24af8bdb9_o.jpg",
    "id_image": "KaranoKyokai_688034",
    "count_view": 0
  },
  {
    "link_thumb": "https://live.staticflickr.com/65535/48047676356_8e0bf1db62_n.jpg",
    "id_album": "-382479774",
    "description": "KaranoKyokai_699968,[isGirlAnime],[isSadAnime],[isSadAnimeGirl],[isKimonoAnime],[Kara no Kyokai],[KaranoKyokai]",
    "title": "KaranoKyokai_699968",
    "link_img": "https://live.staticflickr.com/65535/48047676356_bcc8da3382_o.jpg",
    "id_image": "KaranoKyokai_699968",
    "count_view": 0
  },
  {
    "link_thumb": "https://live.staticflickr.com/65535/48047676511_1ce215989e_n.jpg",
    "id_album": "-382479774",
    "description": "KaranoKyokai_713040,[isGirlAnime],[isSadAnime],[isSadAnimeGirl],[isBlackAnime],[Kara no Kyokai],[KaranoKyokai]",
    "title": "KaranoKyokai_713040",
    "link_img": "https://live.staticflickr.com/65535/48047676511_4bf051f79e_o.jpg",
    "id_image": "KaranoKyokai_713040",
    "count_view": 0
  },
  {
    "link_thumb": "https://live.staticflickr.com/65535/48047676626_6f902100dd_n.jpg",
    "id_album": "-382479774",
    "description": "KaranoKyokai_713041,[isGirlAnime],[isSadAnime],[isSadAnimeGirl],[Kara no Kyokai],[KaranoKyokai]",
    "title": "KaranoKyokai_713041",
    "link_img": "https://live.staticflickr.com/65535/48047676626_9d7af2bf75_o.jpg",
    "id_image": "KaranoKyokai_713041",
    "count_view": 0
  },
  {
    "link_thumb": "https://live.staticflickr.com/65535/48047760797_6841dfa35d_n.jpg",
    "id_album": "-382479774",
    "description": "KaranoKyokai_727227,[isGirlAnime],[isSadAnime],[isSadAnimeGirl],[isKimonoAnime],[Kara no Kyokai],[KaranoKyokai]",
    "title": "KaranoKyokai_727227",
    "link_img": "https://live.staticflickr.com/65535/48047760797_c066e5686c_o.jpg",
    "id_image": "KaranoKyokai_727227",
    "count_view": 0
  },
  {
    "link_thumb": "https://live.staticflickr.com/65535/48047682011_5de84f35ae_n.jpg",
    "id_album": "-382479774",
    "description": "KaranoKyokai_747747,[isGirlAnime],[isSadAnime],[isSadAnimeGirl],[isCuteAnime],[isGirlsLoliAnime],[isKimonoAnime],[Kara no Kyokai],[KaranoKyokai]",
    "title": "KaranoKyokai_747747",
    "link_img": "https://live.staticflickr.com/65535/48047682011_91f913a4fc_o.jpg",
    "id_image": "KaranoKyokai_747747",
    "count_view": 0
  },
  {
    "link_thumb": "https://live.staticflickr.com/65535/48047682521_4020b34a91_n.jpg",
    "id_album": "-382479774",
    "description": "KaranoKyokai_747750,[isGirlAnime],[isBoyAnime],[isSadAnime],[isSadAnimeGirl],[isSadAnimeBoy],[isCoupleAnime],[isCuteAnime],[isGirlsLoliAnime],[isKimonoAnime],[Kara no Kyokai],[KaranoKyokai]",
    "title": "KaranoKyokai_747750",
    "link_img": "https://live.staticflickr.com/65535/48047682521_f643aca607_o.jpg",
    "id_image": "KaranoKyokai_747750",
    "count_view": 0
  },
  {
    "link_thumb": "https://live.staticflickr.com/65535/48047699041_d2d77cdf3e_n.jpg",
    "id_album": "-382479774",
    "description": "KaranoKyokai_747830,[isGirlAnime],[isSadAnime],[isSadAnimeGirl],[isCuteAnime],[isGirlsLoliAnime],[isKimonoAnime],[Kara no Kyokai],[KaranoKyokai]",
    "title": "KaranoKyokai_747830",
    "link_img": "https://live.staticflickr.com/65535/48047699041_18d4aa318a_o.jpg",
    "id_image": "KaranoKyokai_747830",
    "count_view": 0
  },
  {
    "link_thumb": "https://live.staticflickr.com/65535/48047700746_76428d050a_n.jpg",
    "id_album": "-382479774",
    "description": "KaranoKyokai_747838,[isGirlAnime],[isSadAnime],[isSadAnimeGirl],[isCuteAnime],[isGirlsLoliAnime],[isBlackAnime],[Kara no Kyokai],[KaranoKyokai]",
    "title": "KaranoKyokai_747838",
    "link_img": "https://live.staticflickr.com/65535/48047700746_ef22c3ae89_o.jpg",
    "id_image": "KaranoKyokai_747838",
    "count_view": 0
  },
  {
    "link_thumb": "https://live.staticflickr.com/65535/48047701461_30c16a863c_n.jpg",
    "id_album": "-382479774",
    "description": "KaranoKyokai_747841,[isGirlAnime],[isSadAnime],[isSadAnimeGirl],[isCuteAnime],[isGirlsLoliAnime],[isKimonoAnime],[Kara no Kyokai],[KaranoKyokai]",
    "title": "KaranoKyokai_747841",
    "link_img": "https://live.staticflickr.com/65535/48047701461_3c6ed18b62_o.jpg",
    "id_image": "KaranoKyokai_747841",
    "count_view": 0
  },
  {
    "link_thumb": "https://live.staticflickr.com/65535/48047785552_4c268058db_n.jpg",
    "id_album": "-382479774",
    "description": "KaranoKyokai_747847,[isGirlAnime],[isSadAnime],[isSadAnimeGirl],[isCuteAnime],[isGirlsLoliAnime],[isKimonoAnime],[Kara no Kyokai],[KaranoKyokai]",
    "title": "KaranoKyokai_747847",
    "link_img": "https://live.staticflickr.com/65535/48047785552_920aa6e3f5_o.jpg",
    "id_image": "KaranoKyokai_747847",
    "count_view": 0
  },
  {
    "link_thumb": "https://live.staticflickr.com/65535/48047703331_365e2d2768_n.jpg",
    "id_album": "-382479774",
    "description": "KaranoKyokai_752248,[isGirlAnime],[isSadAnime],[isSadAnimeGirl],[isCuteAnime],[isGirlsLoliAnime],[isKimonoAnime],[Kara no Kyokai],[KaranoKyokai]",
    "title": "KaranoKyokai_752248",
    "link_img": "https://live.staticflickr.com/65535/48047703331_c4b668922b_o.jpg",
    "id_image": "KaranoKyokai_752248",
    "count_view": 0
  },
  {
    "link_thumb": "https://live.staticflickr.com/65535/48047704301_35c933b78c_n.jpg",
    "id_album": "-382479774",
    "description": "KaranoKyokai_768926,[isGirlAnime],[isSadAnime],[isSadAnimeGirl],[isCuteAnime],[isGirlsLoliAnime],[isKimonoAnime],[Kara no Kyokai],[KaranoKyokai]",
    "title": "KaranoKyokai_768926",
    "link_img": "https://live.staticflickr.com/65535/48047704301_c6bdd018dc_o.jpg",
    "id_image": "KaranoKyokai_768926",
    "count_view": 0
  },
  {
    "link_thumb": "https://live.staticflickr.com/65535/48047706136_b1d4b40145_n.jpg",
    "id_album": "-382479774",
    "description": "KaranoKyokai_786635,[isGirlAnime],[isSadAnime],[isSadAnimeGirl],[isCuteAnime],[isGirlsLoliAnime],[isKimonoAnime],[Kara no Kyokai],[KaranoKyokai]",
    "title": "KaranoKyokai_786635",
    "link_img": "https://live.staticflickr.com/65535/48047706136_6df9dfaf7b_o.jpg",
    "id_image": "KaranoKyokai_786635",
    "count_view": 0
  },
  {
    "link_thumb": "https://live.staticflickr.com/65535/48047706381_2c4750db09_n.jpg",
    "id_album": "-382479774",
    "description": "KaranoKyokai_787367,[isGirlAnime],[isSadAnime],[isSadAnimeGirl],[isCuteAnime],[isGirlsLoliAnime],[isKimonoAnime],[Kara no Kyokai],[KaranoKyokai]",
    "title": "KaranoKyokai_787367",
    "link_img": "https://live.staticflickr.com/65535/48047706381_99748bf6a3_o.jpg",
    "id_image": "KaranoKyokai_787367",
    "count_view": 0
  },
  {
    "link_thumb": "https://live.staticflickr.com/65535/48047790317_020a3e5eee_n.jpg",
    "id_album": "-382479774",
    "description": "KaranoKyokai_789758,[isGirlAnime],[isSadAnime],[isSadAnimeGirl],[isCuteAnime],[isGirlsLoliAnime],[isKimonoAnime],[Kara no Kyokai],[KaranoKyokai]",
    "title": "KaranoKyokai_789758",
    "link_img": "https://live.staticflickr.com/65535/48047790317_83a43ab921_o.jpg",
    "id_image": "KaranoKyokai_789758",
    "count_view": 0
  },
  {
    "link_thumb": "https://live.staticflickr.com/65535/48047746798_71e889b8be_n.jpg",
    "id_album": "-382479774",
    "description": "KaranoKyokai_790090,[isGirlAnime],[isSadAnime],[isCuteAnime],[isGirlsLoliAnime],[isKimonoAnime],[Kara no Kyokai],[KaranoKyokai]",
    "title": "KaranoKyokai_790090",
    "link_img": "https://live.staticflickr.com/65535/48047746798_b6d73a1587_o.jpg",
    "id_image": "KaranoKyokai_790090",
    "count_view": 0
  },
  {
    "link_thumb": "https://live.staticflickr.com/65535/48047748083_83c7fb8fbd_n.jpg",
    "id_album": "-382479774",
    "description": "KaranoKyokai_83837,[isGirlAnime],[isSadAnime],[isSadAnimeGirl],[isCuteAnime],[isGirlsLoliAnime],[isBlackAnime],[isKimonoAnime],[Kara no Kyokai],[KaranoKyokai]",
    "title": "KaranoKyokai_83837",
    "link_img": "https://live.staticflickr.com/65535/48047748083_923f49b9cc_o.jpg",
    "id_image": "KaranoKyokai_83837",
    "count_view": 0
  },
  {
    "link_thumb": "https://live.staticflickr.com/65535/48047792277_2020c4cbbf_n.jpg",
    "id_album": "-382479774",
    "description": "KaranoKyokai_838524,[isGirlAnime],[isSadAnime],[isSadAnimeGirl],[isCuteAnime],[isGirlsLoliAnime],[isKimonoAnime],[Kara no Kyokai],[KaranoKyokai]",
    "title": "KaranoKyokai_838524",
    "link_img": "https://live.staticflickr.com/65535/48047792277_c7a4148af2_o.jpg",
    "id_image": "KaranoKyokai_838524",
    "count_view": 0
  },
  {
    "link_thumb": "https://live.staticflickr.com/65535/48047749718_306493f256_n.jpg",
    "id_album": "-382479774",
    "description": "KaranoKyokai_849215,[isGirlAnime],[isCuteAnime],[Kara no Kyokai],[KaranoKyokai]",
    "title": "KaranoKyokai_849215",
    "link_img": "https://live.staticflickr.com/65535/48047749718_3477f7579c_o.jpg",
    "id_image": "KaranoKyokai_849215",
    "count_view": 0
  },
  {
    "link_thumb": "https://live.staticflickr.com/65535/48047794007_bf41b6f06e_n.jpg",
    "id_album": "-382479774",
    "description": "KaranoKyokai_869315,[isGirlAnime],[isSadAnime],[isSadAnimeGirl],[isCuteAnime],[isGirlsLoliAnime],[isBlackAnime],[isKimonoAnime],[Kara no Kyokai],[KaranoKyokai]",
    "title": "KaranoKyokai_869315",
    "link_img": "https://live.staticflickr.com/65535/48047794007_ab2e34f247_o.jpg",
    "id_image": "KaranoKyokai_869315",
    "count_view": 0
  },
  {
    "link_thumb": "https://live.staticflickr.com/65535/48047794217_35fa1efa2f_n.jpg",
    "id_album": "-382479774",
    "description": "KaranoKyokai_888029,[isGirlAnime],[isSadAnime],[isSadAnimeGirl],[isCuteAnime],[isGirlsLoliAnime],[isKimonoAnime],[Kara no Kyokai],[KaranoKyokai]",
    "title": "KaranoKyokai_888029",
    "link_img": "https://live.staticflickr.com/65535/48047794217_15da8d65b3_o.jpg",
    "id_image": "KaranoKyokai_888029",
    "count_view": 0
  },
  {
    "link_thumb": "https://live.staticflickr.com/65535/48047751578_cc83e9c6cd_n.jpg",
    "id_album": "-382479774",
    "description": "KaranoKyokai_944306,[isGirlAnime],[isSadAnime],[isSadAnimeGirl],[isCuteAnime],[isGirlsLoliAnime],[isKimonoAnime],[Kara no Kyokai],[KaranoKyokai]",
    "title": "KaranoKyokai_944306",
    "link_img": "https://live.staticflickr.com/65535/48047751578_9189eb8234_o.jpg",
    "id_image": "KaranoKyokai_944306",
    "count_view": 0
  },
  {
    "link_thumb": "https://live.staticflickr.com/65535/48047751728_372d582616_n.jpg",
    "id_album": "-382479774",
    "description": "KaranoKyokai_946301,[isGirlAnime],[isSadAnime],[isSadAnimeGirl],[isCuteAnime],[isGirlsLoliAnime],[isKimonoAnime],[Kara no Kyokai],[KaranoKyokai]",
    "title": "KaranoKyokai_946301",
    "link_img": "https://live.staticflickr.com/65535/48047751728_8b422a3e43_o.jpg",
    "id_image": "KaranoKyokai_946301",
    "count_view": 0
  },
  {
    "link_thumb": "https://live.staticflickr.com/65535/48047712736_a0e7b76f66_n.jpg",
    "id_album": "-382479774",
    "description": "KaranoKyokai_962181,[isGirlAnime],[isSadAnime],[isSadAnimeGirl],[isCuteAnime],[isGirlsLoliAnime],[isKimonoAnime],[Kara no Kyokai],[KaranoKyokai]",
    "title": "KaranoKyokai_962181",
    "link_img": "https://live.staticflickr.com/65535/48047712736_f5ac876b9c_o.jpg",
    "id_image": "KaranoKyokai_962181",
    "count_view": 0
  }
]