[
  {
    "link_thumb": "https://live.staticflickr.com/65535/47955781251_7a7df62897_n.jpg",
    "id_album": "1355648301",
    "description": "Crossover_724648",
    "title": "Crossover_724648",
    "link_img": "https://live.staticflickr.com/65535/47955781251_94f3fe0047_o.jpg",
    "id_image": "Crossover_724648",
    "count_view": 0
  },
  {
    "link_thumb": "https://live.staticflickr.com/65535/47960692151_e25befa34c_n.jpg",
    "id_album": "1355648301",
    "description": "Crossover_824807",
    "title": "Crossover_824807",
    "link_img": "https://live.staticflickr.com/65535/47960692151_1d85fa901b_o.jpg",
    "id_image": "Crossover_824807",
    "count_view": 0
  },
  {
    "link_thumb": "https://live.staticflickr.com/65535/47975644318_78f013b9e5_n.jpg",
    "id_album": "1355648301",
    "description": "FateApocrypha_692990",
    "title": "FateApocrypha_692990",
    "link_img": "https://live.staticflickr.com/65535/47975644318_85e146708c_o.jpg",
    "id_image": "FateApocrypha_692990",
    "count_view": 0
  },
  {
    "link_thumb": "https://live.staticflickr.com/65535/47975641647_5c440448b4_n.jpg",
    "id_album": "1355648301",
    "description": "FateApocrypha_825916",
    "title": "FateApocrypha_825916",
    "link_img": "https://live.staticflickr.com/65535/47975641647_6902dd02d0_o.jpg",
    "id_image": "FateApocrypha_825916",
    "count_view": 0
  },
  {
    "link_thumb": "https://live.staticflickr.com/65535/47975698461_eccf7576a1_n.jpg",
    "id_album": "1355648301",
    "description": "FateApocrypha_837197",
    "title": "FateApocrypha_837197",
    "link_img": "https://live.staticflickr.com/65535/47975698461_b5a1dfe78a_o.jpg",
    "id_image": "FateApocrypha_837197",
    "count_view": 0
  },
  {
    "link_thumb": "https://live.staticflickr.com/65535/47975642177_3a9c7f4092_n.jpg",
    "id_album": "1355648301",
    "description": "FateApocrypha_840287",
    "title": "FateApocrypha_840287",
    "link_img": "https://live.staticflickr.com/65535/47975642177_a428cc412d_o.jpg",
    "id_image": "FateApocrypha_840287",
    "count_view": 0
  },
  {
    "link_thumb": "https://live.staticflickr.com/65535/47997386192_d616f18ba8_n.jpg",
    "id_album": "1355648301",
    "description": "FateApocrypha_853211",
    "title": "FateApocrypha_853211",
    "link_img": "https://live.staticflickr.com/65535/47997386192_507e4616bd_o.jpg",
    "id_image": "FateApocrypha_853211",
    "count_view": 0
  },
  {
    "link_thumb": "https://live.staticflickr.com/65535/47975713836_70bd5509f9_n.jpg",
    "id_album": "1355648301",
    "description": "FateApocrypha_854833",
    "title": "FateApocrypha_854833",
    "link_img": "https://live.staticflickr.com/65535/47975713836_825c3e13db_o.jpg",
    "id_image": "FateApocrypha_854833",
    "count_view": 0
  },
  {
    "link_thumb": "https://live.staticflickr.com/65535/47975726896_df395c5afa_n.jpg",
    "id_album": "1355648301",
    "description": "FateApocrypha_858679",
    "title": "FateApocrypha_858679",
    "link_img": "https://live.staticflickr.com/65535/47975726896_615780c4f6_o.jpg",
    "id_image": "FateApocrypha_858679",
    "count_view": 0
  },
  {
    "link_thumb": "https://live.staticflickr.com/65535/47975688228_0af6f165e9_n.jpg",
    "id_album": "1355648301",
    "description": "FateApocrypha_858714",
    "title": "FateApocrypha_858714",
    "link_img": "https://live.staticflickr.com/65535/47975688228_c1cfdb4254_o.jpg",
    "id_image": "FateApocrypha_858714",
    "count_view": 0
  },
  {
    "link_thumb": "https://live.staticflickr.com/65535/47975694618_008b7c5765_n.jpg",
    "id_album": "1355648301",
    "description": "FateApocrypha_858738",
    "title": "FateApocrypha_858738",
    "link_img": "https://live.staticflickr.com/65535/47975694618_28289996da_o.jpg",
    "id_image": "FateApocrypha_858738",
    "count_view": 0
  },
  {
    "link_thumb": "https://live.staticflickr.com/65535/47975743796_6af62d0f1c_n.jpg",
    "id_album": "1355648301",
    "description": "FateApocrypha_858749",
    "title": "FateApocrypha_858749",
    "link_img": "https://live.staticflickr.com/65535/47975743796_bbb6275574_o.jpg",
    "id_image": "FateApocrypha_858749",
    "count_view": 0
  },
  {
    "link_thumb": "https://live.staticflickr.com/65535/47975688977_31f26a74d2_n.jpg",
    "id_album": "1355648301",
    "description": "FateApocrypha_858752",
    "title": "FateApocrypha_858752",
    "link_img": "https://live.staticflickr.com/65535/47975688977_370066f78d_o.jpg",
    "id_image": "FateApocrypha_858752",
    "count_view": 0
  },
  {
    "link_thumb": "https://live.staticflickr.com/65535/47975697947_c258f2edc7_n.jpg",
    "id_album": "1355648301",
    "description": "FateApocrypha_858795",
    "title": "FateApocrypha_858795",
    "link_img": "https://live.staticflickr.com/65535/47975697947_9d461d57f1_o.jpg",
    "id_image": "FateApocrypha_858795",
    "count_view": 0
  },
  {
    "link_thumb": "https://live.staticflickr.com/65535/47975754126_615d87543b_n.jpg",
    "id_album": "1355648301",
    "description": "FateApocrypha_858798",
    "title": "FateApocrypha_858798",
    "link_img": "https://live.staticflickr.com/65535/47975754126_89a078bc3b_o.jpg",
    "id_image": "FateApocrypha_858798",
    "count_view": 0
  },
  {
    "link_thumb": "https://live.staticflickr.com/65535/47975701732_9f0bb954f2_n.jpg",
    "id_album": "1355648301",
    "description": "FateApocrypha_858809",
    "title": "FateApocrypha_858809",
    "link_img": "https://live.staticflickr.com/65535/47975701732_62945c7a7f_o.jpg",
    "id_image": "FateApocrypha_858809",
    "count_view": 0
  },
  {
    "link_thumb": "https://live.staticflickr.com/65535/47975758206_28ea38bff5_n.jpg",
    "id_album": "1355648301",
    "description": "FateApocrypha_858813",
    "title": "FateApocrypha_858813",
    "link_img": "https://live.staticflickr.com/65535/47975758206_5d6e3dc3e5_o.jpg",
    "id_image": "FateApocrypha_858813",
    "count_view": 0
  },
  {
    "link_thumb": "https://live.staticflickr.com/65535/47975712413_2efc0acf06_n.jpg",
    "id_album": "1355648301",
    "description": "FateApocrypha_858815",
    "title": "FateApocrypha_858815",
    "link_img": "https://live.staticflickr.com/65535/47975712413_c0c21c0b3e_o.jpg",
    "id_image": "FateApocrypha_858815",
    "count_view": 0
  },
  {
    "link_thumb": "https://live.staticflickr.com/65535/47975712648_f2f528c190_n.jpg",
    "id_album": "1355648301",
    "description": "FateApocrypha_858816",
    "title": "FateApocrypha_858816",
    "link_img": "https://live.staticflickr.com/65535/47975712648_9913c92883_o.jpg",
    "id_image": "FateApocrypha_858816",
    "count_view": 0
  },
  {
    "link_thumb": "https://live.staticflickr.com/65535/47975703672_7fe16d6a28_n.jpg",
    "id_album": "1355648301",
    "description": "FateApocrypha_858817",
    "title": "FateApocrypha_858817",
    "link_img": "https://live.staticflickr.com/65535/47975703672_47705402bb_o.jpg",
    "id_image": "FateApocrypha_858817",
    "count_view": 0
  },
  {
    "link_thumb": "https://live.staticflickr.com/65535/47975716358_5aae379c7b_n.jpg",
    "id_album": "1355648301",
    "description": "FateApocrypha_858833",
    "title": "FateApocrypha_858833",
    "link_img": "https://live.staticflickr.com/65535/47975716358_30480419c8_o.jpg",
    "id_image": "FateApocrypha_858833",
    "count_view": 0
  },
  {
    "link_thumb": "https://live.staticflickr.com/65535/47975713637_de77a810d9_n.jpg",
    "id_album": "1355648301",
    "description": "FateApocrypha_858860",
    "title": "FateApocrypha_858860",
    "link_img": "https://live.staticflickr.com/65535/47975713637_37a90da889_o.jpg",
    "id_image": "FateApocrypha_858860",
    "count_view": 0
  },
  {
    "link_thumb": "https://live.staticflickr.com/65535/47975716082_590aea077e_n.jpg",
    "id_album": "1355648301",
    "description": "FateApocrypha_858872",
    "title": "FateApocrypha_858872",
    "link_img": "https://live.staticflickr.com/65535/47975716082_59dd6e3fba_o.jpg",
    "id_image": "FateApocrypha_858872",
    "count_view": 0
  },
  {
    "link_thumb": "https://live.staticflickr.com/65535/47975732983_6a9982d380_n.jpg",
    "id_album": "1355648301",
    "description": "FateApocrypha_858908",
    "title": "FateApocrypha_858908",
    "link_img": "https://live.staticflickr.com/65535/47975732983_c36ed8c10b_o.jpg",
    "id_image": "FateApocrypha_858908",
    "count_view": 0
  },
  {
    "link_thumb": "https://live.staticflickr.com/65535/47975736328_fa46a72bfd_n.jpg",
    "id_album": "1355648301",
    "description": "FateApocrypha_858924",
    "title": "FateApocrypha_858924",
    "link_img": "https://live.staticflickr.com/65535/47975736328_048154925a_o.jpg",
    "id_image": "FateApocrypha_858924",
    "count_view": 0
  },
  {
    "link_thumb": "https://live.staticflickr.com/65535/47975783786_3c36f940a9_n.jpg",
    "id_album": "1355648301",
    "description": "FateApocrypha_858925",
    "title": "FateApocrypha_858925",
    "link_img": "https://live.staticflickr.com/65535/47975783786_d8a906fd1b_o.jpg",
    "id_image": "FateApocrypha_858925",
    "count_view": 0
  },
  {
    "link_thumb": "https://live.staticflickr.com/65535/47975729252_67355f2cf6_n.jpg",
    "id_album": "1355648301",
    "description": "FateApocrypha_858931",
    "title": "FateApocrypha_858931",
    "link_img": "https://live.staticflickr.com/65535/47975729252_1a4262935e_o.jpg",
    "id_image": "FateApocrypha_858931",
    "count_view": 0
  },
  {
    "link_thumb": "https://live.staticflickr.com/65535/47975729992_dbc7611342_n.jpg",
    "id_album": "1355648301",
    "description": "FateApocrypha_858934",
    "title": "FateApocrypha_858934",
    "link_img": "https://live.staticflickr.com/65535/47975729992_7000f270bd_o.jpg",
    "id_image": "FateApocrypha_858934",
    "count_view": 0
  },
  {
    "link_thumb": "https://live.staticflickr.com/65535/47975788001_3981716a85_n.jpg",
    "id_album": "1355648301",
    "description": "FateApocrypha_858941",
    "title": "FateApocrypha_858941",
    "link_img": "https://live.staticflickr.com/65535/47975788001_d80c55bd92_o.jpg",
    "id_image": "FateApocrypha_858941",
    "count_view": 0
  },
  {
    "link_thumb": "https://live.staticflickr.com/65535/47975745063_8e8bef60fc_n.jpg",
    "id_album": "1355648301",
    "description": "FateApocrypha_858956",
    "title": "FateApocrypha_858956",
    "link_img": "https://live.staticflickr.com/65535/47975745063_b53eb80974_o.jpg",
    "id_image": "FateApocrypha_858956",
    "count_view": 0
  },
  {
    "link_thumb": "https://live.staticflickr.com/65535/47975745383_c64ce7d240_n.jpg",
    "id_album": "1355648301",
    "description": "FateApocrypha_858957",
    "title": "FateApocrypha_858957",
    "link_img": "https://live.staticflickr.com/65535/47975745383_f7878e0ea7_o.jpg",
    "id_image": "FateApocrypha_858957",
    "count_view": 0
  },
  {
    "link_thumb": "https://live.staticflickr.com/65535/47975737277_ecafab836a_n.jpg",
    "id_album": "1355648301",
    "description": "FateApocrypha_858961",
    "title": "FateApocrypha_858961",
    "link_img": "https://live.staticflickr.com/65535/47975737277_fe2bd297e8_o.jpg",
    "id_image": "FateApocrypha_858961",
    "count_view": 0
  },
  {
    "link_thumb": "https://live.staticflickr.com/65535/47975793591_602144780d_n.jpg",
    "id_album": "1355648301",
    "description": "FateApocrypha_858963",
    "title": "FateApocrypha_858963",
    "link_img": "https://live.staticflickr.com/65535/47975793591_9970cb6924_o.jpg",
    "id_image": "FateApocrypha_858963",
    "count_view": 0
  },
  {
    "link_thumb": "https://live.staticflickr.com/65535/47975748748_57299142e7_n.jpg",
    "id_album": "1355648301",
    "description": "FateApocrypha_858968",
    "title": "FateApocrypha_858968",
    "link_img": "https://live.staticflickr.com/65535/47975748748_c8cfe777f7_o.jpg",
    "id_image": "FateApocrypha_858968",
    "count_view": 0
  },
  {
    "link_thumb": "https://live.staticflickr.com/65535/47975803336_c6aab2e7a4_n.jpg",
    "id_album": "1355648301",
    "description": "FateApocrypha_864975",
    "title": "FateApocrypha_864975",
    "link_img": "https://live.staticflickr.com/65535/47975803336_196def890e_o.jpg",
    "id_image": "FateApocrypha_864975",
    "count_view": 0
  },
  {
    "link_thumb": "https://live.staticflickr.com/65535/47975755897_61b8c77f26_n.jpg",
    "id_album": "1355648301",
    "description": "FateApocrypha_873386",
    "title": "FateApocrypha_873386",
    "link_img": "https://live.staticflickr.com/65535/47975755897_4f43acb7bb_o.jpg",
    "id_image": "FateApocrypha_873386",
    "count_view": 0
  },
  {
    "link_thumb": "https://live.staticflickr.com/65535/47975761367_4007290143_n.jpg",
    "id_album": "1355648301",
    "description": "FateApocrypha_914602",
    "title": "FateApocrypha_914602",
    "link_img": "https://live.staticflickr.com/65535/47975761367_aeaee3a95a_o.jpg",
    "id_image": "FateApocrypha_914602",
    "count_view": 0
  },
  {
    "link_thumb": "https://live.staticflickr.com/65535/47975763002_19366d24b0_n.jpg",
    "id_album": "1355648301",
    "description": "FateApocrypha_915503",
    "title": "FateApocrypha_915503",
    "link_img": "https://live.staticflickr.com/65535/47975763002_2924c6a724_o.jpg",
    "id_image": "FateApocrypha_915503",
    "count_view": 0
  },
  {
    "link_thumb": "https://live.staticflickr.com/65535/47975920341_480fdf9f3f_n.jpg",
    "id_album": "1355648301",
    "description": "FateGrandOrder_726068",
    "title": "FateGrandOrder_726068",
    "link_img": "https://live.staticflickr.com/65535/47975920341_f2184e6dfd_o.jpg",
    "id_image": "FateGrandOrder_726068",
    "count_view": 0
  },
  {
    "link_thumb": "https://live.staticflickr.com/65535/47997434226_052b2c2f5f_n.jpg",
    "id_album": "1355648301",
    "description": "FateGrandOrder_789937",
    "title": "FateGrandOrder_789937",
    "link_img": "https://live.staticflickr.com/65535/47997434226_fbf828684b_o.jpg",
    "id_image": "FateGrandOrder_789937",
    "count_view": 0
  },
  {
    "link_thumb": "https://live.staticflickr.com/65535/47976512358_163f91b252_n.jpg",
    "id_album": "1355648301",
    "description": "FateGrandOrder_825923",
    "title": "FateGrandOrder_825923",
    "link_img": "https://live.staticflickr.com/65535/47976512358_902a5614ee_o.jpg",
    "id_image": "FateGrandOrder_825923",
    "count_view": 0
  },
  {
    "link_thumb": "https://live.staticflickr.com/65535/47976569567_dea9b56e7f_n.jpg",
    "id_album": "1355648301",
    "description": "FateGrandOrder_866319",
    "title": "FateGrandOrder_866319",
    "link_img": "https://live.staticflickr.com/65535/47976569567_d1a45bba34_o.jpg",
    "id_image": "FateGrandOrder_866319",
    "count_view": 0
  },
  {
    "link_thumb": "https://live.staticflickr.com/65535/47976630511_35d71d498a_n.jpg",
    "id_album": "1355648301",
    "description": "FateGrandOrder_870307",
    "title": "FateGrandOrder_870307",
    "link_img": "https://live.staticflickr.com/65535/47976630511_e4fd30b0cb_o.jpg",
    "id_image": "FateGrandOrder_870307",
    "count_view": 0
  },
  {
    "link_thumb": "https://live.staticflickr.com/65535/47976586528_81f1aa27d0_n.jpg",
    "id_album": "1355648301",
    "description": "FateGrandOrder_870879",
    "title": "FateGrandOrder_870879",
    "link_img": "https://live.staticflickr.com/65535/47976586528_0ba2e1da2c_o.jpg",
    "id_image": "FateGrandOrder_870879",
    "count_view": 0
  },
  {
    "link_thumb": "https://live.staticflickr.com/65535/47976590933_36163595e4_n.jpg",
    "id_album": "1355648301",
    "description": "FateGrandOrder_871179",
    "title": "FateGrandOrder_871179",
    "link_img": "https://live.staticflickr.com/65535/47976590933_a3974095a9_o.jpg",
    "id_image": "FateGrandOrder_871179",
    "count_view": 0
  },
  {
    "link_thumb": "https://live.staticflickr.com/65535/47976591892_a9febdb813_n.jpg",
    "id_album": "1355648301",
    "description": "FateGrandOrder_873387",
    "title": "FateGrandOrder_873387",
    "link_img": "https://live.staticflickr.com/65535/47976591892_8be16a5488_o.jpg",
    "id_image": "FateGrandOrder_873387",
    "count_view": 0
  },
  {
    "link_thumb": "https://live.staticflickr.com/65535/47976645851_548733cf29_n.jpg",
    "id_album": "1355648301",
    "description": "FateGrandOrder_873442",
    "title": "FateGrandOrder_873442",
    "link_img": "https://live.staticflickr.com/65535/47976645851_860fb7064c_o.jpg",
    "id_image": "FateGrandOrder_873442",
    "count_view": 0
  },
  {
    "link_thumb": "https://live.staticflickr.com/65535/47976646716_199e5abbe8_n.jpg",
    "id_album": "1355648301",
    "description": "FateGrandOrder_873819",
    "title": "FateGrandOrder_873819",
    "link_img": "https://live.staticflickr.com/65535/47976646716_b094244e68_o.jpg",
    "id_image": "FateGrandOrder_873819",
    "count_view": 0
  },
  {
    "link_thumb": "https://live.staticflickr.com/65535/47976611948_6b3f3d20c5_n.jpg",
    "id_album": "1355648301",
    "description": "FateGrandOrder_877155",
    "title": "FateGrandOrder_877155",
    "link_img": "https://live.staticflickr.com/65535/47976611948_89385d8e70_o.jpg",
    "id_image": "FateGrandOrder_877155",
    "count_view": 0
  },
  {
    "link_thumb": "https://live.staticflickr.com/65535/47976671321_20b47396a3_n.jpg",
    "id_album": "1355648301",
    "description": "FateGrandOrder_882108",
    "title": "FateGrandOrder_882108",
    "link_img": "https://live.staticflickr.com/65535/47976671321_a5c5f82430_o.jpg",
    "id_image": "FateGrandOrder_882108",
    "count_view": 0
  },
  {
    "link_thumb": "https://live.staticflickr.com/65535/47976625652_e4020e9fae_n.jpg",
    "id_album": "1355648301",
    "description": "FateGrandOrder_887254",
    "title": "FateGrandOrder_887254",
    "link_img": "https://live.staticflickr.com/65535/47976625652_f3c8cbe1f2_o.jpg",
    "id_image": "FateGrandOrder_887254",
    "count_view": 0
  },
  {
    "link_thumb": "https://live.staticflickr.com/65535/47976692456_dffe3fa62d_n.jpg",
    "id_album": "1355648301",
    "description": "FateGrandOrder_891527",
    "title": "FateGrandOrder_891527",
    "link_img": "https://live.staticflickr.com/65535/47976692456_d60a1d12e0_o.jpg",
    "id_image": "FateGrandOrder_891527",
    "count_view": 0
  },
  {
    "link_thumb": "https://live.staticflickr.com/65535/47976721251_f380e7d3db_n.jpg",
    "id_album": "1355648301",
    "description": "FateGrandOrder_902852",
    "title": "FateGrandOrder_902852",
    "link_img": "https://live.staticflickr.com/65535/47976721251_74ca9e597f_o.jpg",
    "id_image": "FateGrandOrder_902852",
    "count_view": 0
  }
]