[
  {
    "total_img": 6,
    "number_page": 1,
    "title": "Uma Musume Pretty Derby",
    "tag": "Uma Musume Pretty Derby, Silence Suzuka, Vodka Uma Musume, Anime, Gold Ship Uma Musume, Special Week Uma Musume, El Condor Pasa, Seiun Sky, Tokai Teio, Scarlet Daiwa, Grass Wonder Uma Musume, Mejiro McQueen",
    "description": "Uma Musume Pretty Derby",
    "link_thumb": "https://live.staticflickr.com/65535/48063985003_97ea652fb2_n.jpg",
    "id_album": "421066858",
    "total_view": 6
  }
]