[
  {
    "total_img": 460,
    "number_page": 3,
    "title": "Vocaloid 3",
    "tag": "Water, Heart, Green Hair, Wink, Black, Monochrome, Last Night Good Night, Weapon, Blood, Dream, AkikoroidChan, Final Universal Love, Swing, Umbrella, Street, Yuki Nagato, Space, Hair, Glove, Head, Hedge, Aoki Lapis, Cherry Tree, Ikushima, Chibi, Yowane Haku, Smile, Sun, Sea, Park, Skirt, Girl Band, Flower Vocaloid, Pink Flower, Red Rose, Panda Hero, Magnet Vocaloid, Battlefield, No You No Me, Pop Art, Mayu Vocaloid, Uni Vocaloid, Miku Zatsune, Luo Tianyi, Band, White Dress, CloseUp, Kokone Vocaloid, Tiger, Dragon, Valentines Day, Japanese Clothes, Star, Tony Taka Artwork, Fish, Feather, Face, Video Game, Original Anime, CGI, Song Illustartion, Blue, Nekomimi, Brown Hair, SFA2 Miki, Vocaloid 3, Pink Hair, Sakura Miku, Pretty, Red, Coward Montblanc, Tie, Blue Eyes, Starburst, Hat, Sunrise, Len Kagamine, Ship, Animal Ears, Rin Kagamine, Ice Cream, Green Eyes, Yowamushi Montblanc, Punk, Stars, Underwater, Cantarella Vocaloid, Snowfall, Long Hair, Thigh Highs, Beach, Winter, Bracelet, Joker, Light, Kimono, Pop Music, Desk, Macloid Vocaloid, Cute, Purple Hair, Oriental, Vocaloid, Aqua Hair, Kaito Vocaloid, Mosaic Role, Glasses, Dove, Twins, Bridge, Lily Vocaloid, Drawing, Bird, Sitting, TimeLapse, Twintails, Blonde, Knife, The Melancholy of Haruhi Suzumiya, Rainbow, China, Zatsune Miku, VY1 Vocaloid, Katana, Matryoshka Vocaloid, Kaai Yuki, Project Diva, Speakers, Traditional Costume, School Uniform, Gothic, Bicycle, Sniper, Sunset, Airplane, Fan, SongOver, Love is War Vocaloid, White, Grey Hair, Falling, Blossom, Green, Tears, Sky, IA Vocaloid, Moon, Dolphin, Miku Append, Birthday, Kamui Gakupo, Just Be Friends, Sword, Ribbon, White Hair, Sepia, Computer, Luka Megurine, CUL Vocaloid, Gun, Purple Eyes, Scarf, GUMI Vocaloid, Mask, Reflection, Shoe, Japanese, Aqua Eyes, Red Hair, Mood, Colors, Belt, Blush, Yellow, Pantyhose, Train, Yuzuki Yukari, V Flower Vocaloid, Chain, Lantern, ALYS Vocaloid, Negitoro, Tei Sukone, Chair, Migikata No Chou, Glass, Rose, Coffee, Hiding, Wings, Usee Vocaloid, Song Illustration, Leaf, Witch, Guitar, Lagamine, Warrior, Nekomura Iroha, Concert, Meiko Vocaloid, Halloween, Ipod, Pillow, Snow, Night, Cherry, Digital Art, Hatsune Miku, Summer, Rain, Bubble, Anime, Meltdown Vocaloid, Tree, Yuezheng Ling, Woman, SeeU Vocaloid, Violin, Yellow Eyes, Boy, Red Eyes, Piano, Akita Neru, Pink, Cap, Dark, Love, Cat, Sad, Fantasy, Fall, Microphone, Butterfly, Kasane Teto, Upside Down, Maki Tsurumaki, Hatsune Mikuo, Globe, Short Hair, Swimsuit, Flower, Dress, Magic, Karakuri Pierrot, Blue Dress, Maid, Bride, Painting, Hachune Miku, Blue Hair, Whale, Cloud, Forest, Petal, Sweets",
    "description": "Vocaloid 3",
    "link_thumb": "https://live.staticflickr.com/65535/48064190732_c3551f877e_n.jpg",
    "id_album": "-1889297993",
    "total_view": 460
  },
  {
    "total_img": 10,
    "number_page": 1,
    "title": "Mayu Vocaloid",
    "tag": "Mayu Vocaloid,",
    "description": "Mayu Vocaloid",
    "link_thumb": "https://live.staticflickr.com/65535/48065743242_209575ec11_n.jpg",
    "id_album": "-1298572817",
    "total_view": 10
  }
]