[
  {
    "link_thumb": "https://live.staticflickr.com/65535/47960792097_5b0db5e1d7_n.jpg",
    "id_album": "945591653",
    "description": "Crossover_899479",
    "title": "Crossover_899479",
    "link_img": "https://live.staticflickr.com/65535/47960792097_623e28f360_o.jpg",
    "id_image": "Crossover_899479",
    "count_view": 0
  },
  {
    "link_thumb": "https://live.staticflickr.com/65535/47967020041_2c2b83451f_n.jpg",
    "id_album": "945591653",
    "description": "Crossover_924092",
    "title": "Crossover_924092",
    "link_img": "https://live.staticflickr.com/65535/47967020041_9e58ea393a_o.jpg",
    "id_image": "Crossover_924092",
    "count_view": 0
  },
  {
    "link_thumb": "https://live.staticflickr.com/65535/47961113047_5da8dd1d66_n.jpg",
    "id_album": "945591653",
    "description": "Crossover_927231",
    "title": "Crossover_927231",
    "link_img": "https://live.staticflickr.com/65535/47961113047_07674d8e81_o.jpg",
    "id_image": "Crossover_927231",
    "count_view": 0
  },
  {
    "link_thumb": "https://live.staticflickr.com/65535/48064086537_312be9c90d_n.jpg",
    "id_album": "945591653",
    "description": "VioletEvergarden_800931",
    "title": "VioletEvergarden_800931",
    "link_img": "https://live.staticflickr.com/65535/48064086537_dc0c5ab63f_o.jpg",
    "id_image": "VioletEvergarden_800931",
    "count_view": 0
  },
  {
    "link_thumb": "https://live.staticflickr.com/65535/48064087337_f08299c5a0_n.jpg",
    "id_album": "945591653",
    "description": "VioletEvergarden_800942",
    "title": "VioletEvergarden_800942",
    "link_img": "https://live.staticflickr.com/65535/48064087337_598f50a5b6_o.jpg",
    "id_image": "VioletEvergarden_800942",
    "count_view": 0
  },
  {
    "link_thumb": "https://live.staticflickr.com/65535/48064034233_e28337b5f4_n.jpg",
    "id_album": "945591653",
    "description": "VioletEvergarden_800945",
    "title": "VioletEvergarden_800945",
    "link_img": "https://live.staticflickr.com/65535/48064034233_14f55aea79_o.jpg",
    "id_image": "VioletEvergarden_800945",
    "count_view": 0
  },
  {
    "link_thumb": "https://live.staticflickr.com/65535/48064088117_a6aaaed0d9_n.jpg",
    "id_album": "945591653",
    "description": "VioletEvergarden_800946",
    "title": "VioletEvergarden_800946",
    "link_img": "https://live.staticflickr.com/65535/48064088117_1613d502b9_o.jpg",
    "id_image": "VioletEvergarden_800946",
    "count_view": 0
  },
  {
    "link_thumb": "https://live.staticflickr.com/65535/48064088822_7f8207ff47_n.jpg",
    "id_album": "945591653",
    "description": "VioletEvergarden_800950",
    "title": "VioletEvergarden_800950",
    "link_img": "https://live.staticflickr.com/65535/48064088822_75676114b5_o.jpg",
    "id_image": "VioletEvergarden_800950",
    "count_view": 0
  },
  {
    "link_thumb": "https://live.staticflickr.com/65535/48064089002_576ebf6146_n.jpg",
    "id_album": "945591653",
    "description": "VioletEvergarden_800951",
    "title": "VioletEvergarden_800951",
    "link_img": "https://live.staticflickr.com/65535/48064089002_383bc09cd0_o.jpg",
    "id_image": "VioletEvergarden_800951",
    "count_view": 0
  },
  {
    "link_thumb": "https://live.staticflickr.com/65535/48064089182_c434f16e82_n.jpg",
    "id_album": "945591653",
    "description": "VioletEvergarden_800952",
    "title": "VioletEvergarden_800952",
    "link_img": "https://live.staticflickr.com/65535/48064089182_40fc881b63_o.jpg",
    "id_image": "VioletEvergarden_800952",
    "count_view": 0
  },
  {
    "link_thumb": "https://live.staticflickr.com/65535/48064089372_1223f24ee8_n.jpg",
    "id_album": "945591653",
    "description": "VioletEvergarden_812392",
    "title": "VioletEvergarden_812392",
    "link_img": "https://live.staticflickr.com/65535/48064089372_4b601518cb_o.jpg",
    "id_image": "VioletEvergarden_812392",
    "count_view": 0
  },
  {
    "link_thumb": "https://live.staticflickr.com/65535/48064089602_b858a89a46_n.jpg",
    "id_album": "945591653",
    "description": "VioletEvergarden_852352",
    "title": "VioletEvergarden_852352",
    "link_img": "https://live.staticflickr.com/65535/48064089602_1dbb4c89da_o.jpg",
    "id_image": "VioletEvergarden_852352",
    "count_view": 0
  },
  {
    "link_thumb": "https://live.staticflickr.com/65535/48064036113_44d3a4ca74_n.jpg",
    "id_album": "945591653",
    "description": "VioletEvergarden_854439",
    "title": "VioletEvergarden_854439",
    "link_img": "https://live.staticflickr.com/65535/48064036113_8b12228ecf_o.jpg",
    "id_image": "VioletEvergarden_854439",
    "count_view": 0
  },
  {
    "link_thumb": "https://live.staticflickr.com/65535/48063985561_ab13a0c608_n.jpg",
    "id_album": "945591653",
    "description": "VioletEvergarden_854440",
    "title": "VioletEvergarden_854440",
    "link_img": "https://live.staticflickr.com/65535/48063985561_5999738c0e_o.jpg",
    "id_image": "VioletEvergarden_854440",
    "count_view": 0
  },
  {
    "link_thumb": "https://live.staticflickr.com/65535/48063985751_9e47f26b0b_n.jpg",
    "id_album": "945591653",
    "description": "VioletEvergarden_854441",
    "title": "VioletEvergarden_854441",
    "link_img": "https://live.staticflickr.com/65535/48063985751_ef22fa45d4_o.jpg",
    "id_image": "VioletEvergarden_854441",
    "count_view": 0
  },
  {
    "link_thumb": "https://live.staticflickr.com/65535/48064090862_8117fb33c3_n.jpg",
    "id_album": "945591653",
    "description": "VioletEvergarden_854445",
    "title": "VioletEvergarden_854445",
    "link_img": "https://live.staticflickr.com/65535/48064090862_0e22b7892e_o.jpg",
    "id_image": "VioletEvergarden_854445",
    "count_view": 0
  },
  {
    "link_thumb": "https://live.staticflickr.com/65535/48064037493_2748eac435_n.jpg",
    "id_album": "945591653",
    "description": "VioletEvergarden_854446",
    "title": "VioletEvergarden_854446",
    "link_img": "https://live.staticflickr.com/65535/48064037493_5309e02b8e_o.jpg",
    "id_image": "VioletEvergarden_854446",
    "count_view": 0
  },
  {
    "link_thumb": "https://live.staticflickr.com/65535/48064091962_822cf741fb_n.jpg",
    "id_album": "945591653",
    "description": "VioletEvergarden_867673",
    "title": "VioletEvergarden_867673",
    "link_img": "https://live.staticflickr.com/65535/48064091962_39be317f58_o.jpg",
    "id_image": "VioletEvergarden_867673",
    "count_view": 0
  },
  {
    "link_thumb": "https://live.staticflickr.com/65535/48063987951_733911214e_n.jpg",
    "id_album": "945591653",
    "description": "VioletEvergarden_876093",
    "title": "VioletEvergarden_876093",
    "link_img": "https://live.staticflickr.com/65535/48063987951_cbf2bfc9e0_o.jpg",
    "id_image": "VioletEvergarden_876093",
    "count_view": 0
  },
  {
    "link_thumb": "https://live.staticflickr.com/65535/48064092567_aa3c9eef48_n.jpg",
    "id_album": "945591653",
    "description": "VioletEvergarden_887791",
    "title": "VioletEvergarden_887791",
    "link_img": "https://live.staticflickr.com/65535/48064092567_b20b2e7302_o.jpg",
    "id_image": "VioletEvergarden_887791",
    "count_view": 0
  },
  {
    "link_thumb": "https://live.staticflickr.com/65535/48063988646_d1070ff64b_n.jpg",
    "id_album": "945591653",
    "description": "VioletEvergarden_888035",
    "title": "VioletEvergarden_888035",
    "link_img": "https://live.staticflickr.com/65535/48063988646_8830450cc3_o.jpg",
    "id_image": "VioletEvergarden_888035",
    "count_view": 0
  },
  {
    "link_thumb": "https://live.staticflickr.com/65535/48064040013_0d865b9bf8_n.jpg",
    "id_album": "945591653",
    "description": "VioletEvergarden_896210",
    "title": "VioletEvergarden_896210",
    "link_img": "https://live.staticflickr.com/65535/48064040013_cd0826c7f0_o.jpg",
    "id_image": "VioletEvergarden_896210",
    "count_view": 0
  },
  {
    "link_thumb": "https://live.staticflickr.com/65535/48064040208_f17d299036_n.jpg",
    "id_album": "945591653",
    "description": "VioletEvergarden_896224",
    "title": "VioletEvergarden_896224",
    "link_img": "https://live.staticflickr.com/65535/48064040208_973a27d298_o.jpg",
    "id_image": "VioletEvergarden_896224",
    "count_view": 0
  },
  {
    "link_thumb": "https://live.staticflickr.com/65535/48064040428_e4e86430c2_n.jpg",
    "id_album": "945591653",
    "description": "VioletEvergarden_896225",
    "title": "VioletEvergarden_896225",
    "link_img": "https://live.staticflickr.com/65535/48064040428_98d5d2ed8f_o.jpg",
    "id_image": "VioletEvergarden_896225",
    "count_view": 0
  },
  {
    "link_thumb": "https://live.staticflickr.com/65535/48063990196_c6d7e7a3f7_n.jpg",
    "id_album": "945591653",
    "description": "VioletEvergarden_896242",
    "title": "VioletEvergarden_896242",
    "link_img": "https://live.staticflickr.com/65535/48063990196_48e36b6735_o.jpg",
    "id_image": "VioletEvergarden_896242",
    "count_view": 0
  },
  {
    "link_thumb": "https://live.staticflickr.com/65535/48063991251_a1a85af22a_n.jpg",
    "id_album": "945591653",
    "description": "VioletEvergarden_896247",
    "title": "VioletEvergarden_896247",
    "link_img": "https://live.staticflickr.com/65535/48063991251_a1532222b2_o.jpg",
    "id_image": "VioletEvergarden_896247",
    "count_view": 0
  },
  {
    "link_thumb": "https://live.staticflickr.com/65535/48064042848_bac4fbb8ee_n.jpg",
    "id_album": "945591653",
    "description": "VioletEvergarden_896251",
    "title": "VioletEvergarden_896251",
    "link_img": "https://live.staticflickr.com/65535/48064042848_64ce5dea53_o.jpg",
    "id_image": "VioletEvergarden_896251",
    "count_view": 0
  },
  {
    "link_thumb": "https://live.staticflickr.com/65535/48064043083_52c00d6f2b_n.jpg",
    "id_album": "945591653",
    "description": "VioletEvergarden_896252",
    "title": "VioletEvergarden_896252",
    "link_img": "https://live.staticflickr.com/65535/48064043083_ec863a5355_o.jpg",
    "id_image": "VioletEvergarden_896252",
    "count_view": 0
  },
  {
    "link_thumb": "https://live.staticflickr.com/65535/48064043483_201b1341ee_n.jpg",
    "id_album": "945591653",
    "description": "VioletEvergarden_896254",
    "title": "VioletEvergarden_896254",
    "link_img": "https://live.staticflickr.com/65535/48064043483_3f0034a611_o.jpg",
    "id_image": "VioletEvergarden_896254",
    "count_view": 0
  },
  {
    "link_thumb": "https://live.staticflickr.com/65535/48063993036_d7dda90a81_n.jpg",
    "id_album": "945591653",
    "description": "VioletEvergarden_896255",
    "title": "VioletEvergarden_896255",
    "link_img": "https://live.staticflickr.com/65535/48063993036_72d35a61a0_o.jpg",
    "id_image": "VioletEvergarden_896255",
    "count_view": 0
  },
  {
    "link_thumb": "https://live.staticflickr.com/65535/48064097307_3a6c42a8dd_n.jpg",
    "id_album": "945591653",
    "description": "VioletEvergarden_896257",
    "title": "VioletEvergarden_896257",
    "link_img": "https://live.staticflickr.com/65535/48064097307_8825f1899e_o.jpg",
    "id_image": "VioletEvergarden_896257",
    "count_view": 0
  },
  {
    "link_thumb": "https://live.staticflickr.com/65535/48064044173_090b44bb0f_n.jpg",
    "id_album": "945591653",
    "description": "VioletEvergarden_896258",
    "title": "VioletEvergarden_896258",
    "link_img": "https://live.staticflickr.com/65535/48064044173_b0d662fa7f_o.jpg",
    "id_image": "VioletEvergarden_896258",
    "count_view": 0
  },
  {
    "link_thumb": "https://live.staticflickr.com/65535/48064097827_9b0c099cb0_n.jpg",
    "id_album": "945591653",
    "description": "VioletEvergarden_896260",
    "title": "VioletEvergarden_896260",
    "link_img": "https://live.staticflickr.com/65535/48064097827_975ddb0823_o.jpg",
    "id_image": "VioletEvergarden_896260",
    "count_view": 0
  },
  {
    "link_thumb": "https://live.staticflickr.com/65535/48064097992_45e54f9925_n.jpg",
    "id_album": "945591653",
    "description": "VioletEvergarden_896261",
    "title": "VioletEvergarden_896261",
    "link_img": "https://live.staticflickr.com/65535/48064097992_e372e617e5_o.jpg",
    "id_image": "VioletEvergarden_896261",
    "count_view": 0
  },
  {
    "link_thumb": "https://live.staticflickr.com/65535/48064098272_e2fa766e1f_n.jpg",
    "id_album": "945591653",
    "description": "VioletEvergarden_896263",
    "title": "VioletEvergarden_896263",
    "link_img": "https://live.staticflickr.com/65535/48064098272_10e1ab70f1_o.jpg",
    "id_image": "VioletEvergarden_896263",
    "count_view": 0
  },
  {
    "link_thumb": "https://live.staticflickr.com/65535/48064046263_ee96976b61_n.jpg",
    "id_album": "945591653",
    "description": "VioletEvergarden_896270",
    "title": "VioletEvergarden_896270",
    "link_img": "https://live.staticflickr.com/65535/48064046263_0eb6f30f12_o.jpg",
    "id_image": "VioletEvergarden_896270",
    "count_view": 0
  },
  {
    "link_thumb": "https://live.staticflickr.com/65535/48063995836_32359b9eb6_n.jpg",
    "id_album": "945591653",
    "description": "VioletEvergarden_896271",
    "title": "VioletEvergarden_896271",
    "link_img": "https://live.staticflickr.com/65535/48063995836_fa9e683412_o.jpg",
    "id_image": "VioletEvergarden_896271",
    "count_view": 0
  },
  {
    "link_thumb": "https://live.staticflickr.com/65535/48063996246_d28643969f_n.jpg",
    "id_album": "945591653",
    "description": "VioletEvergarden_896272",
    "title": "VioletEvergarden_896272",
    "link_img": "https://live.staticflickr.com/65535/48063996246_edaa86fd88_o.jpg",
    "id_image": "VioletEvergarden_896272",
    "count_view": 0
  },
  {
    "link_thumb": "https://live.staticflickr.com/65535/48064047373_aca7b74e03_n.jpg",
    "id_album": "945591653",
    "description": "VioletEvergarden_896274",
    "title": "VioletEvergarden_896274",
    "link_img": "https://live.staticflickr.com/65535/48064047373_d1113dc1a6_o.jpg",
    "id_image": "VioletEvergarden_896274",
    "count_view": 0
  },
  {
    "link_thumb": "https://live.staticflickr.com/65535/48064101187_2241f0665b_n.jpg",
    "id_album": "945591653",
    "description": "VioletEvergarden_896278",
    "title": "VioletEvergarden_896278",
    "link_img": "https://live.staticflickr.com/65535/48064101187_d0e7435187_o.jpg",
    "id_image": "VioletEvergarden_896278",
    "count_view": 0
  },
  {
    "link_thumb": "https://live.staticflickr.com/65535/48064048398_1a0feee15c_n.jpg",
    "id_album": "945591653",
    "description": "VioletEvergarden_896280",
    "title": "VioletEvergarden_896280",
    "link_img": "https://live.staticflickr.com/65535/48064048398_22f6828e46_o.jpg",
    "id_image": "VioletEvergarden_896280",
    "count_view": 0
  },
  {
    "link_thumb": "https://live.staticflickr.com/65535/48064048578_b6b9429755_n.jpg",
    "id_album": "945591653",
    "description": "VioletEvergarden_896281",
    "title": "VioletEvergarden_896281",
    "link_img": "https://live.staticflickr.com/65535/48064048578_b0de16b559_o.jpg",
    "id_image": "VioletEvergarden_896281",
    "count_view": 0
  },
  {
    "link_thumb": "https://live.staticflickr.com/65535/48064048758_c174dab9ea_n.jpg",
    "id_album": "945591653",
    "description": "VioletEvergarden_896282",
    "title": "VioletEvergarden_896282",
    "link_img": "https://live.staticflickr.com/65535/48064048758_14f48711b4_o.jpg",
    "id_image": "VioletEvergarden_896282",
    "count_view": 0
  },
  {
    "link_thumb": "https://live.staticflickr.com/65535/48063998646_79f0028077_n.jpg",
    "id_album": "945591653",
    "description": "VioletEvergarden_896298",
    "title": "VioletEvergarden_896298",
    "link_img": "https://live.staticflickr.com/65535/48063998646_7bf769b7ef_o.jpg",
    "id_image": "VioletEvergarden_896298",
    "count_view": 0
  },
  {
    "link_thumb": "https://live.staticflickr.com/65535/48064102567_8bb32b03c5_n.jpg",
    "id_album": "945591653",
    "description": "VioletEvergarden_896304",
    "title": "VioletEvergarden_896304",
    "link_img": "https://live.staticflickr.com/65535/48064102567_3dff160f49_o.jpg",
    "id_image": "VioletEvergarden_896304",
    "count_view": 0
  },
  {
    "link_thumb": "https://live.staticflickr.com/65535/48064103087_218225abb3_n.jpg",
    "id_album": "945591653",
    "description": "VioletEvergarden_896472",
    "title": "VioletEvergarden_896472",
    "link_img": "https://live.staticflickr.com/65535/48064103087_f9a86b2acf_o.jpg",
    "id_image": "VioletEvergarden_896472",
    "count_view": 0
  },
  {
    "link_thumb": "https://live.staticflickr.com/65535/48064103312_c33eca28b8_n.jpg",
    "id_album": "945591653",
    "description": "VioletEvergarden_896545",
    "title": "VioletEvergarden_896545",
    "link_img": "https://live.staticflickr.com/65535/48064103312_e74d562578_o.jpg",
    "id_image": "VioletEvergarden_896545",
    "count_view": 0
  },
  {
    "link_thumb": "https://live.staticflickr.com/65535/48063999866_686a4bbeb4_n.jpg",
    "id_album": "945591653",
    "description": "VioletEvergarden_896600",
    "title": "VioletEvergarden_896600",
    "link_img": "https://live.staticflickr.com/65535/48063999866_116d2a6f27_o.jpg",
    "id_image": "VioletEvergarden_896600",
    "count_view": 0
  },
  {
    "link_thumb": "https://live.staticflickr.com/65535/48064050553_f44b565907_n.jpg",
    "id_album": "945591653",
    "description": "VioletEvergarden_896606",
    "title": "VioletEvergarden_896606",
    "link_img": "https://live.staticflickr.com/65535/48064050553_3214d940da_o.jpg",
    "id_image": "VioletEvergarden_896606",
    "count_view": 0
  },
  {
    "link_thumb": "https://live.staticflickr.com/65535/48064050938_87a9805391_n.jpg",
    "id_album": "945591653",
    "description": "VioletEvergarden_896668",
    "title": "VioletEvergarden_896668",
    "link_img": "https://live.staticflickr.com/65535/48064050938_b93c2218d0_o.jpg",
    "id_image": "VioletEvergarden_896668",
    "count_view": 0
  },
  {
    "link_thumb": "https://live.staticflickr.com/65535/48064000721_5348dde946_n.jpg",
    "id_album": "945591653",
    "description": "VioletEvergarden_896807",
    "title": "VioletEvergarden_896807",
    "link_img": "https://live.staticflickr.com/65535/48064000721_b7d109bbb2_o.jpg",
    "id_image": "VioletEvergarden_896807",
    "count_view": 0
  },
  {
    "link_thumb": "https://live.staticflickr.com/65535/48064051778_dec0cc9e4e_n.jpg",
    "id_album": "945591653",
    "description": "VioletEvergarden_896893",
    "title": "VioletEvergarden_896893",
    "link_img": "https://live.staticflickr.com/65535/48064051778_9fb46fa17d_o.jpg",
    "id_image": "VioletEvergarden_896893",
    "count_view": 0
  },
  {
    "link_thumb": "https://live.staticflickr.com/65535/48064051963_7c0a02607b_n.jpg",
    "id_album": "945591653",
    "description": "VioletEvergarden_896906",
    "title": "VioletEvergarden_896906",
    "link_img": "https://live.staticflickr.com/65535/48064051963_0eae861de6_o.jpg",
    "id_image": "VioletEvergarden_896906",
    "count_view": 0
  },
  {
    "link_thumb": "https://live.staticflickr.com/65535/48064052168_56418c596c_n.jpg",
    "id_album": "945591653",
    "description": "VioletEvergarden_896928",
    "title": "VioletEvergarden_896928",
    "link_img": "https://live.staticflickr.com/65535/48064052168_d5994a33cc_o.jpg",
    "id_image": "VioletEvergarden_896928",
    "count_view": 0
  },
  {
    "link_thumb": "https://live.staticflickr.com/65535/48064052843_1cd4e6b725_n.jpg",
    "id_album": "945591653",
    "description": "VioletEvergarden_897236",
    "title": "VioletEvergarden_897236",
    "link_img": "https://live.staticflickr.com/65535/48064052843_32bbc581bc_o.jpg",
    "id_image": "VioletEvergarden_897236",
    "count_view": 0
  },
  {
    "link_thumb": "https://live.staticflickr.com/65535/48064106837_2273ebf737_n.jpg",
    "id_album": "945591653",
    "description": "VioletEvergarden_897433",
    "title": "VioletEvergarden_897433",
    "link_img": "https://live.staticflickr.com/65535/48064106837_72284888cb_o.jpg",
    "id_image": "VioletEvergarden_897433",
    "count_view": 0
  },
  {
    "link_thumb": "https://live.staticflickr.com/65535/48064053828_b7a4b7a7db_n.jpg",
    "id_album": "945591653",
    "description": "VioletEvergarden_897488",
    "title": "VioletEvergarden_897488",
    "link_img": "https://live.staticflickr.com/65535/48064053828_0ea1a5bfb8_o.jpg",
    "id_image": "VioletEvergarden_897488",
    "count_view": 0
  },
  {
    "link_thumb": "https://live.staticflickr.com/65535/48064107287_ccf58db8b6_n.jpg",
    "id_album": "945591653",
    "description": "VioletEvergarden_897489",
    "title": "VioletEvergarden_897489",
    "link_img": "https://live.staticflickr.com/65535/48064107287_9c3e0c9a9e_o.jpg",
    "id_image": "VioletEvergarden_897489",
    "count_view": 0
  },
  {
    "link_thumb": "https://live.staticflickr.com/65535/48064054258_54dbdce8cf_n.jpg",
    "id_album": "945591653",
    "description": "VioletEvergarden_897705",
    "title": "VioletEvergarden_897705",
    "link_img": "https://live.staticflickr.com/65535/48064054258_00bb69624b_o.jpg",
    "id_image": "VioletEvergarden_897705",
    "count_view": 0
  },
  {
    "link_thumb": "https://live.staticflickr.com/65535/48064004456_9e8a61a9bb_n.jpg",
    "id_album": "945591653",
    "description": "VioletEvergarden_897719",
    "title": "VioletEvergarden_897719",
    "link_img": "https://live.staticflickr.com/65535/48064004456_4d48638ca8_o.jpg",
    "id_image": "VioletEvergarden_897719",
    "count_view": 0
  },
  {
    "link_thumb": "https://live.staticflickr.com/65535/48064055623_0cf71345c6_n.jpg",
    "id_album": "945591653",
    "description": "VioletEvergarden_898325",
    "title": "VioletEvergarden_898325",
    "link_img": "https://live.staticflickr.com/65535/48064055623_deb50a5b37_o.jpg",
    "id_image": "VioletEvergarden_898325",
    "count_view": 0
  },
  {
    "link_thumb": "https://live.staticflickr.com/65535/48064109147_8ea6d8507f_n.jpg",
    "id_album": "945591653",
    "description": "VioletEvergarden_898328",
    "title": "VioletEvergarden_898328",
    "link_img": "https://live.staticflickr.com/65535/48064109147_132787403c_o.jpg",
    "id_image": "VioletEvergarden_898328",
    "count_view": 0
  },
  {
    "link_thumb": "https://live.staticflickr.com/65535/48064109307_342169089f_n.jpg",
    "id_album": "945591653",
    "description": "VioletEvergarden_898331",
    "title": "VioletEvergarden_898331",
    "link_img": "https://live.staticflickr.com/65535/48064109307_ed9356a434_o.jpg",
    "id_image": "VioletEvergarden_898331",
    "count_view": 0
  },
  {
    "link_thumb": "https://live.staticflickr.com/65535/48064005721_b84d759737_n.jpg",
    "id_album": "945591653",
    "description": "VioletEvergarden_898340",
    "title": "VioletEvergarden_898340",
    "link_img": "https://live.staticflickr.com/65535/48064005721_e2d3347dd6_o.jpg",
    "id_image": "VioletEvergarden_898340",
    "count_view": 0
  },
  {
    "link_thumb": "https://live.staticflickr.com/65535/48064110092_48a2e4e77e_n.jpg",
    "id_album": "945591653",
    "description": "VioletEvergarden_898642",
    "title": "VioletEvergarden_898642",
    "link_img": "https://live.staticflickr.com/65535/48064110092_66849af7a8_o.jpg",
    "id_image": "VioletEvergarden_898642",
    "count_view": 0
  },
  {
    "link_thumb": "https://live.staticflickr.com/65535/48064006511_f2551f7f32_n.jpg",
    "id_album": "945591653",
    "description": "VioletEvergarden_898757",
    "title": "VioletEvergarden_898757",
    "link_img": "https://live.staticflickr.com/65535/48064006511_e86f37c44f_o.jpg",
    "id_image": "VioletEvergarden_898757",
    "count_view": 0
  },
  {
    "link_thumb": "https://live.staticflickr.com/65535/48064110862_4134a3fabc_n.jpg",
    "id_album": "945591653",
    "description": "VioletEvergarden_898759",
    "title": "VioletEvergarden_898759",
    "link_img": "https://live.staticflickr.com/65535/48064110862_71168c8173_o.jpg",
    "id_image": "VioletEvergarden_898759",
    "count_view": 0
  },
  {
    "link_thumb": "https://live.staticflickr.com/65535/48064007291_aa04bd7ccd_n.jpg",
    "id_album": "945591653",
    "description": "VioletEvergarden_899339",
    "title": "VioletEvergarden_899339",
    "link_img": "https://live.staticflickr.com/65535/48064007291_9bfe1df68f_o.jpg",
    "id_image": "VioletEvergarden_899339",
    "count_view": 0
  },
  {
    "link_thumb": "https://live.staticflickr.com/65535/48064009806_051a82fce4_n.jpg",
    "id_album": "945591653",
    "description": "VioletEvergarden_899674",
    "title": "VioletEvergarden_899674",
    "link_img": "https://live.staticflickr.com/65535/48064009806_ee475dd99f_o.jpg",
    "id_image": "VioletEvergarden_899674",
    "count_view": 0
  },
  {
    "link_thumb": "https://live.staticflickr.com/65535/48064009991_93698dd806_n.jpg",
    "id_album": "945591653",
    "description": "VioletEvergarden_899677",
    "title": "VioletEvergarden_899677",
    "link_img": "https://live.staticflickr.com/65535/48064009991_23394ed90c_o.jpg",
    "id_image": "VioletEvergarden_899677",
    "count_view": 0
  },
  {
    "link_thumb": "https://live.staticflickr.com/65535/48064115302_c0002b77dc_n.jpg",
    "id_album": "945591653",
    "description": "VioletEvergarden_900214",
    "title": "VioletEvergarden_900214",
    "link_img": "https://live.staticflickr.com/65535/48064115302_00a541a8aa_o.jpg",
    "id_image": "VioletEvergarden_900214",
    "count_view": 0
  },
  {
    "link_thumb": "https://live.staticflickr.com/65535/48064116162_08e49a2d4f_n.jpg",
    "id_album": "945591653",
    "description": "VioletEvergarden_900545",
    "title": "VioletEvergarden_900545",
    "link_img": "https://live.staticflickr.com/65535/48064116162_c36dff91ac_o.jpg",
    "id_image": "VioletEvergarden_900545",
    "count_view": 0
  },
  {
    "link_thumb": "https://live.staticflickr.com/65535/48064063108_f76a91bd0a_n.jpg",
    "id_album": "945591653",
    "description": "VioletEvergarden_900734",
    "title": "VioletEvergarden_900734",
    "link_img": "https://live.staticflickr.com/65535/48064063108_8f9fdbf14d_o.jpg",
    "id_image": "VioletEvergarden_900734",
    "count_view": 0
  },
  {
    "link_thumb": "https://live.staticflickr.com/65535/48064063328_03cc147c66_n.jpg",
    "id_album": "945591653",
    "description": "VioletEvergarden_900990",
    "title": "VioletEvergarden_900990",
    "link_img": "https://live.staticflickr.com/65535/48064063328_22e7b202d8_o.jpg",
    "id_image": "VioletEvergarden_900990",
    "count_view": 0
  },
  {
    "link_thumb": "https://live.staticflickr.com/65535/48064013221_5774dc7861_n.jpg",
    "id_album": "945591653",
    "description": "VioletEvergarden_901101",
    "title": "VioletEvergarden_901101",
    "link_img": "https://live.staticflickr.com/65535/48064013221_4e2859a294_o.jpg",
    "id_image": "VioletEvergarden_901101",
    "count_view": 0
  },
  {
    "link_thumb": "https://live.staticflickr.com/65535/48064064178_c536de203f_n.jpg",
    "id_album": "945591653",
    "description": "VioletEvergarden_901659",
    "title": "VioletEvergarden_901659",
    "link_img": "https://live.staticflickr.com/65535/48064064178_7aca379319_o.jpg",
    "id_image": "VioletEvergarden_901659",
    "count_view": 0
  },
  {
    "link_thumb": "https://live.staticflickr.com/65535/48064117712_9b027846c6_n.jpg",
    "id_album": "945591653",
    "description": "VioletEvergarden_901777",
    "title": "VioletEvergarden_901777",
    "link_img": "https://live.staticflickr.com/65535/48064117712_7a737a9163_o.jpg",
    "id_image": "VioletEvergarden_901777",
    "count_view": 0
  },
  {
    "link_thumb": "https://live.staticflickr.com/65535/48064117932_096db77900_n.jpg",
    "id_album": "945591653",
    "description": "VioletEvergarden_901798",
    "title": "VioletEvergarden_901798",
    "link_img": "https://live.staticflickr.com/65535/48064117932_7ce3404d2e_o.jpg",
    "id_image": "VioletEvergarden_901798",
    "count_view": 0
  },
  {
    "link_thumb": "https://live.staticflickr.com/65535/48064014421_193a44dd2c_n.jpg",
    "id_album": "945591653",
    "description": "VioletEvergarden_902224",
    "title": "VioletEvergarden_902224",
    "link_img": "https://live.staticflickr.com/65535/48064014421_9175956062_o.jpg",
    "id_image": "VioletEvergarden_902224",
    "count_view": 0
  },
  {
    "link_thumb": "https://live.staticflickr.com/65535/48064014626_030981e6ff_n.jpg",
    "id_album": "945591653",
    "description": "VioletEvergarden_902249",
    "title": "VioletEvergarden_902249",
    "link_img": "https://live.staticflickr.com/65535/48064014626_26b855ae3d_o.jpg",
    "id_image": "VioletEvergarden_902249",
    "count_view": 0
  },
  {
    "link_thumb": "https://live.staticflickr.com/65535/48064119047_b9f7d521f4_n.jpg",
    "id_album": "945591653",
    "description": "VioletEvergarden_902405",
    "title": "VioletEvergarden_902405",
    "link_img": "https://live.staticflickr.com/65535/48064119047_b3ee56e7fe_o.jpg",
    "id_image": "VioletEvergarden_902405",
    "count_view": 0
  },
  {
    "link_thumb": "https://live.staticflickr.com/65535/48064015621_39f4136a94_n.jpg",
    "id_album": "945591653",
    "description": "VioletEvergarden_902408",
    "title": "VioletEvergarden_902408",
    "link_img": "https://live.staticflickr.com/65535/48064015621_f53d382325_o.jpg",
    "id_image": "VioletEvergarden_902408",
    "count_view": 0
  },
  {
    "link_thumb": "https://live.staticflickr.com/65535/48064066178_69e802fee8_n.jpg",
    "id_album": "945591653",
    "description": "VioletEvergarden_902410",
    "title": "VioletEvergarden_902410",
    "link_img": "https://live.staticflickr.com/65535/48064066178_927b714d5d_o.jpg",
    "id_image": "VioletEvergarden_902410",
    "count_view": 0
  },
  {
    "link_thumb": "https://live.staticflickr.com/65535/48064122122_5c2b575fb7_n.jpg",
    "id_album": "945591653",
    "description": "VioletEvergarden_903211",
    "title": "VioletEvergarden_903211",
    "link_img": "https://live.staticflickr.com/65535/48064122122_a046e91523_o.jpg",
    "id_image": "VioletEvergarden_903211",
    "count_view": 0
  },
  {
    "link_thumb": "https://live.staticflickr.com/65535/48064069013_4bb60b9e38_n.jpg",
    "id_album": "945591653",
    "description": "VioletEvergarden_904164",
    "title": "VioletEvergarden_904164",
    "link_img": "https://live.staticflickr.com/65535/48064069013_5ea30ebb94_o.jpg",
    "id_image": "VioletEvergarden_904164",
    "count_view": 0
  },
  {
    "link_thumb": "https://live.staticflickr.com/65535/48064019421_3f29e02e02_n.jpg",
    "id_album": "945591653",
    "description": "VioletEvergarden_905463",
    "title": "VioletEvergarden_905463",
    "link_img": "https://live.staticflickr.com/65535/48064019421_1ebf9d62cf_o.jpg",
    "id_image": "VioletEvergarden_905463",
    "count_view": 0
  },
  {
    "link_thumb": "https://live.staticflickr.com/65535/48064019676_a942d0d272_n.jpg",
    "id_album": "945591653",
    "description": "VioletEvergarden_905760",
    "title": "VioletEvergarden_905760",
    "link_img": "https://live.staticflickr.com/65535/48064019676_03de5a93b8_o.jpg",
    "id_image": "VioletEvergarden_905760",
    "count_view": 0
  },
  {
    "link_thumb": "https://live.staticflickr.com/65535/48064020581_c6b047c8aa_n.jpg",
    "id_album": "945591653",
    "description": "VioletEvergarden_905819",
    "title": "VioletEvergarden_905819",
    "link_img": "https://live.staticflickr.com/65535/48064020581_75a761cc1f_o.jpg",
    "id_image": "VioletEvergarden_905819",
    "count_view": 0
  },
  {
    "link_thumb": "https://live.staticflickr.com/65535/48064125167_82cc19b451_n.jpg",
    "id_album": "945591653",
    "description": "VioletEvergarden_905838",
    "title": "VioletEvergarden_905838",
    "link_img": "https://live.staticflickr.com/65535/48064125167_f8ecef56c8_o.jpg",
    "id_image": "VioletEvergarden_905838",
    "count_view": 0
  },
  {
    "link_thumb": "https://live.staticflickr.com/65535/48064071518_92d4fbeb80_n.jpg",
    "id_album": "945591653",
    "description": "VioletEvergarden_906312",
    "title": "VioletEvergarden_906312",
    "link_img": "https://live.staticflickr.com/65535/48064071518_e24eecbcd6_o.jpg",
    "id_image": "VioletEvergarden_906312",
    "count_view": 0
  },
  {
    "link_thumb": "https://live.staticflickr.com/65535/48064071663_034089ac44_n.jpg",
    "id_album": "945591653",
    "description": "VioletEvergarden_906588",
    "title": "VioletEvergarden_906588",
    "link_img": "https://live.staticflickr.com/65535/48064071663_18613481ac_o.jpg",
    "id_image": "VioletEvergarden_906588",
    "count_view": 0
  },
  {
    "link_thumb": "https://live.staticflickr.com/65535/48064072233_50aece1ede_n.jpg",
    "id_album": "945591653",
    "description": "VioletEvergarden_906972",
    "title": "VioletEvergarden_906972",
    "link_img": "https://live.staticflickr.com/65535/48064072233_6d21cc9bab_o.jpg",
    "id_image": "VioletEvergarden_906972",
    "count_view": 0
  },
  {
    "link_thumb": "https://live.staticflickr.com/65535/48064022051_c6e0c6583c_n.jpg",
    "id_album": "945591653",
    "description": "VioletEvergarden_907635",
    "title": "VioletEvergarden_907635",
    "link_img": "https://live.staticflickr.com/65535/48064022051_96dca112d4_o.jpg",
    "id_image": "VioletEvergarden_907635",
    "count_view": 0
  },
  {
    "link_thumb": "https://live.staticflickr.com/65535/48064022296_c881f46370_n.jpg",
    "id_album": "945591653",
    "description": "VioletEvergarden_908284",
    "title": "VioletEvergarden_908284",
    "link_img": "https://live.staticflickr.com/65535/48064022296_8623ed05f9_o.jpg",
    "id_image": "VioletEvergarden_908284",
    "count_view": 0
  },
  {
    "link_thumb": "https://live.staticflickr.com/65535/48064022626_47a50ff40d_n.jpg",
    "id_album": "945591653",
    "description": "VioletEvergarden_908286",
    "title": "VioletEvergarden_908286",
    "link_img": "https://live.staticflickr.com/65535/48064022626_9c46c48921_o.jpg",
    "id_image": "VioletEvergarden_908286",
    "count_view": 0
  },
  {
    "link_thumb": "https://live.staticflickr.com/65535/48064073783_785544ecc1_n.jpg",
    "id_album": "945591653",
    "description": "VioletEvergarden_908289",
    "title": "VioletEvergarden_908289",
    "link_img": "https://live.staticflickr.com/65535/48064073783_e5d075b060_o.jpg",
    "id_image": "VioletEvergarden_908289",
    "count_view": 0
  },
  {
    "link_thumb": "https://live.staticflickr.com/65535/48064127872_a5921e033d_n.jpg",
    "id_album": "945591653",
    "description": "VioletEvergarden_908290",
    "title": "VioletEvergarden_908290",
    "link_img": "https://live.staticflickr.com/65535/48064127872_b532380653_o.jpg",
    "id_image": "VioletEvergarden_908290",
    "count_view": 0
  },
  {
    "link_thumb": "https://live.staticflickr.com/65535/48064128137_ac6cc26b6b_n.jpg",
    "id_album": "945591653",
    "description": "VioletEvergarden_908291",
    "title": "VioletEvergarden_908291",
    "link_img": "https://live.staticflickr.com/65535/48064128137_0de056af5b_o.jpg",
    "id_image": "VioletEvergarden_908291",
    "count_view": 0
  },
  {
    "link_thumb": "https://live.staticflickr.com/65535/48064023876_9d5bf5a5fb_n.jpg",
    "id_album": "945591653",
    "description": "VioletEvergarden_908293",
    "title": "VioletEvergarden_908293",
    "link_img": "https://live.staticflickr.com/65535/48064023876_2ddeae86e7_o.jpg",
    "id_image": "VioletEvergarden_908293",
    "count_view": 0
  },
  {
    "link_thumb": "https://live.staticflickr.com/65535/48064075038_57b190b0be_n.jpg",
    "id_album": "945591653",
    "description": "VioletEvergarden_908295",
    "title": "VioletEvergarden_908295",
    "link_img": "https://live.staticflickr.com/65535/48064075038_5d86e68b7d_o.jpg",
    "id_image": "VioletEvergarden_908295",
    "count_view": 0
  },
  {
    "link_thumb": "https://live.staticflickr.com/65535/48064129092_20a74449b6_n.jpg",
    "id_album": "945591653",
    "description": "VioletEvergarden_908296",
    "title": "VioletEvergarden_908296",
    "link_img": "https://live.staticflickr.com/65535/48064129092_d865e404c7_o.jpg",
    "id_image": "VioletEvergarden_908296",
    "count_view": 0
  },
  {
    "link_thumb": "https://live.staticflickr.com/65535/48064024776_844f548136_n.jpg",
    "id_album": "945591653",
    "description": "VioletEvergarden_908297",
    "title": "VioletEvergarden_908297",
    "link_img": "https://live.staticflickr.com/65535/48064024776_7532aa6d8d_o.jpg",
    "id_image": "VioletEvergarden_908297",
    "count_view": 0
  },
  {
    "link_thumb": "https://live.staticflickr.com/65535/48064129502_e9464551dc_n.jpg",
    "id_album": "945591653",
    "description": "VioletEvergarden_908298",
    "title": "VioletEvergarden_908298",
    "link_img": "https://live.staticflickr.com/65535/48064129502_002aea7a1b_o.jpg",
    "id_image": "VioletEvergarden_908298",
    "count_view": 0
  },
  {
    "link_thumb": "https://live.staticflickr.com/65535/48064075873_2b569fff68_n.jpg",
    "id_album": "945591653",
    "description": "VioletEvergarden_908299",
    "title": "VioletEvergarden_908299",
    "link_img": "https://live.staticflickr.com/65535/48064075873_754139ae85_o.jpg",
    "id_image": "VioletEvergarden_908299",
    "count_view": 0
  },
  {
    "link_thumb": "https://live.staticflickr.com/65535/48064025741_e22076ecaf_n.jpg",
    "id_album": "945591653",
    "description": "VioletEvergarden_908301",
    "title": "VioletEvergarden_908301",
    "link_img": "https://live.staticflickr.com/65535/48064025741_996f8da3b8_o.jpg",
    "id_image": "VioletEvergarden_908301",
    "count_view": 0
  },
  {
    "link_thumb": "https://live.staticflickr.com/65535/48064130932_f200120b60_n.jpg",
    "id_album": "945591653",
    "description": "VioletEvergarden_909554",
    "title": "VioletEvergarden_909554",
    "link_img": "https://live.staticflickr.com/65535/48064130932_2694286c23_o.jpg",
    "id_image": "VioletEvergarden_909554",
    "count_view": 0
  },
  {
    "link_thumb": "https://live.staticflickr.com/65535/48064026796_ea6a721c65_n.jpg",
    "id_album": "945591653",
    "description": "VioletEvergarden_909571",
    "title": "VioletEvergarden_909571",
    "link_img": "https://live.staticflickr.com/65535/48064026796_96e80d0a4e_o.jpg",
    "id_image": "VioletEvergarden_909571",
    "count_view": 0
  },
  {
    "link_thumb": "https://live.staticflickr.com/65535/48064027051_85df31d0f1_n.jpg",
    "id_album": "945591653",
    "description": "VioletEvergarden_909769",
    "title": "VioletEvergarden_909769",
    "link_img": "https://live.staticflickr.com/65535/48064027051_7e2ecff2dc_o.jpg",
    "id_image": "VioletEvergarden_909769",
    "count_view": 0
  },
  {
    "link_thumb": "https://live.staticflickr.com/65535/48064131987_c8e9648d1f_n.jpg",
    "id_album": "945591653",
    "description": "VioletEvergarden_910025",
    "title": "VioletEvergarden_910025",
    "link_img": "https://live.staticflickr.com/65535/48064131987_377f5cd723_o.jpg",
    "id_image": "VioletEvergarden_910025",
    "count_view": 0
  },
  {
    "link_thumb": "https://live.staticflickr.com/65535/48064028171_9cc0f5af3c_n.jpg",
    "id_album": "945591653",
    "description": "VioletEvergarden_910374",
    "title": "VioletEvergarden_910374",
    "link_img": "https://live.staticflickr.com/65535/48064028171_cd66505150_o.jpg",
    "id_image": "VioletEvergarden_910374",
    "count_view": 0
  },
  {
    "link_thumb": "https://live.staticflickr.com/65535/48064133202_242596c719_n.jpg",
    "id_album": "945591653",
    "description": "VioletEvergarden_911443",
    "title": "VioletEvergarden_911443",
    "link_img": "https://live.staticflickr.com/65535/48064133202_31d43408ae_o.jpg",
    "id_image": "VioletEvergarden_911443",
    "count_view": 0
  },
  {
    "link_thumb": "https://live.staticflickr.com/65535/48064029041_eab5b92c7e_n.jpg",
    "id_album": "945591653",
    "description": "VioletEvergarden_911445",
    "title": "VioletEvergarden_911445",
    "link_img": "https://live.staticflickr.com/65535/48064029041_f0f5f00a01_o.jpg",
    "id_image": "VioletEvergarden_911445",
    "count_view": 0
  },
  {
    "link_thumb": "https://live.staticflickr.com/65535/48064029396_439da6e90c_n.jpg",
    "id_album": "945591653",
    "description": "VioletEvergarden_911677",
    "title": "VioletEvergarden_911677",
    "link_img": "https://live.staticflickr.com/65535/48064029396_230bbc2e45_o.jpg",
    "id_image": "VioletEvergarden_911677",
    "count_view": 0
  },
  {
    "link_thumb": "https://live.staticflickr.com/65535/48064029581_16cb1c003b_n.jpg",
    "id_album": "945591653",
    "description": "VioletEvergarden_912062",
    "title": "VioletEvergarden_912062",
    "link_img": "https://live.staticflickr.com/65535/48064029581_41f2ef1b3d_o.jpg",
    "id_image": "VioletEvergarden_912062",
    "count_view": 0
  },
  {
    "link_thumb": "https://live.staticflickr.com/65535/48064030961_70b80619e9_n.jpg",
    "id_album": "945591653",
    "description": "VioletEvergarden_913097",
    "title": "VioletEvergarden_913097",
    "link_img": "https://live.staticflickr.com/65535/48064030961_ba87e42e59_o.jpg",
    "id_image": "VioletEvergarden_913097",
    "count_view": 0
  },
  {
    "link_thumb": "https://live.staticflickr.com/65535/48064082618_fd1afa7641_n.jpg",
    "id_album": "945591653",
    "description": "VioletEvergarden_914196",
    "title": "VioletEvergarden_914196",
    "link_img": "https://live.staticflickr.com/65535/48064082618_9baaf4c9b5_o.jpg",
    "id_image": "VioletEvergarden_914196",
    "count_view": 0
  },
  {
    "link_thumb": "https://live.staticflickr.com/65535/48064082793_7748bbcd81_n.jpg",
    "id_album": "945591653",
    "description": "VioletEvergarden_914430",
    "title": "VioletEvergarden_914430",
    "link_img": "https://live.staticflickr.com/65535/48064082793_94bf4cf32a_o.jpg",
    "id_image": "VioletEvergarden_914430",
    "count_view": 0
  },
  {
    "link_thumb": "https://live.staticflickr.com/65535/48064083188_b2d0f20b5e_n.jpg",
    "id_album": "945591653",
    "description": "VioletEvergarden_915118",
    "title": "VioletEvergarden_915118",
    "link_img": "https://live.staticflickr.com/65535/48064083188_b31b64838b_o.jpg",
    "id_image": "VioletEvergarden_915118",
    "count_view": 0
  },
  {
    "link_thumb": "https://live.staticflickr.com/65535/48064032771_eaab0c920b_n.jpg",
    "id_album": "945591653",
    "description": "VioletEvergarden_915176",
    "title": "VioletEvergarden_915176",
    "link_img": "https://live.staticflickr.com/65535/48064032771_9eee1a2c5f_o.jpg",
    "id_image": "VioletEvergarden_915176",
    "count_view": 0
  },
  {
    "link_thumb": "https://live.staticflickr.com/65535/48064083503_512a4471e1_n.jpg",
    "id_album": "945591653",
    "description": "VioletEvergarden_915248",
    "title": "VioletEvergarden_915248",
    "link_img": "https://live.staticflickr.com/65535/48064083503_7b38c08c90_o.jpg",
    "id_image": "VioletEvergarden_915248",
    "count_view": 0
  },
  {
    "link_thumb": "https://live.staticflickr.com/65535/48064137767_f95c05e7d8_n.jpg",
    "id_album": "945591653",
    "description": "VioletEvergarden_916112",
    "title": "VioletEvergarden_916112",
    "link_img": "https://live.staticflickr.com/65535/48064137767_751960b0b0_o.jpg",
    "id_image": "VioletEvergarden_916112",
    "count_view": 0
  },
  {
    "link_thumb": "https://live.staticflickr.com/65535/48064137902_20a729f68a_n.jpg",
    "id_album": "945591653",
    "description": "VioletEvergarden_916121",
    "title": "VioletEvergarden_916121",
    "link_img": "https://live.staticflickr.com/65535/48064137902_3983808e13_o.jpg",
    "id_image": "VioletEvergarden_916121",
    "count_view": 0
  },
  {
    "link_thumb": "https://live.staticflickr.com/65535/48064138112_a0c8acb4a5_n.jpg",
    "id_album": "945591653",
    "description": "VioletEvergarden_916122",
    "title": "VioletEvergarden_916122",
    "link_img": "https://live.staticflickr.com/65535/48064138112_39a9a695f7_o.jpg",
    "id_image": "VioletEvergarden_916122",
    "count_view": 0
  },
  {
    "link_thumb": "https://live.staticflickr.com/65535/48064138407_be7edfcaa8_n.jpg",
    "id_album": "945591653",
    "description": "VioletEvergarden_916124",
    "title": "VioletEvergarden_916124",
    "link_img": "https://live.staticflickr.com/65535/48064138407_ed96f1c102_o.jpg",
    "id_image": "VioletEvergarden_916124",
    "count_view": 0
  },
  {
    "link_thumb": "https://live.staticflickr.com/65535/48064084738_b89e25be5e_n.jpg",
    "id_album": "945591653",
    "description": "VioletEvergarden_917434",
    "title": "VioletEvergarden_917434",
    "link_img": "https://live.staticflickr.com/65535/48064084738_3d5cf26ff3_o.jpg",
    "id_image": "VioletEvergarden_917434",
    "count_view": 0
  },
  {
    "link_thumb": "https://live.staticflickr.com/65535/48064138977_a6a725e451_n.jpg",
    "id_album": "945591653",
    "description": "VioletEvergarden_917636",
    "title": "VioletEvergarden_917636",
    "link_img": "https://live.staticflickr.com/65535/48064138977_61b9a003d7_o.jpg",
    "id_image": "VioletEvergarden_917636",
    "count_view": 0
  },
  {
    "link_thumb": "https://live.staticflickr.com/65535/48064034556_aab96b52b4_n.jpg",
    "id_album": "945591653",
    "description": "VioletEvergarden_917836",
    "title": "VioletEvergarden_917836",
    "link_img": "https://live.staticflickr.com/65535/48064034556_c4b3d12c30_o.jpg",
    "id_image": "VioletEvergarden_917836",
    "count_view": 0
  },
  {
    "link_thumb": "https://live.staticflickr.com/65535/48064139472_cce3363203_n.jpg",
    "id_album": "945591653",
    "description": "VioletEvergarden_919958",
    "title": "VioletEvergarden_919958",
    "link_img": "https://live.staticflickr.com/65535/48064139472_be420e0bf8_o.jpg",
    "id_image": "VioletEvergarden_919958",
    "count_view": 0
  },
  {
    "link_thumb": "https://live.staticflickr.com/65535/48064085608_0fb484e5b5_n.jpg",
    "id_album": "945591653",
    "description": "VioletEvergarden_920042",
    "title": "VioletEvergarden_920042",
    "link_img": "https://live.staticflickr.com/65535/48064085608_568b8538ea_o.jpg",
    "id_image": "VioletEvergarden_920042",
    "count_view": 0
  },
  {
    "link_thumb": "https://live.staticflickr.com/65535/48064140187_ec602a24bc_n.jpg",
    "id_album": "945591653",
    "description": "VioletEvergarden_924236",
    "title": "VioletEvergarden_924236",
    "link_img": "https://live.staticflickr.com/65535/48064140187_e0f326457a_o.jpg",
    "id_image": "VioletEvergarden_924236",
    "count_view": 0
  },
  {
    "link_thumb": "https://live.staticflickr.com/65535/48064140382_3fe523c2e8_n.jpg",
    "id_album": "945591653",
    "description": "VioletEvergarden_926674",
    "title": "VioletEvergarden_926674",
    "link_img": "https://live.staticflickr.com/65535/48064140382_16c1feea39_o.jpg",
    "id_image": "VioletEvergarden_926674",
    "count_view": 0
  },
  {
    "link_thumb": "https://live.staticflickr.com/65535/48064086568_cae6d633e3_n.jpg",
    "id_album": "945591653",
    "description": "VioletEvergarden_930507",
    "title": "VioletEvergarden_930507",
    "link_img": "https://live.staticflickr.com/65535/48064086568_c0205b3d1e_o.jpg",
    "id_image": "VioletEvergarden_930507",
    "count_view": 0
  },
  {
    "link_thumb": "https://live.staticflickr.com/65535/48064140857_cd263fd20a_n.jpg",
    "id_album": "945591653",
    "description": "VioletEvergarden_931538",
    "title": "VioletEvergarden_931538",
    "link_img": "https://live.staticflickr.com/65535/48064140857_16f10987dd_o.jpg",
    "id_image": "VioletEvergarden_931538",
    "count_view": 0
  },
  {
    "link_thumb": "https://live.staticflickr.com/65535/48064087623_ae82c8a79e_n.jpg",
    "id_album": "945591653",
    "description": "VioletEvergarden_933503",
    "title": "VioletEvergarden_933503",
    "link_img": "https://live.staticflickr.com/65535/48064087623_ec05d6625d_o.jpg",
    "id_image": "VioletEvergarden_933503",
    "count_view": 0
  },
  {
    "link_thumb": "https://live.staticflickr.com/65535/48064088003_7c425c73d3_n.jpg",
    "id_album": "945591653",
    "description": "VioletEvergarden_934901",
    "title": "VioletEvergarden_934901",
    "link_img": "https://live.staticflickr.com/65535/48064088003_71013ea8b3_o.jpg",
    "id_image": "VioletEvergarden_934901",
    "count_view": 0
  },
  {
    "link_thumb": "https://live.staticflickr.com/65535/48064088663_b34599a458_n.jpg",
    "id_album": "945591653",
    "description": "VioletEvergarden_934905",
    "title": "VioletEvergarden_934905",
    "link_img": "https://live.staticflickr.com/65535/48064088663_cb67cf565d_o.jpg",
    "id_image": "VioletEvergarden_934905",
    "count_view": 0
  },
  {
    "link_thumb": "https://live.staticflickr.com/65535/48064089703_8dfaaa38f4_n.jpg",
    "id_album": "945591653",
    "description": "VioletEvergarden_935137",
    "title": "VioletEvergarden_935137",
    "link_img": "https://live.staticflickr.com/65535/48064089703_ec529125ed_o.jpg",
    "id_image": "VioletEvergarden_935137",
    "count_view": 0
  },
  {
    "link_thumb": "https://live.staticflickr.com/65535/48064089908_bc3c717c34_n.jpg",
    "id_album": "945591653",
    "description": "VioletEvergarden_935150",
    "title": "VioletEvergarden_935150",
    "link_img": "https://live.staticflickr.com/65535/48064089908_aff84edd2e_o.jpg",
    "id_image": "VioletEvergarden_935150",
    "count_view": 0
  },
  {
    "link_thumb": "https://live.staticflickr.com/65535/48064039696_f0d52e92b1_n.jpg",
    "id_album": "945591653",
    "description": "VioletEvergarden_938678",
    "title": "VioletEvergarden_938678",
    "link_img": "https://live.staticflickr.com/65535/48064039696_d7c7fc7958_o.jpg",
    "id_image": "VioletEvergarden_938678",
    "count_view": 0
  },
  {
    "link_thumb": "https://live.staticflickr.com/65535/48064144562_9c26ddd7c2_n.jpg",
    "id_album": "945591653",
    "description": "VioletEvergarden_941440",
    "title": "VioletEvergarden_941440",
    "link_img": "https://live.staticflickr.com/65535/48064144562_8d80d1e770_o.jpg",
    "id_image": "VioletEvergarden_941440",
    "count_view": 0
  },
  {
    "link_thumb": "https://live.staticflickr.com/65535/48064144777_744599c372_n.jpg",
    "id_album": "945591653",
    "description": "VioletEvergarden_944291",
    "title": "VioletEvergarden_944291",
    "link_img": "https://live.staticflickr.com/65535/48064144777_c9ef0fcee9_o.jpg",
    "id_image": "VioletEvergarden_944291",
    "count_view": 0
  },
  {
    "link_thumb": "https://live.staticflickr.com/65535/48064090868_9bde345389_n.jpg",
    "id_album": "945591653",
    "description": "VioletEvergarden_946529",
    "title": "VioletEvergarden_946529",
    "link_img": "https://live.staticflickr.com/65535/48064090868_5995998870_o.jpg",
    "id_image": "VioletEvergarden_946529",
    "count_view": 0
  },
  {
    "link_thumb": "https://live.staticflickr.com/65535/48064145752_3535727436_n.jpg",
    "id_album": "945591653",
    "description": "VioletEvergarden_950064",
    "title": "VioletEvergarden_950064",
    "link_img": "https://live.staticflickr.com/65535/48064145752_488fc41102_o.jpg",
    "id_image": "VioletEvergarden_950064",
    "count_view": 0
  },
  {
    "link_thumb": "https://live.staticflickr.com/65535/48064091678_efa46f1b62_n.jpg",
    "id_album": "945591653",
    "description": "VioletEvergarden_952212",
    "title": "VioletEvergarden_952212",
    "link_img": "https://live.staticflickr.com/65535/48064091678_e5f0cb75f1_o.jpg",
    "id_image": "VioletEvergarden_952212",
    "count_view": 0
  },
  {
    "link_thumb": "https://live.staticflickr.com/65535/48064042501_234e2fcd58_n.jpg",
    "id_album": "945591653",
    "description": "VioletEvergarden_956450",
    "title": "VioletEvergarden_956450",
    "link_img": "https://live.staticflickr.com/65535/48064042501_71a9fe6b24_o.jpg",
    "id_image": "VioletEvergarden_956450",
    "count_view": 0
  },
  {
    "link_thumb": "https://live.staticflickr.com/65535/48064148257_c55d382115_n.jpg",
    "id_album": "945591653",
    "description": "VioletEvergarden_973493",
    "title": "VioletEvergarden_973493",
    "link_img": "https://live.staticflickr.com/65535/48064148257_9149a11d42_o.jpg",
    "id_image": "VioletEvergarden_973493",
    "count_view": 0
  }
]