[
  {
    "total_img": 117,
    "number_page": 1,
    "title": "SteinsGate",
    "tag": "Moeka Kiryu, Itaru Hashida, Luka Urushibara, SteinsGate 0, Maho Hiyajo, Kuriru, Kurisu Makise, Rintaro Okabe, Brown Hair, Mayuri Shiina, Yellow Eyes, Long Hair, Kagari Shiina, Anime, Yuugo Tennouji, SteinsGate, Computer, Faris Nyannyan, Yuki Amane, Braid, Kiss, Suzuha Amane, Ruka Urushibara",
    "description": "SteinsGate",
    "link_thumb": "https://live.staticflickr.com/65535/49918465208_6b1ab2aa57_n.jpg",
    "id_album": "1405154881",
    "total_view": 117
  },
  {
    "total_img": 6,
    "number_page": 1,
    "title": "Luka Urushibara",
    "tag": "Luka Urushibara,",
    "description": "Luka Urushibara",
    "link_thumb": "https://live.staticflickr.com/65535/49918508123_65b919af50_n.jpg",
    "id_album": "-1736255431",
    "total_view": 6
  }
]