[
  {
    "total_img": 16,
    "number_page": 1,
    "title": "Mote Sugite Shuraba na Ore",
    "tag": "Hagiwara Hinano, Shiho Kobayakawa, Mote Sugite Shuraba na Ore, Hinano Hagiwara, Aoi Kuonji, Hayato Niimura, Saki Katakura",
    "description": "Mote Sugite Shuraba na Ore",
    "link_thumb": "https://live.staticflickr.com/65535/48071213086_5b42f7b7c3_n.jpg",
    "id_album": "737455174",
    "total_view": 16
  },
  {
    "total_img": 6,
    "number_page": 1,
    "title": "Aoi Kuonji",
    "tag": "Aoi Kuonji,",
    "description": "Aoi Kuonji",
    "link_thumb": "https://live.staticflickr.com/65535/48071266253_39612c522a_n.jpg",
    "id_album": "1285197413",
    "total_view": 6
  }
]