[
  {
    "total_img": 6163,
    "number_page": 31,
    "title": "Girls Hats Hoodie",
    "tag": "Girls Hats Hoodie,",
    "description": "Girls Hats Hoodie",
    "link_thumb": "https://live.staticflickr.com/65535/49998137463_3c222b8f53_n.jpg",
    "id_album": "1409782213",
    "total_view": 6163
  },
  {
    "total_img": 1741,
    "number_page": 9,
    "title": "Girls Tie Bows",
    "tag": "Girls Tie Bows,",
    "description": "Girls Tie Bows",
    "link_thumb": "https://live.staticflickr.com/65535/50154717077_0e3e1e0b9f_n.jpg",
    "id_album": "392997562",
    "total_view": 1741
  },
  {
    "total_img": 367,
    "number_page": 2,
    "title": "Girls Uniform",
    "tag": "Girls Uniform,",
    "description": "Girls Uniform",
    "link_thumb": "https://live.staticflickr.com/65535/49987864077_10895a743e_n.jpg",
    "id_album": "1843411262",
    "total_view": 367
  }
]