[
  {
    "link_thumb": "https://live.staticflickr.com/65535/47955751636_c04a857b3e_n.jpg",
    "id_album": "954057392",
    "description": "Crossover_713353",
    "title": "Crossover_713353",
    "link_img": "https://live.staticflickr.com/65535/47955751636_1464b4d8c3_o.jpg",
    "id_image": "Crossover_713353",
    "count_view": 0
  },
  {
    "link_thumb": "https://live.staticflickr.com/65535/48048651403_15341cc2f8_n.jpg",
    "id_album": "954057392",
    "description": "LoveLive_231581",
    "title": "LoveLive_231581",
    "link_img": "https://live.staticflickr.com/65535/48048651403_7df4e90692_o.jpg",
    "id_image": "LoveLive_231581",
    "count_view": 0
  },
  {
    "link_thumb": "https://live.staticflickr.com/65535/48048692262_73c16b68c5_n.jpg",
    "id_album": "954057392",
    "description": "LoveLive_639832",
    "title": "LoveLive_639832",
    "link_img": "https://live.staticflickr.com/65535/48048692262_d28b1316fb_o.jpg",
    "id_image": "LoveLive_639832",
    "count_view": 0
  },
  {
    "link_thumb": "https://live.staticflickr.com/65535/48048612551_d5d15e6eae_n.jpg",
    "id_album": "954057392",
    "description": "LoveLive_671152",
    "title": "LoveLive_671152",
    "link_img": "https://live.staticflickr.com/65535/48048612551_a2c97c6c88_o.jpg",
    "id_image": "LoveLive_671152",
    "count_view": 0
  },
  {
    "link_thumb": "https://live.staticflickr.com/65535/48048696572_b579e79c99_n.jpg",
    "id_album": "954057392",
    "description": "LoveLive_680174",
    "title": "LoveLive_680174",
    "link_img": "https://live.staticflickr.com/65535/48048696572_defb332686_o.jpg",
    "id_image": "LoveLive_680174",
    "count_view": 0
  },
  {
    "link_thumb": "https://live.staticflickr.com/65535/48048616826_cc687459c9_n.jpg",
    "id_album": "954057392",
    "description": "LoveLive_680208",
    "title": "LoveLive_680208",
    "link_img": "https://live.staticflickr.com/65535/48048616826_c0c8c7e466_o.jpg",
    "id_image": "LoveLive_680208",
    "count_view": 0
  },
  {
    "link_thumb": "https://live.staticflickr.com/65535/48048662983_805babb8c8_n.jpg",
    "id_album": "954057392",
    "description": "LoveLive_690360",
    "title": "LoveLive_690360",
    "link_img": "https://live.staticflickr.com/65535/48048662983_772bd95c26_o.jpg",
    "id_image": "LoveLive_690360",
    "count_view": 0
  },
  {
    "link_thumb": "https://live.staticflickr.com/65535/48048700472_c9858e35cf_n.jpg",
    "id_album": "954057392",
    "description": "LoveLive_690900",
    "title": "LoveLive_690900",
    "link_img": "https://live.staticflickr.com/65535/48048700472_59f7eca48a_o.jpg",
    "id_image": "LoveLive_690900",
    "count_view": 0
  },
  {
    "link_thumb": "https://live.staticflickr.com/65535/48048700667_e502cb2dcf_n.jpg",
    "id_album": "954057392",
    "description": "LoveLive_692335",
    "title": "LoveLive_692335",
    "link_img": "https://live.staticflickr.com/65535/48048700667_58ee9aa655_o.jpg",
    "id_image": "LoveLive_692335",
    "count_view": 0
  },
  {
    "link_thumb": "https://live.staticflickr.com/65535/48069826441_3e1db4e8c5_n.jpg",
    "id_album": "954057392",
    "description": "LoveLive_692763",
    "title": "LoveLive_692763",
    "link_img": "https://live.staticflickr.com/65535/48069826441_58a7b7af2e_o.jpg",
    "id_image": "LoveLive_692763",
    "count_view": 0
  },
  {
    "link_thumb": "https://live.staticflickr.com/65535/48069878158_9a25df202f_n.jpg",
    "id_album": "954057392",
    "description": "LoveLive_692811",
    "title": "LoveLive_692811",
    "link_img": "https://live.staticflickr.com/65535/48069878158_c8dea17e2c_o.jpg",
    "id_image": "LoveLive_692811",
    "count_view": 0
  },
  {
    "link_thumb": "https://live.staticflickr.com/65535/48069880603_5d04161fc9_n.jpg",
    "id_album": "954057392",
    "description": "LoveLive_694340",
    "title": "LoveLive_694340",
    "link_img": "https://live.staticflickr.com/65535/48069880603_151f771100_o.jpg",
    "id_image": "LoveLive_694340",
    "count_view": 0
  },
  {
    "link_thumb": "https://live.staticflickr.com/65535/48069936357_523f44403f_n.jpg",
    "id_album": "954057392",
    "description": "LoveLive_694357",
    "title": "LoveLive_694357",
    "link_img": "https://live.staticflickr.com/65535/48069936357_f8cd83ac6c_o.jpg",
    "id_image": "LoveLive_694357",
    "count_view": 0
  },
  {
    "link_thumb": "https://live.staticflickr.com/65535/48069936612_9979482282_n.jpg",
    "id_album": "954057392",
    "description": "LoveLive_694358",
    "title": "LoveLive_694358",
    "link_img": "https://live.staticflickr.com/65535/48069936612_05fd16a57c_o.jpg",
    "id_image": "LoveLive_694358",
    "count_view": 0
  },
  {
    "link_thumb": "https://live.staticflickr.com/65535/48069830731_37d645838d_n.jpg",
    "id_album": "954057392",
    "description": "LoveLive_694360",
    "title": "LoveLive_694360",
    "link_img": "https://live.staticflickr.com/65535/48069830731_66daf4fec8_o.jpg",
    "id_image": "LoveLive_694360",
    "count_view": 0
  },
  {
    "link_thumb": "https://live.staticflickr.com/65535/48069883738_f69e4d3159_n.jpg",
    "id_album": "954057392",
    "description": "LoveLive_699909",
    "title": "LoveLive_699909",
    "link_img": "https://live.staticflickr.com/65535/48069883738_a20062f6e7_o.jpg",
    "id_image": "LoveLive_699909",
    "count_view": 0
  },
  {
    "link_thumb": "https://live.staticflickr.com/65535/48069885728_cb8d621b05_n.jpg",
    "id_album": "954057392",
    "description": "LoveLive_707187",
    "title": "LoveLive_707187",
    "link_img": "https://live.staticflickr.com/65535/48069885728_1485e6d042_o.jpg",
    "id_image": "LoveLive_707187",
    "count_view": 0
  },
  {
    "link_thumb": "https://live.staticflickr.com/65535/48069885983_4984e7752e_n.jpg",
    "id_album": "954057392",
    "description": "LoveLive_707193",
    "title": "LoveLive_707193",
    "link_img": "https://live.staticflickr.com/65535/48069885983_d28223d6a7_o.jpg",
    "id_image": "LoveLive_707193",
    "count_view": 0
  },
  {
    "link_thumb": "https://live.staticflickr.com/65535/48069835936_a64db99147_n.jpg",
    "id_album": "954057392",
    "description": "LoveLive_713247",
    "title": "LoveLive_713247",
    "link_img": "https://live.staticflickr.com/65535/48069835936_383083ba26_o.jpg",
    "id_image": "LoveLive_713247",
    "count_view": 0
  },
  {
    "link_thumb": "https://live.staticflickr.com/65535/48069945927_df50601736_n.jpg",
    "id_album": "954057392",
    "description": "LoveLive_725351",
    "title": "LoveLive_725351",
    "link_img": "https://live.staticflickr.com/65535/48069945927_558c277bfe_o.jpg",
    "id_image": "LoveLive_725351",
    "count_view": 0
  },
  {
    "link_thumb": "https://live.staticflickr.com/65535/48069891948_3af37301e5_n.jpg",
    "id_album": "954057392",
    "description": "LoveLive_740118",
    "title": "LoveLive_740118",
    "link_img": "https://live.staticflickr.com/65535/48069891948_cba40de0c9_o.jpg",
    "id_image": "LoveLive_740118",
    "count_view": 0
  },
  {
    "link_thumb": "https://live.staticflickr.com/65535/48069947112_5f33ae6ee6_n.jpg",
    "id_album": "954057392",
    "description": "LoveLive_740123",
    "title": "LoveLive_740123",
    "link_img": "https://live.staticflickr.com/65535/48069947112_1b59860cdc_o.jpg",
    "id_image": "LoveLive_740123",
    "count_view": 0
  },
  {
    "link_thumb": "https://live.staticflickr.com/65535/48069840516_88b048fe4f_n.jpg",
    "id_album": "954057392",
    "description": "LoveLive_740130",
    "title": "LoveLive_740130",
    "link_img": "https://live.staticflickr.com/65535/48069840516_394ef793f4_o.jpg",
    "id_image": "LoveLive_740130",
    "count_view": 0
  },
  {
    "link_thumb": "https://live.staticflickr.com/65535/48069898208_fc2841fb42_n.jpg",
    "id_album": "954057392",
    "description": "LoveLive_748758",
    "title": "LoveLive_748758",
    "link_img": "https://live.staticflickr.com/65535/48069898208_81a4991c31_o.jpg",
    "id_image": "LoveLive_748758",
    "count_view": 0
  },
  {
    "link_thumb": "https://live.staticflickr.com/65535/48069846496_f840c86e01_n.jpg",
    "id_album": "954057392",
    "description": "LoveLive_748759",
    "title": "LoveLive_748759",
    "link_img": "https://live.staticflickr.com/65535/48069846496_761a3b3690_o.jpg",
    "id_image": "LoveLive_748759",
    "count_view": 0
  },
  {
    "link_thumb": "https://live.staticflickr.com/65535/48069954982_7075d6be33_n.jpg",
    "id_album": "954057392",
    "description": "LoveLive_748766",
    "title": "LoveLive_748766",
    "link_img": "https://live.staticflickr.com/65535/48069954982_863803b115_o.jpg",
    "id_image": "LoveLive_748766",
    "count_view": 0
  },
  {
    "link_thumb": "https://live.staticflickr.com/65535/48069957792_dd89fb30f2_n.jpg",
    "id_album": "954057392",
    "description": "LoveLive_748778",
    "title": "LoveLive_748778",
    "link_img": "https://live.staticflickr.com/65535/48069957792_b4c75b5d21_o.jpg",
    "id_image": "LoveLive_748778",
    "count_view": 0
  },
  {
    "link_thumb": "https://live.staticflickr.com/65535/48069906923_2c76f75cfa_n.jpg",
    "id_album": "954057392",
    "description": "LoveLive_748796",
    "title": "LoveLive_748796",
    "link_img": "https://live.staticflickr.com/65535/48069906923_6545e387f8_o.jpg",
    "id_image": "LoveLive_748796",
    "count_view": 0
  },
  {
    "link_thumb": "https://live.staticflickr.com/65535/48069857991_abbba55ebe_n.jpg",
    "id_album": "954057392",
    "description": "LoveLive_748807",
    "title": "LoveLive_748807",
    "link_img": "https://live.staticflickr.com/65535/48069857991_85d952f25c_o.jpg",
    "id_image": "LoveLive_748807",
    "count_view": 0
  },
  {
    "link_thumb": "https://live.staticflickr.com/65535/48069860576_59b67dfdc5_n.jpg",
    "id_album": "954057392",
    "description": "LoveLive_754722",
    "title": "LoveLive_754722",
    "link_img": "https://live.staticflickr.com/65535/48069860576_ac192af4ff_o.jpg",
    "id_image": "LoveLive_754722",
    "count_view": 0
  },
  {
    "link_thumb": "https://live.staticflickr.com/65535/48069970592_981620725f_n.jpg",
    "id_album": "954057392",
    "description": "LoveLive_754733",
    "title": "LoveLive_754733",
    "link_img": "https://live.staticflickr.com/65535/48069970592_77434d608f_o.jpg",
    "id_image": "LoveLive_754733",
    "count_view": 0
  },
  {
    "link_thumb": "https://live.staticflickr.com/65535/48069919338_00daa75262_n.jpg",
    "id_album": "954057392",
    "description": "LoveLive_774671",
    "title": "LoveLive_774671",
    "link_img": "https://live.staticflickr.com/65535/48069919338_eeaef5d17c_o.jpg",
    "id_image": "LoveLive_774671",
    "count_view": 0
  },
  {
    "link_thumb": "https://live.staticflickr.com/65535/48069868746_856ac76f93_n.jpg",
    "id_album": "954057392",
    "description": "LoveLive_776675",
    "title": "LoveLive_776675",
    "link_img": "https://live.staticflickr.com/65535/48069868746_00c2ff5426_o.jpg",
    "id_image": "LoveLive_776675",
    "count_view": 0
  },
  {
    "link_thumb": "https://live.staticflickr.com/65535/48069870311_b4c159e362_n.jpg",
    "id_album": "954057392",
    "description": "LoveLive_776685",
    "title": "LoveLive_776685",
    "link_img": "https://live.staticflickr.com/65535/48069870311_6c3e599461_o.jpg",
    "id_image": "LoveLive_776685",
    "count_view": 0
  },
  {
    "link_thumb": "https://live.staticflickr.com/65535/48069924583_b3a32ff2da_n.jpg",
    "id_album": "954057392",
    "description": "LoveLive_776696",
    "title": "LoveLive_776696",
    "link_img": "https://live.staticflickr.com/65535/48069924583_3785e0d905_o.jpg",
    "id_image": "LoveLive_776696",
    "count_view": 0
  },
  {
    "link_thumb": "https://live.staticflickr.com/65535/48069872821_b512645c43_n.jpg",
    "id_album": "954057392",
    "description": "LoveLive_776697",
    "title": "LoveLive_776697",
    "link_img": "https://live.staticflickr.com/65535/48069872821_aa95e580d0_o.jpg",
    "id_image": "LoveLive_776697",
    "count_view": 0
  },
  {
    "link_thumb": "https://live.staticflickr.com/65535/48069980217_6e30009fa0_n.jpg",
    "id_album": "954057392",
    "description": "LoveLive_776699",
    "title": "LoveLive_776699",
    "link_img": "https://live.staticflickr.com/65535/48069980217_57718ccba0_o.jpg",
    "id_image": "LoveLive_776699",
    "count_view": 0
  },
  {
    "link_thumb": "https://live.staticflickr.com/65535/48069980632_e1f89be447_n.jpg",
    "id_album": "954057392",
    "description": "LoveLive_776701",
    "title": "LoveLive_776701",
    "link_img": "https://live.staticflickr.com/65535/48069980632_c920f8c984_o.jpg",
    "id_image": "LoveLive_776701",
    "count_view": 0
  },
  {
    "link_thumb": "https://live.staticflickr.com/65535/48069943498_b50010283d_n.jpg",
    "id_album": "954057392",
    "description": "LoveLive_776715",
    "title": "LoveLive_776715",
    "link_img": "https://live.staticflickr.com/65535/48069943498_71248ae54a_o.jpg",
    "id_image": "LoveLive_776715",
    "count_view": 0
  },
  {
    "link_thumb": "https://live.staticflickr.com/65535/48069945818_7d7fdbaf7f_n.jpg",
    "id_album": "954057392",
    "description": "LoveLive_776717",
    "title": "LoveLive_776717",
    "link_img": "https://live.staticflickr.com/65535/48069945818_a2fce70787_o.jpg",
    "id_image": "LoveLive_776717",
    "count_view": 0
  },
  {
    "link_thumb": "https://live.staticflickr.com/65535/48070006577_eb82a17376_n.jpg",
    "id_album": "954057392",
    "description": "LoveLive_776720",
    "title": "LoveLive_776720",
    "link_img": "https://live.staticflickr.com/65535/48070006577_5427497833_o.jpg",
    "id_image": "LoveLive_776720",
    "count_view": 0
  },
  {
    "link_thumb": "https://live.staticflickr.com/65535/48069951728_976279549a_n.jpg",
    "id_album": "954057392",
    "description": "LoveLive_776721",
    "title": "LoveLive_776721",
    "link_img": "https://live.staticflickr.com/65535/48069951728_52fabc2e18_o.jpg",
    "id_image": "LoveLive_776721",
    "count_view": 0
  },
  {
    "link_thumb": "https://live.staticflickr.com/65535/48070012962_00712c7f2a_n.jpg",
    "id_album": "954057392",
    "description": "LoveLive_776724",
    "title": "LoveLive_776724",
    "link_img": "https://live.staticflickr.com/65535/48070012962_25a3919880_o.jpg",
    "id_image": "LoveLive_776724",
    "count_view": 0
  },
  {
    "link_thumb": "https://live.staticflickr.com/65535/48069906061_5d543c009c_n.jpg",
    "id_album": "954057392",
    "description": "LoveLive_776725",
    "title": "LoveLive_776725",
    "link_img": "https://live.staticflickr.com/65535/48069906061_83f4c756ef_o.jpg",
    "id_image": "LoveLive_776725",
    "count_view": 0
  },
  {
    "link_thumb": "https://live.staticflickr.com/65535/48070020382_3017ed636b_n.jpg",
    "id_album": "954057392",
    "description": "LoveLive_776738",
    "title": "LoveLive_776738",
    "link_img": "https://live.staticflickr.com/65535/48070020382_05c7d159f8_o.jpg",
    "id_image": "LoveLive_776738",
    "count_view": 0
  },
  {
    "link_thumb": "https://live.staticflickr.com/65535/48070020837_48293e20cb_n.jpg",
    "id_album": "954057392",
    "description": "LoveLive_776739",
    "title": "LoveLive_776739",
    "link_img": "https://live.staticflickr.com/65535/48070020837_6fcaa374ee_o.jpg",
    "id_image": "LoveLive_776739",
    "count_view": 0
  },
  {
    "link_thumb": "https://live.staticflickr.com/65535/48069916076_8f33e0ce21_n.jpg",
    "id_album": "954057392",
    "description": "LoveLive_776744",
    "title": "LoveLive_776744",
    "link_img": "https://live.staticflickr.com/65535/48069916076_826c6d69dd_o.jpg",
    "id_image": "LoveLive_776744",
    "count_view": 0
  },
  {
    "link_thumb": "https://live.staticflickr.com/65535/48069969018_e7e498fd33_n.jpg",
    "id_album": "954057392",
    "description": "LoveLive_776748",
    "title": "LoveLive_776748",
    "link_img": "https://live.staticflickr.com/65535/48069969018_3123f669eb_o.jpg",
    "id_image": "LoveLive_776748",
    "count_view": 0
  },
  {
    "link_thumb": "https://live.staticflickr.com/65535/48070025997_be3a6a4c33_n.jpg",
    "id_album": "954057392",
    "description": "LoveLive_776758",
    "title": "LoveLive_776758",
    "link_img": "https://live.staticflickr.com/65535/48070025997_3f376b4fb5_o.jpg",
    "id_image": "LoveLive_776758",
    "count_view": 0
  },
  {
    "link_thumb": "https://live.staticflickr.com/65535/48069919791_5496397cfe_n.jpg",
    "id_album": "954057392",
    "description": "LoveLive_776759",
    "title": "LoveLive_776759",
    "link_img": "https://live.staticflickr.com/65535/48069919791_ec3a82d2bc_o.jpg",
    "id_image": "LoveLive_776759",
    "count_view": 0
  },
  {
    "link_thumb": "https://live.staticflickr.com/65535/48070028552_03c702d3bf_n.jpg",
    "id_album": "954057392",
    "description": "LoveLive_776770",
    "title": "LoveLive_776770",
    "link_img": "https://live.staticflickr.com/65535/48070028552_4cb73c93fa_o.jpg",
    "id_image": "LoveLive_776770",
    "count_view": 0
  },
  {
    "link_thumb": "https://live.staticflickr.com/65535/48070030127_fbc31848ec_n.jpg",
    "id_album": "954057392",
    "description": "LoveLive_776778",
    "title": "LoveLive_776778",
    "link_img": "https://live.staticflickr.com/65535/48070030127_13651703fe_o.jpg",
    "id_image": "LoveLive_776778",
    "count_view": 0
  },
  {
    "link_thumb": "https://live.staticflickr.com/65535/48069923981_c151d351a5_n.jpg",
    "id_album": "954057392",
    "description": "LoveLive_776779",
    "title": "LoveLive_776779",
    "link_img": "https://live.staticflickr.com/65535/48069923981_c750023bf2_o.jpg",
    "id_image": "LoveLive_776779",
    "count_view": 0
  },
  {
    "link_thumb": "https://live.staticflickr.com/65535/48069924341_4b07ab5815_n.jpg",
    "id_album": "954057392",
    "description": "LoveLive_776781",
    "title": "LoveLive_776781",
    "link_img": "https://live.staticflickr.com/65535/48069924341_47001cb58d_o.jpg",
    "id_image": "LoveLive_776781",
    "count_view": 0
  },
  {
    "link_thumb": "https://live.staticflickr.com/65535/48069927016_e6f673df40_n.jpg",
    "id_album": "954057392",
    "description": "LoveLive_776795",
    "title": "LoveLive_776795",
    "link_img": "https://live.staticflickr.com/65535/48069927016_05b8b30980_o.jpg",
    "id_image": "LoveLive_776795",
    "count_view": 0
  },
  {
    "link_thumb": "https://live.staticflickr.com/65535/48069979563_dbee28cca2_n.jpg",
    "id_album": "954057392",
    "description": "LoveLive_776796",
    "title": "LoveLive_776796",
    "link_img": "https://live.staticflickr.com/65535/48069979563_8731d5ac1f_o.jpg",
    "id_image": "LoveLive_776796",
    "count_view": 0
  },
  {
    "link_thumb": "https://live.staticflickr.com/65535/48070034377_7551366dc6_n.jpg",
    "id_album": "954057392",
    "description": "LoveLive_776797",
    "title": "LoveLive_776797",
    "link_img": "https://live.staticflickr.com/65535/48070034377_ec56edbc33_o.jpg",
    "id_image": "LoveLive_776797",
    "count_view": 0
  },
  {
    "link_thumb": "https://live.staticflickr.com/65535/48069980413_a98b679d9d_n.jpg",
    "id_album": "954057392",
    "description": "LoveLive_776799",
    "title": "LoveLive_776799",
    "link_img": "https://live.staticflickr.com/65535/48069980413_b062ca4eec_o.jpg",
    "id_image": "LoveLive_776799",
    "count_view": 0
  },
  {
    "link_thumb": "https://live.staticflickr.com/65535/48069928381_80748394a6_n.jpg",
    "id_album": "954057392",
    "description": "LoveLive_776801",
    "title": "LoveLive_776801",
    "link_img": "https://live.staticflickr.com/65535/48069928381_d441e479be_o.jpg",
    "id_image": "LoveLive_776801",
    "count_view": 0
  },
  {
    "link_thumb": "https://live.staticflickr.com/65535/48069928916_5e64b3ff27_n.jpg",
    "id_album": "954057392",
    "description": "LoveLive_776803",
    "title": "LoveLive_776803",
    "link_img": "https://live.staticflickr.com/65535/48069928916_16a93e380b_o.jpg",
    "id_image": "LoveLive_776803",
    "count_view": 0
  },
  {
    "link_thumb": "https://live.staticflickr.com/65535/48069929176_703e93b28a_n.jpg",
    "id_album": "954057392",
    "description": "LoveLive_776804",
    "title": "LoveLive_776804",
    "link_img": "https://live.staticflickr.com/65535/48069929176_71e27a65e7_o.jpg",
    "id_image": "LoveLive_776804",
    "count_view": 0
  },
  {
    "link_thumb": "https://live.staticflickr.com/65535/48069982373_d9ba9c896f_n.jpg",
    "id_album": "954057392",
    "description": "LoveLive_776807",
    "title": "LoveLive_776807",
    "link_img": "https://live.staticflickr.com/65535/48069982373_c1bc62fbc1_o.jpg",
    "id_image": "LoveLive_776807",
    "count_view": 0
  },
  {
    "link_thumb": "https://live.staticflickr.com/65535/48070036797_69de3b97be_n.jpg",
    "id_album": "954057392",
    "description": "LoveLive_776808",
    "title": "LoveLive_776808",
    "link_img": "https://live.staticflickr.com/65535/48070036797_bfeb696133_o.jpg",
    "id_image": "LoveLive_776808",
    "count_view": 0
  },
  {
    "link_thumb": "https://live.staticflickr.com/65535/48069930586_0c52b6a95a_n.jpg",
    "id_album": "954057392",
    "description": "LoveLive_776810",
    "title": "LoveLive_776810",
    "link_img": "https://live.staticflickr.com/65535/48069930586_52583cb4a7_o.jpg",
    "id_image": "LoveLive_776810",
    "count_view": 0
  },
  {
    "link_thumb": "https://live.staticflickr.com/65535/48069930781_14d92e59e7_n.jpg",
    "id_album": "954057392",
    "description": "LoveLive_776811",
    "title": "LoveLive_776811",
    "link_img": "https://live.staticflickr.com/65535/48069930781_d93c7d235a_o.jpg",
    "id_image": "LoveLive_776811",
    "count_view": 0
  },
  {
    "link_thumb": "https://live.staticflickr.com/65535/48069985938_178c0a6fd0_n.jpg",
    "id_album": "954057392",
    "description": "LoveLive_776821",
    "title": "LoveLive_776821",
    "link_img": "https://live.staticflickr.com/65535/48069985938_84789f50c2_o.jpg",
    "id_image": "LoveLive_776821",
    "count_view": 0
  },
  {
    "link_thumb": "https://live.staticflickr.com/65535/48070040622_716521c6df_n.jpg",
    "id_album": "954057392",
    "description": "LoveLive_776823",
    "title": "LoveLive_776823",
    "link_img": "https://live.staticflickr.com/65535/48070040622_e2a0ee6b83_o.jpg",
    "id_image": "LoveLive_776823",
    "count_view": 0
  },
  {
    "link_thumb": "https://live.staticflickr.com/65535/48069986658_13ba4491de_n.jpg",
    "id_album": "954057392",
    "description": "LoveLive_776824",
    "title": "LoveLive_776824",
    "link_img": "https://live.staticflickr.com/65535/48069986658_156bd7fd1e_o.jpg",
    "id_image": "LoveLive_776824",
    "count_view": 0
  },
  {
    "link_thumb": "https://live.staticflickr.com/65535/48069986948_a594c7bfb4_n.jpg",
    "id_album": "954057392",
    "description": "LoveLive_776825",
    "title": "LoveLive_776825",
    "link_img": "https://live.staticflickr.com/65535/48069986948_4aab9a9cc9_o.jpg",
    "id_image": "LoveLive_776825",
    "count_view": 0
  },
  {
    "link_thumb": "https://live.staticflickr.com/65535/48069935071_0eec280bdf_n.jpg",
    "id_album": "954057392",
    "description": "LoveLive_776827",
    "title": "LoveLive_776827",
    "link_img": "https://live.staticflickr.com/65535/48069935071_a7f8b19141_o.jpg",
    "id_image": "LoveLive_776827",
    "count_view": 0
  },
  {
    "link_thumb": "https://live.staticflickr.com/65535/48069937216_0fe4695999_n.jpg",
    "id_album": "954057392",
    "description": "LoveLive_776836",
    "title": "LoveLive_776836",
    "link_img": "https://live.staticflickr.com/65535/48069937216_26569515e8_o.jpg",
    "id_image": "LoveLive_776836",
    "count_view": 0
  },
  {
    "link_thumb": "https://live.staticflickr.com/65535/48070044977_0ce46770fd_n.jpg",
    "id_album": "954057392",
    "description": "LoveLive_776840",
    "title": "LoveLive_776840",
    "link_img": "https://live.staticflickr.com/65535/48070044977_754202862b_o.jpg",
    "id_image": "LoveLive_776840",
    "count_view": 0
  },
  {
    "link_thumb": "https://live.staticflickr.com/65535/48070046467_fb18b1a469_n.jpg",
    "id_album": "954057392",
    "description": "LoveLive_776842",
    "title": "LoveLive_776842",
    "link_img": "https://live.staticflickr.com/65535/48070046467_ced7bdca27_o.jpg",
    "id_image": "LoveLive_776842",
    "count_view": 0
  },
  {
    "link_thumb": "https://live.staticflickr.com/65535/48069993963_f7b67c491d_n.jpg",
    "id_album": "954057392",
    "description": "LoveLive_776849",
    "title": "LoveLive_776849",
    "link_img": "https://live.staticflickr.com/65535/48069993963_bc65d0cea5_o.jpg",
    "id_image": "LoveLive_776849",
    "count_view": 0
  },
  {
    "link_thumb": "https://live.staticflickr.com/65535/48070049382_3e7780485e_n.jpg",
    "id_album": "954057392",
    "description": "LoveLive_776852",
    "title": "LoveLive_776852",
    "link_img": "https://live.staticflickr.com/65535/48070049382_5e06794db5_o.jpg",
    "id_image": "LoveLive_776852",
    "count_view": 0
  },
  {
    "link_thumb": "https://live.staticflickr.com/65535/48069948766_3bc9974b27_n.jpg",
    "id_album": "954057392",
    "description": "LoveLive_784210",
    "title": "LoveLive_784210",
    "link_img": "https://live.staticflickr.com/65535/48069948766_9cda9565e5_o.jpg",
    "id_image": "LoveLive_784210",
    "count_view": 0
  },
  {
    "link_thumb": "https://live.staticflickr.com/65535/48070056632_af4f1ee2c9_n.jpg",
    "id_album": "954057392",
    "description": "LoveLive_788431",
    "title": "LoveLive_788431",
    "link_img": "https://live.staticflickr.com/65535/48070056632_114fa2392c_o.jpg",
    "id_image": "LoveLive_788431",
    "count_view": 0
  },
  {
    "link_thumb": "https://live.staticflickr.com/65535/48069950486_33de6d2761_n.jpg",
    "id_album": "954057392",
    "description": "LoveLive_788650",
    "title": "LoveLive_788650",
    "link_img": "https://live.staticflickr.com/65535/48069950486_387c838121_o.jpg",
    "id_image": "LoveLive_788650",
    "count_view": 0
  },
  {
    "link_thumb": "https://live.staticflickr.com/65535/48069960566_f73c440f6f_n.jpg",
    "id_album": "954057392",
    "description": "LoveLive_835387",
    "title": "LoveLive_835387",
    "link_img": "https://live.staticflickr.com/65535/48069960566_a0a2aa7853_o.jpg",
    "id_image": "LoveLive_835387",
    "count_view": 0
  },
  {
    "link_thumb": "https://live.staticflickr.com/65535/48069961366_7ddaae05ec_n.jpg",
    "id_album": "954057392",
    "description": "LoveLive_838406",
    "title": "LoveLive_838406",
    "link_img": "https://live.staticflickr.com/65535/48069961366_7bd1ea0bc2_o.jpg",
    "id_image": "LoveLive_838406",
    "count_view": 0
  },
  {
    "link_thumb": "https://live.staticflickr.com/65535/48070081302_51ef57835d_n.jpg",
    "id_album": "954057392",
    "description": "LoveLive_845199",
    "title": "LoveLive_845199",
    "link_img": "https://live.staticflickr.com/65535/48070081302_526d5dff37_o.jpg",
    "id_image": "LoveLive_845199",
    "count_view": 0
  },
  {
    "link_thumb": "https://live.staticflickr.com/65535/48070088627_60b65e618f_n.jpg",
    "id_album": "954057392",
    "description": "LoveLive_845245",
    "title": "LoveLive_845245",
    "link_img": "https://live.staticflickr.com/65535/48070088627_518bb5f0c2_o.jpg",
    "id_image": "LoveLive_845245",
    "count_view": 0
  },
  {
    "link_thumb": "https://live.staticflickr.com/65535/48069982731_2870218e6a_n.jpg",
    "id_album": "954057392",
    "description": "LoveLive_845249",
    "title": "LoveLive_845249",
    "link_img": "https://live.staticflickr.com/65535/48069982731_fdf6c1e61e_o.jpg",
    "id_image": "LoveLive_845249",
    "count_view": 0
  },
  {
    "link_thumb": "https://live.staticflickr.com/65535/48070035073_f6d0da69fb_n.jpg",
    "id_album": "954057392",
    "description": "LoveLive_845250",
    "title": "LoveLive_845250",
    "link_img": "https://live.staticflickr.com/65535/48070035073_3843541d92_o.jpg",
    "id_image": "LoveLive_845250",
    "count_view": 0
  },
  {
    "link_thumb": "https://live.staticflickr.com/65535/48070089517_29cc20864a_n.jpg",
    "id_album": "954057392",
    "description": "LoveLive_845251",
    "title": "LoveLive_845251",
    "link_img": "https://live.staticflickr.com/65535/48070089517_69e73401ef_o.jpg",
    "id_image": "LoveLive_845251",
    "count_view": 0
  },
  {
    "link_thumb": "https://live.staticflickr.com/65535/48070035978_d452bc1281_n.jpg",
    "id_album": "954057392",
    "description": "LoveLive_845255",
    "title": "LoveLive_845255",
    "link_img": "https://live.staticflickr.com/65535/48070035978_06d135d85e_o.jpg",
    "id_image": "LoveLive_845255",
    "count_view": 0
  },
  {
    "link_thumb": "https://live.staticflickr.com/65535/48070091317_7f73e2a41b_n.jpg",
    "id_album": "954057392",
    "description": "LoveLive_850725",
    "title": "LoveLive_850725",
    "link_img": "https://live.staticflickr.com/65535/48070091317_1c57797d40_o.jpg",
    "id_image": "LoveLive_850725",
    "count_view": 0
  },
  {
    "link_thumb": "https://live.staticflickr.com/65535/48070096412_d22f00ef32_n.jpg",
    "id_album": "954057392",
    "description": "LoveLive_892589",
    "title": "LoveLive_892589",
    "link_img": "https://live.staticflickr.com/65535/48070096412_b46bc0f100_o.jpg",
    "id_image": "LoveLive_892589",
    "count_view": 0
  },
  {
    "link_thumb": "https://live.staticflickr.com/65535/48069990881_04551be591_n.jpg",
    "id_album": "954057392",
    "description": "LoveLive_896921",
    "title": "LoveLive_896921",
    "link_img": "https://live.staticflickr.com/65535/48069990881_2531d5f2f2_o.jpg",
    "id_image": "LoveLive_896921",
    "count_view": 0
  },
  {
    "link_thumb": "https://live.staticflickr.com/65535/48070098937_edbaa56152_n.jpg",
    "id_album": "954057392",
    "description": "LoveLive_903671",
    "title": "LoveLive_903671",
    "link_img": "https://live.staticflickr.com/65535/48070098937_5aa9ef8ea8_o.jpg",
    "id_image": "LoveLive_903671",
    "count_view": 0
  },
  {
    "link_thumb": "https://live.staticflickr.com/65535/48070044753_7802b6bf65_n.jpg",
    "id_album": "954057392",
    "description": "LoveLive_904936",
    "title": "LoveLive_904936",
    "link_img": "https://live.staticflickr.com/65535/48070044753_7f48cfc51b_o.jpg",
    "id_image": "LoveLive_904936",
    "count_view": 0
  },
  {
    "link_thumb": "https://live.staticflickr.com/65535/48070099392_074bef4a35_n.jpg",
    "id_album": "954057392",
    "description": "LoveLive_910722",
    "title": "LoveLive_910722",
    "link_img": "https://live.staticflickr.com/65535/48070099392_8e4c94339a_o.jpg",
    "id_image": "LoveLive_910722",
    "count_view": 0
  },
  {
    "link_thumb": "https://live.staticflickr.com/65535/48070101697_7665b9b0ee_n.jpg",
    "id_album": "954057392",
    "description": "LoveLive_919862",
    "title": "LoveLive_919862",
    "link_img": "https://live.staticflickr.com/65535/48070101697_9a250e319c_o.jpg",
    "id_image": "LoveLive_919862",
    "count_view": 0
  },
  {
    "link_thumb": "https://live.staticflickr.com/65535/48070104432_e8627bd946_n.jpg",
    "id_album": "954057392",
    "description": "LoveLive_931743",
    "title": "LoveLive_931743",
    "link_img": "https://live.staticflickr.com/65535/48070104432_89bd536dbe_o.jpg",
    "id_image": "LoveLive_931743",
    "count_view": 0
  },
  {
    "link_thumb": "https://live.staticflickr.com/65535/48070121937_105d4114b7_n.jpg",
    "id_album": "954057392",
    "description": "LoveLive_963106",
    "title": "LoveLive_963106",
    "link_img": "https://live.staticflickr.com/65535/48070121937_d12022d958_o.jpg",
    "id_image": "LoveLive_963106",
    "count_view": 0
  },
  {
    "link_thumb": "https://live.staticflickr.com/65535/48070067558_f3a3078a99_n.jpg",
    "id_album": "954057392",
    "description": "LoveLive_963108",
    "title": "LoveLive_963108",
    "link_img": "https://live.staticflickr.com/65535/48070067558_332966d15b_o.jpg",
    "id_image": "LoveLive_963108",
    "count_view": 0
  },
  {
    "link_thumb": "https://live.staticflickr.com/65535/48070067763_e2d97edd97_n.jpg",
    "id_album": "954057392",
    "description": "LoveLive_963109",
    "title": "LoveLive_963109",
    "link_img": "https://live.staticflickr.com/65535/48070067763_2da2d70fc5_o.jpg",
    "id_image": "LoveLive_963109",
    "count_view": 0
  }
]