[
  {
    "link_thumb": "https://live.staticflickr.com/65535/48046427887_445b5984f2_n.jpg",
    "id_album": "-1352462261",
    "description": "InuYasha_139522",
    "title": "InuYasha_139522",
    "link_img": "https://live.staticflickr.com/65535/48046427887_cc6dc74664_o.jpg",
    "id_image": "InuYasha_139522",
    "count_view": 0
  },
  {
    "link_thumb": "https://live.staticflickr.com/65535/48046460777_e40f70f74c_n.jpg",
    "id_album": "-1352462261",
    "description": "InuYasha_941611",
    "title": "InuYasha_941611",
    "link_img": "https://live.staticflickr.com/65535/48046460777_cc22016654_o.jpg",
    "id_image": "InuYasha_941611",
    "count_view": 0
  },
  {
    "link_thumb": "https://live.staticflickr.com/65535/48046462022_4884ed22ea_n.jpg",
    "id_album": "-1352462261",
    "description": "InuYasha_946971",
    "title": "InuYasha_946971",
    "link_img": "https://live.staticflickr.com/65535/48046462022_e54dec8e6a_o.jpg",
    "id_image": "InuYasha_946971",
    "count_view": 0
  },
  {
    "link_thumb": "https://live.staticflickr.com/65535/48046465517_9de109e59f_n.jpg",
    "id_album": "-1352462261",
    "description": "InuYasha_975064",
    "title": "InuYasha_975064",
    "link_img": "https://live.staticflickr.com/65535/48046465517_f5bb0f2bbf_o.jpg",
    "id_image": "InuYasha_975064",
    "count_view": 0
  },
  {
    "link_thumb": "https://live.staticflickr.com/65535/48046379621_93760bbf59_n.jpg",
    "id_album": "-1352462261",
    "description": "InuYasha_975150",
    "title": "InuYasha_975150",
    "link_img": "https://live.staticflickr.com/65535/48046379621_d0c354b3f0_o.jpg",
    "id_image": "InuYasha_975150",
    "count_view": 0
  }
]