[
  {
    "link_thumb": "https://live.staticflickr.com/65535/47955761516_71937be9a9_n.jpg",
    "id_album": "343378562",
    "description": "Crossover_715279",
    "title": "Crossover_715279",
    "link_img": "https://live.staticflickr.com/65535/47955761516_27a8b3d9e8_o.jpg",
    "id_image": "Crossover_715279",
    "count_view": 0
  },
  {
    "link_thumb": "https://live.staticflickr.com/65535/48062998381_622b9672b2_n.jpg",
    "id_album": "343378562",
    "description": "TrueTears_231734",
    "title": "TrueTears_231734",
    "link_img": "https://live.staticflickr.com/65535/48062998381_a2dd2291a7_o.jpg",
    "id_image": "TrueTears_231734",
    "count_view": 0
  },
  {
    "link_thumb": "https://live.staticflickr.com/65535/48063046458_71a2d036d7_n.jpg",
    "id_album": "343378562",
    "description": "TrueTears_231741",
    "title": "TrueTears_231741",
    "link_img": "https://live.staticflickr.com/65535/48063046458_54b1b55aaa_o.jpg",
    "id_image": "TrueTears_231741",
    "count_view": 0
  },
  {
    "link_thumb": "https://live.staticflickr.com/65535/48063097987_26fb43838e_n.jpg",
    "id_album": "343378562",
    "description": "TrueTears_267910",
    "title": "TrueTears_267910",
    "link_img": "https://live.staticflickr.com/65535/48063097987_eb25ebc407_o.jpg",
    "id_image": "TrueTears_267910",
    "count_view": 0
  },
  {
    "link_thumb": "https://live.staticflickr.com/65535/48063099057_e9cc1fe038_n.jpg",
    "id_album": "343378562",
    "description": "TrueTears_297558",
    "title": "TrueTears_297558",
    "link_img": "https://live.staticflickr.com/65535/48063099057_988c167e01_o.jpg",
    "id_image": "TrueTears_297558",
    "count_view": 0
  },
  {
    "link_thumb": "https://live.staticflickr.com/65535/48063049003_c49b6c2c44_n.jpg",
    "id_album": "343378562",
    "description": "TrueTears_297560",
    "title": "TrueTears_297560",
    "link_img": "https://live.staticflickr.com/65535/48063049003_9b30d78f32_o.jpg",
    "id_image": "TrueTears_297560",
    "count_view": 0
  },
  {
    "link_thumb": "https://live.staticflickr.com/65535/48063099922_5f3ec0488b_n.jpg",
    "id_album": "343378562",
    "description": "TrueTears_297562",
    "title": "TrueTears_297562",
    "link_img": "https://live.staticflickr.com/65535/48063099922_1f08b35098_o.jpg",
    "id_image": "TrueTears_297562",
    "count_view": 0
  }
]