[
  {
    "total_img": 61,
    "number_page": 1,
    "title": "Boku Wa Tomodachi Ga Sukunai",
    "tag": "Sky, Yozora Mikazuki, Penguin 1 Penguindrum, Kobato Hasegawa, Sena Kashiwazaki, Kodaka Hasegawa, Blonde, Long Hair, Anime, Wings, Boku Wa Tomodachi Ga Sukunai, Star, Penguin 2 Penguindrum, Kimono, Feather, Heterochromia, Woman, Fireworks, Flower, Maria Takayama, Dress, Scarf, Brown Eyes, Brown Hair, Apron, Headband, Pink Hair, School Uniform, Maid, Rika Shiguma, Smile, Aqua Eyes, Blue Eyes, Pokemon Go, Belt, Yukimura Kusunoki, Hat, Petal, Pillow",
    "description": "Boku Wa Tomodachi Ga Sukunai",
    "link_thumb": "https://live.staticflickr.com/65535/47119893094_346379dc09_n.jpg",
    "id_album": "776875825",
    "total_view": 61
  },
  {
    "total_img": 44,
    "number_page": 1,
    "title": "Sena Kashiwazaki",
    "tag": "Sena Kashiwazaki,",
    "description": "Sena Kashiwazaki",
    "link_thumb": "https://live.staticflickr.com/65535/47955756296_7349f44fc4_n.jpg",
    "id_album": "-357149822",
    "total_view": 44
  },
  {
    "total_img": 19,
    "number_page": 1,
    "title": "Yozora Mikazuki",
    "tag": "Yozora Mikazuki,",
    "description": "Yozora Mikazuki",
    "link_thumb": "https://live.staticflickr.com/65535/47955756296_7349f44fc4_n.jpg",
    "id_album": "36640855",
    "total_view": 19
  }
]