[
  {
    "total_img": 805,
    "number_page": 5,
    "title": "Attack On Titan",
    "tag": "Sky, Nanaba Attack On Titan, Nac Tias, Ian Dietrich, Black Hair, Crying, Weapon, Armored Titan, Blood, Beast Titan, Rita Iglehaut, Sword, Book, White Hair, Rifle, Mike Zacharias, Flame, Gun, Jacket, Purple Eyes, Scarf, Attack On Titan, Chibi, Luke Siss, Black Dress, Smile, Blade, Zeke Yeager, Petra Ral, Belt, Blush, 104Th Trainees Squad, Historia Reiss, Carla Yeager, Man, Titan, Rico Brzenska, Furlan Church, Marco Bott, Angry, Thomas Wagner, Stationary Guard, Stocking, Soldier, Wings, Scouting Legion, Survey Cops, Stairs, Jean Kirstein, Anka Rheinberger, Warrior, Artistic, Erd Gin, Dot Pixis, Brown Hair, Couch, Blue Eyes, Ymir Attack on Titan, Fire, Boots, Bertolt Hoover, Eld Jinn, Gunther Schultz, Black Eyes, Pink Dress, Green Eyes, Night, Uniform, Glow, Long Hair, Mylius Zeramuski, Anime, Horse, Mitabi Jarnach, Tree, Headdress, Bertholdt Hoover, Woman, Connie Springer, Erwin Smith, Yellow Eyes, Boy, Red Eyes, Attack on Titan, Military Police Brigade, Dark, Reiner Braun, Sad, Glasses, Fantasy, Mikasa Ackerman, Ponytail, Auruo Bossard, Hange Zoe, Wings Of Freedom, Purple Dress, Isabel Magnolia, Sitting, Annie Leonhart, Shingeki No Kyojin, Blonde, Knife, Mina Carolina, Monitor, Eren Yeager, Emblem, Short Hair, Hug, Armin Arlert, Kenny Ackerman, Flower, Dress, Brown Eyes, Red Dress, Blue Dress, Cape, Sasha Blouse, Green Dress, Sunset, Glowing Eyes, Battle, Colossal Titan, Cloud, Lying Down, Forest, Levi Ackerman, Oluo Bozado, Tears",
    "description": "Attack On Titan",
    "link_thumb": "https://live.staticflickr.com/65535/47893882681_c2753134a3_n.jpg",
    "id_album": "-358721474",
    "total_view": 805
  },
  {
    "total_img": 1083,
    "number_page": 6,
    "title": "Anime",
    "tag": "Anime,",
    "description": "Anime",
    "link_thumb": "https://live.staticflickr.com/65535/48066953706_2771a62522_n.jpg",
    "id_album": "-1920923841",
    "total_view": 1083
  },
  {
    "total_img": 242,
    "number_page": 2,
    "title": "Attack on Titan",
    "tag": "Attack on Titan,",
    "description": "Attack on Titan",
    "link_thumb": "https://live.staticflickr.com/65535/47960812696_5d66647bee_n.jpg",
    "id_album": "-33662914",
    "total_view": 242
  },
  {
    "total_img": 50,
    "number_page": 1,
    "title": "Black Eyes",
    "tag": "Black Eyes,",
    "description": "Black Eyes",
    "link_thumb": "https://live.staticflickr.com/65535/48066328668_b63565e5e3_n.jpg",
    "id_album": "432677877",
    "total_view": 50
  },
  {
    "total_img": 752,
    "number_page": 4,
    "title": "Black Hair",
    "tag": "Black Hair,",
    "description": "Black Hair",
    "link_thumb": "https://live.staticflickr.com/65535/48066328668_b63565e5e3_n.jpg",
    "id_album": "1485204216",
    "total_view": 752
  },
  {
    "total_img": 2585,
    "number_page": 13,
    "title": "Boy",
    "tag": "Boy,",
    "description": "Boy",
    "link_thumb": "https://live.staticflickr.com/65535/51541746745_541d4f2e57_n.jpg",
    "id_album": "-1694302085",
    "total_view": 2226
  },
  {
    "total_img": 718,
    "number_page": 4,
    "title": "Brown Hair",
    "tag": "Brown Hair,",
    "description": "Brown Hair",
    "link_thumb": "https://live.staticflickr.com/65535/48609891276_d6beb9cf73_n.jpg",
    "id_album": "119672248",
    "total_view": 718
  },
  {
    "total_img": 296,
    "number_page": 2,
    "title": "Eren Yeager",
    "tag": "Eren Yeager,",
    "description": "Eren Yeager",
    "link_thumb": "https://live.staticflickr.com/65535/47960674132_aa22ffe15d_n.jpg",
    "id_album": "631782457",
    "total_view": 296
  },
  {
    "total_img": 16,
    "number_page": 1,
    "title": "Hug",
    "tag": "Hug,",
    "description": "Hug",
    "link_thumb": "https://live.staticflickr.com/65535/48066471946_4c031dde86_n.jpg",
    "id_album": "-1431524689",
    "total_view": 16
  },
  {
    "total_img": 371,
    "number_page": 2,
    "title": "Mikasa Ackerman",
    "tag": "Mikasa Ackerman,",
    "description": "Mikasa Ackerman",
    "link_thumb": "https://live.staticflickr.com/65535/47960674132_aa22ffe15d_n.jpg",
    "id_album": "1595583438",
    "total_view": 371
  },
  {
    "total_img": 239,
    "number_page": 2,
    "title": "Shingeki No Kyojin",
    "tag": "Shingeki No Kyojin,",
    "description": "Shingeki No Kyojin",
    "link_thumb": "https://live.staticflickr.com/65535/47960674132_aa22ffe15d_n.jpg",
    "id_album": "852326839",
    "total_view": 239
  },
  {
    "total_img": 48,
    "number_page": 1,
    "title": "Tears",
    "tag": "Tears,",
    "description": "Tears",
    "link_thumb": "https://live.staticflickr.com/65535/48066708568_f57283b410_n.jpg",
    "id_album": "-1624461992",
    "total_view": 48
  }
]