[
  {
    "total_img": 62,
    "number_page": 1,
    "title": "Charlotte",
    "tag": "Water, Sky, Charlotte, Green Eyes, Telescope, Night, Moon, Stars, Black Hair, Yusa Nishimori, Ayumi Otosaka, Yusa Kurobane, Wedding Dress, Long Hair, Yu Otosaka, Thigh Highs, Anime, Bracelet, White Hair, Light, Kimono, Shorts, Camera, Fence, Purple Eyes, Purple Hair, Cute, Mask, Black Dress, Smile, Boy, Red Eyes, Skirt, Joujirou Takajou, Blush, Belt, Misa Kurobane, Kaori Miyazono, Glasses, Purple Dress, Lantern, Microphone, Chair, Nao Tomori, Sitting, Rose, Socks, Blonde, Shooting Star, Twintails, Barefoot, bow Clothing, Ocean, Charlotte Anime, Fireworks, Bullet, Necklace, Flower, Table, Dress, Brown Eyes, Brown Hair, Bag, Pink Eyes, School Uniform, Pink Hair, Jump, Sunset, Blue Eyes, Crown, Apple, Wedding, Sleeping, Boots",
    "description": "Charlotte",
    "link_thumb": "https://live.staticflickr.com/65535/47122388234_dc839335e7_n.jpg",
    "id_album": "-1789298034",
    "total_view": 62
  },
  {
    "total_img": 7,
    "number_page": 1,
    "title": "Joujirou Takajou",
    "tag": "Joujirou Takajou,",
    "description": "Joujirou Takajou",
    "link_thumb": "https://live.staticflickr.com/65535/47859764902_830983042c_n.jpg",
    "id_album": "-473126593",
    "total_view": 7
  },
  {
    "total_img": 57,
    "number_page": 1,
    "title": "Nao Tomori",
    "tag": "Nao Tomori,",
    "description": "Nao Tomori",
    "link_thumb": "https://live.staticflickr.com/65535/47960759951_fdf06b233d_n.jpg",
    "id_album": "-927001943",
    "total_view": 57
  },
  {
    "total_img": 13,
    "number_page": 1,
    "title": "Yu Otosaka",
    "tag": "Yu Otosaka,",
    "description": "Yu Otosaka",
    "link_thumb": "https://live.staticflickr.com/65535/47859794402_77095afda2_n.jpg",
    "id_album": "-1992460341",
    "total_view": 13
  },
  {
    "total_img": 8,
    "number_page": 1,
    "title": "Yusa Kurobane",
    "tag": "Yusa Kurobane,",
    "description": "Yusa Kurobane",
    "link_thumb": "https://live.staticflickr.com/65535/47122430494_93e29c77b1_n.jpg",
    "id_album": "533755642",
    "total_view": 8
  }
]