[
  {
    "link_thumb": "https://live.staticflickr.com/65535/48095084746_5eb0649b65_n.jpg",
    "id_album": "-608008682",
    "description": "Overlord_934016",
    "title": "Overlord_934016",
    "link_img": "https://live.staticflickr.com/65535/48095084746_9a3bb0ab33_o.jpg",
    "id_image": "Overlord_934016",
    "count_view": 0
  },
  {
    "link_thumb": "https://live.staticflickr.com/65535/48095191022_f9f2978192_n.jpg",
    "id_album": "-608008682",
    "description": "Overlord_935156",
    "title": "Overlord_935156",
    "link_img": "https://live.staticflickr.com/65535/48095191022_de4e6d4d12_o.jpg",
    "id_image": "Overlord_935156",
    "count_view": 0
  }
]