[
  {
    "link_thumb": "https://live.staticflickr.com/65535/48609506518_131475de8e_n.jpg",
    "id_album": "713521484",
    "description": "TsukigaKirei_1024204",
    "title": "TsukigaKirei_1024204",
    "link_img": "https://live.staticflickr.com/65535/48609506518_1f7ecb8b9b_o.jpg",
    "id_image": "TsukigaKirei_1024204",
    "count_view": 0
  },
  {
    "link_thumb": "https://live.staticflickr.com/65535/48609506663_18bb8a0fa5_n.jpg",
    "id_album": "713521484",
    "description": "TsukigaKirei_1024205",
    "title": "TsukigaKirei_1024205",
    "link_img": "https://live.staticflickr.com/65535/48609506663_b11fb10566_o.jpg",
    "id_image": "TsukigaKirei_1024205",
    "count_view": 0
  },
  {
    "link_thumb": "https://live.staticflickr.com/65535/48610019607_8581bd60e8_n.jpg",
    "id_album": "713521484",
    "description": "TsukigaKirei_1024208",
    "title": "TsukigaKirei_1024208",
    "link_img": "https://live.staticflickr.com/65535/48610019607_ae4000805e_o.jpg",
    "id_image": "TsukigaKirei_1024208",
    "count_view": 0
  },
  {
    "link_thumb": "https://live.staticflickr.com/65535/48610020007_f5185d72de_n.jpg",
    "id_album": "713521484",
    "description": "TsukigaKirei_1024211",
    "title": "TsukigaKirei_1024211",
    "link_img": "https://live.staticflickr.com/65535/48610020007_db3b5e9479_o.jpg",
    "id_image": "TsukigaKirei_1024211",
    "count_view": 0
  },
  {
    "link_thumb": "https://live.staticflickr.com/65535/48610020142_925d603749_n.jpg",
    "id_album": "713521484",
    "description": "TsukigaKirei_1024212",
    "title": "TsukigaKirei_1024212",
    "link_img": "https://live.staticflickr.com/65535/48610020142_8804796f76_o.jpg",
    "id_image": "TsukigaKirei_1024212",
    "count_view": 0
  },
  {
    "link_thumb": "https://live.staticflickr.com/65535/48609508088_72cb28aa97_n.jpg",
    "id_album": "713521484",
    "description": "TsukigaKirei_1024214",
    "title": "TsukigaKirei_1024214",
    "link_img": "https://live.staticflickr.com/65535/48609508088_03c0018c32_o.jpg",
    "id_image": "TsukigaKirei_1024214",
    "count_view": 0
  },
  {
    "link_thumb": "https://live.staticflickr.com/65535/48609870161_6989de9dfb_n.jpg",
    "id_album": "713521484",
    "description": "TsukigaKirei_1024219",
    "title": "TsukigaKirei_1024219",
    "link_img": "https://live.staticflickr.com/65535/48609870161_ff27e70302_o.jpg",
    "id_image": "TsukigaKirei_1024219",
    "count_view": 0
  },
  {
    "link_thumb": "https://live.staticflickr.com/65535/48609870701_a952b9044c_n.jpg",
    "id_album": "713521484",
    "description": "TsukigaKirei_1024222",
    "title": "TsukigaKirei_1024222",
    "link_img": "https://live.staticflickr.com/65535/48609870701_afdd18b13e_o.jpg",
    "id_image": "TsukigaKirei_1024222",
    "count_view": 0
  },
  {
    "link_thumb": "https://live.staticflickr.com/65535/48609871226_daa409c3ea_n.jpg",
    "id_album": "713521484",
    "description": "TsukigaKirei_1024224",
    "title": "TsukigaKirei_1024224",
    "link_img": "https://live.staticflickr.com/65535/48609871226_86f1171e75_o.jpg",
    "id_image": "TsukigaKirei_1024224",
    "count_view": 0
  },
  {
    "link_thumb": "https://live.staticflickr.com/65535/48610022797_b3c106b5ea_n.jpg",
    "id_album": "713521484",
    "description": "TsukigaKirei_837703",
    "title": "TsukigaKirei_837703",
    "link_img": "https://live.staticflickr.com/65535/48610022797_edb7d8569b_o.jpg",
    "id_image": "TsukigaKirei_837703",
    "count_view": 0
  }
]