[
  {
    "total_img": 606,
    "number_page": 4,
    "title": "FateGrand Order",
    "tag": "Water, Green Hair, Shield, Wink, Black Hair, High Heels, Enkidu FateGrand Order, Monochrome, Okita Souji, Weapon, Helmet, Oryou FateKOHAACE, Lion, Bikini, Street, Jack the Ripper FateApocrypha, Gao Changgong FateGrand Order, Arrow, Berserker of Black FateApocrypha, Glove, Gilgamesh Fate Series, BB FateExtra CCC, Okada Izou Fate Series, Irisviel Von Einzbern, Mazda, Agravain FateGrand Order, Euryale FateGrand Order, Black Dress, Lancer FatePrototype Fragments, Smile, Antonio Salieri FateGrand Order, Skirt, Edmond Dantes FateGrand Order, Jeanne dArc Alter, Shiki Ryougi, Saber of Red FateApocrypha, Saber Bride, Jack the Ripper, Sukasaha, Orange Hair, Romani Archaman, Dark Sakura, Elizabeth Bathory FateGrand Order, Swimwear, Dragon, Japanese Clothes, Tail, Feather, Lamp Post, Nero Claudius, Fish, Face, Astolfo FateApocrypha, Artoria Pendragon, Vlad III FateApocrypha, Video Game, Caster FateZero, Original Anime, Motorcycle, Brown Hair, Fou FateGrand Order, Pink Hair, Ophelia Phamrsolone, Tie, Blue Eyes, Saber FatePrototype, Thigh Boots, Tamamo no Mae FateGrand Order, Brynhildr FateGrand Order, Boots, Fire, Fateextra, Emiya Alter, Tristan FateGrand Order, Akechi Mitsuhide FateGrand Order, Hat, Saber Lily, Animal Ears, Ashiya Doman, Mordred FateApocrypha, Green Eyes, Circe FateGrand Order, Medb FateGrand Order, Lancer FateExtra CCC, Sengo Muramasa, Karna FateGrand Order, Minamoto no Yorimitsu FateGrand Order, Foreigner FateGrand Order, Long Hair, Charles Babbage, Thigh Highs, Santa, Beach, Jeanne dArc Alter Santa Lily, Kimono, Knight, Headdress, Heterochromia, Saber Alter, Katou Danzou, Excalibur, Ruler FateApocrypha, Purple Hair, Popsicle, Cu Chulainn, Sherlock Holmes FateGrand Order, Rider of Black FateApocrypha, Leonardo da Vinci FateGrand Order, Bodysuit, Kara no Kyokai, Gawain FateExtra, Ritsuka Fujimaru, Miyamoto Musashi, Glasses, Cosmos in the Lostbelt FateGrand Order, Shirou Kotomine, Bird, Nursery Rhyme, Sitting, Galahad FateGrand Order, Medea Fate Series, Yagyuu Munenori, Blonde, Twintails, Stheno FateGrand Order, Lancelot FateGrand Order, Arthur Pendragon FateGrand Order, Armor, Mashu Kyrielight, Gelda FateGrand Order, Beachwear, Katana, Ibaraki Douji, Eating, Arash FatePrototype, Anastasia FateGrand Order, Shuten Douji, Merlin Fate Series, Pink Eyes, Cape, Rider FateGrand Order, Nightingale FateGrand Order, Sakata Kintoki, Chacha FateGrand Order, Avicebron FateApocrypha, Assassin of Black FateApocrypha, Apple, Lancer FateStay Night, Parvati FateGrand Order, Purple, Lying Down, Helena Blavatsky FateGrand Order, Altera FateGrand Order, King Hassan, Demon archer FateGrand Order, ScathachSkai, Scathach FateGrand Order, Ruler FateGrand Order, Heroine X Alter, Jeanne dArc Fate Series, Ishtar FateGrand Order, Glitter, Sword, Medusa FateGrand Order, Ribbon, White Hair, Book, Fangs, Lancer FatePrototype Fragments of Blue and Silver, Berserker FateZero, Lavinia Whateley FateGrand Order, Horns, Braid, Dog, Gilgamesh Caster, Demon Saber FateGrand Order, Flame, Assassin FateZero, Frankenstein FateApocrypha, Purple Eyes, Jacket, Suitcase, Scarf, Avenger FateGrand Order, Abigail Williams FateGrand Order, Aqua Eyes, Fujimaru Ritsuka Male, Flying, Blush, Pantyhose, Caster FateExtra, Animal, Wolfgang Amadeus Mozart FateGrand Order, False Lancer, Bell, Katsushika Hokusai FateGrand Order, Heroine X, Shielder FateGrand Order, Chain, Black  White, Berserker FateGrand Order, Paul Bunyan FateGrand Order, Midare Toushirou, Rose, Solomon FateGrand Order, Ibaraki Doji, Kadoc Zemlupus, Tiara, Oda Nobunaga FateGrand Order, Florence Nightingale FateGrand Order, King Hassan FateGrand Order, Attila Fate Series, Souji Okita, Banner, Meltlilith Fate Series, Cursed Arm Hassan, Gift, Sweater, Sakamoto Ryoma FateGrand Order, Fujimaru Ritsuka, Assassin Fatestay night, Bedivere FateGrand Order, Rin Tohsaka, Gawain FateGrand Order, Halloween, Kiyohime FateGrand Order, Night, Tomoe Gozen FateGrand Order, FateGrand Order, Houzouin Inshun, Sakura Matou, Wedding Dress, EMIYA Assassin, Okita Alter, Bleached Eyes, Rain, Lancer of Red FateApocrypha, Anime, Wu Zetian FateGrand Order, Woman, Shirou Emiya, Musashi Miyamoto, Cu Chulainn Alter, Mysterious Heroine X, Nightgale Fate Series, Saber Fate Series, Olga Marie Animusphere, Caster FateGrand Order, Ereshkigal FateGrand Order, Bow, Yellow Eyes, Boy, Flag, Red Eyes, Cap, Car, Dark, Cat, Fantasy, Ponytail, Headpiece, Rider Fatestay night, Archer FateStay Night, Turtleneck, Atalanta FateApocrypha, Purple Dress, Orange Eyes, Santa Lily, Cherry Blossom, Archer FateGrand Order, Nitocris FateGrand Order, Butterfly, Cross, Lance, Osakabehime FateGrand Order, Fate Series, bow Clothing, Mochizuki Chiyome, Short Hair, Swimsuit, Flower, Marie Antoinette FateGrand Order, Illyasviel Von Einzbern, Dress, Brown Eyes, James Moriarty FateGrand Order, Lancer FateGrand Order, Woman Warrior, Bride, Sigurd FateGrand Order, Archer Inferno, Oda Nobukatsu FateGrand Order, Cu Chulainn FateExtella The Umbral Star, Cloud, Hijikata Toshizo FateGrand Order, Nobunaga Oda, Red Saber, Suzuka Gozen, Petal, Attila the Santa",
    "description": "FateGrand Order",
    "link_thumb": "https://live.staticflickr.com/65535/47975853358_a91bb0d8be_n.jpg",
    "id_album": "1941538789",
    "total_view": 606
  },
  {
    "total_img": 363,
    "number_page": 2,
    "title": "Brown Eyes",
    "tag": "Brown Eyes,",
    "description": "Brown Eyes",
    "link_thumb": "https://live.staticflickr.com/65535/48609891276_d6beb9cf73_n.jpg",
    "id_album": "-346700115",
    "total_view": 363
  },
  {
    "total_img": 718,
    "number_page": 4,
    "title": "Brown Hair",
    "tag": "Brown Hair,",
    "description": "Brown Hair",
    "link_thumb": "https://live.staticflickr.com/65535/48609891276_d6beb9cf73_n.jpg",
    "id_album": "119672248",
    "total_view": 718
  },
  {
    "total_img": 28,
    "number_page": 1,
    "title": "Cap",
    "tag": "Cap,",
    "description": "Cap",
    "link_thumb": "https://live.staticflickr.com/65535/48065804938_d7e53077dc_n.jpg",
    "id_album": "227881143",
    "total_view": 28
  },
  {
    "total_img": 1729,
    "number_page": 9,
    "title": "Long Hair",
    "tag": "Long Hair,",
    "description": "Long Hair",
    "link_thumb": "https://live.staticflickr.com/65535/48066953706_2771a62522_n.jpg",
    "id_album": "186170098",
    "total_view": 1729
  },
  {
    "total_img": 7,
    "number_page": 1,
    "title": "Oda Nobunaga FateGrand Order",
    "tag": "Oda Nobunaga FateGrand Order,",
    "description": "Oda Nobunaga FateGrand Order",
    "link_thumb": "https://live.staticflickr.com/65535/47977261487_b6001f4a5e_n.jpg",
    "id_album": "726020529",
    "total_view": 7
  }
]