[
  {
    "link_thumb": "https://live.staticflickr.com/65535/48058972107_9ae26f5e35_n.jpg",
    "id_album": "524301086",
    "description": "SwordArtOnlineAlternativeGunGaleOnline_912954",
    "title": "SwordArtOnlineAlternativeGunGaleOnline_912954",
    "link_img": "https://live.staticflickr.com/65535/48058972107_a25a891470_o.jpg",
    "id_image": "SwordArtOnlineAlternativeGunGaleOnline_912954",
    "count_view": 0
  },
  {
    "link_thumb": "https://live.staticflickr.com/65535/48058972532_a9a7bf6e3e_n.jpg",
    "id_album": "524301086",
    "description": "SwordArtOnlineAlternativeGunGaleOnline_913760",
    "title": "SwordArtOnlineAlternativeGunGaleOnline_913760",
    "link_img": "https://live.staticflickr.com/65535/48058972532_83e4affa76_o.jpg",
    "id_image": "SwordArtOnlineAlternativeGunGaleOnline_913760",
    "count_view": 0
  },
  {
    "link_thumb": "https://live.staticflickr.com/65535/48058926448_6678b0c159_n.jpg",
    "id_album": "524301086",
    "description": "SwordArtOnlineAlternativeGunGaleOnline_914088",
    "title": "SwordArtOnlineAlternativeGunGaleOnline_914088",
    "link_img": "https://live.staticflickr.com/65535/48058926448_afb0b415f1_o.jpg",
    "id_image": "SwordArtOnlineAlternativeGunGaleOnline_914088",
    "count_view": 0
  },
  {
    "link_thumb": "https://live.staticflickr.com/65535/48058932683_1089001488_n.jpg",
    "id_album": "524301086",
    "description": "SwordArtOnlineAlternativeGunGaleOnline_916492",
    "title": "SwordArtOnlineAlternativeGunGaleOnline_916492",
    "link_img": "https://live.staticflickr.com/65535/48058932683_2b8e59d20e_o.jpg",
    "id_image": "SwordArtOnlineAlternativeGunGaleOnline_916492",
    "count_view": 0
  }
]