[
  {
    "link_thumb": "https://live.staticflickr.com/65535/40923738793_c06e90a450_n.jpg",
    "id_album": "-381817513",
    "description": "AhoGirl_836173,[isCoupleAnime],[isCuteAnime],[Aho Girl],[AhoGirl],[isGirlAnime]",
    "title": "AhoGirl_836173",
    "link_img": "https://live.staticflickr.com/65535/40923738793_1115ac4c66_o.jpg",
    "id_image": "AhoGirl_836173",
    "count_view": 0
  },
  {
    "link_thumb": "https://live.staticflickr.com/65535/47100763344_c7ab420402_n.jpg",
    "id_album": "-381817513",
    "description": "AhoGirl_836175,[isBoyAnime],[Aho Girl],[AhoGirl],[isGirlAnime]",
    "title": "AhoGirl_836175",
    "link_img": "https://live.staticflickr.com/65535/47100763344_9eb9ce5cdf_o.jpg",
    "id_image": "AhoGirl_836175",
    "count_view": 0
  },
  {
    "link_thumb": "https://live.staticflickr.com/65535/47100763724_d7a50f1696_n.jpg",
    "id_album": "-381817513",
    "description": "AhoGirl_836176,[isGirlAnime],[isSadAnimeGirl],[isCuteAnime],[Aho Girl],[AhoGirl]",
    "title": "AhoGirl_836176",
    "link_img": "https://live.staticflickr.com/65535/47100763724_61fa4944cc_o.jpg",
    "id_image": "AhoGirl_836176",
    "count_view": 0
  },
  {
    "link_thumb": "https://live.staticflickr.com/65535/47890052651_82ce72b83b_n.jpg",
    "id_album": "-381817513",
    "description": "AhoGirl_836177,[isGirlAnime],[Aho Girl],[AhoGirl]",
    "title": "AhoGirl_836177",
    "link_img": "https://live.staticflickr.com/65535/47890052651_246b03fb41_o.jpg",
    "id_image": "AhoGirl_836177",
    "count_view": 0
  },
  {
    "link_thumb": "https://live.staticflickr.com/65535/40923742773_f0b4c7b6f6_n.jpg",
    "id_album": "-381817513",
    "description": "AhoGirl_836178,[isBoyAnime],[Aho Girl],[AhoGirl],[isGirlAnime]",
    "title": "AhoGirl_836178",
    "link_img": "https://live.staticflickr.com/65535/40923742773_9fe86c9144_o.jpg",
    "id_image": "AhoGirl_836178",
    "count_view": 0
  },
  {
    "link_thumb": "https://live.staticflickr.com/65535/47890054441_5763bb897d_n.jpg",
    "id_album": "-381817513",
    "description": "AhoGirl_836179,[isGirlAnime],[Aho Girl],[AhoGirl]",
    "title": "AhoGirl_836179",
    "link_img": "https://live.staticflickr.com/65535/47890054441_5dc866b015_o.jpg",
    "id_image": "AhoGirl_836179",
    "count_view": 0
  },
  {
    "link_thumb": "https://live.staticflickr.com/65535/46973980705_5d5fa6a50b_n.jpg",
    "id_album": "-381817513",
    "description": "AhoGirl_836180,[isGirlAnime],[Aho Girl],[AhoGirl]",
    "title": "AhoGirl_836180",
    "link_img": "https://live.staticflickr.com/65535/46973980705_56ffc88824_o.jpg",
    "id_image": "AhoGirl_836180",
    "count_view": 0
  },
  {
    "link_thumb": "https://live.staticflickr.com/65535/40923746553_fca38086d7_n.jpg",
    "id_album": "-381817513",
    "description": "AhoGirl_836181,[isGirlAnime],[isBoyAnime],[isCoupleAnime],[Aho Girl],[AhoGirl]",
    "title": "AhoGirl_836181",
    "link_img": "https://live.staticflickr.com/65535/40923746553_5a1ac98bea_o.jpg",
    "id_image": "AhoGirl_836181",
    "count_view": 0
  },
  {
    "link_thumb": "https://live.staticflickr.com/65535/40923747623_65716e5849_n.jpg",
    "id_album": "-381817513",
    "description": "AhoGirl_836182,[isGirlAnime],[Aho Girl],[AhoGirl]",
    "title": "AhoGirl_836182",
    "link_img": "https://live.staticflickr.com/65535/40923747623_d7003e2aac_o.jpg",
    "id_image": "AhoGirl_836182",
    "count_view": 0
  },
  {
    "link_thumb": "https://live.staticflickr.com/65535/47890057541_856972769b_n.jpg",
    "id_album": "-381817513",
    "description": "AhoGirl_836183,[isCoupleAnime],[Aho Girl],[AhoGirl],[isGirlAnime]",
    "title": "AhoGirl_836183",
    "link_img": "https://live.staticflickr.com/65535/47890057541_5d61807730_o.jpg",
    "id_image": "AhoGirl_836183",
    "count_view": 0
  },
  {
    "link_thumb": "https://live.staticflickr.com/65535/40923749073_71c4a3b3ba_n.jpg",
    "id_album": "-381817513",
    "description": "AhoGirl_836184,[isGirlAnime],[Aho Girl],[AhoGirl]",
    "title": "AhoGirl_836184",
    "link_img": "https://live.staticflickr.com/65535/40923749073_5711cfeaf8_o.jpg",
    "id_image": "AhoGirl_836184",
    "count_view": 0
  },
  {
    "link_thumb": "https://live.staticflickr.com/65535/47838129522_6901d51e7e_n.jpg",
    "id_album": "-381817513",
    "description": "AhoGirl_836185,[isGirlAnime],[isCuteAnime],[Aho Girl],[AhoGirl]",
    "title": "AhoGirl_836185",
    "link_img": "https://live.staticflickr.com/65535/47838129522_2d39e2f62d_o.jpg",
    "id_image": "AhoGirl_836185",
    "count_view": 0
  },
  {
    "link_thumb": "https://live.staticflickr.com/65535/47890060091_582876feee_n.jpg",
    "id_album": "-381817513",
    "description": "AhoGirl_894155,[isGirlAnime],[Aho Girl],[AhoGirl]",
    "title": "AhoGirl_894155",
    "link_img": "https://live.staticflickr.com/65535/47890060091_ccb39cca91_o.jpg",
    "id_image": "AhoGirl_894155",
    "count_view": 0
  },
  {
    "link_thumb": "https://live.staticflickr.com/65535/40923752733_24af9cd9cd_n.jpg",
    "id_album": "-381817513",
    "description": "AhoGirl_911689,[isGirlAnime],[isCuteAnime],[isGirlsLoliAnime],[Aho Girl],[AhoGirl]",
    "title": "AhoGirl_911689",
    "link_img": "https://live.staticflickr.com/65535/40923752733_2696df6dc2_o.jpg",
    "id_image": "AhoGirl_911689",
    "count_view": 0
  }
]