[
  {
    "total_img": 467,
    "number_page": 3,
    "title": "Angel Beats",
    "tag": "Hinata Hideki, Green Eyes, Moon, Uniform, Grenade, Wedding Dress, Weapon, Yuzuru Otonashi, Long Hair, Thigh Highs, Anime, Takeyama Angel Beats, Hatsune Otonashi, Pistol, White Hair, Kimono, Headdress, Veil, Woman, Gun, Glove, Purple Hair, Kanade Tachibana, Yellow Eyes, Smile, Skirt, Piano, Hisako Angel Beats, Blush, Belt, Miyuki Irie, Fujimaki Angel Beats, Sunflower, Ayato Naoi, Noda Angel Beats, Sitting, Socks, Saitou Angel Beats, White Dress, Ooyama Angel Beats, Yusa Angel Beats, Yui Angel Beats, Angel Beats, Matsushita Angel Beats, Handgun, Shiina Angel Beats, Wings, Sunbeam, Eri Shiina, Shiori Sekine, TK Angel Beats, Flower, Azusa Nakano, Chaa Angel Beats, Dress, Headband, Pink Hair, Blue Hair, Yuri Nakamura, Takamatsu Angel Beats, Masami Iwasawa, Hat",
    "description": "Angel Beats",
    "link_thumb": "https://live.staticflickr.com/65535/47891904701_75cc6e44fe_n.jpg",
    "id_album": "-1326058986",
    "total_view": 467
  },
  {
    "total_img": 32,
    "number_page": 1,
    "title": "Masami Iwasawa",
    "tag": "Masami Iwasawa,",
    "description": "Masami Iwasawa",
    "link_thumb": "https://live.staticflickr.com/65535/47960674132_aa22ffe15d_n.jpg",
    "id_album": "759724181",
    "total_view": 32
  },
  {
    "total_img": 104,
    "number_page": 1,
    "title": "Yuri Nakamura",
    "tag": "Yuri Nakamura,",
    "description": "Yuri Nakamura",
    "link_thumb": "https://live.staticflickr.com/65535/47955747531_783016bb26_n.jpg",
    "id_album": "-1529853635",
    "total_view": 104
  },
  {
    "total_img": 53,
    "number_page": 1,
    "title": "Yuzuru Otonashi",
    "tag": "Yuzuru Otonashi,",
    "description": "Yuzuru Otonashi",
    "link_thumb": "https://live.staticflickr.com/65535/46976302765_038cc90ecd_n.jpg",
    "id_album": "-1935720945",
    "total_view": 53
  }
]