[
  {
    "link_thumb": "https://live.staticflickr.com/65535/48064058331_ef201aaf94_n.jpg",
    "id_album": "1602213312",
    "description": "VirtualYoutuber_929517",
    "title": "VirtualYoutuber_929517",
    "link_img": "https://live.staticflickr.com/65535/48064058331_5fd084eaa9_o.jpg",
    "id_image": "VirtualYoutuber_929517",
    "count_view": 0
  },
  {
    "link_thumb": "https://live.staticflickr.com/65535/48064082126_9fc4bfc6b9_n.jpg",
    "id_album": "1602213312",
    "description": "VirtualYoutuber_978059",
    "title": "VirtualYoutuber_978059",
    "link_img": "https://live.staticflickr.com/65535/48064082126_57ddc7000f_o.jpg",
    "id_image": "VirtualYoutuber_978059",
    "count_view": 0
  }
]