[
  {
    "total_img": 82,
    "number_page": 1,
    "title": "Yuru Yuri",
    "tag": "Himawari Furutani, Ayano Sugiura, Akari Akaza, School Uniform, Pink Hair, Yellow Eyes, Swimwear, Blonde, Long Hair, Sakurako Omuro, Hanako Omuro, Rise Matsumoto, Blue Eyes, Anime, Blue Hair, Chitose Ikeda, Yui Funami, Yuri, Yuru Yuri, Fall, YuriYuri, Kyoko Toshino, Chinatsu Yoshikawa",
    "description": "Yuru Yuri",
    "link_thumb": "https://live.staticflickr.com/65535/48066905523_9b41a839c4_n.jpg",
    "id_album": "-389894623",
    "total_view": 82
  },
  {
    "total_img": 16,
    "number_page": 1,
    "title": "Chinatsu Yoshikawa",
    "tag": "Chinatsu Yoshikawa,",
    "description": "Chinatsu Yoshikawa",
    "link_thumb": "https://live.staticflickr.com/65535/48066948413_2c79b59d7f_n.jpg",
    "id_album": "-1865637146",
    "total_view": 16
  },
  {
    "total_img": 25,
    "number_page": 1,
    "title": "Kyoko Toshino",
    "tag": "Kyoko Toshino,",
    "description": "Kyoko Toshino",
    "link_thumb": "https://live.staticflickr.com/65535/48066950008_5f62b5e82c_n.jpg",
    "id_album": "634362089",
    "total_view": 25
  },
  {
    "total_img": 16,
    "number_page": 1,
    "title": "Yui Funami",
    "tag": "Yui Funami,",
    "description": "Yui Funami",
    "link_thumb": "https://live.staticflickr.com/65535/48066950008_5f62b5e82c_n.jpg",
    "id_album": "1377659263",
    "total_view": 16
  }
]