[
  {
    "total_img": 290,
    "number_page": 2,
    "title": "Sword Art Online",
    "tag": "Sky, Tales of Xillia, Thinker Sword Art Online, Black Hair, Agil Sword Art Online, Kyosuke Kosaka, Klein Sword Art Online, Griselda Sword Art Online, Tales of Zestiria, Weapon, Sword, Night Sky Sword Sword Art Online, Braid, Hair, Purple Eyes, Jacket, Sword Art Online Memory Defrag, Rika Shinozaki, Smile, Rain Sword Art Online Lost Song, Kirino Kousaka, Skirt, Belt, Blush, Hinamatsuri, Pantyhose, Yellow, Silica Sword Art Online, Poker, Alicia Rue, Orange Hair, Circus, Eugene Sword Art Online, Rose, Nobuyuki Sugou, Sinon Sword Art Online, Tales of Berseria, Valentines Day, Japanese Clothes, Leaf, Strea Sword Art Online, Ryoutarou Tsuboi, Eugeo Sword Art Online, Food, Warrior, Cheerleader, Blue, Brown Hair, Pink Hair, Kizmel Sword Art Online, Starry Sky, Blue Eyes, Wedding, Splash, Leafa Sword Art Online, Animal Ears, Halloween, Kiss, Priestess, Elf, Night, Snow, Asuna Yuuki, Shino Asada, Stars, Sachi Sword Art Online, Summer, Grass, Pina Sword Art Online, Snowfall, Wedding Dress, Long Hair, Sigurd Sword Art Online, Thigh Highs, Recon Sword Art Online, Rain, Santa, Anime, Kirito Sword Art Online, Kimono, Keiko Ayano, Tree, Coat, Purple Hair, Vacation, Lisbeth Sword Art Online, Sakuya Sword Art Online, Kazuto Kirigaya, Yellow Eyes, Boy, Red Eyes, Pink, Sao2, Yuriel Sword Art Online, Ore no Imoto ga Konna ni Kawaii Wake ga Nai, Fall, Yulier Sword Art Online, Orange Eyes, Aincrad Sword Art Online, Sitting, Sword Art Online Ordinal Scale, Blonde, Andrew Gilbert Mills, Kayaba Akihiko, Sword Art Online, Hug, Kirigaya Kazuto, Yui Sword Art Online, Argo Sword Art Online, Flower, Dress, Brown Eyes, Pink Eyes, Sword Art Online Fatal Bullet, Maid, Premiere Sword Art Online, School Uniform, Sunset, Blue Hair, Suguha Kirigaya, Sleeping, Cloud, Yuuki Konno, Lying Down, Castle, Pirate, Heathcliff Sword Art Online, Yukata, Green",
    "description": "Sword Art Online",
    "link_thumb": "https://live.staticflickr.com/65535/48058345826_e8f950c806_n.jpg",
    "id_album": "1562598738",
    "total_view": 290
  },
  {
    "total_img": 162,
    "number_page": 1,
    "title": "Asuna Yuuki",
    "tag": "Asuna Yuuki,",
    "description": "Asuna Yuuki",
    "link_thumb": "https://live.staticflickr.com/65535/48058886138_0a26426470_n.jpg",
    "id_album": "872708849",
    "total_view": 162
  }
]