[
  {
    "total_img": 107,
    "number_page": 1,
    "title": "The Idolmaster Cinderella Girls Starlight Stage",
    "tag": "Hotaru Shiragiku, Rina Fujimoto, Yumi Aiba, Rin Shibuya, Shiho Makihara, Minami Nitta, Azuki Momoi, Nana Abe, Kozue Yusa, Yuko Hori, Syoko Hoshi, Hinako Kita, Seika Suzumiya, Nina Ichihara, Natsuki Kimura, Aiko Takamori, Makino Yagami, Yukari Mizumoto, Ayuna Hamakawa, Ema Senzaki, Uzuki Shimamura, Eve Santaclaus, Shinoa Hiragi, Yuzu Kitami, Anastasia Idolmster, Haruna Kamijo, Yuka Nakano, Ranko Kanzaki, Izumi Ohishi, Kotoka Saionji, Mika Jougasaki, Ryo Matsunaga, Kiyora Yanagi, Arisu Tachibana, Kaede Takagaki, Koume Shirasaka, Tokiko Zaizen, Risa Matoba, Chizuru Matsuo, The Idolmaster Cinderella Girls Starlight Stage, Kanako Mimura, Misaki Etou, Sachiko Koshimizu, Tomoe Murakami, Tamami Wakiyama, Yoko Saito, Takumi Mukai, Syuko Shiomi, Yukimi Sajo, Sakura Muramatsu, Shizuku Oikawa, Nono Morikubo, Ibuki Komatsu, Nao Kamiya, Mirei Hayasaka, Shiki Ichinose, Akane Hino, Yui Ohtsuki, Kaoru Ryuzaki, Chieri Ogata, Rika Jougasaki, Anime, Noa Takigawa, Yoshino Yorita, Naho Ebihara, Mizuki Kawashima, Kyoko Igarashi, Kanade Hayami, Yuuki Otokura, Asuka Ninomiya, Emi Namba, Riina Tada, Anzu Futaba, Miku Maekawa, Chie Sasaki, Rei Shinohara, Karin Domyoji, Kate Idolmster, Kumiko Matsuyama, The iDOLMSTER Cinderella Girls, Kirari Moroboshi, Frederica Miyamoto, Aki Yamato, Marina Sawada, Shin Sato, Yuki Himekawa, Hiromi Seki, Wakaba Kusakabe, Karen Houjou, Sae Kobayakawa, Ryou Machiko, Mayu Sakuma, Miho Kohinata, Mary Cochran, Koharu Koga, Sanae Katagiri, Miria Akagi, Hino Akane",
    "description": "The Idolmaster Cinderella Girls Starlight Stage",
    "link_thumb": "https://live.staticflickr.com/65535/48059434848_b66340f461_n.jpg",
    "id_album": "1521436959",
    "total_view": 107
  },
  {
    "total_img": 19,
    "number_page": 1,
    "title": "Anzu Futaba",
    "tag": "Anzu Futaba,",
    "description": "Anzu Futaba",
    "link_thumb": "https://live.staticflickr.com/65535/48059685527_4d147c210d_n.jpg",
    "id_album": "1750896017",
    "total_view": 19
  },
  {
    "total_img": 10,
    "number_page": 1,
    "title": "Chieri Ogata",
    "tag": "Chieri Ogata,",
    "description": "Chieri Ogata",
    "link_thumb": "https://live.staticflickr.com/65535/48059820622_37ccc9eccc_n.jpg",
    "id_album": "881245579",
    "total_view": 10
  },
  {
    "total_img": 10,
    "number_page": 1,
    "title": "Kanako Mimura",
    "tag": "Kanako Mimura,",
    "description": "Kanako Mimura",
    "link_thumb": "https://live.staticflickr.com/65535/48059527377_e4e1810cfb_n.jpg",
    "id_album": "-953649786",
    "total_view": 10
  }
]