[
  {
    "total_img": 77,
    "number_page": 1,
    "title": "Unknown",
    "tag": "Haru no Natsu, LoliCha Love, Cute, Sensei Honyorer tte Nan desu ka, Hotarumaru Touken Ranbu, PetitCawa, Cherry Crisis, Ore no Kanojo ga Kawaisugiru no ga Warui, Its My Girlfriends Fault for Being Too Cute, Just the Two of Us Stand By Me, Otome Magic Orchestra, Hamideru Kimochi  Hamipai Fall in Love, Anime, Unknown, TaoYaun, Dark, Tololita, Otonarisan no Yuukun, Hanatsumi, Loli to Bokura no",
    "description": "Unknown",
    "link_thumb": "https://live.staticflickr.com/65535/51567278162_38ef50dd95_n.jpg",
    "id_album": "-1440729949",
    "total_view": 77
  }
]