[
  {
    "link_thumb": "https://live.staticflickr.com/65535/51543868791_b30152b41c_n.jpg",
    "id_album": "-316663319",
    "description": "ANIME_PIC_6ff86eef968e9bfd5d017a3a3c3a6450,[Girl],[isGirlAnime],[isCuteAnime],[isGirlsLoliAnime],[isSadAnimeGirl],[isSadAnime]",
    "title": "ANIME_PIC_6ff86eef968e9bfd5d017a3a3c3a6450",
    "link_img": "https://live.staticflickr.com/65535/51543868791_dbb157f51f_o.jpg",
    "id_image": "ANIME_PIC_6ff86eef968e9bfd5d017a3a3c3a6450",
    "count_view": 0
  },
  {
    "link_thumb": "https://live.staticflickr.com/65535/51545384264_633ea42bdb_n.jpg",
    "id_album": "-316663319",
    "description": "ANIME_PIC_6ffaf3138cac0e38b900fa1859140de8,[Girl],[isGirlAnime],[isCuteAnime],[isGirlsLoliAnime],[isGirlsSharpCanineToothAnime]",
    "title": "ANIME_PIC_6ffaf3138cac0e38b900fa1859140de8",
    "link_img": "https://live.staticflickr.com/65535/51545384264_c4c83ee03c_o.jpg",
    "id_image": "ANIME_PIC_6ffaf3138cac0e38b900fa1859140de8",
    "count_view": 0
  },
  {
    "link_thumb": "https://live.staticflickr.com/65535/51544797255_a4da1b2fd1_n.jpg",
    "id_album": "-316663319",
    "description": "ANIME_PIC_6ffe9e6d32bd3a628676c20f256bceee,[Girl],[isGirlAnime],[isCuteAnime],[isGirlsLoliAnime]",
    "title": "ANIME_PIC_6ffe9e6d32bd3a628676c20f256bceee",
    "link_img": "https://live.staticflickr.com/65535/51544797255_22b2af0f8b_o.jpg",
    "id_image": "ANIME_PIC_6ffe9e6d32bd3a628676c20f256bceee",
    "count_view": 0
  },
  {
    "link_thumb": "https://live.staticflickr.com/65535/51544653666_026e998edc_n.jpg",
    "id_album": "-316663319",
    "description": "ANIME_PIC_700357dd34249bbe817381163b87e1d7,[Girl],[isGirlAnime],[isCuteAnime]",
    "title": "ANIME_PIC_700357dd34249bbe817381163b87e1d7",
    "link_img": "https://live.staticflickr.com/65535/51544653666_2a6e2b6fa2_o.png",
    "id_image": "ANIME_PIC_700357dd34249bbe817381163b87e1d7",
    "count_view": 0
  },
  {
    "link_thumb": "https://live.staticflickr.com/65535/51544114663_7383da8231_n.jpg",
    "id_album": "-316663319",
    "description": "ANIME_PIC_70068d5d61e2ecc62e6092de5c07465c,[Girl],[isGirlAnime],[isCuteAnime],[isSadAnimeGirl],[isSadAnime]",
    "title": "ANIME_PIC_70068d5d61e2ecc62e6092de5c07465c",
    "link_img": "https://live.staticflickr.com/65535/51544114663_4ddf1c3d77_o.png",
    "id_image": "ANIME_PIC_70068d5d61e2ecc62e6092de5c07465c",
    "count_view": 0
  },
  {
    "link_thumb": "https://live.staticflickr.com/65535/51543869401_1d73dd3525_n.jpg",
    "id_album": "-316663319",
    "description": "ANIME_PIC_700770363b23a80330d6e8faa5e3cf7f,[Girl],[isGirlAnime],[isCuteAnime],[isGirlsLoliAnime]",
    "title": "ANIME_PIC_700770363b23a80330d6e8faa5e3cf7f",
    "link_img": "https://live.staticflickr.com/65535/51543869401_b171147d3f_o.jpg",
    "id_image": "ANIME_PIC_700770363b23a80330d6e8faa5e3cf7f",
    "count_view": 0
  },
  {
    "link_thumb": "https://live.staticflickr.com/65535/51543861072_2314ca13c5_n.jpg",
    "id_album": "-316663319",
    "description": "ANIME_PIC_700853b513b79da5d9d36bd2f09f8bdc,[Girl],[isGirlAnime],[isCuteAnime],[isGirlsHatsHoodieAnime],[isGirlsLoliAnime]",
    "title": "ANIME_PIC_700853b513b79da5d9d36bd2f09f8bdc",
    "link_img": "https://live.staticflickr.com/65535/51543861072_32757a466e_o.jpg",
    "id_image": "ANIME_PIC_700853b513b79da5d9d36bd2f09f8bdc",
    "count_view": 0
  },
  {
    "link_thumb": "https://live.staticflickr.com/65535/51543869616_38ece9693f_n.jpg",
    "id_album": "-316663319",
    "description": "ANIME_PIC_700b76e4e5359cb814af348c59d8bdad,[Girl],[isGirlAnime],[isCuteAnime],[isSadAnimeGirl],[isSadAnime]",
    "title": "ANIME_PIC_700b76e4e5359cb814af348c59d8bdad",
    "link_img": "https://live.staticflickr.com/65535/51543869616_195de28014_o.png",
    "id_image": "ANIME_PIC_700b76e4e5359cb814af348c59d8bdad",
    "count_view": 0
  },
  {
    "link_thumb": "https://live.staticflickr.com/65535/51544601534_351af81ec8_n.jpg",
    "id_album": "-316663319",
    "description": "ANIME_PIC_700d606a8e8ad354fbe908c47222f420,[Girl],[isGirlAnime],[isCuteAnime],[isGirlsLoliAnime],[isSadAnimeGirl],[isSadAnime]",
    "title": "ANIME_PIC_700d606a8e8ad354fbe908c47222f420",
    "link_img": "https://live.staticflickr.com/65535/51544601534_8be3584b5b_o.jpg",
    "id_image": "ANIME_PIC_700d606a8e8ad354fbe908c47222f420",
    "count_view": 0
  },
  {
    "link_thumb": "https://live.staticflickr.com/65535/51544601739_ff286ca167_n.jpg",
    "id_album": "-316663319",
    "description": "ANIME_PIC_700d84c9dabeb35b232c8727d9eb312e,[Girl],[isBoyAnime],[isGirlAnime],[isCuteAnime],[isGirlsLoliAnime]",
    "title": "ANIME_PIC_700d84c9dabeb35b232c8727d9eb312e",
    "link_img": "https://live.staticflickr.com/65535/51544601739_4f974110c3_o.jpg",
    "id_image": "ANIME_PIC_700d84c9dabeb35b232c8727d9eb312e",
    "count_view": 0
  },
  {
    "link_thumb": "https://live.staticflickr.com/65535/51544898958_5aa45eeb66_n.jpg",
    "id_album": "-316663319",
    "description": "ANIME_PIC_700dc1975cafd032d5231250b01505a7,[Girl],[isGirlAnime],[isCuteAnime],[isGirlEarsNekoAnime],[isGirlsLoliAnime]",
    "title": "ANIME_PIC_700dc1975cafd032d5231250b01505a7",
    "link_img": "https://live.staticflickr.com/65535/51544898958_e666ff6683_o.jpg",
    "id_image": "ANIME_PIC_700dc1975cafd032d5231250b01505a7",
    "count_view": 0
  },
  {
    "link_thumb": "https://live.staticflickr.com/65535/51543076052_760ed6cb50_n.jpg",
    "id_album": "-316663319",
    "description": "ANIME_PIC_7012c0d9f142654b05f233ce6b0c5315,[Girl],[isGirlAnime],[isCuteAnime],[isGirlsLoliAnime]",
    "title": "ANIME_PIC_7012c0d9f142654b05f233ce6b0c5315",
    "link_img": "https://live.staticflickr.com/65535/51543076052_b9f3c5af60_o.jpg",
    "id_image": "ANIME_PIC_7012c0d9f142654b05f233ce6b0c5315",
    "count_view": 0
  },
  {
    "link_thumb": "https://live.staticflickr.com/65535/51545583660_b82592a0c1_n.jpg",
    "id_album": "-316663319",
    "description": "ANIME_PIC_7013bdb178d2c4691018f40e5194f6d8,[Girl],[isGirlAnime],[isCuteAnime],[isGirlsHatsHoodieAnime],[isGirlsLoliAnime]",
    "title": "ANIME_PIC_7013bdb178d2c4691018f40e5194f6d8",
    "link_img": "https://live.staticflickr.com/65535/51545583660_48e2d6a88c_o.jpg",
    "id_image": "ANIME_PIC_7013bdb178d2c4691018f40e5194f6d8",
    "count_view": 0
  },
  {
    "link_thumb": "https://live.staticflickr.com/65535/51544654616_0bb77807c8_n.jpg",
    "id_album": "-316663319",
    "description": "ANIME_PIC_7018380f6fbe9de90fe92c16357dad0a,[Girl],[isGirlAnime],[isCuteAnime],[isGirlEarsNekoAnime],[isGirlsHornsAnime]",
    "title": "ANIME_PIC_7018380f6fbe9de90fe92c16357dad0a",
    "link_img": "https://live.staticflickr.com/65535/51544654616_c5962ca670_o.jpg",
    "id_image": "ANIME_PIC_7018380f6fbe9de90fe92c16357dad0a",
    "count_view": 0
  },
  {
    "link_thumb": "https://live.staticflickr.com/65535/51543076382_2339ed0863_n.jpg",
    "id_album": "-316663319",
    "description": "ANIME_PIC_701e194a36beb9cebcbb4cbe2a65e121,[Girl],[isGirlAnime],[isCuteAnime],[isGirlsHatsHoodieAnime],[isGirlsLoliAnime],[isSadAnimeGirl],[isSadAnime]",
    "title": "ANIME_PIC_701e194a36beb9cebcbb4cbe2a65e121",
    "link_img": "https://live.staticflickr.com/65535/51543076382_3d719dec2d_o.jpg",
    "id_image": "ANIME_PIC_701e194a36beb9cebcbb4cbe2a65e121",
    "count_view": 0
  },
  {
    "link_thumb": "https://live.staticflickr.com/65535/51543870906_1a25951031_n.jpg",
    "id_album": "-316663319",
    "description": "ANIME_PIC_702437da5ec91ed8cf407aeb29620c20,[Girl],[isGirlAnime],[isCuteAnime],[isGirlEarsNekoAnime]",
    "title": "ANIME_PIC_702437da5ec91ed8cf407aeb29620c20",
    "link_img": "https://live.staticflickr.com/65535/51543870906_e631a4056b_o.png",
    "id_image": "ANIME_PIC_702437da5ec91ed8cf407aeb29620c20",
    "count_view": 0
  },
  {
    "link_thumb": "https://live.staticflickr.com/65535/51544799595_4f6f7aee59_n.jpg",
    "id_album": "-316663319",
    "description": "ANIME_PIC_702d15f76247530690020e6fb73237cc,[Girl],[isGirlAnime],[isCuteAnime]",
    "title": "ANIME_PIC_702d15f76247530690020e6fb73237cc",
    "link_img": "https://live.staticflickr.com/65535/51544799595_da6dd8a431_o.jpg",
    "id_image": "ANIME_PIC_702d15f76247530690020e6fb73237cc",
    "count_view": 0
  },
  {
    "link_thumb": "https://live.staticflickr.com/65535/51543871676_df09647b14_n.jpg",
    "id_album": "-316663319",
    "description": "ANIME_PIC_702de8e375f9f7f9a8eda18b9112d041,[Girl],[isGirlAnime],[isCuteAnime],[isGirlsLoliAnime]",
    "title": "ANIME_PIC_702de8e375f9f7f9a8eda18b9112d041",
    "link_img": "https://live.staticflickr.com/65535/51543871676_28b5f01c1d_o.jpg",
    "id_image": "ANIME_PIC_702de8e375f9f7f9a8eda18b9112d041",
    "count_view": 0
  },
  {
    "link_thumb": "https://live.staticflickr.com/65535/51544603429_4c4496d263_n.jpg",
    "id_album": "-316663319",
    "description": "ANIME_PIC_702e84ee939d6e039371370789c46edf,[Girl],[isBoyAnime],[isCoupleAnime],[isGirlAnime],[isCuteAnime]",
    "title": "ANIME_PIC_702e84ee939d6e039371370789c46edf",
    "link_img": "https://live.staticflickr.com/65535/51544603429_4d3676b1b0_o.jpg",
    "id_image": "ANIME_PIC_702e84ee939d6e039371370789c46edf",
    "count_view": 0
  },
  {
    "link_thumb": "https://live.staticflickr.com/65535/51544899658_9bff141726_n.jpg",
    "id_album": "-316663319",
    "description": "ANIME_PIC_7031e5d6da59456ff244c7a2d0392815,[Girl],[isGirlAnime],[isCuteAnime]",
    "title": "ANIME_PIC_7031e5d6da59456ff244c7a2d0392815",
    "link_img": "https://live.staticflickr.com/65535/51544899658_93087043ec_o.png",
    "id_image": "ANIME_PIC_7031e5d6da59456ff244c7a2d0392815",
    "count_view": 0
  },
  {
    "link_thumb": "https://live.staticflickr.com/65535/51544603619_75bcea4bb5_n.jpg",
    "id_album": "-316663319",
    "description": "ANIME_PIC_7034078cb5efe27cf9ba9ee41707a9a7,[Girl],[isGirlAnime],[isCuteAnime],[isGirlsLoliAnime],[isSadAnimeGirl],[isSadAnime]",
    "title": "ANIME_PIC_7034078cb5efe27cf9ba9ee41707a9a7",
    "link_img": "https://live.staticflickr.com/65535/51544603619_848e724225_o.jpg",
    "id_image": "ANIME_PIC_7034078cb5efe27cf9ba9ee41707a9a7",
    "count_view": 0
  },
  {
    "link_thumb": "https://live.staticflickr.com/65535/51544603769_fbbc867c71_n.jpg",
    "id_album": "-316663319",
    "description": "ANIME_PIC_70352f85c5d28dd41e1b28456c1c2e41,[Girl],[isGirlAnime],[isCuteAnime],[isGirlsHatsHoodieAnime],[isGirlsLoliAnime]",
    "title": "ANIME_PIC_70352f85c5d28dd41e1b28456c1c2e41",
    "link_img": "https://live.staticflickr.com/65535/51544603769_cc3245205e_o.jpg",
    "id_image": "ANIME_PIC_70352f85c5d28dd41e1b28456c1c2e41",
    "count_view": 0
  },
  {
    "link_thumb": "https://live.staticflickr.com/65535/51543077997_ef665d4974_n.jpg",
    "id_album": "-316663319",
    "description": "ANIME_PIC_7035fb9d272df82fe27900a9a3ade020,[Girl],[isGirlAnime],[isCuteAnime],[isGirlsHatsHoodieAnime],[isGirlsLoliAnime]",
    "title": "ANIME_PIC_7035fb9d272df82fe27900a9a3ade020",
    "link_img": "https://live.staticflickr.com/65535/51543077997_c631176322_o.jpg",
    "id_image": "ANIME_PIC_7035fb9d272df82fe27900a9a3ade020",
    "count_view": 0
  },
  {
    "link_thumb": "https://live.staticflickr.com/65535/51543872651_e4378abc79_n.jpg",
    "id_album": "-316663319",
    "description": "ANIME_PIC_703e0160f973d04d3e4d7c56a69a42eb,[Girl],[isGirlAnime],[isCuteAnime]",
    "title": "ANIME_PIC_703e0160f973d04d3e4d7c56a69a42eb",
    "link_img": "https://live.staticflickr.com/65535/51543872651_7055312cca_o.png",
    "id_image": "ANIME_PIC_703e0160f973d04d3e4d7c56a69a42eb",
    "count_view": 0
  },
  {
    "link_thumb": "https://live.staticflickr.com/65535/51544604854_1524124d7a_n.jpg",
    "id_album": "-316663319",
    "description": "ANIME_PIC_703e52acb02d58c583e2fcc62940f013,[Girl],[isGirlAnime],[isCuteAnime],[isBlackAnime],[isSadAnimeGirl],[isSadAnime]",
    "title": "ANIME_PIC_703e52acb02d58c583e2fcc62940f013",
    "link_img": "https://live.staticflickr.com/65535/51544604854_8606c13c92_o.png",
    "id_image": "ANIME_PIC_703e52acb02d58c583e2fcc62940f013",
    "count_view": 0
  },
  {
    "link_thumb": "https://live.staticflickr.com/65535/51545386139_55de5f3512_n.jpg",
    "id_album": "-316663319",
    "description": "ANIME_PIC_703f93aafb3ceded7cf78937a81f7041,[Girl],[isGirlAnime],[isCuteAnime],[isGirlEarsNekoAnime],[isGirlsLoliAnime]",
    "title": "ANIME_PIC_703f93aafb3ceded7cf78937a81f7041",
    "link_img": "https://live.staticflickr.com/65535/51545386139_b93100aa06_o.jpg",
    "id_image": "ANIME_PIC_703f93aafb3ceded7cf78937a81f7041",
    "count_view": 0
  },
  {
    "link_thumb": "https://live.staticflickr.com/65535/51543873541_6598d748b3_n.jpg",
    "id_album": "-316663319",
    "description": "ANIME_PIC_7044783ea4b14f26af38b7b1062b96a6,[Girl],[isGirlAnime],[isCuteAnime]",
    "title": "ANIME_PIC_7044783ea4b14f26af38b7b1062b96a6",
    "link_img": "https://live.staticflickr.com/65535/51543873541_c52cd4a71e_o.jpg",
    "id_image": "ANIME_PIC_7044783ea4b14f26af38b7b1062b96a6",
    "count_view": 0
  },
  {
    "link_thumb": "https://live.staticflickr.com/65535/51544801785_35c04ff6d6_n.jpg",
    "id_album": "-316663319",
    "description": "ANIME_PIC_70452f673af41dfb8227fcfcf7716ad7,[Girl],[isGirlAnime],[isCuteAnime],[isSadAnimeGirl],[isSadAnime]",
    "title": "ANIME_PIC_70452f673af41dfb8227fcfcf7716ad7",
    "link_img": "https://live.staticflickr.com/65535/51544801785_123b06351a_o.jpg",
    "id_image": "ANIME_PIC_70452f673af41dfb8227fcfcf7716ad7",
    "count_view": 0
  },
  {
    "link_thumb": "https://live.staticflickr.com/65535/51543079522_aca452fa1d_n.jpg",
    "id_album": "-316663319",
    "description": "ANIME_PIC_704795b2bd679d0997f82593bf224194,[Girl],[isGirlAnime],[isCuteAnime],[isGirlsHatsHoodieAnime],[isGirlsLoliAnime],[isSadAnimeGirl],[isSadAnime]",
    "title": "ANIME_PIC_704795b2bd679d0997f82593bf224194",
    "link_img": "https://live.staticflickr.com/65535/51543079522_cb26d9b655_o.jpg",
    "id_image": "ANIME_PIC_704795b2bd679d0997f82593bf224194",
    "count_view": 0
  },
  {
    "link_thumb": "https://live.staticflickr.com/65535/51543874061_c43262d91e_n.jpg",
    "id_album": "-316663319",
    "description": "ANIME_PIC_7049621a9ae65045e171dd58723ba2bb,[Girl],[isGirlAnime],[isGirlEarsNekoAnime],[isSadAnimeGirl],[isSadAnime]",
    "title": "ANIME_PIC_7049621a9ae65045e171dd58723ba2bb",
    "link_img": "https://live.staticflickr.com/65535/51543874061_488bc03ab2_o.jpg",
    "id_image": "ANIME_PIC_7049621a9ae65045e171dd58723ba2bb",
    "count_view": 0
  },
  {
    "link_thumb": "https://live.staticflickr.com/65535/51544802305_c8caffaf41_n.jpg",
    "id_album": "-316663319",
    "description": "ANIME_PIC_704b8f948c7dc0379c81f9df2989f7dc,[Girl],[isGirlAnime],[isCuteAnime],[isGirlsHatsHoodieAnime],[isGirlsLoliAnime]",
    "title": "ANIME_PIC_704b8f948c7dc0379c81f9df2989f7dc",
    "link_img": "https://live.staticflickr.com/65535/51544802305_3486dd449e_o.jpg",
    "id_image": "ANIME_PIC_704b8f948c7dc0379c81f9df2989f7dc",
    "count_view": 0
  },
  {
    "link_thumb": "https://live.staticflickr.com/65535/51543874461_9c42c83497_n.jpg",
    "id_album": "-316663319",
    "description": "ANIME_PIC_70517b3b47f8022105717ae2228f15ab,[Girl],[isGirlAnime],[isCuteAnime],[isGirlsHatsHoodieAnime],[isGirlsLoliAnime]",
    "title": "ANIME_PIC_70517b3b47f8022105717ae2228f15ab",
    "link_img": "https://live.staticflickr.com/65535/51543874461_25843ed3db_o.jpg",
    "id_image": "ANIME_PIC_70517b3b47f8022105717ae2228f15ab",
    "count_view": 0
  },
  {
    "link_thumb": "https://live.staticflickr.com/65535/51544605969_4d5a3ccb06_n.jpg",
    "id_album": "-316663319",
    "description": "ANIME_PIC_705c42b0385dd83f29d1b00128e02c30,[Girl],[isGirlAnime],[isCuteAnime],[isGirlsLoliAnime],[isSadAnimeGirl],[isSadAnime]",
    "title": "ANIME_PIC_705c42b0385dd83f29d1b00128e02c30",
    "link_img": "https://live.staticflickr.com/65535/51544605969_4db7ebb506_o.jpg",
    "id_image": "ANIME_PIC_705c42b0385dd83f29d1b00128e02c30",
    "count_view": 0
  },
  {
    "link_thumb": "https://live.staticflickr.com/65535/51543874751_c8cefe76c3_n.jpg",
    "id_album": "-316663319",
    "description": "ANIME_PIC_705cdef032374961e5f3ab4811f7039f,[Girl],[isBoyAnime],[isCoupleAnime],[isGirlAnime],[isCuteAnime]",
    "title": "ANIME_PIC_705cdef032374961e5f3ab4811f7039f",
    "link_img": "https://live.staticflickr.com/65535/51543874751_31b383b8b8_o.jpg",
    "id_image": "ANIME_PIC_705cdef032374961e5f3ab4811f7039f",
    "count_view": 0
  },
  {
    "link_thumb": "https://live.staticflickr.com/65535/51544802915_979616fcb1_n.jpg",
    "id_album": "-316663319",
    "description": "ANIME_PIC_705e55d8a255bbf6f33c3e51002f1ca0,[Girl],[isGirlAnime],[isCuteAnime],[isSadAnimeGirl],[isSadAnime]",
    "title": "ANIME_PIC_705e55d8a255bbf6f33c3e51002f1ca0",
    "link_img": "https://live.staticflickr.com/65535/51544802915_41e6d0bdd5_o.jpg",
    "id_image": "ANIME_PIC_705e55d8a255bbf6f33c3e51002f1ca0",
    "count_view": 0
  },
  {
    "link_thumb": "https://live.staticflickr.com/65535/51544606449_ebdecdce8d_n.jpg",
    "id_album": "-316663319",
    "description": "ANIME_PIC_7062273590a7f62fc3adabcfbf7af567,[Girl],[isGirlAnime],[isCuteAnime],[isGirlsLoliAnime],[isSadAnimeGirl],[isSadAnime]",
    "title": "ANIME_PIC_7062273590a7f62fc3adabcfbf7af567",
    "link_img": "https://live.staticflickr.com/65535/51544606449_dc5f22a355_o.jpg",
    "id_image": "ANIME_PIC_7062273590a7f62fc3adabcfbf7af567",
    "count_view": 0
  },
  {
    "link_thumb": "https://live.staticflickr.com/65535/51543080887_3c2121f78b_n.jpg",
    "id_album": "-316663319",
    "description": "ANIME_PIC_7068228ca60b149414c20374164e9e92,[Girl],[isGirlAnime],[isCuteAnime],[isGirlsLoliAnime],[isSadAnimeGirl],[isSadAnime]",
    "title": "ANIME_PIC_7068228ca60b149414c20374164e9e92",
    "link_img": "https://live.staticflickr.com/65535/51543080887_6128918c1f_o.jpg",
    "id_image": "ANIME_PIC_7068228ca60b149414c20374164e9e92",
    "count_view": 0
  },
  {
    "link_thumb": "https://live.staticflickr.com/65535/51543862692_42891766e4_n.jpg",
    "id_album": "-316663319",
    "description": "ANIME_PIC_706fea973bb47250eef74dc0ed84f4cc,[Girl],[isGirlAnime],[isCuteAnime],[isSadAnimeGirl],[isSadAnime]",
    "title": "ANIME_PIC_706fea973bb47250eef74dc0ed84f4cc",
    "link_img": "https://live.staticflickr.com/65535/51543862692_ee2ef35045_o.jpg",
    "id_image": "ANIME_PIC_706fea973bb47250eef74dc0ed84f4cc",
    "count_view": 0
  },
  {
    "link_thumb": "https://live.staticflickr.com/65535/51543081107_6d8bf5abbb_n.jpg",
    "id_album": "-316663319",
    "description": "ANIME_PIC_707007224be35d825a0235d9d681f2e1,[Girl],[isGirlAnime],[isCuteAnime],[isGirlEarsNekoAnime],[isGirlsLoliAnime],[isSadAnimeGirl],[isSadAnime]",
    "title": "ANIME_PIC_707007224be35d825a0235d9d681f2e1",
    "link_img": "https://live.staticflickr.com/65535/51543081107_bafd4f7e13_o.jpg",
    "id_image": "ANIME_PIC_707007224be35d825a0235d9d681f2e1",
    "count_view": 0
  },
  {
    "link_thumb": "https://live.staticflickr.com/65535/51543875616_7c42a2f768_n.jpg",
    "id_album": "-316663319",
    "description": "ANIME_PIC_7075f4f7efe9f1afa64260e9f62e9eea,[Girl],[isGirlAnime],[isCuteAnime],[isSadAnimeGirl],[isSadAnime]",
    "title": "ANIME_PIC_7075f4f7efe9f1afa64260e9f62e9eea",
    "link_img": "https://live.staticflickr.com/65535/51543875616_72b3b0acf7_o.png",
    "id_image": "ANIME_PIC_7075f4f7efe9f1afa64260e9f62e9eea",
    "count_view": 0
  },
  {
    "link_thumb": "https://live.staticflickr.com/65535/51543875906_45a1795d32_n.jpg",
    "id_album": "-316663319",
    "description": "ANIME_PIC_7076141240115070530ad46af4dc5dc7,[Girl],[isGirlAnime],[isCuteAnime],[isBlackAnime],[isGirlsLoliAnime],[isSadAnimeGirl],[isSadAnime]",
    "title": "ANIME_PIC_7076141240115070530ad46af4dc5dc7",
    "link_img": "https://live.staticflickr.com/65535/51543875906_b0731c5b27_o.jpg",
    "id_image": "ANIME_PIC_7076141240115070530ad46af4dc5dc7",
    "count_view": 0
  },
  {
    "link_thumb": "https://live.staticflickr.com/65535/51543876031_280c3c5471_n.jpg",
    "id_album": "-316663319",
    "description": "ANIME_PIC_707c903c0eed9c81807f37a87d9c0458,[Girl],[isGirlAnime],[isCuteAnime],[isGirlsLoliAnime]",
    "title": "ANIME_PIC_707c903c0eed9c81807f37a87d9c0458",
    "link_img": "https://live.staticflickr.com/65535/51543876031_aca8dea9b9_o.jpg",
    "id_image": "ANIME_PIC_707c903c0eed9c81807f37a87d9c0458",
    "count_view": 0
  },
  {
    "link_thumb": "https://live.staticflickr.com/65535/51543081802_9cb5488074_n.jpg",
    "id_album": "-316663319",
    "description": "ANIME_PIC_707d06bdbf5e1014fd484c4b9a060376,[Girl],[isGirlAnime],[isCuteAnime],[isGirlsLoliAnime]",
    "title": "ANIME_PIC_707d06bdbf5e1014fd484c4b9a060376",
    "link_img": "https://live.staticflickr.com/65535/51543081802_dcbfc7a776_o.png",
    "id_image": "ANIME_PIC_707d06bdbf5e1014fd484c4b9a060376",
    "count_view": 0
  },
  {
    "link_thumb": "https://live.staticflickr.com/65535/51544607809_2b765b6fa3_n.jpg",
    "id_album": "-316663319",
    "description": "ANIME_PIC_708038e75ce956769b767362139f4f58,[Girl],[isGirlAnime],[isCuteAnime],[isSadAnimeGirl],[isSadAnime]",
    "title": "ANIME_PIC_708038e75ce956769b767362139f4f58",
    "link_img": "https://live.staticflickr.com/65535/51544607809_0946055c53_o.jpg",
    "id_image": "ANIME_PIC_708038e75ce956769b767362139f4f58",
    "count_view": 0
  },
  {
    "link_thumb": "https://live.staticflickr.com/65535/51543082177_fdc36c2ddb_n.jpg",
    "id_album": "-316663319",
    "description": "ANIME_PIC_7080cced0788d5d578e899f02dea17e5,[Girl],[isGirlAnime],[isCuteAnime],[isGirlsLoliAnime]",
    "title": "ANIME_PIC_7080cced0788d5d578e899f02dea17e5",
    "link_img": "https://live.staticflickr.com/65535/51543082177_5c06515a4a_o.png",
    "id_image": "ANIME_PIC_7080cced0788d5d578e899f02dea17e5",
    "count_view": 0
  },
  {
    "link_thumb": "https://live.staticflickr.com/65535/51544608284_0e7e687614_n.jpg",
    "id_album": "-316663319",
    "description": "ANIME_PIC_70835beb08a1c380f1d3e3b684c53566,[Girl],[isGirlAnime],[isCuteAnime]",
    "title": "ANIME_PIC_70835beb08a1c380f1d3e3b684c53566",
    "link_img": "https://live.staticflickr.com/65535/51544608284_14ed262119_o.jpg",
    "id_image": "ANIME_PIC_70835beb08a1c380f1d3e3b684c53566",
    "count_view": 0
  },
  {
    "link_thumb": "https://live.staticflickr.com/65535/51543082557_866c7a0d8f_n.jpg",
    "id_album": "-316663319",
    "description": "ANIME_PIC_70836bc8e917052f6c2e42f79438fa63,[Girl],[isGirlAnime],[isCuteAnime]",
    "title": "ANIME_PIC_70836bc8e917052f6c2e42f79438fa63",
    "link_img": "https://live.staticflickr.com/65535/51543082557_445db5cbf5_o.png",
    "id_image": "ANIME_PIC_70836bc8e917052f6c2e42f79438fa63",
    "count_view": 0
  },
  {
    "link_thumb": "https://live.staticflickr.com/65535/51544900573_7ec3bb9cff_n.jpg",
    "id_album": "-316663319",
    "description": "ANIME_PIC_708503c40b80087831db4ec8f8826f70,[Girl],[isGirlAnime],[isCuteAnime]",
    "title": "ANIME_PIC_708503c40b80087831db4ec8f8826f70",
    "link_img": "https://live.staticflickr.com/65535/51544900573_6434fca239_o.jpg",
    "id_image": "ANIME_PIC_708503c40b80087831db4ec8f8826f70",
    "count_view": 0
  },
  {
    "link_thumb": "https://live.staticflickr.com/65535/51545585350_b46131640a_n.jpg",
    "id_album": "-316663319",
    "description": "ANIME_PIC_7085ae1b5b32127531edf76fafcd79d3,[Girl],[isGirlAnime],[isCuteAnime]",
    "title": "ANIME_PIC_7085ae1b5b32127531edf76fafcd79d3",
    "link_img": "https://live.staticflickr.com/65535/51545585350_03feca167f_o.jpg",
    "id_image": "ANIME_PIC_7085ae1b5b32127531edf76fafcd79d3",
    "count_view": 0
  },
  {
    "link_thumb": "https://live.staticflickr.com/65535/51544901118_fa2970c29c_n.jpg",
    "id_album": "-316663319",
    "description": "ANIME_PIC_7086f447a71a315d5529c2c6d6ea6802,[Girl],[isGirlAnime],[isCuteAnime],[isGirlsLoliAnime]",
    "title": "ANIME_PIC_7086f447a71a315d5529c2c6d6ea6802",
    "link_img": "https://live.staticflickr.com/65535/51544901118_53d6bb006f_o.png",
    "id_image": "ANIME_PIC_7086f447a71a315d5529c2c6d6ea6802",
    "count_view": 0
  },
  {
    "link_thumb": "https://live.staticflickr.com/65535/51544805160_f29e99dcac_n.jpg",
    "id_album": "-316663319",
    "description": "ANIME_PIC_70895347c1faea592ba7db824a5e43a1,[Girl],[isGirlAnime],[isCuteAnime]",
    "title": "ANIME_PIC_70895347c1faea592ba7db824a5e43a1",
    "link_img": "https://live.staticflickr.com/65535/51544805160_51d80757b2_o.png",
    "id_image": "ANIME_PIC_70895347c1faea592ba7db824a5e43a1",
    "count_view": 0
  },
  {
    "link_thumb": "https://live.staticflickr.com/65535/51543877551_6c74ef5edb_n.jpg",
    "id_album": "-316663319",
    "description": "ANIME_PIC_708990507a2c737de9937c87b7bb9938,[Girl],[isGirlAnime],[isCuteAnime],[isGirlsHatsHoodieAnime]",
    "title": "ANIME_PIC_708990507a2c737de9937c87b7bb9938",
    "link_img": "https://live.staticflickr.com/65535/51543877551_970fced965_o.jpg",
    "id_image": "ANIME_PIC_708990507a2c737de9937c87b7bb9938",
    "count_view": 0
  },
  {
    "link_thumb": "https://live.staticflickr.com/65535/51544805765_fdcda45071_n.jpg",
    "id_album": "-316663319",
    "description": "ANIME_PIC_708a153dc9312a2fc97802b6c76d1452,[Girl],[isGirlAnime],[isCuteAnime],[isGirlsLoliAnime]",
    "title": "ANIME_PIC_708a153dc9312a2fc97802b6c76d1452",
    "link_img": "https://live.staticflickr.com/65535/51544805765_c1aeb99579_o.jpg",
    "id_image": "ANIME_PIC_708a153dc9312a2fc97802b6c76d1452",
    "count_view": 0
  },
  {
    "link_thumb": "https://live.staticflickr.com/65535/51544123548_3bc0f37882_n.jpg",
    "id_album": "-316663319",
    "description": "ANIME_PIC_708a5e4f2e0d2d88f8a2797e75ebfda5,[Girl],[isGirlAnime],[isCuteAnime],[isGirlsLoliAnime]",
    "title": "ANIME_PIC_708a5e4f2e0d2d88f8a2797e75ebfda5",
    "link_img": "https://live.staticflickr.com/65535/51544123548_345566781c_o.jpg",
    "id_image": "ANIME_PIC_708a5e4f2e0d2d88f8a2797e75ebfda5",
    "count_view": 0
  },
  {
    "link_thumb": "https://live.staticflickr.com/65535/51543878406_ee752902d0_n.jpg",
    "id_album": "-316663319",
    "description": "ANIME_PIC_708bb9a6168d80c16b3dd50bd1b066e5,[Girl],[isGirlAnime],[isCuteAnime],[isGirlsLoliAnime]",
    "title": "ANIME_PIC_708bb9a6168d80c16b3dd50bd1b066e5",
    "link_img": "https://live.staticflickr.com/65535/51543878406_ea425d0433_o.png",
    "id_image": "ANIME_PIC_708bb9a6168d80c16b3dd50bd1b066e5",
    "count_view": 0
  },
  {
    "link_thumb": "https://live.staticflickr.com/65535/51543879046_cbecf6be05_n.jpg",
    "id_album": "-316663319",
    "description": "ANIME_PIC_708bbfd43cc8ba7943b3b59e5cc11167,[Girl],[isGirlAnime],[isCuteAnime],[isGirlsLoliAnime]",
    "title": "ANIME_PIC_708bbfd43cc8ba7943b3b59e5cc11167",
    "link_img": "https://live.staticflickr.com/65535/51543879046_1d08e13d31_o.png",
    "id_image": "ANIME_PIC_708bbfd43cc8ba7943b3b59e5cc11167",
    "count_view": 0
  },
  {
    "link_thumb": "https://live.staticflickr.com/65535/51543084817_f52c70b152_n.jpg",
    "id_album": "-316663319",
    "description": "ANIME_PIC_708e70026b2bba07b75fc1268c39a6e3,[Girl],[isGirlAnime],[isSadAnimeGirl],[isSadAnime]",
    "title": "ANIME_PIC_708e70026b2bba07b75fc1268c39a6e3",
    "link_img": "https://live.staticflickr.com/65535/51543084817_525f83802d_o.jpg",
    "id_image": "ANIME_PIC_708e70026b2bba07b75fc1268c39a6e3",
    "count_view": 0
  },
  {
    "link_thumb": "https://live.staticflickr.com/65535/51544610899_dca16a8d07_n.jpg",
    "id_album": "-316663319",
    "description": "ANIME_PIC_708e93c0855988788d9e42aa468eb8b2,[Girl],[isGirlAnime],[isCuteAnime],[isGirlsLoliAnime]",
    "title": "ANIME_PIC_708e93c0855988788d9e42aa468eb8b2",
    "link_img": "https://live.staticflickr.com/65535/51544610899_a1d8e2c17c_o.jpg",
    "id_image": "ANIME_PIC_708e93c0855988788d9e42aa468eb8b2",
    "count_view": 0
  },
  {
    "link_thumb": "https://live.staticflickr.com/65535/51543085267_1539c4f383_n.jpg",
    "id_album": "-316663319",
    "description": "ANIME_PIC_7091070cb7407964f3fb6251630034cb,[Girl],[isGirlAnime],[isCuteAnime],[isGirlsLoliAnime]",
    "title": "ANIME_PIC_7091070cb7407964f3fb6251630034cb",
    "link_img": "https://live.staticflickr.com/65535/51543085267_6eab278394_o.png",
    "id_image": "ANIME_PIC_7091070cb7407964f3fb6251630034cb",
    "count_view": 0
  },
  {
    "link_thumb": "https://live.staticflickr.com/65535/51543085607_f61a5bc7ee_n.jpg",
    "id_album": "-316663319",
    "description": "ANIME_PIC_709147e9c70756c40e397bd6f3ccdf4e,[Girl],[isGirlAnime],[isCuteAnime],[isSadAnimeGirl],[isSadAnime]",
    "title": "ANIME_PIC_709147e9c70756c40e397bd6f3ccdf4e",
    "link_img": "https://live.staticflickr.com/65535/51543085607_cef8f8c92f_o.jpg",
    "id_image": "ANIME_PIC_709147e9c70756c40e397bd6f3ccdf4e",
    "count_view": 0
  },
  {
    "link_thumb": "https://live.staticflickr.com/65535/51544125778_9398e142dd_n.jpg",
    "id_album": "-316663319",
    "description": "ANIME_PIC_70914e26719cf45635586e2671408daf,[Girl],[isGirlAnime],[isCuteAnime],[isGirlsLoliAnime]",
    "title": "ANIME_PIC_70914e26719cf45635586e2671408daf",
    "link_img": "https://live.staticflickr.com/65535/51544125778_0ea26ffacb_o.png",
    "id_image": "ANIME_PIC_70914e26719cf45635586e2671408daf",
    "count_view": 0
  },
  {
    "link_thumb": "https://live.staticflickr.com/65535/51544808730_98fc72d4f5_n.jpg",
    "id_album": "-316663319",
    "description": "ANIME_PIC_7094c112660bc5aed79a46136bc9ee01,[Girl],[isGirlAnime],[isCuteAnime],[isGirlsHatsHoodieAnime],[isSadAnimeGirl],[isSadAnime]",
    "title": "ANIME_PIC_7094c112660bc5aed79a46136bc9ee01",
    "link_img": "https://live.staticflickr.com/65535/51544808730_6076031b21_o.jpg",
    "id_image": "ANIME_PIC_7094c112660bc5aed79a46136bc9ee01",
    "count_view": 0
  },
  {
    "link_thumb": "https://live.staticflickr.com/65535/51544901518_254bbaca54_n.jpg",
    "id_album": "-316663319",
    "description": "ANIME_PIC_7096a41661af9f9d7c5c6238a0407a51,[Girl],[isGirlAnime],[isCuteAnime]",
    "title": "ANIME_PIC_7096a41661af9f9d7c5c6238a0407a51",
    "link_img": "https://live.staticflickr.com/65535/51544901518_e12e7195a8_o.jpg",
    "id_image": "ANIME_PIC_7096a41661af9f9d7c5c6238a0407a51",
    "count_view": 0
  },
  {
    "link_thumb": "https://live.staticflickr.com/65535/51543086577_9ecf898b52_n.jpg",
    "id_album": "-316663319",
    "description": "ANIME_PIC_7099affca28405ed17f53a9e3d559f9d,[Girl],[isGirlAnime],[isCuteAnime]",
    "title": "ANIME_PIC_7099affca28405ed17f53a9e3d559f9d",
    "link_img": "https://live.staticflickr.com/65535/51543086577_3e03792f7b_o.jpg",
    "id_image": "ANIME_PIC_7099affca28405ed17f53a9e3d559f9d",
    "count_view": 0
  },
  {
    "link_thumb": "https://live.staticflickr.com/65535/51543086857_8baebb88d4_n.jpg",
    "id_album": "-316663319",
    "description": "ANIME_PIC_709be1907aaadc969efdd75e5f057f25,[Girl],[isGirlAnime],[isCuteAnime]",
    "title": "ANIME_PIC_709be1907aaadc969efdd75e5f057f25",
    "link_img": "https://live.staticflickr.com/65535/51543086857_99d93f8274_o.png",
    "id_image": "ANIME_PIC_709be1907aaadc969efdd75e5f057f25",
    "count_view": 0
  },
  {
    "link_thumb": "https://live.staticflickr.com/65535/51545387754_a1af8323cf_n.jpg",
    "id_album": "-316663319",
    "description": "ANIME_PIC_70a2225efed6a0e2ce52d905d0b3826a,[Girl],[isGirlAnime],[isCuteAnime],[isGirlsLoliAnime],[isGirlsSharpCanineToothAnime]",
    "title": "ANIME_PIC_70a2225efed6a0e2ce52d905d0b3826a",
    "link_img": "https://live.staticflickr.com/65535/51545387754_8f5b024f86_o.jpg",
    "id_image": "ANIME_PIC_70a2225efed6a0e2ce52d905d0b3826a",
    "count_view": 0
  },
  {
    "link_thumb": "https://live.staticflickr.com/65535/51545387969_9baf3b03b0_n.jpg",
    "id_album": "-316663319",
    "description": "ANIME_PIC_70a3d1bccc57b91ec8f2f701042df858,[Girl],[isGirlAnime],[isCuteAnime],[isGirlFaceMasksAnime],[isGirlsLoliAnime]",
    "title": "ANIME_PIC_70a3d1bccc57b91ec8f2f701042df858",
    "link_img": "https://live.staticflickr.com/65535/51545387969_920cfc24d3_o.jpg",
    "id_image": "ANIME_PIC_70a3d1bccc57b91ec8f2f701042df858",
    "count_view": 0
  },
  {
    "link_thumb": "https://live.staticflickr.com/65535/51544127058_c43af19a78_n.jpg",
    "id_album": "-316663319",
    "description": "ANIME_PIC_70a51570453b1058bf23642d7bba81c5,[Girl],[isBoyAnime],[isGirlAnime],[isCuteAnime]",
    "title": "ANIME_PIC_70a51570453b1058bf23642d7bba81c5",
    "link_img": "https://live.staticflickr.com/65535/51544127058_87bddff641_o.jpg",
    "id_image": "ANIME_PIC_70a51570453b1058bf23642d7bba81c5",
    "count_view": 0
  },
  {
    "link_thumb": "https://live.staticflickr.com/65535/51544809930_0320b6d6e9_n.jpg",
    "id_album": "-316663319",
    "description": "ANIME_PIC_70a9aa72e14a5e483905619e01093bb4,[Girl],[isGirlAnime],[isCuteAnime],[isGirlsLoliAnime],[isSadAnimeGirl],[isSadAnime]",
    "title": "ANIME_PIC_70a9aa72e14a5e483905619e01093bb4",
    "link_img": "https://live.staticflickr.com/65535/51544809930_b38575d86f_o.jpg",
    "id_image": "ANIME_PIC_70a9aa72e14a5e483905619e01093bb4",
    "count_view": 0
  },
  {
    "link_thumb": "https://live.staticflickr.com/65535/51544657231_74520aa8ab_n.jpg",
    "id_album": "-316663319",
    "description": "ANIME_PIC_70ad5a438d4b9f205115a165bc0a88be,[Girl],[isGirlAnime],[isCuteAnime]",
    "title": "ANIME_PIC_70ad5a438d4b9f205115a165bc0a88be",
    "link_img": "https://live.staticflickr.com/65535/51544657231_157b44d7c2_o.jpg",
    "id_image": "ANIME_PIC_70ad5a438d4b9f205115a165bc0a88be",
    "count_view": 0
  },
  {
    "link_thumb": "https://live.staticflickr.com/65535/51544613494_3d0fc5f39e_n.jpg",
    "id_album": "-316663319",
    "description": "ANIME_PIC_70ad6022c933fe7f59001f93e4793718,[Girl],[isGirlAnime],[isCuteAnime],[isGirlsLoliAnime]",
    "title": "ANIME_PIC_70ad6022c933fe7f59001f93e4793718",
    "link_img": "https://live.staticflickr.com/65535/51544613494_923880fd55_o.jpg",
    "id_image": "ANIME_PIC_70ad6022c933fe7f59001f93e4793718",
    "count_view": 0
  },
  {
    "link_thumb": "https://live.staticflickr.com/65535/51544613824_63a22af99e_n.jpg",
    "id_album": "-316663319",
    "description": "ANIME_PIC_70b21d06e8b848c8a847c813dddc814b,[Girl],[isGirlAnime],[isCuteAnime]",
    "title": "ANIME_PIC_70b21d06e8b848c8a847c813dddc814b",
    "link_img": "https://live.staticflickr.com/65535/51544613824_87a296a093_o.jpg",
    "id_image": "ANIME_PIC_70b21d06e8b848c8a847c813dddc814b",
    "count_view": 0
  },
  {
    "link_thumb": "https://live.staticflickr.com/65535/51543088432_fd65d62acd_n.jpg",
    "id_album": "-316663319",
    "description": "ANIME_PIC_70b3f5b89a098eafaaba052156c6ff10,[Girl],[isGirlAnime],[isCuteAnime],[isGirlsLoliAnime]",
    "title": "ANIME_PIC_70b3f5b89a098eafaaba052156c6ff10",
    "link_img": "https://live.staticflickr.com/65535/51543088432_b13992e555_o.png",
    "id_image": "ANIME_PIC_70b3f5b89a098eafaaba052156c6ff10",
    "count_view": 0
  },
  {
    "link_thumb": "https://live.staticflickr.com/65535/51543883216_f939a37b84_n.jpg",
    "id_album": "-316663319",
    "description": "ANIME_PIC_70b4ba7bd1f7fe2ce343cfd21877d347,[Girl],[isGirlAnime],[isCuteAnime]",
    "title": "ANIME_PIC_70b4ba7bd1f7fe2ce343cfd21877d347",
    "link_img": "https://live.staticflickr.com/65535/51543883216_2260a717cf_o.png",
    "id_image": "ANIME_PIC_70b4ba7bd1f7fe2ce343cfd21877d347",
    "count_view": 0
  },
  {
    "link_thumb": "https://live.staticflickr.com/65535/51544129163_c05cbcbe24_n.jpg",
    "id_album": "-316663319",
    "description": "ANIME_PIC_70b6612b1dc6bed1dd95365575d85477,[Girl],[isGirlAnime],[isCuteAnime],[isGirlsLoliAnime]",
    "title": "ANIME_PIC_70b6612b1dc6bed1dd95365575d85477",
    "link_img": "https://live.staticflickr.com/65535/51544129163_859d1ac007_o.jpg",
    "id_image": "ANIME_PIC_70b6612b1dc6bed1dd95365575d85477",
    "count_view": 0
  },
  {
    "link_thumb": "https://live.staticflickr.com/65535/51543089777_b303559377_n.jpg",
    "id_album": "-316663319",
    "description": "ANIME_PIC_70b7e3950b2703bb8249acadd96065d1,[Girl],[isGirlAnime],[isCuteAnime],[isGirlsHatsHoodieAnime],[isGirlsLoliAnime]",
    "title": "ANIME_PIC_70b7e3950b2703bb8249acadd96065d1",
    "link_img": "https://live.staticflickr.com/65535/51543089777_7585b4dfbb_o.jpg",
    "id_image": "ANIME_PIC_70b7e3950b2703bb8249acadd96065d1",
    "count_view": 0
  },
  {
    "link_thumb": "https://live.staticflickr.com/65535/51545388424_d367446f5d_n.jpg",
    "id_album": "-316663319",
    "description": "ANIME_PIC_70b8a174466952035360603cd95bd413,[Girl],[isGirlAnime],[isCuteAnime]",
    "title": "ANIME_PIC_70b8a174466952035360603cd95bd413",
    "link_img": "https://live.staticflickr.com/65535/51545388424_367d5b2ddc_o.jpg",
    "id_image": "ANIME_PIC_70b8a174466952035360603cd95bd413",
    "count_view": 0
  },
  {
    "link_thumb": "https://live.staticflickr.com/65535/51544615644_b4675ac757_n.jpg",
    "id_album": "-316663319",
    "description": "ANIME_PIC_70b8bcf16d10f07abda8d92be513afeb,[Girl],[isGirlAnime],[isCuteAnime],[isGirlsLoliAnime],[isSadAnimeGirl],[isSadAnime]",
    "title": "ANIME_PIC_70b8bcf16d10f07abda8d92be513afeb",
    "link_img": "https://live.staticflickr.com/65535/51544615644_2ea4ebb7f2_o.jpg",
    "id_image": "ANIME_PIC_70b8bcf16d10f07abda8d92be513afeb",
    "count_view": 0
  },
  {
    "link_thumb": "https://live.staticflickr.com/65535/51544615864_2d64ffaf6a_n.jpg",
    "id_album": "-316663319",
    "description": "ANIME_PIC_70be041e2dfc49877d24fbaa59a2dc19,[Girl],[isGirlAnime],[isCuteAnime],[isGirlsLoliAnime]",
    "title": "ANIME_PIC_70be041e2dfc49877d24fbaa59a2dc19",
    "link_img": "https://live.staticflickr.com/65535/51544615864_78f945bd84_o.png",
    "id_image": "ANIME_PIC_70be041e2dfc49877d24fbaa59a2dc19",
    "count_view": 0
  },
  {
    "link_thumb": "https://live.staticflickr.com/65535/51544130288_40de565b29_n.jpg",
    "id_album": "-316663319",
    "description": "ANIME_PIC_70be88af45fa0728fc09b341f918fd3d,[Girl],[isGirlAnime],[isCuteAnime]",
    "title": "ANIME_PIC_70be88af45fa0728fc09b341f918fd3d",
    "link_img": "https://live.staticflickr.com/65535/51544130288_cf1a12d682_o.jpg",
    "id_image": "ANIME_PIC_70be88af45fa0728fc09b341f918fd3d",
    "count_view": 0
  },
  {
    "link_thumb": "https://live.staticflickr.com/65535/51545587015_e044af2b28_n.jpg",
    "id_album": "-316663319",
    "description": "ANIME_PIC_70c15716d6338af5d2d94ce0cf6bca83,[Girl],[isGirlAnime],[isCuteAnime],[isGirlsHatsHoodieAnime],[isGirlsLoliAnime]",
    "title": "ANIME_PIC_70c15716d6338af5d2d94ce0cf6bca83",
    "link_img": "https://live.staticflickr.com/65535/51545587015_2e57603269_o.jpg",
    "id_image": "ANIME_PIC_70c15716d6338af5d2d94ce0cf6bca83",
    "count_view": 0
  },
  {
    "link_thumb": "https://live.staticflickr.com/65535/51544813215_3346bd86e0_n.jpg",
    "id_album": "-316663319",
    "description": "ANIME_PIC_70c26e68a3f1e6f8b81cf26154626573,[Girl],[isGirlAnime],[isCuteAnime],[isGirlsLoliAnime]",
    "title": "ANIME_PIC_70c26e68a3f1e6f8b81cf26154626573",
    "link_img": "https://live.staticflickr.com/65535/51544813215_a27d8f62ea_o.jpg",
    "id_image": "ANIME_PIC_70c26e68a3f1e6f8b81cf26154626573",
    "count_view": 0
  },
  {
    "link_thumb": "https://live.staticflickr.com/65535/51544130893_06cdc65e44_n.jpg",
    "id_album": "-316663319",
    "description": "ANIME_PIC_70c2e472e67ebde17126d57e86b5f727,[Girl],[isGirlAnime],[isCuteAnime],[isGirlEarsNekoAnime],[isGirlsHatsHoodieAnime],[isGirlsLoliAnime],[isSadAnimeGirl],[isSadAnime]",
    "title": "ANIME_PIC_70c2e472e67ebde17126d57e86b5f727",
    "link_img": "https://live.staticflickr.com/65535/51544130893_641c171f7c_o.png",
    "id_image": "ANIME_PIC_70c2e472e67ebde17126d57e86b5f727",
    "count_view": 0
  },
  {
    "link_thumb": "https://live.staticflickr.com/65535/51544617184_c5a4a7c41d_n.jpg",
    "id_album": "-316663319",
    "description": "ANIME_PIC_70c35e685499354f25689004cb66dc37,[Girl],[isGirlAnime],[isCuteAnime],[isGirlsHatsHoodieAnime]",
    "title": "ANIME_PIC_70c35e685499354f25689004cb66dc37",
    "link_img": "https://live.staticflickr.com/65535/51544617184_ec4183a142_o.jpg",
    "id_image": "ANIME_PIC_70c35e685499354f25689004cb66dc37",
    "count_view": 0
  },
  {
    "link_thumb": "https://live.staticflickr.com/65535/51543885986_02f1d9cfe9_n.jpg",
    "id_album": "-316663319",
    "description": "ANIME_PIC_70c484ab8121541b42c9fe7edd978b52,[Girl],[isGirlAnime],[isCuteAnime]",
    "title": "ANIME_PIC_70c484ab8121541b42c9fe7edd978b52",
    "link_img": "https://live.staticflickr.com/65535/51543885986_e77be25eef_o.jpg",
    "id_image": "ANIME_PIC_70c484ab8121541b42c9fe7edd978b52",
    "count_view": 0
  },
  {
    "link_thumb": "https://live.staticflickr.com/65535/51544617624_70fa919a14_n.jpg",
    "id_album": "-316663319",
    "description": "ANIME_PIC_70c50c2bed2a3221bd909ee1cd343416,[Girl],[isGirlAnime],[isCuteAnime],[isGirlsLoliAnime]",
    "title": "ANIME_PIC_70c50c2bed2a3221bd909ee1cd343416",
    "link_img": "https://live.staticflickr.com/65535/51544617624_b6645a1b0d_o.jpg",
    "id_image": "ANIME_PIC_70c50c2bed2a3221bd909ee1cd343416",
    "count_view": 0
  },
  {
    "link_thumb": "https://live.staticflickr.com/65535/51544131953_1986c63e89_n.jpg",
    "id_album": "-316663319",
    "description": "ANIME_PIC_70c884f69b60a6b23b1b6c83c595938c,[Girl],[isGirlAnime],[isCuteAnime],[isGirlsLoliAnime]",
    "title": "ANIME_PIC_70c884f69b60a6b23b1b6c83c595938c",
    "link_img": "https://live.staticflickr.com/65535/51544131953_2593764c7d_o.jpg",
    "id_image": "ANIME_PIC_70c884f69b60a6b23b1b6c83c595938c",
    "count_view": 0
  },
  {
    "link_thumb": "https://live.staticflickr.com/65535/51543865332_100ab1ce6f_n.jpg",
    "id_album": "-316663319",
    "description": "ANIME_PIC_70c8a6cfcf4183e130ae2242fb35ba3e,[Girl],[isGirlAnime],[isCuteAnime]",
    "title": "ANIME_PIC_70c8a6cfcf4183e130ae2242fb35ba3e",
    "link_img": "https://live.staticflickr.com/65535/51543865332_1ef0646af8_o.png",
    "id_image": "ANIME_PIC_70c8a6cfcf4183e130ae2242fb35ba3e",
    "count_view": 0
  },
  {
    "link_thumb": "https://live.staticflickr.com/65535/51544132233_332456f720_n.jpg",
    "id_album": "-316663319",
    "description": "ANIME_PIC_70cc50908152829e793b5053a8330c4c,[Girl],[isGirlAnime],[isCuteAnime]",
    "title": "ANIME_PIC_70cc50908152829e793b5053a8330c4c",
    "link_img": "https://live.staticflickr.com/65535/51544132233_d260f03763_o.jpg",
    "id_image": "ANIME_PIC_70cc50908152829e793b5053a8330c4c",
    "count_view": 0
  },
  {
    "link_thumb": "https://live.staticflickr.com/65535/51544132478_843614ef79_n.jpg",
    "id_album": "-316663319",
    "description": "ANIME_PIC_70ccfd9c90e65867ef95c16a245e13b4,[Girl],[isGirlAnime],[isCuteAnime]",
    "title": "ANIME_PIC_70ccfd9c90e65867ef95c16a245e13b4",
    "link_img": "https://live.staticflickr.com/65535/51544132478_51c86fcdec_o.png",
    "id_image": "ANIME_PIC_70ccfd9c90e65867ef95c16a245e13b4",
    "count_view": 0
  },
  {
    "link_thumb": "https://live.staticflickr.com/65535/51545587610_c0b40160ef_n.jpg",
    "id_album": "-316663319",
    "description": "ANIME_PIC_70d2202d32d60df41d14e106b9d8b581,[Girl],[isGirlAnime],[isCuteAnime],[isGirlsLoliAnime]",
    "title": "ANIME_PIC_70d2202d32d60df41d14e106b9d8b581",
    "link_img": "https://live.staticflickr.com/65535/51545587610_c1c56a403a_o.jpg",
    "id_image": "ANIME_PIC_70d2202d32d60df41d14e106b9d8b581",
    "count_view": 0
  },
  {
    "link_thumb": "https://live.staticflickr.com/65535/51544658386_9d47f81979_n.jpg",
    "id_album": "-316663319",
    "description": "ANIME_PIC_70d265d24b9d40661299aeb76d585d14,[Girl],[isGirlAnime],[isCuteAnime],[isGirlsLoliAnime]",
    "title": "ANIME_PIC_70d265d24b9d40661299aeb76d585d14",
    "link_img": "https://live.staticflickr.com/65535/51544658386_0f63fbecee_o.png",
    "id_image": "ANIME_PIC_70d265d24b9d40661299aeb76d585d14",
    "count_view": 0
  },
  {
    "link_thumb": "https://live.staticflickr.com/65535/51545389789_e13bc06200_n.jpg",
    "id_album": "-316663319",
    "description": "ANIME_PIC_70d28c519df8d6a7075cf0cad6f18a9b,[Girl],[isGirlAnime],[isCuteAnime],[isGirlsHatsHoodieAnime],[isGirlsLoliAnime]",
    "title": "ANIME_PIC_70d28c519df8d6a7075cf0cad6f18a9b",
    "link_img": "https://live.staticflickr.com/65535/51545389789_1340c48f47_o.jpg",
    "id_image": "ANIME_PIC_70d28c519df8d6a7075cf0cad6f18a9b",
    "count_view": 0
  },
  {
    "link_thumb": "https://live.staticflickr.com/65535/51544658856_63c982c386_n.jpg",
    "id_album": "-316663319",
    "description": "ANIME_PIC_70d2c662cd0fed200f10277ef0d4bbc5,[Girl],[isGirlAnime],[isCuteAnime]",
    "title": "ANIME_PIC_70d2c662cd0fed200f10277ef0d4bbc5",
    "link_img": "https://live.staticflickr.com/65535/51544658856_340b06e194_o.jpg",
    "id_image": "ANIME_PIC_70d2c662cd0fed200f10277ef0d4bbc5",
    "count_view": 0
  },
  {
    "link_thumb": "https://live.staticflickr.com/65535/51544815600_5d7cb77283_n.jpg",
    "id_album": "-316663319",
    "description": "ANIME_PIC_70d55041bb9fccd081c433fc0a90c63c,[Girl],[isGirlAnime],[isCuteAnime]",
    "title": "ANIME_PIC_70d55041bb9fccd081c433fc0a90c63c",
    "link_img": "https://live.staticflickr.com/65535/51544815600_bc210cc07b_o.jpg",
    "id_image": "ANIME_PIC_70d55041bb9fccd081c433fc0a90c63c",
    "count_view": 0
  },
  {
    "link_thumb": "https://live.staticflickr.com/65535/51543093582_67bd8acfb1_n.jpg",
    "id_album": "-316663319",
    "description": "ANIME_PIC_70d5e971c1be5266daecb02391871afa,[Girl],[isGirlAnime],[isCuteAnime],[isGirlsLoliAnime]",
    "title": "ANIME_PIC_70d5e971c1be5266daecb02391871afa",
    "link_img": "https://live.staticflickr.com/65535/51543093582_44a8457213_o.jpg",
    "id_image": "ANIME_PIC_70d5e971c1be5266daecb02391871afa",
    "count_view": 0
  },
  {
    "link_thumb": "https://live.staticflickr.com/65535/51544904293_5f8a5600d3_n.jpg",
    "id_album": "-316663319",
    "description": "ANIME_PIC_70d5fdb56f84472230fa4b1999c618cb,[Girl],[isGirlAnime],[isCuteAnime],[isGirlsLoliAnime]",
    "title": "ANIME_PIC_70d5fdb56f84472230fa4b1999c618cb",
    "link_img": "https://live.staticflickr.com/65535/51544904293_33b3bac234_o.jpg",
    "id_image": "ANIME_PIC_70d5fdb56f84472230fa4b1999c618cb",
    "count_view": 0
  },
  {
    "link_thumb": "https://live.staticflickr.com/65535/51544619279_f962f8892e_n.jpg",
    "id_album": "-316663319",
    "description": "ANIME_PIC_70da602e268b7d9f8e6ea868aa81878e,[Girl],[isGirlAnime],[isCuteAnime]",
    "title": "ANIME_PIC_70da602e268b7d9f8e6ea868aa81878e",
    "link_img": "https://live.staticflickr.com/65535/51544619279_d3f2711381_o.png",
    "id_image": "ANIME_PIC_70da602e268b7d9f8e6ea868aa81878e",
    "count_view": 0
  },
  {
    "link_thumb": "https://live.staticflickr.com/65535/51544133663_92c93c2c71_n.jpg",
    "id_album": "-316663319",
    "description": "ANIME_PIC_70dac8006563fb08bd9475d34f1659eb,[Girl],[isGirlAnime],[isSadAnimeGirl],[isSadAnime]",
    "title": "ANIME_PIC_70dac8006563fb08bd9475d34f1659eb",
    "link_img": "https://live.staticflickr.com/65535/51544133663_e5f9761148_o.jpg",
    "id_image": "ANIME_PIC_70dac8006563fb08bd9475d34f1659eb",
    "count_view": 0
  },
  {
    "link_thumb": "https://live.staticflickr.com/65535/51545390469_1e99649f2d_n.jpg",
    "id_album": "-316663319",
    "description": "ANIME_PIC_70dd91042f564937b83c954bc6c6cafe,[Girl],[isGirlAnime],[isCuteAnime],[isGirlsLoliAnime]",
    "title": "ANIME_PIC_70dd91042f564937b83c954bc6c6cafe",
    "link_img": "https://live.staticflickr.com/65535/51545390469_5b4ac3c724_o.jpg",
    "id_image": "ANIME_PIC_70dd91042f564937b83c954bc6c6cafe",
    "count_view": 0
  },
  {
    "link_thumb": "https://live.staticflickr.com/65535/51543888301_4a149b1383_n.jpg",
    "id_album": "-316663319",
    "description": "ANIME_PIC_70dde951d0226ff2297af12101f32b96,[Girl],[isGirlAnime],[isCuteAnime],[isSadAnimeGirl],[isSadAnime]",
    "title": "ANIME_PIC_70dde951d0226ff2297af12101f32b96",
    "link_img": "https://live.staticflickr.com/65535/51543888301_b3060a1291_o.jpg",
    "id_image": "ANIME_PIC_70dde951d0226ff2297af12101f32b96",
    "count_view": 0
  },
  {
    "link_thumb": "https://live.staticflickr.com/65535/51544816895_c6c7b2fe38_n.jpg",
    "id_album": "-316663319",
    "description": "ANIME_PIC_70e61b73107f5b39e3b382b77c6362d3,[Girl],[isGirlAnime],[isCuteAnime],[isGirlEarsNekoAnime]",
    "title": "ANIME_PIC_70e61b73107f5b39e3b382b77c6362d3",
    "link_img": "https://live.staticflickr.com/65535/51544816895_e9b3c20517_o.jpg",
    "id_image": "ANIME_PIC_70e61b73107f5b39e3b382b77c6362d3",
    "count_view": 0
  },
  {
    "link_thumb": "https://live.staticflickr.com/65535/51543094742_f3b729cc35_n.jpg",
    "id_album": "-316663319",
    "description": "ANIME_PIC_70e78d2579750ae7fd47c8e48c9a0d85,[Girl],[isGirlAnime],[isCuteAnime],[isGirlsHatsHoodieAnime],[isSadAnimeGirl],[isSadAnime]",
    "title": "ANIME_PIC_70e78d2579750ae7fd47c8e48c9a0d85",
    "link_img": "https://live.staticflickr.com/65535/51543094742_ebe0e5bc1e_o.jpg",
    "id_image": "ANIME_PIC_70e78d2579750ae7fd47c8e48c9a0d85",
    "count_view": 0
  },
  {
    "link_thumb": "https://live.staticflickr.com/65535/51544817365_3704892d9f_n.jpg",
    "id_album": "-316663319",
    "description": "ANIME_PIC_70e937a7adbf2cb71754609c3b1621db,[Girl],[isGirlAnime],[isCuteAnime]",
    "title": "ANIME_PIC_70e937a7adbf2cb71754609c3b1621db",
    "link_img": "https://live.staticflickr.com/65535/51544817365_be966130f4_o.png",
    "id_image": "ANIME_PIC_70e937a7adbf2cb71754609c3b1621db",
    "count_view": 0
  },
  {
    "link_thumb": "https://live.staticflickr.com/65535/51543889431_41effb0d32_n.jpg",
    "id_album": "-316663319",
    "description": "ANIME_PIC_70ebaac9290bdaf94c392125b41f3532,[Girl],[isGirlAnime],[isCuteAnime],[isSadAnimeGirl],[isSadAnime]",
    "title": "ANIME_PIC_70ebaac9290bdaf94c392125b41f3532",
    "link_img": "https://live.staticflickr.com/65535/51543889431_965efea7ab_o.jpg",
    "id_image": "ANIME_PIC_70ebaac9290bdaf94c392125b41f3532",
    "count_view": 0
  },
  {
    "link_thumb": "https://live.staticflickr.com/65535/51544817780_5668ee2dba_n.jpg",
    "id_album": "-316663319",
    "description": "ANIME_PIC_70ece8e6be194b13d201ab7cb679516b,[Girl],[isGirlAnime],[isCuteAnime]",
    "title": "ANIME_PIC_70ece8e6be194b13d201ab7cb679516b",
    "link_img": "https://live.staticflickr.com/65535/51544817780_fc432671e0_o.jpg",
    "id_image": "ANIME_PIC_70ece8e6be194b13d201ab7cb679516b",
    "count_view": 0
  },
  {
    "link_thumb": "https://live.staticflickr.com/65535/51543095697_66c04a52c5_n.jpg",
    "id_album": "-316663319",
    "description": "ANIME_PIC_70ed6e52646c3570841553a06f14c18c,[Girl],[isGirlAnime],[isCuteAnime],[isGirlsLoliAnime]",
    "title": "ANIME_PIC_70ed6e52646c3570841553a06f14c18c",
    "link_img": "https://live.staticflickr.com/65535/51543095697_33249663e6_o.jpg",
    "id_image": "ANIME_PIC_70ed6e52646c3570841553a06f14c18c",
    "count_view": 0
  },
  {
    "link_thumb": "https://live.staticflickr.com/65535/51543890026_cde157868b_n.jpg",
    "id_album": "-316663319",
    "description": "ANIME_PIC_70f201f3c8dfe693b9be741745f6b7b5,[Girl],[isGirlAnime],[isCuteAnime]",
    "title": "ANIME_PIC_70f201f3c8dfe693b9be741745f6b7b5",
    "link_img": "https://live.staticflickr.com/65535/51543890026_774870a076_o.jpg",
    "id_image": "ANIME_PIC_70f201f3c8dfe693b9be741745f6b7b5",
    "count_view": 0
  },
  {
    "link_thumb": "https://live.staticflickr.com/65535/51544818385_01109748a0_n.jpg",
    "id_album": "-316663319",
    "description": "ANIME_PIC_70f32fcd1a496614d1152520700c7fde,[Girl],[isGirlAnime],[isCuteAnime],[isGirlsLoliAnime],[isSadAnimeGirl],[isSadAnime]",
    "title": "ANIME_PIC_70f32fcd1a496614d1152520700c7fde",
    "link_img": "https://live.staticflickr.com/65535/51544818385_ac5a9898d0_o.png",
    "id_image": "ANIME_PIC_70f32fcd1a496614d1152520700c7fde",
    "count_view": 0
  },
  {
    "link_thumb": "https://live.staticflickr.com/65535/51545390639_2e9258c5b5_n.jpg",
    "id_album": "-316663319",
    "description": "ANIME_PIC_7107831cbd0c84ec0d4e573d7747720a,[Girl],[isGirlAnime],[isCuteAnime],[isGirlsHatsHoodieAnime],[isGirlsLoliAnime],[isSadAnimeGirl],[isSadAnime]",
    "title": "ANIME_PIC_7107831cbd0c84ec0d4e573d7747720a",
    "link_img": "https://live.staticflickr.com/65535/51545390639_5a44613efc_o.png",
    "id_image": "ANIME_PIC_7107831cbd0c84ec0d4e573d7747720a",
    "count_view": 0
  },
  {
    "link_thumb": "https://live.staticflickr.com/65535/51544818690_323e2b91b0_n.jpg",
    "id_album": "-316663319",
    "description": "ANIME_PIC_7107b3c2dc8456d7d0a21faa48b4e00f,[Girl],[isGirlAnime],[isCuteAnime],[isGirlsLoliAnime],[isSadAnimeGirl],[isSadAnime]",
    "title": "ANIME_PIC_7107b3c2dc8456d7d0a21faa48b4e00f",
    "link_img": "https://live.staticflickr.com/65535/51544818690_9d712a790c_o.jpg",
    "id_image": "ANIME_PIC_7107b3c2dc8456d7d0a21faa48b4e00f",
    "count_view": 0
  },
  {
    "link_thumb": "https://live.staticflickr.com/65535/51544659746_c1421d16c5_n.jpg",
    "id_album": "-316663319",
    "description": "ANIME_PIC_710bed8700e60c26d6499186b755f357,[Girl],[isGirlAnime],[isCuteAnime],[isGirlsLoliAnime],[isGirlsSharpCanineToothAnime]",
    "title": "ANIME_PIC_710bed8700e60c26d6499186b755f357",
    "link_img": "https://live.staticflickr.com/65535/51544659746_9674abed6a_o.png",
    "id_image": "ANIME_PIC_710bed8700e60c26d6499186b755f357",
    "count_view": 0
  },
  {
    "link_thumb": "https://live.staticflickr.com/65535/51543096667_cc7f39c180_n.jpg",
    "id_album": "-316663319",
    "description": "ANIME_PIC_711032648e73fa91a09f4d08e18f00e7,[Girl],[isGirlAnime],[isCuteAnime],[isGirlsLoliAnime]",
    "title": "ANIME_PIC_711032648e73fa91a09f4d08e18f00e7",
    "link_img": "https://live.staticflickr.com/65535/51543096667_7fef9633f9_o.jpg",
    "id_image": "ANIME_PIC_711032648e73fa91a09f4d08e18f00e7",
    "count_view": 0
  },
  {
    "link_thumb": "https://live.staticflickr.com/65535/51543890761_b71364a5da_n.jpg",
    "id_album": "-316663319",
    "description": "ANIME_PIC_7113cb1ba415b4bd0cc189419cdfcf3e,[Girl],[isGirlAnime],[isCuteAnime],[isGirlsLoliAnime]",
    "title": "ANIME_PIC_7113cb1ba415b4bd0cc189419cdfcf3e",
    "link_img": "https://live.staticflickr.com/65535/51543890761_220dd2a461_o.jpg",
    "id_image": "ANIME_PIC_7113cb1ba415b4bd0cc189419cdfcf3e",
    "count_view": 0
  },
  {
    "link_thumb": "https://live.staticflickr.com/65535/51544136463_7e9f971e6f_n.jpg",
    "id_album": "-316663319",
    "description": "ANIME_PIC_71157d0592bac1bd4c9f27ca42e219cc,[Girl],[isGirlAnime],[isCuteAnime],[isGirlEarsNekoAnime],[isGirlsLoliAnime]",
    "title": "ANIME_PIC_71157d0592bac1bd4c9f27ca42e219cc",
    "link_img": "https://live.staticflickr.com/65535/51544136463_c304a182c3_o.jpg",
    "id_image": "ANIME_PIC_71157d0592bac1bd4c9f27ca42e219cc",
    "count_view": 0
  },
  {
    "link_thumb": "https://live.staticflickr.com/65535/51544622464_d334118a33_n.jpg",
    "id_album": "-316663319",
    "description": "ANIME_PIC_7116e8ee4c6fb5032ac22b09d7ed97e1,[Girl],[isGirlAnime],[isCuteAnime]",
    "title": "ANIME_PIC_7116e8ee4c6fb5032ac22b09d7ed97e1",
    "link_img": "https://live.staticflickr.com/65535/51544622464_1cb9f8b7d0_o.jpg",
    "id_image": "ANIME_PIC_7116e8ee4c6fb5032ac22b09d7ed97e1",
    "count_view": 0
  },
  {
    "link_thumb": "https://live.staticflickr.com/65535/51544819595_0222e3be18_n.jpg",
    "id_album": "-316663319",
    "description": "ANIME_PIC_71190ce48c27586997d155853cd2334b,[Girl],[isGirlAnime],[isCuteAnime],[isGirlsLoliAnime]",
    "title": "ANIME_PIC_71190ce48c27586997d155853cd2334b",
    "link_img": "https://live.staticflickr.com/65535/51544819595_53b626e220_o.jpg",
    "id_image": "ANIME_PIC_71190ce48c27586997d155853cd2334b",
    "count_view": 0
  },
  {
    "link_thumb": "https://live.staticflickr.com/65535/51544622934_b08df89975_n.jpg",
    "id_album": "-316663319",
    "description": "ANIME_PIC_711aee866757c55d1286646271fe8607,[Girl],[isGirlAnime],[isCuteAnime]",
    "title": "ANIME_PIC_711aee866757c55d1286646271fe8607",
    "link_img": "https://live.staticflickr.com/65535/51544622934_ac8eba355a_o.png",
    "id_image": "ANIME_PIC_711aee866757c55d1286646271fe8607",
    "count_view": 0
  },
  {
    "link_thumb": "https://live.staticflickr.com/65535/51544659961_496035b20f_n.jpg",
    "id_album": "-316663319",
    "description": "ANIME_PIC_711fa1c44de4ac35969313b270d933e3,[Girl],[isGirlAnime],[isCuteAnime]",
    "title": "ANIME_PIC_711fa1c44de4ac35969313b270d933e3",
    "link_img": "https://live.staticflickr.com/65535/51544659961_0d717a7cf7_o.jpg",
    "id_image": "ANIME_PIC_711fa1c44de4ac35969313b270d933e3",
    "count_view": 0
  },
  {
    "link_thumb": "https://live.staticflickr.com/65535/51545391299_4aa75d416f_n.jpg",
    "id_album": "-316663319",
    "description": "ANIME_PIC_7126c83afe6a6b7c20d6fc641123d376,[Girl],[isGirlAnime],[isCuteAnime],[isGirlEarsNekoAnime]",
    "title": "ANIME_PIC_7126c83afe6a6b7c20d6fc641123d376",
    "link_img": "https://live.staticflickr.com/65535/51545391299_a229d827b0_o.jpg",
    "id_image": "ANIME_PIC_7126c83afe6a6b7c20d6fc641123d376",
    "count_view": 0
  },
  {
    "link_thumb": "https://live.staticflickr.com/65535/51544820195_f3ee43af36_n.jpg",
    "id_album": "-316663319",
    "description": "ANIME_PIC_71277b21a47055631dceeda14a7c69c1,[Girl],[isGirlAnime],[isCuteAnime],[isGirlsLoliAnime]",
    "title": "ANIME_PIC_71277b21a47055631dceeda14a7c69c1",
    "link_img": "https://live.staticflickr.com/65535/51544820195_0b894f02e3_o.png",
    "id_image": "ANIME_PIC_71277b21a47055631dceeda14a7c69c1",
    "count_view": 0
  },
  {
    "link_thumb": "https://live.staticflickr.com/65535/51544820560_46cc13d3f9_n.jpg",
    "id_album": "-316663319",
    "description": "ANIME_PIC_7128903e1b6959b649b97eea576a78c4,[Girl],[isGirlAnime],[isCuteAnime]",
    "title": "ANIME_PIC_7128903e1b6959b649b97eea576a78c4",
    "link_img": "https://live.staticflickr.com/65535/51544820560_45b1f21df7_o.jpg",
    "id_image": "ANIME_PIC_7128903e1b6959b649b97eea576a78c4",
    "count_view": 0
  },
  {
    "link_thumb": "https://live.staticflickr.com/65535/51543098487_59110d3529_n.jpg",
    "id_album": "-316663319",
    "description": "ANIME_PIC_71289b15a1337b99d40ed7bd3c6230a4,[Girl],[isGirlAnime],[isCuteAnime],[isGirlEarsNekoAnime],[isGirlsLoliAnime],[isSadAnimeGirl],[isSadAnime]",
    "title": "ANIME_PIC_71289b15a1337b99d40ed7bd3c6230a4",
    "link_img": "https://live.staticflickr.com/65535/51543098487_d0484d94af_o.jpg",
    "id_image": "ANIME_PIC_71289b15a1337b99d40ed7bd3c6230a4",
    "count_view": 0
  },
  {
    "link_thumb": "https://live.staticflickr.com/65535/51544624119_4134f2df81_n.jpg",
    "id_album": "-316663319",
    "description": "ANIME_PIC_7129675364eb20e566bcff43b0312185,[Girl],[isGirlAnime],[isCuteAnime],[isSadAnimeGirl],[isSadAnime]",
    "title": "ANIME_PIC_7129675364eb20e566bcff43b0312185",
    "link_img": "https://live.staticflickr.com/65535/51544624119_c946506099_o.jpg",
    "id_image": "ANIME_PIC_7129675364eb20e566bcff43b0312185",
    "count_view": 0
  },
  {
    "link_thumb": "https://live.staticflickr.com/65535/51544138353_06b63ccaa7_n.jpg",
    "id_album": "-316663319",
    "description": "ANIME_PIC_712cc215695575065040bee32b1252c4,[Girl],[isGirlAnime],[isCuteAnime],[isGirlsHatsHoodieAnime],[isGirlsLoliAnime],[isSadAnimeGirl],[isSadAnime]",
    "title": "ANIME_PIC_712cc215695575065040bee32b1252c4",
    "link_img": "https://live.staticflickr.com/65535/51544138353_bc893e0011_o.jpg",
    "id_image": "ANIME_PIC_712cc215695575065040bee32b1252c4",
    "count_view": 0
  },
  {
    "link_thumb": "https://live.staticflickr.com/65535/51544624544_f1aecf737f_n.jpg",
    "id_album": "-316663319",
    "description": "ANIME_PIC_712ce03ff45d4e125c1b7eae59b426a4,[Girl],[isGirlAnime],[isCuteAnime],[isGirlsLoliAnime]",
    "title": "ANIME_PIC_712ce03ff45d4e125c1b7eae59b426a4",
    "link_img": "https://live.staticflickr.com/65535/51544624544_354dc590fb_o.png",
    "id_image": "ANIME_PIC_712ce03ff45d4e125c1b7eae59b426a4",
    "count_view": 0
  },
  {
    "link_thumb": "https://live.staticflickr.com/65535/51544821790_c47a08495d_n.jpg",
    "id_album": "-316663319",
    "description": "ANIME_PIC_712cfbf4f12550a62402d72ac7f5dcad,[Girl],[isGirlAnime],[isCuteAnime],[isGirlsLoliAnime],[isSadAnimeGirl],[isSadAnime]",
    "title": "ANIME_PIC_712cfbf4f12550a62402d72ac7f5dcad",
    "link_img": "https://live.staticflickr.com/65535/51544821790_3b919375bd_o.png",
    "id_image": "ANIME_PIC_712cfbf4f12550a62402d72ac7f5dcad",
    "count_view": 0
  },
  {
    "link_thumb": "https://live.staticflickr.com/65535/51544625169_0239b7f49d_n.jpg",
    "id_album": "-316663319",
    "description": "ANIME_PIC_71318b2e713d711fa5b389ba71a4a39b,[Girl],[isGirlAnime],[isCuteAnime],[isGirlsLoliAnime]",
    "title": "ANIME_PIC_71318b2e713d711fa5b389ba71a4a39b",
    "link_img": "https://live.staticflickr.com/65535/51544625169_b98cb45c04_o.png",
    "id_image": "ANIME_PIC_71318b2e713d711fa5b389ba71a4a39b",
    "count_view": 0
  },
  {
    "link_thumb": "https://live.staticflickr.com/65535/51544822315_4ec6c3c18e_n.jpg",
    "id_album": "-316663319",
    "description": "ANIME_PIC_7137c6c8c2794039527e3926f66ab0e5,[Girl],[isGirlAnime],[isCuteAnime],[isSadAnimeGirl],[isSadAnime]",
    "title": "ANIME_PIC_7137c6c8c2794039527e3926f66ab0e5",
    "link_img": "https://live.staticflickr.com/65535/51544822315_ab27032fa3_o.png",
    "id_image": "ANIME_PIC_7137c6c8c2794039527e3926f66ab0e5",
    "count_view": 0
  },
  {
    "link_thumb": "https://live.staticflickr.com/65535/51543100422_a567cae6e0_n.jpg",
    "id_album": "-316663319",
    "description": "ANIME_PIC_713808f4ccb58b348fea6d718efb11f3,[Girl],[isGirlAnime],[isCuteAnime],[isGirlsLoliAnime]",
    "title": "ANIME_PIC_713808f4ccb58b348fea6d718efb11f3",
    "link_img": "https://live.staticflickr.com/65535/51543100422_3f4777ae3e_o.jpg",
    "id_image": "ANIME_PIC_713808f4ccb58b348fea6d718efb11f3",
    "count_view": 0
  },
  {
    "link_thumb": "https://live.staticflickr.com/65535/51543894576_b997640ac4_n.jpg",
    "id_album": "-316663319",
    "description": "ANIME_PIC_71388af70b4d4396f08eb0eb3952aaf1,[Girl],[isGirlAnime],[isCuteAnime],[isGirlsHatsHoodieAnime]",
    "title": "ANIME_PIC_71388af70b4d4396f08eb0eb3952aaf1",
    "link_img": "https://live.staticflickr.com/65535/51543894576_06b2124564_o.png",
    "id_image": "ANIME_PIC_71388af70b4d4396f08eb0eb3952aaf1",
    "count_view": 0
  },
  {
    "link_thumb": "https://live.staticflickr.com/65535/51543100897_0b9e0be8d1_n.jpg",
    "id_album": "-316663319",
    "description": "ANIME_PIC_71452c8ddac5eb0b51976f95a133b82e,[Girl],[isGirlAnime],[isCuteAnime],[isGirlsLoliAnime]",
    "title": "ANIME_PIC_71452c8ddac5eb0b51976f95a133b82e",
    "link_img": "https://live.staticflickr.com/65535/51543100897_2c20ee538b_o.png",
    "id_image": "ANIME_PIC_71452c8ddac5eb0b51976f95a133b82e",
    "count_view": 0
  },
  {
    "link_thumb": "https://live.staticflickr.com/65535/51544140768_5a8790769c_n.jpg",
    "id_album": "-316663319",
    "description": "ANIME_PIC_71471f0880ecf96c485c662e68a68a19,[Girl],[isGirlAnime],[isCuteAnime],[isGirlsLoliAnime]",
    "title": "ANIME_PIC_71471f0880ecf96c485c662e68a68a19",
    "link_img": "https://live.staticflickr.com/65535/51544140768_d10d5ae2ec_o.png",
    "id_image": "ANIME_PIC_71471f0880ecf96c485c662e68a68a19",
    "count_view": 0
  },
  {
    "link_thumb": "https://live.staticflickr.com/65535/51544626849_04afc7277b_n.jpg",
    "id_album": "-316663319",
    "description": "ANIME_PIC_7149997dc41a868e736d44a9fd733520,[Girl],[isGirlAnime],[isCuteAnime]",
    "title": "ANIME_PIC_7149997dc41a868e736d44a9fd733520",
    "link_img": "https://live.staticflickr.com/65535/51544626849_be790df320_o.png",
    "id_image": "ANIME_PIC_7149997dc41a868e736d44a9fd733520",
    "count_view": 0
  },
  {
    "link_thumb": "https://live.staticflickr.com/65535/51544141328_82d6f0687a_n.jpg",
    "id_album": "-316663319",
    "description": "ANIME_PIC_714e0944b6b9ae74965e85de31bbe8f9,[Girl],[isGirlAnime],[isCuteAnime],[isGirlsHatsHoodieAnime],[isGirlsLoliAnime]",
    "title": "ANIME_PIC_714e0944b6b9ae74965e85de31bbe8f9",
    "link_img": "https://live.staticflickr.com/65535/51544141328_c50485a818_o.jpg",
    "id_image": "ANIME_PIC_714e0944b6b9ae74965e85de31bbe8f9",
    "count_view": 0
  },
  {
    "link_thumb": "https://live.staticflickr.com/65535/51544627419_ae68a613dc_n.jpg",
    "id_album": "-316663319",
    "description": "ANIME_PIC_714eac29723727fbe22f5a7db1a116d1,[Girl],[isGirlAnime],[isCuteAnime],[isSadAnimeGirl],[isSadAnime]",
    "title": "ANIME_PIC_714eac29723727fbe22f5a7db1a116d1",
    "link_img": "https://live.staticflickr.com/65535/51544627419_e4e4b057cb_o.png",
    "id_image": "ANIME_PIC_714eac29723727fbe22f5a7db1a116d1",
    "count_view": 0
  },
  {
    "link_thumb": "https://live.staticflickr.com/65535/51544141708_32ba85694c_n.jpg",
    "id_album": "-316663319",
    "description": "ANIME_PIC_7151c1c2814815a4c8154031fc818614,[Girl],[isGirlAnime],[isCuteAnime],[isSadAnimeGirl],[isSadAnime]",
    "title": "ANIME_PIC_7151c1c2814815a4c8154031fc818614",
    "link_img": "https://live.staticflickr.com/65535/51544141708_b8f1e1c6ee_o.jpg",
    "id_image": "ANIME_PIC_7151c1c2814815a4c8154031fc818614",
    "count_view": 0
  },
  {
    "link_thumb": "https://live.staticflickr.com/65535/51544824735_52ec0cf5ee_n.jpg",
    "id_album": "-316663319",
    "description": "ANIME_PIC_715525a283cf80f33dcfa1a93ad7ffe2,[Girl],[isGirlAnime],[isCuteAnime]",
    "title": "ANIME_PIC_715525a283cf80f33dcfa1a93ad7ffe2",
    "link_img": "https://live.staticflickr.com/65535/51544824735_e3b728c95e_o.jpg",
    "id_image": "ANIME_PIC_715525a283cf80f33dcfa1a93ad7ffe2",
    "count_view": 0
  },
  {
    "link_thumb": "https://live.staticflickr.com/65535/51544824865_dba299122e_n.jpg",
    "id_album": "-316663319",
    "description": "ANIME_PIC_715535e18d1b132fa13886a17a7b3258,[Girl],[isGirlAnime],[isCuteAnime]",
    "title": "ANIME_PIC_715535e18d1b132fa13886a17a7b3258",
    "link_img": "https://live.staticflickr.com/65535/51544824865_39238456f8_o.jpg",
    "id_image": "ANIME_PIC_715535e18d1b132fa13886a17a7b3258",
    "count_view": 0
  },
  {
    "link_thumb": "https://live.staticflickr.com/65535/51544628134_d15c19be9b_n.jpg",
    "id_album": "-316663319",
    "description": "ANIME_PIC_715629015f4fe6204203f1e65e3dfa9e,[Girl],[isGirlAnime],[isCuteAnime]",
    "title": "ANIME_PIC_715629015f4fe6204203f1e65e3dfa9e",
    "link_img": "https://live.staticflickr.com/65535/51544628134_d4ca1ee117_o.jpg",
    "id_image": "ANIME_PIC_715629015f4fe6204203f1e65e3dfa9e",
    "count_view": 0
  },
  {
    "link_thumb": "https://live.staticflickr.com/65535/51544628354_a30ba38d78_n.jpg",
    "id_album": "-316663319",
    "description": "ANIME_PIC_715673dce5cc355cc03e7fc5753b1241,[Girl],[isGirlAnime],[isCuteAnime],[isGirlsLoliAnime],[isSadAnimeGirl],[isSadAnime]",
    "title": "ANIME_PIC_715673dce5cc355cc03e7fc5753b1241",
    "link_img": "https://live.staticflickr.com/65535/51544628354_ebb23c2a41_o.jpg",
    "id_image": "ANIME_PIC_715673dce5cc355cc03e7fc5753b1241",
    "count_view": 0
  },
  {
    "link_thumb": "https://live.staticflickr.com/65535/51544142528_a58073889a_n.jpg",
    "id_album": "-316663319",
    "description": "ANIME_PIC_715821f8eedb6a9869968cffd7e9085f,[Girl],[isGirlAnime],[isCuteAnime],[isGirlsHatsHoodieAnime]",
    "title": "ANIME_PIC_715821f8eedb6a9869968cffd7e9085f",
    "link_img": "https://live.staticflickr.com/65535/51544142528_2c0f30de2a_o.jpg",
    "id_image": "ANIME_PIC_715821f8eedb6a9869968cffd7e9085f",
    "count_view": 0
  },
  {
    "link_thumb": "https://live.staticflickr.com/65535/51544628774_6757bda6a2_n.jpg",
    "id_album": "-316663319",
    "description": "ANIME_PIC_715933179257ce14cd82729b428b2550,[Girl],[isGirlAnime],[isCuteAnime],[isGirlsHatsHoodieAnime],[isGirlsLoliAnime]",
    "title": "ANIME_PIC_715933179257ce14cd82729b428b2550",
    "link_img": "https://live.staticflickr.com/65535/51544628774_11993d109c_o.jpg",
    "id_image": "ANIME_PIC_715933179257ce14cd82729b428b2550",
    "count_view": 0
  },
  {
    "link_thumb": "https://live.staticflickr.com/65535/51544142833_8025961dfb_n.jpg",
    "id_album": "-316663319",
    "description": "ANIME_PIC_7159674df2073cc0f1c82f1a1cc70736,[Girl],[isGirlAnime],[isCuteAnime],[isGirlsHatsHoodieAnime],[isGirlsLoliAnime]",
    "title": "ANIME_PIC_7159674df2073cc0f1c82f1a1cc70736",
    "link_img": "https://live.staticflickr.com/65535/51544142833_8e5bde0381_o.png",
    "id_image": "ANIME_PIC_7159674df2073cc0f1c82f1a1cc70736",
    "count_view": 0
  },
  {
    "link_thumb": "https://live.staticflickr.com/65535/51544629249_591548a2e8_n.jpg",
    "id_album": "-316663319",
    "description": "ANIME_PIC_715b9fe7e6e22022f8261c81b7ff6856,[Girl],[isGirlAnime],[isCuteAnime],[isGirlEarsNekoAnime]",
    "title": "ANIME_PIC_715b9fe7e6e22022f8261c81b7ff6856",
    "link_img": "https://live.staticflickr.com/65535/51544629249_c5a04bcf5e_o.jpg",
    "id_image": "ANIME_PIC_715b9fe7e6e22022f8261c81b7ff6856",
    "count_view": 0
  },
  {
    "link_thumb": "https://live.staticflickr.com/65535/51545391494_b519826372_n.jpg",
    "id_album": "-316663319",
    "description": "ANIME_PIC_715e312a30d44bedc9847e4d2f742a87,[Girl],[isGirlAnime],[isCuteAnime],[isGirlsSharpCanineToothAnime]",
    "title": "ANIME_PIC_715e312a30d44bedc9847e4d2f742a87",
    "link_img": "https://live.staticflickr.com/65535/51545391494_63764d8590_o.jpg",
    "id_image": "ANIME_PIC_715e312a30d44bedc9847e4d2f742a87",
    "count_view": 0
  },
  {
    "link_thumb": "https://live.staticflickr.com/65535/51543897841_78ca5ec960_n.jpg",
    "id_album": "-316663319",
    "description": "ANIME_PIC_715fe1afbb3ae0cba3cb10aad348d1af,[Girl],[isGirlAnime],[isCuteAnime],[isGirlsLoliAnime]",
    "title": "ANIME_PIC_715fe1afbb3ae0cba3cb10aad348d1af",
    "link_img": "https://live.staticflickr.com/65535/51543897841_323cb1efc1_o.jpg",
    "id_image": "ANIME_PIC_715fe1afbb3ae0cba3cb10aad348d1af",
    "count_view": 0
  },
  {
    "link_thumb": "https://live.staticflickr.com/65535/51543104027_d7f400193a_n.jpg",
    "id_album": "-316663319",
    "description": "ANIME_PIC_71627e830d4023ee051e9c48ac4a975f,[Girl],[isGirlAnime],[isCuteAnime],[isSadAnimeGirl],[isSadAnime]",
    "title": "ANIME_PIC_71627e830d4023ee051e9c48ac4a975f",
    "link_img": "https://live.staticflickr.com/65535/51543104027_97efa70fb7_o.jpg",
    "id_image": "ANIME_PIC_71627e830d4023ee051e9c48ac4a975f",
    "count_view": 0
  },
  {
    "link_thumb": "https://live.staticflickr.com/65535/51544826845_4a08bc4e60_n.jpg",
    "id_album": "-316663319",
    "description": "ANIME_PIC_716c7ea79747bdf6458c4f28a39d9fb7,[Girl],[isGirlAnime],[isCuteAnime],[isGirlsHatsHoodieAnime]",
    "title": "ANIME_PIC_716c7ea79747bdf6458c4f28a39d9fb7",
    "link_img": "https://live.staticflickr.com/65535/51544826845_0ee75084d4_o.jpg",
    "id_image": "ANIME_PIC_716c7ea79747bdf6458c4f28a39d9fb7",
    "count_view": 0
  },
  {
    "link_thumb": "https://live.staticflickr.com/65535/51544630069_ed6f2ec56b_n.jpg",
    "id_album": "-316663319",
    "description": "ANIME_PIC_716e98534a5b38a23857840c45b255b5,[Girl],[isGirlAnime],[isCuteAnime]",
    "title": "ANIME_PIC_716e98534a5b38a23857840c45b255b5",
    "link_img": "https://live.staticflickr.com/65535/51544630069_86b8fa9c56_o.jpg",
    "id_image": "ANIME_PIC_716e98534a5b38a23857840c45b255b5",
    "count_view": 0
  },
  {
    "link_thumb": "https://live.staticflickr.com/65535/51544143923_67c91ae120_n.jpg",
    "id_album": "-316663319",
    "description": "ANIME_PIC_716f6d763f75b28eb17bf483b5165ec5,[Girl],[isGirlAnime],[isCuteAnime]",
    "title": "ANIME_PIC_716f6d763f75b28eb17bf483b5165ec5",
    "link_img": "https://live.staticflickr.com/65535/51544143923_e56aa27bcf_o.jpg",
    "id_image": "ANIME_PIC_716f6d763f75b28eb17bf483b5165ec5",
    "count_view": 0
  },
  {
    "link_thumb": "https://live.staticflickr.com/65535/51543868077_6129ebd49b_n.jpg",
    "id_album": "-316663319",
    "description": "ANIME_PIC_7178785b7fe8ccdb1d6b5ab006305afe,[Girl],[isGirlAnime],[isCuteAnime],[isGirlsHatsHoodieAnime]",
    "title": "ANIME_PIC_7178785b7fe8ccdb1d6b5ab006305afe",
    "link_img": "https://live.staticflickr.com/65535/51543868077_7f1f134347_o.png",
    "id_image": "ANIME_PIC_7178785b7fe8ccdb1d6b5ab006305afe",
    "count_view": 0
  },
  {
    "link_thumb": "https://live.staticflickr.com/65535/51543104782_8e2c6a42e2_n.jpg",
    "id_album": "-316663319",
    "description": "ANIME_PIC_717efb627d0614569c36c67f8de3a109,[Girl],[isGirlAnime],[isCuteAnime],[isGirlsLoliAnime]",
    "title": "ANIME_PIC_717efb627d0614569c36c67f8de3a109",
    "link_img": "https://live.staticflickr.com/65535/51543104782_32912ba57a_o.jpg",
    "id_image": "ANIME_PIC_717efb627d0614569c36c67f8de3a109",
    "count_view": 0
  },
  {
    "link_thumb": "https://live.staticflickr.com/65535/51544144263_d97529ba3c_n.jpg",
    "id_album": "-316663319",
    "description": "ANIME_PIC_71800faf9400773614dc3401bbec8f42,[Girl],[isGirlAnime],[isCuteAnime],[isSadAnimeGirl],[isSadAnime]",
    "title": "ANIME_PIC_71800faf9400773614dc3401bbec8f42",
    "link_img": "https://live.staticflickr.com/65535/51544144263_5406641610_o.png",
    "id_image": "ANIME_PIC_71800faf9400773614dc3401bbec8f42",
    "count_view": 0
  },
  {
    "link_thumb": "https://live.staticflickr.com/65535/51543899451_f7f183a180_n.jpg",
    "id_album": "-316663319",
    "description": "ANIME_PIC_7181bcc43dca09b5d27fc36f7b9c2764,[Girl],[isGirlAnime],[isCuteAnime],[isGirlsHatsHoodieAnime],[isGirlsLoliAnime]",
    "title": "ANIME_PIC_7181bcc43dca09b5d27fc36f7b9c2764",
    "link_img": "https://live.staticflickr.com/65535/51543899451_e79d29a44f_o.jpg",
    "id_image": "ANIME_PIC_7181bcc43dca09b5d27fc36f7b9c2764",
    "count_view": 0
  },
  {
    "link_thumb": "https://live.staticflickr.com/65535/51544905958_9ce28338c9_n.jpg",
    "id_album": "-316663319",
    "description": "ANIME_PIC_718212c8edb22757dd164f81360c240b,[Girl],[isGirlAnime],[isCuteAnime],[isGirlsHatsHoodieAnime],[isGirlsLoliAnime]",
    "title": "ANIME_PIC_718212c8edb22757dd164f81360c240b",
    "link_img": "https://live.staticflickr.com/65535/51544905958_836366ecdc_o.jpg",
    "id_image": "ANIME_PIC_718212c8edb22757dd164f81360c240b",
    "count_view": 0
  },
  {
    "link_thumb": "https://live.staticflickr.com/65535/51543105572_44b7351893_n.jpg",
    "id_album": "-316663319",
    "description": "ANIME_PIC_718729d6f6c13f4ca1b044716b81fd51,[Girl],[isGirlAnime],[isCuteAnime],[isGirlEarsNekoAnime],[isGirlsLoliAnime]",
    "title": "ANIME_PIC_718729d6f6c13f4ca1b044716b81fd51",
    "link_img": "https://live.staticflickr.com/65535/51543105572_0cb8829a48_o.jpg",
    "id_image": "ANIME_PIC_718729d6f6c13f4ca1b044716b81fd51",
    "count_view": 0
  },
  {
    "link_thumb": "https://live.staticflickr.com/65535/51544828510_946be27d78_n.jpg",
    "id_album": "-316663319",
    "description": "ANIME_PIC_71896ee9309d5950d2d0a1ac52564de5,[Girl],[isGirlAnime],[isCuteAnime]",
    "title": "ANIME_PIC_71896ee9309d5950d2d0a1ac52564de5",
    "link_img": "https://live.staticflickr.com/65535/51544828510_3a4e9138f0_o.jpg",
    "id_image": "ANIME_PIC_71896ee9309d5950d2d0a1ac52564de5",
    "count_view": 0
  },
  {
    "link_thumb": "https://live.staticflickr.com/65535/51544828750_be5413605e_n.jpg",
    "id_album": "-316663319",
    "description": "ANIME_PIC_718e3ea4c2da3bd46329679a58cc4b4e,[Girl],[isGirlAnime],[isCuteAnime],[isGirlsLoliAnime]",
    "title": "ANIME_PIC_718e3ea4c2da3bd46329679a58cc4b4e",
    "link_img": "https://live.staticflickr.com/65535/51544828750_8f5086a74d_o.png",
    "id_image": "ANIME_PIC_718e3ea4c2da3bd46329679a58cc4b4e",
    "count_view": 0
  },
  {
    "link_thumb": "https://live.staticflickr.com/65535/51544145668_2b774ff5d1_n.jpg",
    "id_album": "-316663319",
    "description": "ANIME_PIC_7191e70c1fb0f36983a456831491aaee,[Girl],[isGirlAnime],[isCuteAnime],[isGirlsHatsHoodieAnime],[isSadAnimeGirl],[isSadAnime]",
    "title": "ANIME_PIC_7191e70c1fb0f36983a456831491aaee",
    "link_img": "https://live.staticflickr.com/65535/51544145668_4b004a498e_o.jpg",
    "id_image": "ANIME_PIC_7191e70c1fb0f36983a456831491aaee",
    "count_view": 0
  },
  {
    "link_thumb": "https://live.staticflickr.com/65535/51545392224_c20b874e7a_n.jpg",
    "id_album": "-316663319",
    "description": "ANIME_PIC_7191f3f8e9a32295ae73f9cebef76d98,[Girl],[isGirlAnime],[isCuteAnime],[isGirlsHatsHoodieAnime],[isGirlsLoliAnime]",
    "title": "ANIME_PIC_7191f3f8e9a32295ae73f9cebef76d98",
    "link_img": "https://live.staticflickr.com/65535/51545392224_e37a162302_o.jpg",
    "id_image": "ANIME_PIC_7191f3f8e9a32295ae73f9cebef76d98",
    "count_view": 0
  },
  {
    "link_thumb": "https://live.staticflickr.com/65535/51544829245_633623a07d_n.jpg",
    "id_album": "-316663319",
    "description": "ANIME_PIC_71944213940f29dcf785c19ee673935f,[Girl],[isGirlAnime],[isCuteAnime],[isGirlsHatsHoodieAnime]",
    "title": "ANIME_PIC_71944213940f29dcf785c19ee673935f",
    "link_img": "https://live.staticflickr.com/65535/51544829245_bd4f8c58c7_o.png",
    "id_image": "ANIME_PIC_71944213940f29dcf785c19ee673935f",
    "count_view": 0
  },
  {
    "link_thumb": "https://live.staticflickr.com/65535/51543900631_e7a1914240_n.jpg",
    "id_album": "-316663319",
    "description": "ANIME_PIC_719639e9f61ed643f8d38d5039387869,[Girl],[isGirlAnime],[isCuteAnime],[isGirlsLoliAnime]",
    "title": "ANIME_PIC_719639e9f61ed643f8d38d5039387869",
    "link_img": "https://live.staticflickr.com/65535/51543900631_bbd110d5e0_o.jpg",
    "id_image": "ANIME_PIC_719639e9f61ed643f8d38d5039387869",
    "count_view": 0
  },
  {
    "link_thumb": "https://live.staticflickr.com/65535/51543900846_59cefdc1e9_n.jpg",
    "id_album": "-316663319",
    "description": "ANIME_PIC_719c4454bb2ff852d8d93ec8a59c5e47,[Girl],[isGirlAnime],[isCuteAnime],[isGirlsHatsHoodieAnime],[isGirlsLoliAnime]",
    "title": "ANIME_PIC_719c4454bb2ff852d8d93ec8a59c5e47",
    "link_img": "https://live.staticflickr.com/65535/51543900846_f6635dc9dd_o.png",
    "id_image": "ANIME_PIC_719c4454bb2ff852d8d93ec8a59c5e47",
    "count_view": 0
  },
  {
    "link_thumb": "https://live.staticflickr.com/65535/51543868772_5e98311b79_n.jpg",
    "id_album": "-316663319",
    "description": "ANIME_PIC_719e798d53816757da8dfdcd9d475df1,[Girl],[isGirlAnime],[isCuteAnime],[isGirlEarsNekoAnime],[isGirlsLoliAnime]",
    "title": "ANIME_PIC_719e798d53816757da8dfdcd9d475df1",
    "link_img": "https://live.staticflickr.com/65535/51543868772_0831e5a9bd_o.jpg",
    "id_image": "ANIME_PIC_719e798d53816757da8dfdcd9d475df1",
    "count_view": 0
  },
  {
    "link_thumb": "https://live.staticflickr.com/65535/51544830045_d2eccfd670_n.jpg",
    "id_album": "-316663319",
    "description": "ANIME_PIC_71a2cdcaea7949ce66b81e37596aa392,[Girl],[isGirlAnime],[isCuteAnime],[isGirlsHatsHoodieAnime],[isSadAnimeGirl],[isSadAnime]",
    "title": "ANIME_PIC_71a2cdcaea7949ce66b81e37596aa392",
    "link_img": "https://live.staticflickr.com/65535/51544830045_ef543d7f08_o.png",
    "id_image": "ANIME_PIC_71a2cdcaea7949ce66b81e37596aa392",
    "count_view": 0
  },
  {
    "link_thumb": "https://live.staticflickr.com/65535/51545591005_f3ac3a4ba2_n.jpg",
    "id_album": "-316663319",
    "description": "ANIME_PIC_71ab18fadf54672d434c569803846974,[Girl],[isGirlAnime],[isCuteAnime],[isGirlsLoliAnime]",
    "title": "ANIME_PIC_71ab18fadf54672d434c569803846974",
    "link_img": "https://live.staticflickr.com/65535/51545591005_eb589c68d2_o.jpg",
    "id_image": "ANIME_PIC_71ab18fadf54672d434c569803846974",
    "count_view": 0
  },
  {
    "link_thumb": "https://live.staticflickr.com/65535/51545393049_024cd4f627_n.jpg",
    "id_album": "-316663319",
    "description": "ANIME_PIC_71ac071faab8e96a4e5067bd7f1ec185,[Girl],[isGirlAnime],[isCuteAnime],[isGirlEarsNekoAnime],[isGirlsLoliAnime]",
    "title": "ANIME_PIC_71ac071faab8e96a4e5067bd7f1ec185",
    "link_img": "https://live.staticflickr.com/65535/51545393049_7397fb46d5_o.jpg",
    "id_image": "ANIME_PIC_71ac071faab8e96a4e5067bd7f1ec185",
    "count_view": 0
  },
  {
    "link_thumb": "https://live.staticflickr.com/65535/51543901696_3d340e28bf_n.jpg",
    "id_album": "-316663319",
    "description": "ANIME_PIC_71ac893263a107962f21f8a53f697b7b,[Girl],[isGirlAnime],[isCuteAnime],[isGirlsLoliAnime]",
    "title": "ANIME_PIC_71ac893263a107962f21f8a53f697b7b",
    "link_img": "https://live.staticflickr.com/65535/51543901696_37bdd17efd_o.jpg",
    "id_image": "ANIME_PIC_71ac893263a107962f21f8a53f697b7b",
    "count_view": 0
  },
  {
    "link_thumb": "https://live.staticflickr.com/65535/51544830815_468dc32e3c_n.jpg",
    "id_album": "-316663319",
    "description": "ANIME_PIC_71ad5b08563d82bd5fe2788f4847701f,[Girl],[isGirlAnime],[isCuteAnime]",
    "title": "ANIME_PIC_71ad5b08563d82bd5fe2788f4847701f",
    "link_img": "https://live.staticflickr.com/65535/51544830815_9f5e938acb_o.jpg",
    "id_image": "ANIME_PIC_71ad5b08563d82bd5fe2788f4847701f",
    "count_view": 0
  },
  {
    "link_thumb": "https://live.staticflickr.com/65535/51543869457_dea2392bd8_n.jpg",
    "id_album": "-316663319",
    "description": "ANIME_PIC_71adae7c467d70f7d04dc8d24ab53e70,[Girl],[isGirlAnime],[isCuteAnime]",
    "title": "ANIME_PIC_71adae7c467d70f7d04dc8d24ab53e70",
    "link_img": "https://live.staticflickr.com/65535/51543869457_ee0b8a88b8_o.png",
    "id_image": "ANIME_PIC_71adae7c467d70f7d04dc8d24ab53e70",
    "count_view": 0
  },
  {
    "link_thumb": "https://live.staticflickr.com/65535/51544633694_a68ecbd9ce_n.jpg",
    "id_album": "-316663319",
    "description": "ANIME_PIC_71ae51594d78f17b54a1de51ae7f5d3f,[Girl],[isGirlAnime],[isCuteAnime],[isGirlsLoliAnime]",
    "title": "ANIME_PIC_71ae51594d78f17b54a1de51ae7f5d3f",
    "link_img": "https://live.staticflickr.com/65535/51544633694_63483897cc_o.jpg",
    "id_image": "ANIME_PIC_71ae51594d78f17b54a1de51ae7f5d3f",
    "count_view": 0
  },
  {
    "link_thumb": "https://live.staticflickr.com/65535/51544633964_a668ba1120_n.jpg",
    "id_album": "-316663319",
    "description": "ANIME_PIC_71b382b42eaece05d2ad0773a61dadad,[Girl],[isGirlAnime],[isCuteAnime],[isGirlsLoliAnime]",
    "title": "ANIME_PIC_71b382b42eaece05d2ad0773a61dadad",
    "link_img": "https://live.staticflickr.com/65535/51544633964_ec0e80054e_o.jpg",
    "id_image": "ANIME_PIC_71b382b42eaece05d2ad0773a61dadad",
    "count_view": 0
  },
  {
    "link_thumb": "https://live.staticflickr.com/65535/51543108832_a1761bd738_n.jpg",
    "id_album": "-316663319",
    "description": "ANIME_PIC_71b6809fceb6f21746bff415dcf8ee29,[Girl],[isGirlAnime],[isCuteAnime],[isGirlsLoliAnime]",
    "title": "ANIME_PIC_71b6809fceb6f21746bff415dcf8ee29",
    "link_img": "https://live.staticflickr.com/65535/51543108832_f1dfa056bc_o.png",
    "id_image": "ANIME_PIC_71b6809fceb6f21746bff415dcf8ee29",
    "count_view": 0
  },
  {
    "link_thumb": "https://live.staticflickr.com/65535/51544831820_34a4983045_n.jpg",
    "id_album": "-316663319",
    "description": "ANIME_PIC_71b6a5e03efaa74f2d5a71a1d1c4957b,[Girl],[isGirlAnime],[isCuteAnime],[isGirlsLoliAnime]",
    "title": "ANIME_PIC_71b6a5e03efaa74f2d5a71a1d1c4957b",
    "link_img": "https://live.staticflickr.com/65535/51544831820_1d0eb97b60_o.png",
    "id_image": "ANIME_PIC_71b6a5e03efaa74f2d5a71a1d1c4957b",
    "count_view": 0
  },
  {
    "link_thumb": "https://live.staticflickr.com/65535/51543903226_c3fc0ef5ce_n.jpg",
    "id_album": "-316663319",
    "description": "ANIME_PIC_71b6ebdd157fd229200ea62c4f3e001b,[Girl],[isGirlAnime],[isCuteAnime]",
    "title": "ANIME_PIC_71b6ebdd157fd229200ea62c4f3e001b",
    "link_img": "https://live.staticflickr.com/65535/51543903226_a03503f49e_o.jpg",
    "id_image": "ANIME_PIC_71b6ebdd157fd229200ea62c4f3e001b",
    "count_view": 0
  },
  {
    "link_thumb": "https://live.staticflickr.com/65535/51543903461_fb6c85d0c8_n.jpg",
    "id_album": "-316663319",
    "description": "ANIME_PIC_71bf739d16044799b4d8a3bb2da3c2d9,[Girl],[isGirlAnime],[isCuteAnime],[isGirlsHatsHoodieAnime],[isGirlsLoliAnime]",
    "title": "ANIME_PIC_71bf739d16044799b4d8a3bb2da3c2d9",
    "link_img": "https://live.staticflickr.com/65535/51543903461_90cf80b126_o.jpg",
    "id_image": "ANIME_PIC_71bf739d16044799b4d8a3bb2da3c2d9",
    "count_view": 0
  },
  {
    "link_thumb": "https://live.staticflickr.com/65535/51543903686_37a677f011_n.jpg",
    "id_album": "-316663319",
    "description": "ANIME_PIC_71c02b387783138de24cc0eb19471d28,[Girl],[isGirlAnime],[isCuteAnime],[isGirlEarsNekoAnime],[isGirlsLoliAnime],[isSadAnimeGirl],[isSadAnime]",
    "title": "ANIME_PIC_71c02b387783138de24cc0eb19471d28",
    "link_img": "https://live.staticflickr.com/65535/51543903686_1b701ea8b5_o.jpg",
    "id_image": "ANIME_PIC_71c02b387783138de24cc0eb19471d28",
    "count_view": 0
  },
  {
    "link_thumb": "https://live.staticflickr.com/65535/51544635399_e39674b0b1_n.jpg",
    "id_album": "-316663319",
    "description": "ANIME_PIC_71c073aa208cd7741520612a2a9c0fe1,[Girl],[isGirlAnime],[isCuteAnime],[isSadAnimeGirl],[isSadAnime]",
    "title": "ANIME_PIC_71c073aa208cd7741520612a2a9c0fe1",
    "link_img": "https://live.staticflickr.com/65535/51544635399_504bc28ffb_o.jpg",
    "id_image": "ANIME_PIC_71c073aa208cd7741520612a2a9c0fe1",
    "count_view": 0
  },
  {
    "link_thumb": "https://live.staticflickr.com/65535/51543904111_3b4fbdb2b0_n.jpg",
    "id_album": "-316663319",
    "description": "ANIME_PIC_71c240aad64ac1e61bd33987899813b9,[Girl],[isGirlAnime],[isCuteAnime],[isGirlsLoliAnime]",
    "title": "ANIME_PIC_71c240aad64ac1e61bd33987899813b9",
    "link_img": "https://live.staticflickr.com/65535/51543904111_10335e3062_o.png",
    "id_image": "ANIME_PIC_71c240aad64ac1e61bd33987899813b9",
    "count_view": 0
  },
  {
    "link_thumb": "https://live.staticflickr.com/65535/51545393799_a76691385b_n.jpg",
    "id_album": "-316663319",
    "description": "ANIME_PIC_71c43d5ec44824669c8e03f988ec1b72,[Girl],[isGirlAnime],[isCuteAnime],[isGirlsLoliAnime],[isSadAnimeGirl],[isSadAnime]",
    "title": "ANIME_PIC_71c43d5ec44824669c8e03f988ec1b72",
    "link_img": "https://live.staticflickr.com/65535/51545393799_190b19637a_o.jpg",
    "id_image": "ANIME_PIC_71c43d5ec44824669c8e03f988ec1b72",
    "count_view": 0
  },
  {
    "link_thumb": "https://live.staticflickr.com/65535/51545592220_fabf6bb6fc_n.jpg",
    "id_album": "-316663319",
    "description": "ANIME_PIC_71c4ff9cd73f99ba4c1a639dfd667403,[Girl],[isGirlAnime],[isCuteAnime],[isGirlsLoliAnime]",
    "title": "ANIME_PIC_71c4ff9cd73f99ba4c1a639dfd667403",
    "link_img": "https://live.staticflickr.com/65535/51545592220_327d55b34f_o.png",
    "id_image": "ANIME_PIC_71c4ff9cd73f99ba4c1a639dfd667403",
    "count_view": 0
  },
  {
    "link_thumb": "https://live.staticflickr.com/65535/51543110352_768894ed4a_n.jpg",
    "id_album": "-316663319",
    "description": "ANIME_PIC_71c819189da67a05e91119ae491ec706,[Girl],[isGirlAnime],[isSadAnimeGirl],[isSadAnime]",
    "title": "ANIME_PIC_71c819189da67a05e91119ae491ec706",
    "link_img": "https://live.staticflickr.com/65535/51543110352_60cb01da47_o.jpg",
    "id_image": "ANIME_PIC_71c819189da67a05e91119ae491ec706",
    "count_view": 0
  },
  {
    "link_thumb": "https://live.staticflickr.com/65535/51544150283_7c9e93b961_n.jpg",
    "id_album": "-316663319",
    "description": "ANIME_PIC_71cb98030a4d5f148116cbe848b3273f,[Girl],[isGirlAnime],[isCuteAnime]",
    "title": "ANIME_PIC_71cb98030a4d5f148116cbe848b3273f",
    "link_img": "https://live.staticflickr.com/65535/51544150283_1975a2d064_o.jpg",
    "id_image": "ANIME_PIC_71cb98030a4d5f148116cbe848b3273f",
    "count_view": 0
  },
  {
    "link_thumb": "https://live.staticflickr.com/65535/51544833725_ff3e19f919_n.jpg",
    "id_album": "-316663319",
    "description": "ANIME_PIC_71cc4670fb00c5fcd37e19c34ead53a1,[Girl],[isGirlAnime],[isCuteAnime],[isGirlEarsNekoAnime],[isGirlsLoliAnime]",
    "title": "ANIME_PIC_71cc4670fb00c5fcd37e19c34ead53a1",
    "link_img": "https://live.staticflickr.com/65535/51544833725_68a98548c0_o.jpg",
    "id_image": "ANIME_PIC_71cc4670fb00c5fcd37e19c34ead53a1",
    "count_view": 0
  },
  {
    "link_thumb": "https://live.staticflickr.com/65535/51544150823_7620443803_n.jpg",
    "id_album": "-316663319",
    "description": "ANIME_PIC_71cdc3e3856ef50b8948183e51f1587f,[Girl],[isGirlAnime],[isCuteAnime],[isGirlEarsNekoAnime],[isGirlsLoliAnime],[isSadAnimeGirl],[isSadAnime]",
    "title": "ANIME_PIC_71cdc3e3856ef50b8948183e51f1587f",
    "link_img": "https://live.staticflickr.com/65535/51544150823_7b45aeeb8c_o.jpg",
    "id_image": "ANIME_PIC_71cdc3e3856ef50b8948183e51f1587f",
    "count_view": 0
  },
  {
    "link_thumb": "https://live.staticflickr.com/65535/51544636979_8cd04a85de_n.jpg",
    "id_album": "-316663319",
    "description": "ANIME_PIC_71ce54c03552dcd3dd3eea453a099d93,[Girl],[isGirlAnime],[isCuteAnime],[isGirlEarsNekoAnime],[isGirlsLoliAnime]",
    "title": "ANIME_PIC_71ce54c03552dcd3dd3eea453a099d93",
    "link_img": "https://live.staticflickr.com/65535/51544636979_2137852570_o.jpg",
    "id_image": "ANIME_PIC_71ce54c03552dcd3dd3eea453a099d93",
    "count_view": 0
  },
  {
    "link_thumb": "https://live.staticflickr.com/65535/51543111627_b9db828a7e_n.jpg",
    "id_album": "-316663319",
    "description": "ANIME_PIC_71d08af555e9aaf3444c83ca6eef21a8,[Girl],[isGirlAnime],[isCuteAnime],[isGirlsLoliAnime]",
    "title": "ANIME_PIC_71d08af555e9aaf3444c83ca6eef21a8",
    "link_img": "https://live.staticflickr.com/65535/51543111627_043b749dd2_o.png",
    "id_image": "ANIME_PIC_71d08af555e9aaf3444c83ca6eef21a8",
    "count_view": 0
  },
  {
    "link_thumb": "https://live.staticflickr.com/65535/51544662886_7e6460c740_n.jpg",
    "id_album": "-316663319",
    "description": "ANIME_PIC_71d14c939bdcb584b91f3468bd658e7b,[Girl],[isGirlAnime],[isCuteAnime],[isGirlsLoliAnime]",
    "title": "ANIME_PIC_71d14c939bdcb584b91f3468bd658e7b",
    "link_img": "https://live.staticflickr.com/65535/51544662886_13f413a218_o.png",
    "id_image": "ANIME_PIC_71d14c939bdcb584b91f3468bd658e7b",
    "count_view": 0
  },
  {
    "link_thumb": "https://live.staticflickr.com/65535/51544834805_d7b33f97c0_n.jpg",
    "id_album": "-316663319",
    "description": "ANIME_PIC_71d63e7e8ad8af54e0c23ef14cf18484,[Girl],[isGirlAnime],[isCuteAnime]",
    "title": "ANIME_PIC_71d63e7e8ad8af54e0c23ef14cf18484",
    "link_img": "https://live.staticflickr.com/65535/51544834805_1790441d5b_o.png",
    "id_image": "ANIME_PIC_71d63e7e8ad8af54e0c23ef14cf18484",
    "count_view": 0
  },
  {
    "link_thumb": "https://live.staticflickr.com/65535/51543112357_f8927f9e4d_n.jpg",
    "id_album": "-316663319",
    "description": "ANIME_PIC_71d65844d3e5534101198e877b438ec4,[Girl],[isGirlAnime],[isCuteAnime]",
    "title": "ANIME_PIC_71d65844d3e5534101198e877b438ec4",
    "link_img": "https://live.staticflickr.com/65535/51543112357_292b2f649b_o.jpg",
    "id_image": "ANIME_PIC_71d65844d3e5534101198e877b438ec4",
    "count_view": 0
  },
  {
    "link_thumb": "https://live.staticflickr.com/65535/51544835405_8e7911644c_n.jpg",
    "id_album": "-316663319",
    "description": "ANIME_PIC_71d6ea92cfadeba1802b6602f3f9989e,[Girl],[isGirlAnime],[isCuteAnime],[isGirlsLoliAnime]",
    "title": "ANIME_PIC_71d6ea92cfadeba1802b6602f3f9989e",
    "link_img": "https://live.staticflickr.com/65535/51544835405_8f514df4ce_o.png",
    "id_image": "ANIME_PIC_71d6ea92cfadeba1802b6602f3f9989e",
    "count_view": 0
  },
  {
    "link_thumb": "https://live.staticflickr.com/65535/51543112922_58e85c05f1_n.jpg",
    "id_album": "-316663319",
    "description": "ANIME_PIC_71d98152b1a15bfef9c7cd9a766d654f,[Girl],[isGirlAnime],[isCuteAnime],[isSadAnimeGirl],[isSadAnime]",
    "title": "ANIME_PIC_71d98152b1a15bfef9c7cd9a766d654f",
    "link_img": "https://live.staticflickr.com/65535/51543112922_fc51b50615_o.jpg",
    "id_image": "ANIME_PIC_71d98152b1a15bfef9c7cd9a766d654f",
    "count_view": 0
  },
  {
    "link_thumb": "https://live.staticflickr.com/65535/51544835940_891a635a15_n.jpg",
    "id_album": "-316663319",
    "description": "ANIME_PIC_71dae1e0a3bb23487df9a735e778c6ad,[Girl],[isGirlAnime],[isCuteAnime],[isGirlsLoliAnime],[isSadAnimeGirl],[isSadAnime]",
    "title": "ANIME_PIC_71dae1e0a3bb23487df9a735e778c6ad",
    "link_img": "https://live.staticflickr.com/65535/51544835940_7268332cf2_o.png",
    "id_image": "ANIME_PIC_71dae1e0a3bb23487df9a735e778c6ad",
    "count_view": 0
  },
  {
    "link_thumb": "https://live.staticflickr.com/65535/51543113612_5d52d3b886_n.jpg",
    "id_album": "-316663319",
    "description": "ANIME_PIC_71dc43c22559e09c0970e2bdf2db94e6,[Girl],[isGirlAnime],[isCuteAnime]",
    "title": "ANIME_PIC_71dc43c22559e09c0970e2bdf2db94e6",
    "link_img": "https://live.staticflickr.com/65535/51543113612_a8bcf0e62c_o.png",
    "id_image": "ANIME_PIC_71dc43c22559e09c0970e2bdf2db94e6",
    "count_view": 0
  },
  {
    "link_thumb": "https://live.staticflickr.com/65535/51543113882_f6bf7a21b6_n.jpg",
    "id_album": "-316663319",
    "description": "ANIME_PIC_71df7b0206066bdcaf06eed127bab16c,[Girl],[isGirlAnime],[isCuteAnime],[isGirlsLoliAnime]",
    "title": "ANIME_PIC_71df7b0206066bdcaf06eed127bab16c",
    "link_img": "https://live.staticflickr.com/65535/51543113882_8ae5199851_o.jpg",
    "id_image": "ANIME_PIC_71df7b0206066bdcaf06eed127bab16c",
    "count_view": 0
  },
  {
    "link_thumb": "https://live.staticflickr.com/65535/51544153533_dd8f768e61_n.jpg",
    "id_album": "-316663319",
    "description": "ANIME_PIC_71e26ebb104a1dfdfbc2b12befeb7cd0,[Girl],[isGirlAnime],[isCuteAnime]",
    "title": "ANIME_PIC_71e26ebb104a1dfdfbc2b12befeb7cd0",
    "link_img": "https://live.staticflickr.com/65535/51544153533_6a918358a8_o.jpg",
    "id_image": "ANIME_PIC_71e26ebb104a1dfdfbc2b12befeb7cd0",
    "count_view": 0
  },
  {
    "link_thumb": "https://live.staticflickr.com/65535/51543114342_6b34df7845_n.jpg",
    "id_album": "-316663319",
    "description": "ANIME_PIC_71e6c0ba92e544aa53eabd91fa52874f,[Girl],[isGirlAnime],[isCuteAnime],[isSadAnimeGirl],[isSadAnime]",
    "title": "ANIME_PIC_71e6c0ba92e544aa53eabd91fa52874f",
    "link_img": "https://live.staticflickr.com/65535/51543114342_bc02b01bb0_o.png",
    "id_image": "ANIME_PIC_71e6c0ba92e544aa53eabd91fa52874f",
    "count_view": 0
  },
  {
    "link_thumb": "https://live.staticflickr.com/65535/51543908566_a6533f20cb_n.jpg",
    "id_album": "-316663319",
    "description": "ANIME_PIC_71e865595993ebbd4e0c241263da07a5,[Girl],[isGirlAnime],[isCuteAnime],[isGirlsHatsHoodieAnime],[isGirlsLoliAnime],[isSadAnimeGirl],[isSadAnime]",
    "title": "ANIME_PIC_71e865595993ebbd4e0c241263da07a5",
    "link_img": "https://live.staticflickr.com/65535/51543908566_6c3381c01b_o.jpg",
    "id_image": "ANIME_PIC_71e865595993ebbd4e0c241263da07a5",
    "count_view": 0
  },
  {
    "link_thumb": "https://live.staticflickr.com/65535/51543114952_dc18ff106c_n.jpg",
    "id_album": "-316663319",
    "description": "ANIME_PIC_71eb3303ad0bc824d3bbb1cccd01e86e,[Girl],[isGirlAnime],[isCuteAnime],[isGirlsLoliAnime]",
    "title": "ANIME_PIC_71eb3303ad0bc824d3bbb1cccd01e86e",
    "link_img": "https://live.staticflickr.com/65535/51543114952_a60f4a8702_o.png",
    "id_image": "ANIME_PIC_71eb3303ad0bc824d3bbb1cccd01e86e",
    "count_view": 0
  }
]