[
  {
    "total_img": 993,
    "number_page": 5,
    "title": "Girls Dark",
    "tag": "Girls Dark,",
    "description": "Girls Dark",
    "link_thumb": "https://live.staticflickr.com/65535/49878716433_f82f39db9d_n.jpg",
    "id_album": "442854827",
    "total_view": 993
  },
  {
    "total_img": 745,
    "number_page": 4,
    "title": "Girls Face Masks",
    "tag": "Girls Face Masks,",
    "description": "Girls Face Masks",
    "link_thumb": "https://live.staticflickr.com/65535/51541999624_3e548ed108_n.jpg",
    "id_album": "-1611797305",
    "total_view": 745
  }
]