[
  {
    "total_img": 55,
    "number_page": 1,
    "title": "Evangelion 30 You Can Not Redo",
    "tag": "Asuka Langley Sohryu, Creature, Rei Ayanami, NERV Evangelion, Misato Katsuragi, Shinji Ikari, Snowfall, Mari Makinami Illustrious, Weapon, Red Eyes, Blonde, Long Hair, Evangelion Unit01, Evangelion Unit00, Blue Eyes, Anime, Evangelion 30 You Can Not Redo, White Hair, Kaworu Nagisa, Fantasy, Yuri, Short Hair, Eye Patch, The Creation of Adam",
    "description": "Evangelion 30 You Can Not Redo",
    "link_thumb": "https://live.staticflickr.com/65535/47972872668_64ded1b2ab_n.jpg",
    "id_album": "1320655366",
    "total_view": 55
  },
  {
    "total_img": 59,
    "number_page": 1,
    "title": "Rei Ayanami",
    "tag": "Rei Ayanami,",
    "description": "Rei Ayanami",
    "link_thumb": "https://live.staticflickr.com/65535/48072741656_80e95928ae_n.jpg",
    "id_album": "544060494",
    "total_view": 59
  }
]