[
  {
    "link_thumb": "https://live.staticflickr.com/65535/47961225521_1537cb7e4f_n.jpg",
    "id_album": "-88136996",
    "description": "DagashiKashi_715642",
    "title": "DagashiKashi_715642",
    "link_img": "https://live.staticflickr.com/65535/47961225521_69342af99c_o.jpg",
    "id_image": "DagashiKashi_715642",
    "count_view": 0
  },
  {
    "link_thumb": "https://live.staticflickr.com/65535/48060386986_a27f643501_n.jpg",
    "id_album": "-88136996",
    "description": "TokyoGhoul_785490",
    "title": "TokyoGhoul_785490",
    "link_img": "https://live.staticflickr.com/65535/48060386986_c19e808037_o.jpg",
    "id_image": "TokyoGhoul_785490",
    "count_view": 0
  },
  {
    "link_thumb": "https://live.staticflickr.com/65535/48060483998_1c2e1b869c_n.jpg",
    "id_album": "-88136996",
    "description": "TokyoGhoul_917637",
    "title": "TokyoGhoul_917637",
    "link_img": "https://live.staticflickr.com/65535/48060483998_9ba834e1bc_o.jpg",
    "id_image": "TokyoGhoul_917637",
    "count_view": 0
  }
]