[
  {
    "link_thumb": "https://live.staticflickr.com/65535/46975788995_ac168928f1_n.jpg",
    "id_album": "-2144640779",
    "description": "Angel_845221",
    "title": "Angel_845221",
    "link_img": "https://live.staticflickr.com/65535/46975788995_5c8504074a_o.jpg",
    "id_image": "Angel_845221",
    "count_view": 0
  },
  {
    "link_thumb": "https://live.staticflickr.com/65535/47983915053_478c233784_n.jpg",
    "id_album": "-2144640779",
    "description": "GATE_677418",
    "title": "GATE_677418",
    "link_img": "https://live.staticflickr.com/65535/47983915053_ce5ea90ec1_o.jpg",
    "id_image": "GATE_677418",
    "count_view": 0
  },
  {
    "link_thumb": "https://live.staticflickr.com/65535/48047250797_d7b87d9771_n.jpg",
    "id_album": "-2144640779",
    "description": "KantaiCollection_684465",
    "title": "KantaiCollection_684465",
    "link_img": "https://live.staticflickr.com/65535/48047250797_5469532e7b_o.jpg",
    "id_image": "KantaiCollection_684465",
    "count_view": 0
  },
  {
    "link_thumb": "https://live.staticflickr.com/65535/48047231043_b6b65547e0_n.jpg",
    "id_album": "-2144640779",
    "description": "KantaiCollection_710669",
    "title": "KantaiCollection_710669",
    "link_img": "https://live.staticflickr.com/65535/48047231043_b2b3021603_o.jpg",
    "id_image": "KantaiCollection_710669",
    "count_view": 0
  },
  {
    "link_thumb": "https://live.staticflickr.com/65535/48047278507_9400146184_n.jpg",
    "id_album": "-2144640779",
    "description": "KantaiCollection_713236",
    "title": "KantaiCollection_713236",
    "link_img": "https://live.staticflickr.com/65535/48047278507_2b37bf2d56_o.jpg",
    "id_image": "KantaiCollection_713236",
    "count_view": 0
  },
  {
    "link_thumb": "https://live.staticflickr.com/65535/48047350467_fa8c002807_n.jpg",
    "id_album": "-2144640779",
    "description": "KantaiCollection_752601",
    "title": "KantaiCollection_752601",
    "link_img": "https://live.staticflickr.com/65535/48047350467_01a37694ed_o.jpg",
    "id_image": "KantaiCollection_752601",
    "count_view": 0
  },
  {
    "link_thumb": "https://live.staticflickr.com/65535/48047688088_18aa25533d_n.jpg",
    "id_album": "-2144640779",
    "description": "KantaiCollection_955218",
    "title": "KantaiCollection_955218",
    "link_img": "https://live.staticflickr.com/65535/48047688088_28dba20838_o.jpg",
    "id_image": "KantaiCollection_955218",
    "count_view": 0
  },
  {
    "link_thumb": "https://live.staticflickr.com/65535/48076701928_699224ec16_n.jpg",
    "id_album": "-2144640779",
    "description": "Original_766114",
    "title": "Original_766114",
    "link_img": "https://live.staticflickr.com/65535/48076701928_fc2f3b6900_o.jpg",
    "id_image": "Original_766114",
    "count_view": 0
  },
  {
    "link_thumb": "https://live.staticflickr.com/65535/48077947303_dcacc740a1_n.jpg",
    "id_album": "-2144640779",
    "description": "Original_843259",
    "title": "Original_843259",
    "link_img": "https://live.staticflickr.com/65535/48077947303_12f5e58abe_o.jpg",
    "id_image": "Original_843259",
    "count_view": 0
  },
  {
    "link_thumb": "https://live.staticflickr.com/65535/48078426892_093a8a552f_n.jpg",
    "id_album": "-2144640779",
    "description": "Original_852557",
    "title": "Original_852557",
    "link_img": "https://live.staticflickr.com/65535/48078426892_944a23d385_o.jpg",
    "id_image": "Original_852557",
    "count_view": 0
  },
  {
    "link_thumb": "https://live.staticflickr.com/65535/48092239171_736159c67d_n.jpg",
    "id_album": "-2144640779",
    "description": "Original_908095",
    "title": "Original_908095",
    "link_img": "https://live.staticflickr.com/65535/48092239171_7647174824_o.jpg",
    "id_image": "Original_908095",
    "count_view": 0
  },
  {
    "link_thumb": "https://live.staticflickr.com/65535/48092832128_3779cfa2f2_n.jpg",
    "id_album": "-2144640779",
    "description": "Original_936035",
    "title": "Original_936035",
    "link_img": "https://live.staticflickr.com/65535/48092832128_762e8b459d_o.jpg",
    "id_image": "Original_936035",
    "count_view": 0
  },
  {
    "link_thumb": "https://live.staticflickr.com/65535/48092791661_f9fa05e65c_n.jpg",
    "id_album": "-2144640779",
    "description": "Original_936037",
    "title": "Original_936037",
    "link_img": "https://live.staticflickr.com/65535/48092791661_eddda5f4cd_o.jpg",
    "id_image": "Original_936037",
    "count_view": 0
  },
  {
    "link_thumb": "https://live.staticflickr.com/65535/48061107686_2b649d1309_n.jpg",
    "id_album": "-2144640779",
    "description": "Touhou_673960",
    "title": "Touhou_673960",
    "link_img": "https://live.staticflickr.com/65535/48061107686_2f2bd6c88e_o.jpg",
    "id_image": "Touhou_673960",
    "count_view": 0
  },
  {
    "link_thumb": "https://live.staticflickr.com/65535/48067011217_9e5d8b92c6_n.jpg",
    "id_album": "-2144640779",
    "description": "YuukiYuunawaYuushadeAru_972048",
    "title": "YuukiYuunawaYuushadeAru_972048",
    "link_img": "https://live.staticflickr.com/65535/48067011217_b766f25bec_o.jpg",
    "id_image": "YuukiYuunawaYuushadeAru_972048",
    "count_view": 0
  }
]