[
  {
    "link_thumb": "https://live.staticflickr.com/65535/47910968951_788760f561_n.jpg",
    "id_album": "-1017029057",
    "description": "CardcaptorSakura_136310",
    "title": "CardcaptorSakura_136310",
    "link_img": "https://live.staticflickr.com/65535/47910968951_6c653b309c_o.jpg",
    "id_image": "CardcaptorSakura_136310",
    "count_view": 0
  },
  {
    "link_thumb": "https://live.staticflickr.com/65535/40945214543_c9ac78e71f_n.jpg",
    "id_album": "-1017029057",
    "description": "CardcaptorSakura_695909",
    "title": "CardcaptorSakura_695909",
    "link_img": "https://live.staticflickr.com/65535/40945214543_fee242a25b_o.jpg",
    "id_image": "CardcaptorSakura_695909",
    "count_view": 0
  },
  {
    "link_thumb": "https://live.staticflickr.com/65535/40945215053_f4d4dda1a4_n.jpg",
    "id_album": "-1017029057",
    "description": "CardcaptorSakura_712865",
    "title": "CardcaptorSakura_712865",
    "link_img": "https://live.staticflickr.com/65535/40945215053_539ae01476_o.jpg",
    "id_image": "CardcaptorSakura_712865",
    "count_view": 0
  },
  {
    "link_thumb": "https://live.staticflickr.com/65535/47859223082_d089af890d_n.jpg",
    "id_album": "-1017029057",
    "description": "CardcaptorSakura_715591",
    "title": "CardcaptorSakura_715591",
    "link_img": "https://live.staticflickr.com/65535/47859223082_76676fd896_o.jpg",
    "id_image": "CardcaptorSakura_715591",
    "count_view": 0
  },
  {
    "link_thumb": "https://live.staticflickr.com/65535/47911229501_df7ccdff69_n.jpg",
    "id_album": "-1017029057",
    "description": "CardcaptorSakura_721599",
    "title": "CardcaptorSakura_721599",
    "link_img": "https://live.staticflickr.com/65535/47911229501_dfdb3da4a4_o.jpg",
    "id_image": "CardcaptorSakura_721599",
    "count_view": 0
  },
  {
    "link_thumb": "https://live.staticflickr.com/65535/47911230031_39d47b20f7_n.jpg",
    "id_album": "-1017029057",
    "description": "CardcaptorSakura_722037",
    "title": "CardcaptorSakura_722037",
    "link_img": "https://live.staticflickr.com/65535/47911230031_1c8d017836_o.jpg",
    "id_image": "CardcaptorSakura_722037",
    "count_view": 0
  },
  {
    "link_thumb": "https://live.staticflickr.com/65535/47911230521_03246937d8_n.jpg",
    "id_album": "-1017029057",
    "description": "CardcaptorSakura_722524",
    "title": "CardcaptorSakura_722524",
    "link_img": "https://live.staticflickr.com/65535/47911230521_c6906fc4f9_o.jpg",
    "id_image": "CardcaptorSakura_722524",
    "count_view": 0
  },
  {
    "link_thumb": "https://live.staticflickr.com/65535/47121898064_c3ceb44ee4_n.jpg",
    "id_album": "-1017029057",
    "description": "CardcaptorSakura_73441",
    "title": "CardcaptorSakura_73441",
    "link_img": "https://live.staticflickr.com/65535/47121898064_e9b8ee3260_o.jpg",
    "id_image": "CardcaptorSakura_73441",
    "count_view": 0
  },
  {
    "link_thumb": "https://live.staticflickr.com/65535/47911247871_4c08d3e2f9_n.jpg",
    "id_album": "-1017029057",
    "description": "CardcaptorSakura_769191",
    "title": "CardcaptorSakura_769191",
    "link_img": "https://live.staticflickr.com/65535/47911247871_776803163f_o.jpg",
    "id_image": "CardcaptorSakura_769191",
    "count_view": 0
  },
  {
    "link_thumb": "https://live.staticflickr.com/65535/46995285395_727dc524d9_n.jpg",
    "id_album": "-1017029057",
    "description": "CardcaptorSakura_769192",
    "title": "CardcaptorSakura_769192",
    "link_img": "https://live.staticflickr.com/65535/46995285395_afbb2f7be2_o.jpg",
    "id_image": "CardcaptorSakura_769192",
    "count_view": 0
  },
  {
    "link_thumb": "https://live.staticflickr.com/65535/47121918424_bbacbb8646_n.jpg",
    "id_album": "-1017029057",
    "description": "CardcaptorSakura_769203",
    "title": "CardcaptorSakura_769203",
    "link_img": "https://live.staticflickr.com/65535/47121918424_639143eac4_o.jpg",
    "id_image": "CardcaptorSakura_769203",
    "count_view": 0
  },
  {
    "link_thumb": "https://live.staticflickr.com/65535/46995292785_8886001075_n.jpg",
    "id_album": "-1017029057",
    "description": "CardcaptorSakura_769204",
    "title": "CardcaptorSakura_769204",
    "link_img": "https://live.staticflickr.com/65535/46995292785_1c6343fe1b_o.jpg",
    "id_image": "CardcaptorSakura_769204",
    "count_view": 0
  },
  {
    "link_thumb": "https://live.staticflickr.com/65535/46995294305_2bb86ff763_n.jpg",
    "id_album": "-1017029057",
    "description": "CardcaptorSakura_769205",
    "title": "CardcaptorSakura_769205",
    "link_img": "https://live.staticflickr.com/65535/46995294305_f06b68d1ab_o.jpg",
    "id_image": "CardcaptorSakura_769205",
    "count_view": 0
  },
  {
    "link_thumb": "https://live.staticflickr.com/65535/40944647923_4caba03841_n.jpg",
    "id_album": "-1017029057",
    "description": "CardcaptorSakura_769210",
    "title": "CardcaptorSakura_769210",
    "link_img": "https://live.staticflickr.com/65535/40944647923_e17f160771_o.jpg",
    "id_image": "CardcaptorSakura_769210",
    "count_view": 0
  },
  {
    "link_thumb": "https://live.staticflickr.com/65535/47911255971_975cbec926_n.jpg",
    "id_album": "-1017029057",
    "description": "CardcaptorSakura_769211",
    "title": "CardcaptorSakura_769211",
    "link_img": "https://live.staticflickr.com/65535/47911255971_e0d0131fc8_o.jpg",
    "id_image": "CardcaptorSakura_769211",
    "count_view": 0
  },
  {
    "link_thumb": "https://live.staticflickr.com/65535/46995302315_49aca06261_n.jpg",
    "id_album": "-1017029057",
    "description": "CardcaptorSakura_769212",
    "title": "CardcaptorSakura_769212",
    "link_img": "https://live.staticflickr.com/65535/46995302315_753d9f8301_o.jpg",
    "id_image": "CardcaptorSakura_769212",
    "count_view": 0
  },
  {
    "link_thumb": "https://live.staticflickr.com/65535/47859249422_db26e5edf7_n.jpg",
    "id_album": "-1017029057",
    "description": "CardcaptorSakura_769213",
    "title": "CardcaptorSakura_769213",
    "link_img": "https://live.staticflickr.com/65535/47859249422_c19bfd2bb9_o.jpg",
    "id_image": "CardcaptorSakura_769213",
    "count_view": 0
  },
  {
    "link_thumb": "https://live.staticflickr.com/65535/40944652703_5af8526314_n.jpg",
    "id_album": "-1017029057",
    "description": "CardcaptorSakura_769214",
    "title": "CardcaptorSakura_769214",
    "link_img": "https://live.staticflickr.com/65535/40944652703_cbf4a4e77e_o.jpg",
    "id_image": "CardcaptorSakura_769214",
    "count_view": 0
  },
  {
    "link_thumb": "https://live.staticflickr.com/65535/40944653783_f7cc4c5785_n.jpg",
    "id_album": "-1017029057",
    "description": "CardcaptorSakura_769215",
    "title": "CardcaptorSakura_769215",
    "link_img": "https://live.staticflickr.com/65535/40944653783_8bcf656ba0_o.jpg",
    "id_image": "CardcaptorSakura_769215",
    "count_view": 0
  },
  {
    "link_thumb": "https://live.staticflickr.com/65535/47121925754_c3da0c64a3_n.jpg",
    "id_album": "-1017029057",
    "description": "CardcaptorSakura_769217",
    "title": "CardcaptorSakura_769217",
    "link_img": "https://live.staticflickr.com/65535/47121925754_d7c9d581cd_o.jpg",
    "id_image": "CardcaptorSakura_769217",
    "count_view": 0
  },
  {
    "link_thumb": "https://live.staticflickr.com/65535/47911259861_fbb859a81d_n.jpg",
    "id_album": "-1017029057",
    "description": "CardcaptorSakura_769218",
    "title": "CardcaptorSakura_769218",
    "link_img": "https://live.staticflickr.com/65535/47911259861_41fc2ee8e0_o.jpg",
    "id_image": "CardcaptorSakura_769218",
    "count_view": 0
  },
  {
    "link_thumb": "https://live.staticflickr.com/65535/47121927924_a98acaaec7_n.jpg",
    "id_album": "-1017029057",
    "description": "CardcaptorSakura_769221",
    "title": "CardcaptorSakura_769221",
    "link_img": "https://live.staticflickr.com/65535/47121927924_770edefb57_o.jpg",
    "id_image": "CardcaptorSakura_769221",
    "count_view": 0
  },
  {
    "link_thumb": "https://live.staticflickr.com/65535/40944660333_db8a5abb90_n.jpg",
    "id_album": "-1017029057",
    "description": "CardcaptorSakura_769222",
    "title": "CardcaptorSakura_769222",
    "link_img": "https://live.staticflickr.com/65535/40944660333_e5b3eac6a6_o.jpg",
    "id_image": "CardcaptorSakura_769222",
    "count_view": 0
  },
  {
    "link_thumb": "https://live.staticflickr.com/65535/46995309425_c288fcde62_n.jpg",
    "id_album": "-1017029057",
    "description": "CardcaptorSakura_769223",
    "title": "CardcaptorSakura_769223",
    "link_img": "https://live.staticflickr.com/65535/46995309425_cd33499814_o.jpg",
    "id_image": "CardcaptorSakura_769223",
    "count_view": 0
  },
  {
    "link_thumb": "https://live.staticflickr.com/65535/47859255852_3813da4e5b_n.jpg",
    "id_album": "-1017029057",
    "description": "CardcaptorSakura_769224",
    "title": "CardcaptorSakura_769224",
    "link_img": "https://live.staticflickr.com/65535/47859255852_7fedf49c5e_o.jpg",
    "id_image": "CardcaptorSakura_769224",
    "count_view": 0
  },
  {
    "link_thumb": "https://live.staticflickr.com/65535/46995311175_2a7ecc12ed_n.jpg",
    "id_album": "-1017029057",
    "description": "CardcaptorSakura_769225",
    "title": "CardcaptorSakura_769225",
    "link_img": "https://live.staticflickr.com/65535/46995311175_0756ecd6f4_o.jpg",
    "id_image": "CardcaptorSakura_769225",
    "count_view": 0
  },
  {
    "link_thumb": "https://live.staticflickr.com/65535/47911265921_e7b7aa2da7_n.jpg",
    "id_album": "-1017029057",
    "description": "CardcaptorSakura_769229",
    "title": "CardcaptorSakura_769229",
    "link_img": "https://live.staticflickr.com/65535/47911265921_1f9a919ce9_o.jpg",
    "id_image": "CardcaptorSakura_769229",
    "count_view": 0
  },
  {
    "link_thumb": "https://live.staticflickr.com/65535/47911266401_e9b13fd1f4_n.jpg",
    "id_album": "-1017029057",
    "description": "CardcaptorSakura_769230",
    "title": "CardcaptorSakura_769230",
    "link_img": "https://live.staticflickr.com/65535/47911266401_b1e3d75b9f_o.jpg",
    "id_image": "CardcaptorSakura_769230",
    "count_view": 0
  },
  {
    "link_thumb": "https://live.staticflickr.com/65535/46995857755_c9d072ba26_n.jpg",
    "id_album": "-1017029057",
    "description": "CardcaptorSakura_769231",
    "title": "CardcaptorSakura_769231",
    "link_img": "https://live.staticflickr.com/65535/46995857755_70101a7878_o.jpg",
    "id_image": "CardcaptorSakura_769231",
    "count_view": 0
  },
  {
    "link_thumb": "https://live.staticflickr.com/65535/47121939524_ec5b3f5be2_n.jpg",
    "id_album": "-1017029057",
    "description": "CardcaptorSakura_769233",
    "title": "CardcaptorSakura_769233",
    "link_img": "https://live.staticflickr.com/65535/47121939524_b652fb781b_o.jpg",
    "id_image": "CardcaptorSakura_769233",
    "count_view": 0
  },
  {
    "link_thumb": "https://live.staticflickr.com/65535/46995325505_e18e45ef14_n.jpg",
    "id_album": "-1017029057",
    "description": "CardcaptorSakura_769235",
    "title": "CardcaptorSakura_769235",
    "link_img": "https://live.staticflickr.com/65535/46995325505_da39f8e783_o.jpg",
    "id_image": "CardcaptorSakura_769235",
    "count_view": 0
  },
  {
    "link_thumb": "https://live.staticflickr.com/65535/40944676003_cb515df65c_n.jpg",
    "id_album": "-1017029057",
    "description": "CardcaptorSakura_769239",
    "title": "CardcaptorSakura_769239",
    "link_img": "https://live.staticflickr.com/65535/40944676003_1b0ddf3ee2_o.jpg",
    "id_image": "CardcaptorSakura_769239",
    "count_view": 0
  },
  {
    "link_thumb": "https://live.staticflickr.com/65535/40944678923_4ae26941f0_n.jpg",
    "id_album": "-1017029057",
    "description": "CardcaptorSakura_769243",
    "title": "CardcaptorSakura_769243",
    "link_img": "https://live.staticflickr.com/65535/40944678923_b31383b3e7_o.jpg",
    "id_image": "CardcaptorSakura_769243",
    "count_view": 0
  },
  {
    "link_thumb": "https://live.staticflickr.com/65535/40944681323_eea5ed6d60_n.jpg",
    "id_album": "-1017029057",
    "description": "CardcaptorSakura_769245",
    "title": "CardcaptorSakura_769245",
    "link_img": "https://live.staticflickr.com/65535/40944681323_fe4b943128_o.jpg",
    "id_image": "CardcaptorSakura_769245",
    "count_view": 0
  },
  {
    "link_thumb": "https://live.staticflickr.com/65535/40944686603_9ec4d299ed_n.jpg",
    "id_album": "-1017029057",
    "description": "CardcaptorSakura_769257",
    "title": "CardcaptorSakura_769257",
    "link_img": "https://live.staticflickr.com/65535/40944686603_f99a25c66b_o.jpg",
    "id_image": "CardcaptorSakura_769257",
    "count_view": 0
  },
  {
    "link_thumb": "https://live.staticflickr.com/65535/40944687053_f1d771ce91_n.jpg",
    "id_album": "-1017029057",
    "description": "CardcaptorSakura_769258",
    "title": "CardcaptorSakura_769258",
    "link_img": "https://live.staticflickr.com/65535/40944687053_eec07d76fe_o.jpg",
    "id_image": "CardcaptorSakura_769258",
    "count_view": 0
  },
  {
    "link_thumb": "https://live.staticflickr.com/65535/47859279712_4b0bdc8452_n.jpg",
    "id_album": "-1017029057",
    "description": "CardcaptorSakura_769259",
    "title": "CardcaptorSakura_769259",
    "link_img": "https://live.staticflickr.com/65535/47859279712_485bec206c_o.jpg",
    "id_image": "CardcaptorSakura_769259",
    "count_view": 0
  },
  {
    "link_thumb": "https://live.staticflickr.com/65535/40944688183_31574fb0c5_n.jpg",
    "id_album": "-1017029057",
    "description": "CardcaptorSakura_769261",
    "title": "CardcaptorSakura_769261",
    "link_img": "https://live.staticflickr.com/65535/40944688183_ab2d4d6ca4_o.jpg",
    "id_image": "CardcaptorSakura_769261",
    "count_view": 0
  },
  {
    "link_thumb": "https://live.staticflickr.com/65535/40944689393_1b27b443fc_n.jpg",
    "id_album": "-1017029057",
    "description": "CardcaptorSakura_769264",
    "title": "CardcaptorSakura_769264",
    "link_img": "https://live.staticflickr.com/65535/40944689393_16c8b86196_o.jpg",
    "id_image": "CardcaptorSakura_769264",
    "count_view": 0
  },
  {
    "link_thumb": "https://live.staticflickr.com/65535/47121958984_088c212ac2_n.jpg",
    "id_album": "-1017029057",
    "description": "CardcaptorSakura_769269",
    "title": "CardcaptorSakura_769269",
    "link_img": "https://live.staticflickr.com/65535/47121958984_0dbb668560_o.jpg",
    "id_image": "CardcaptorSakura_769269",
    "count_view": 0
  },
  {
    "link_thumb": "https://live.staticflickr.com/65535/47121962264_9dc9270468_n.jpg",
    "id_album": "-1017029057",
    "description": "CardcaptorSakura_769273",
    "title": "CardcaptorSakura_769273",
    "link_img": "https://live.staticflickr.com/65535/47121962264_2a1f3d43cd_o.jpg",
    "id_image": "CardcaptorSakura_769273",
    "count_view": 0
  },
  {
    "link_thumb": "https://live.staticflickr.com/65535/47911291771_4c16c2695f_n.jpg",
    "id_album": "-1017029057",
    "description": "CardcaptorSakura_769274",
    "title": "CardcaptorSakura_769274",
    "link_img": "https://live.staticflickr.com/65535/47911291771_48a47db0e5_o.jpg",
    "id_image": "CardcaptorSakura_769274",
    "count_view": 0
  },
  {
    "link_thumb": "https://live.staticflickr.com/65535/40944693243_9e56fb3223_n.jpg",
    "id_album": "-1017029057",
    "description": "CardcaptorSakura_769276",
    "title": "CardcaptorSakura_769276",
    "link_img": "https://live.staticflickr.com/65535/40944693243_e02a87af19_o.jpg",
    "id_image": "CardcaptorSakura_769276",
    "count_view": 0
  },
  {
    "link_thumb": "https://live.staticflickr.com/65535/47121964714_f0e9020b4d_n.jpg",
    "id_album": "-1017029057",
    "description": "CardcaptorSakura_769277",
    "title": "CardcaptorSakura_769277",
    "link_img": "https://live.staticflickr.com/65535/47121964714_456ea1c1cc_o.jpg",
    "id_image": "CardcaptorSakura_769277",
    "count_view": 0
  },
  {
    "link_thumb": "https://live.staticflickr.com/65535/46995350025_aaaf43bb2d_n.jpg",
    "id_album": "-1017029057",
    "description": "CardcaptorSakura_769278",
    "title": "CardcaptorSakura_769278",
    "link_img": "https://live.staticflickr.com/65535/46995350025_bc1858f0f4_o.jpg",
    "id_image": "CardcaptorSakura_769278",
    "count_view": 0
  },
  {
    "link_thumb": "https://live.staticflickr.com/65535/47859291512_c3730e8638_n.jpg",
    "id_album": "-1017029057",
    "description": "CardcaptorSakura_769279",
    "title": "CardcaptorSakura_769279",
    "link_img": "https://live.staticflickr.com/65535/47859291512_f23e28f3b3_o.jpg",
    "id_image": "CardcaptorSakura_769279",
    "count_view": 0
  },
  {
    "link_thumb": "https://live.staticflickr.com/65535/47911294641_3dd1d7c671_n.jpg",
    "id_album": "-1017029057",
    "description": "CardcaptorSakura_769280",
    "title": "CardcaptorSakura_769280",
    "link_img": "https://live.staticflickr.com/65535/47911294641_4848c20fea_o.jpg",
    "id_image": "CardcaptorSakura_769280",
    "count_view": 0
  },
  {
    "link_thumb": "https://live.staticflickr.com/65535/46995354585_276f22d944_n.jpg",
    "id_album": "-1017029057",
    "description": "CardcaptorSakura_769285",
    "title": "CardcaptorSakura_769285",
    "link_img": "https://live.staticflickr.com/65535/46995354585_721fb09374_o.jpg",
    "id_image": "CardcaptorSakura_769285",
    "count_view": 0
  },
  {
    "link_thumb": "https://live.staticflickr.com/65535/46995355135_a282726d95_n.jpg",
    "id_album": "-1017029057",
    "description": "CardcaptorSakura_769286",
    "title": "CardcaptorSakura_769286",
    "link_img": "https://live.staticflickr.com/65535/46995355135_5552e66b6e_o.jpg",
    "id_image": "CardcaptorSakura_769286",
    "count_view": 0
  },
  {
    "link_thumb": "https://live.staticflickr.com/65535/47121972444_ec43939dd1_n.jpg",
    "id_album": "-1017029057",
    "description": "CardcaptorSakura_769289",
    "title": "CardcaptorSakura_769289",
    "link_img": "https://live.staticflickr.com/65535/47121972444_5451bbca67_o.jpg",
    "id_image": "CardcaptorSakura_769289",
    "count_view": 0
  },
  {
    "link_thumb": "https://live.staticflickr.com/65535/46995357995_db34b66bd0_n.jpg",
    "id_album": "-1017029057",
    "description": "CardcaptorSakura_769290",
    "title": "CardcaptorSakura_769290",
    "link_img": "https://live.staticflickr.com/65535/46995357995_4d0ff5f609_o.jpg",
    "id_image": "CardcaptorSakura_769290",
    "count_view": 0
  },
  {
    "link_thumb": "https://live.staticflickr.com/65535/46995359025_58927aa613_n.jpg",
    "id_album": "-1017029057",
    "description": "CardcaptorSakura_769292",
    "title": "CardcaptorSakura_769292",
    "link_img": "https://live.staticflickr.com/65535/46995359025_d38debc15f_o.jpg",
    "id_image": "CardcaptorSakura_769292",
    "count_view": 0
  },
  {
    "link_thumb": "https://live.staticflickr.com/65535/47859300272_97e8610eb6_n.jpg",
    "id_album": "-1017029057",
    "description": "CardcaptorSakura_769293",
    "title": "CardcaptorSakura_769293",
    "link_img": "https://live.staticflickr.com/65535/47859300272_fb02b6df2d_o.jpg",
    "id_image": "CardcaptorSakura_769293",
    "count_view": 0
  },
  {
    "link_thumb": "https://live.staticflickr.com/65535/47859300942_20984859cb_n.jpg",
    "id_album": "-1017029057",
    "description": "CardcaptorSakura_769294",
    "title": "CardcaptorSakura_769294",
    "link_img": "https://live.staticflickr.com/65535/47859300942_bcfb62ab95_o.jpg",
    "id_image": "CardcaptorSakura_769294",
    "count_view": 0
  },
  {
    "link_thumb": "https://live.staticflickr.com/65535/46995360445_53f64aba99_n.jpg",
    "id_album": "-1017029057",
    "description": "CardcaptorSakura_769295",
    "title": "CardcaptorSakura_769295",
    "link_img": "https://live.staticflickr.com/65535/46995360445_f6c0787446_o.jpg",
    "id_image": "CardcaptorSakura_769295",
    "count_view": 0
  },
  {
    "link_thumb": "https://live.staticflickr.com/65535/40944708733_99c2bf0c50_n.jpg",
    "id_album": "-1017029057",
    "description": "CardcaptorSakura_769297",
    "title": "CardcaptorSakura_769297",
    "link_img": "https://live.staticflickr.com/65535/40944708733_a9865e7c4d_o.jpg",
    "id_image": "CardcaptorSakura_769297",
    "count_view": 0
  },
  {
    "link_thumb": "https://live.staticflickr.com/65535/47911305211_e28a23cc6a_n.jpg",
    "id_album": "-1017029057",
    "description": "CardcaptorSakura_769298",
    "title": "CardcaptorSakura_769298",
    "link_img": "https://live.staticflickr.com/65535/47911305211_8e3b4067e2_o.jpg",
    "id_image": "CardcaptorSakura_769298",
    "count_view": 0
  },
  {
    "link_thumb": "https://live.staticflickr.com/65535/47911305571_55e6d526a4_n.jpg",
    "id_album": "-1017029057",
    "description": "CardcaptorSakura_769299",
    "title": "CardcaptorSakura_769299",
    "link_img": "https://live.staticflickr.com/65535/47911305571_0704a3d3ee_o.jpg",
    "id_image": "CardcaptorSakura_769299",
    "count_view": 0
  },
  {
    "link_thumb": "https://live.staticflickr.com/65535/46995365365_503ce77ee0_n.jpg",
    "id_album": "-1017029057",
    "description": "CardcaptorSakura_769300",
    "title": "CardcaptorSakura_769300",
    "link_img": "https://live.staticflickr.com/65535/46995365365_06386f025c_o.jpg",
    "id_image": "CardcaptorSakura_769300",
    "count_view": 0
  },
  {
    "link_thumb": "https://live.staticflickr.com/65535/47859310092_8f001807a8_n.jpg",
    "id_album": "-1017029057",
    "description": "CardcaptorSakura_769303",
    "title": "CardcaptorSakura_769303",
    "link_img": "https://live.staticflickr.com/65535/47859310092_38d22479a0_o.jpg",
    "id_image": "CardcaptorSakura_769303",
    "count_view": 0
  },
  {
    "link_thumb": "https://live.staticflickr.com/65535/47859311162_14d1a3fff2_n.jpg",
    "id_album": "-1017029057",
    "description": "CardcaptorSakura_769304",
    "title": "CardcaptorSakura_769304",
    "link_img": "https://live.staticflickr.com/65535/47859311162_470cfe6bff_o.jpg",
    "id_image": "CardcaptorSakura_769304",
    "count_view": 0
  },
  {
    "link_thumb": "https://live.staticflickr.com/65535/47859316552_3cbc3c6854_n.jpg",
    "id_album": "-1017029057",
    "description": "CardcaptorSakura_769310",
    "title": "CardcaptorSakura_769310",
    "link_img": "https://live.staticflickr.com/65535/47859316552_b02f8e12ce_o.jpg",
    "id_image": "CardcaptorSakura_769310",
    "count_view": 0
  },
  {
    "link_thumb": "https://live.staticflickr.com/65535/46995372835_601c0550e9_n.jpg",
    "id_album": "-1017029057",
    "description": "CardcaptorSakura_769314",
    "title": "CardcaptorSakura_769314",
    "link_img": "https://live.staticflickr.com/65535/46995372835_54d843cda6_o.jpg",
    "id_image": "CardcaptorSakura_769314",
    "count_view": 0
  },
  {
    "link_thumb": "https://live.staticflickr.com/65535/47911312621_62607b4a05_n.jpg",
    "id_album": "-1017029057",
    "description": "CardcaptorSakura_769319",
    "title": "CardcaptorSakura_769319",
    "link_img": "https://live.staticflickr.com/65535/47911312621_465bf9d2c2_o.jpg",
    "id_image": "CardcaptorSakura_769319",
    "count_view": 0
  },
  {
    "link_thumb": "https://live.staticflickr.com/65535/47121995654_7a0174c329_n.jpg",
    "id_album": "-1017029057",
    "description": "CardcaptorSakura_769330",
    "title": "CardcaptorSakura_769330",
    "link_img": "https://live.staticflickr.com/65535/47121995654_a0f325b144_o.jpg",
    "id_image": "CardcaptorSakura_769330",
    "count_view": 0
  },
  {
    "link_thumb": "https://live.staticflickr.com/65535/47859327942_7362761fcb_n.jpg",
    "id_album": "-1017029057",
    "description": "CardcaptorSakura_769333",
    "title": "CardcaptorSakura_769333",
    "link_img": "https://live.staticflickr.com/65535/47859327942_04a3d1f9df_o.jpg",
    "id_image": "CardcaptorSakura_769333",
    "count_view": 0
  },
  {
    "link_thumb": "https://live.staticflickr.com/65535/46995388315_0eec5e5c0f_n.jpg",
    "id_album": "-1017029057",
    "description": "CardcaptorSakura_769338",
    "title": "CardcaptorSakura_769338",
    "link_img": "https://live.staticflickr.com/65535/46995388315_c6a5326e24_o.jpg",
    "id_image": "CardcaptorSakura_769338",
    "count_view": 0
  },
  {
    "link_thumb": "https://live.staticflickr.com/65535/47859333452_c0dbd10465_n.jpg",
    "id_album": "-1017029057",
    "description": "CardcaptorSakura_769339",
    "title": "CardcaptorSakura_769339",
    "link_img": "https://live.staticflickr.com/65535/47859333452_1f4fa84a34_o.jpg",
    "id_image": "CardcaptorSakura_769339",
    "count_view": 0
  },
  {
    "link_thumb": "https://live.staticflickr.com/65535/40944733133_2f28616ca0_n.jpg",
    "id_album": "-1017029057",
    "description": "CardcaptorSakura_769340",
    "title": "CardcaptorSakura_769340",
    "link_img": "https://live.staticflickr.com/65535/40944733133_98f6602f0b_o.jpg",
    "id_image": "CardcaptorSakura_769340",
    "count_view": 0
  },
  {
    "link_thumb": "https://live.staticflickr.com/65535/46995389315_b3a55627b1_n.jpg",
    "id_album": "-1017029057",
    "description": "CardcaptorSakura_783256",
    "title": "CardcaptorSakura_783256",
    "link_img": "https://live.staticflickr.com/65535/46995389315_09592c5b09_o.jpg",
    "id_image": "CardcaptorSakura_783256",
    "count_view": 0
  },
  {
    "link_thumb": "https://live.staticflickr.com/65535/47121999794_40c029be00_n.jpg",
    "id_album": "-1017029057",
    "description": "CardcaptorSakura_785810",
    "title": "CardcaptorSakura_785810",
    "link_img": "https://live.staticflickr.com/65535/47121999794_6133606259_o.jpg",
    "id_image": "CardcaptorSakura_785810",
    "count_view": 0
  },
  {
    "link_thumb": "https://live.staticflickr.com/65535/47859335782_dec4e0240f_n.jpg",
    "id_album": "-1017029057",
    "description": "CardcaptorSakura_792624",
    "title": "CardcaptorSakura_792624",
    "link_img": "https://live.staticflickr.com/65535/47859335782_875bb64e6c_o.jpg",
    "id_image": "CardcaptorSakura_792624",
    "count_view": 0
  },
  {
    "link_thumb": "https://live.staticflickr.com/65535/40944736513_2ceb264193_n.jpg",
    "id_album": "-1017029057",
    "description": "CardcaptorSakura_817225",
    "title": "CardcaptorSakura_817225",
    "link_img": "https://live.staticflickr.com/65535/40944736513_3459f7feaf_o.jpg",
    "id_image": "CardcaptorSakura_817225",
    "count_view": 0
  },
  {
    "link_thumb": "https://live.staticflickr.com/65535/40944736943_254218bd94_n.jpg",
    "id_album": "-1017029057",
    "description": "CardcaptorSakura_817227",
    "title": "CardcaptorSakura_817227",
    "link_img": "https://live.staticflickr.com/65535/40944736943_66a7ddc8cb_o.jpg",
    "id_image": "CardcaptorSakura_817227",
    "count_view": 0
  },
  {
    "link_thumb": "https://live.staticflickr.com/65535/47122001954_fae25de911_n.jpg",
    "id_album": "-1017029057",
    "description": "CardcaptorSakura_819679",
    "title": "CardcaptorSakura_819679",
    "link_img": "https://live.staticflickr.com/65535/47122001954_4bddf58b0e_o.jpg",
    "id_image": "CardcaptorSakura_819679",
    "count_view": 0
  },
  {
    "link_thumb": "https://live.staticflickr.com/65535/40944738713_a9fac3cf9d_n.jpg",
    "id_album": "-1017029057",
    "description": "CardcaptorSakura_824248",
    "title": "CardcaptorSakura_824248",
    "link_img": "https://live.staticflickr.com/65535/40944738713_350a037b60_o.jpg",
    "id_image": "CardcaptorSakura_824248",
    "count_view": 0
  },
  {
    "link_thumb": "https://live.staticflickr.com/65535/47911329261_4fdeaa653f_n.jpg",
    "id_album": "-1017029057",
    "description": "CardcaptorSakura_826058",
    "title": "CardcaptorSakura_826058",
    "link_img": "https://live.staticflickr.com/65535/47911329261_d10d48538c_o.jpg",
    "id_image": "CardcaptorSakura_826058",
    "count_view": 0
  },
  {
    "link_thumb": "https://live.staticflickr.com/65535/47911329731_43f2ae9f63_n.jpg",
    "id_album": "-1017029057",
    "description": "CardcaptorSakura_836478",
    "title": "CardcaptorSakura_836478",
    "link_img": "https://live.staticflickr.com/65535/47911329731_cf20eb73d8_o.jpg",
    "id_image": "CardcaptorSakura_836478",
    "count_view": 0
  },
  {
    "link_thumb": "https://live.staticflickr.com/65535/47859343452_38239823c1_n.jpg",
    "id_album": "-1017029057",
    "description": "CardcaptorSakura_853170",
    "title": "CardcaptorSakura_853170",
    "link_img": "https://live.staticflickr.com/65535/47859343452_2f16cea914_o.jpg",
    "id_image": "CardcaptorSakura_853170",
    "count_view": 0
  },
  {
    "link_thumb": "https://live.staticflickr.com/65535/40944744453_07065a7486_n.jpg",
    "id_album": "-1017029057",
    "description": "CardcaptorSakura_864215",
    "title": "CardcaptorSakura_864215",
    "link_img": "https://live.staticflickr.com/65535/40944744453_15c00e0806_o.jpg",
    "id_image": "CardcaptorSakura_864215",
    "count_view": 0
  },
  {
    "link_thumb": "https://live.staticflickr.com/65535/47911333421_ebdf7c4513_n.jpg",
    "id_album": "-1017029057",
    "description": "CardcaptorSakura_871715",
    "title": "CardcaptorSakura_871715",
    "link_img": "https://live.staticflickr.com/65535/47911333421_6c1f161c8e_o.jpg",
    "id_image": "CardcaptorSakura_871715",
    "count_view": 0
  },
  {
    "link_thumb": "https://live.staticflickr.com/65535/46995396215_2a0757f384_n.jpg",
    "id_album": "-1017029057",
    "description": "CardcaptorSakura_871716",
    "title": "CardcaptorSakura_871716",
    "link_img": "https://live.staticflickr.com/65535/46995396215_0be7abf24f_o.jpg",
    "id_image": "CardcaptorSakura_871716",
    "count_view": 0
  },
  {
    "link_thumb": "https://live.staticflickr.com/65535/46995398165_dca29326ae_n.jpg",
    "id_album": "-1017029057",
    "description": "CardcaptorSakura_882920",
    "title": "CardcaptorSakura_882920",
    "link_img": "https://live.staticflickr.com/65535/46995398165_b96ea4122b_o.jpg",
    "id_image": "CardcaptorSakura_882920",
    "count_view": 0
  },
  {
    "link_thumb": "https://live.staticflickr.com/65535/46995401965_eeded98457_n.jpg",
    "id_album": "-1017029057",
    "description": "CardcaptorSakura_896226",
    "title": "CardcaptorSakura_896226",
    "link_img": "https://live.staticflickr.com/65535/46995401965_823ded3912_o.jpg",
    "id_image": "CardcaptorSakura_896226",
    "count_view": 0
  },
  {
    "link_thumb": "https://live.staticflickr.com/65535/46995402425_f27accae10_n.jpg",
    "id_album": "-1017029057",
    "description": "CardcaptorSakura_896872",
    "title": "CardcaptorSakura_896872",
    "link_img": "https://live.staticflickr.com/65535/46995402425_ae31992fce_o.jpg",
    "id_image": "CardcaptorSakura_896872",
    "count_view": 0
  },
  {
    "link_thumb": "https://live.staticflickr.com/65535/47859354512_96cd2856fa_n.jpg",
    "id_album": "-1017029057",
    "description": "CardcaptorSakura_896932",
    "title": "CardcaptorSakura_896932",
    "link_img": "https://live.staticflickr.com/65535/47859354512_f1be369d1f_o.jpg",
    "id_image": "CardcaptorSakura_896932",
    "count_view": 0
  },
  {
    "link_thumb": "https://live.staticflickr.com/65535/47122010884_fcbb7c444e_n.jpg",
    "id_album": "-1017029057",
    "description": "CardcaptorSakura_897484",
    "title": "CardcaptorSakura_897484",
    "link_img": "https://live.staticflickr.com/65535/47122010884_7fdddf2bfb_o.jpg",
    "id_image": "CardcaptorSakura_897484",
    "count_view": 0
  },
  {
    "link_thumb": "https://live.staticflickr.com/65535/40944757813_7bb3ce3c50_n.jpg",
    "id_album": "-1017029057",
    "description": "CardcaptorSakura_897485",
    "title": "CardcaptorSakura_897485",
    "link_img": "https://live.staticflickr.com/65535/40944757813_ce04cd53ec_o.jpg",
    "id_image": "CardcaptorSakura_897485",
    "count_view": 0
  },
  {
    "link_thumb": "https://live.staticflickr.com/65535/47911341841_32219324dd_n.jpg",
    "id_album": "-1017029057",
    "description": "CardcaptorSakura_898268",
    "title": "CardcaptorSakura_898268",
    "link_img": "https://live.staticflickr.com/65535/47911341841_f3bc78bab3_o.jpg",
    "id_image": "CardcaptorSakura_898268",
    "count_view": 0
  },
  {
    "link_thumb": "https://live.staticflickr.com/65535/47122013044_7e94f1e961_n.jpg",
    "id_album": "-1017029057",
    "description": "CardcaptorSakura_899690",
    "title": "CardcaptorSakura_899690",
    "link_img": "https://live.staticflickr.com/65535/47122013044_7a7130ebe8_o.jpg",
    "id_image": "CardcaptorSakura_899690",
    "count_view": 0
  },
  {
    "link_thumb": "https://live.staticflickr.com/65535/47122013404_3b48551971_n.jpg",
    "id_album": "-1017029057",
    "description": "CardcaptorSakura_900035",
    "title": "CardcaptorSakura_900035",
    "link_img": "https://live.staticflickr.com/65535/47122013404_b769df5004_o.jpg",
    "id_image": "CardcaptorSakura_900035",
    "count_view": 0
  },
  {
    "link_thumb": "https://live.staticflickr.com/65535/47859361722_c6c535676e_n.jpg",
    "id_album": "-1017029057",
    "description": "CardcaptorSakura_900543",
    "title": "CardcaptorSakura_900543",
    "link_img": "https://live.staticflickr.com/65535/47859361722_a65180739c_o.jpg",
    "id_image": "CardcaptorSakura_900543",
    "count_view": 0
  },
  {
    "link_thumb": "https://live.staticflickr.com/65535/40944762133_bc81a14b7b_n.jpg",
    "id_album": "-1017029057",
    "description": "CardcaptorSakura_901301",
    "title": "CardcaptorSakura_901301",
    "link_img": "https://live.staticflickr.com/65535/40944762133_5a96fac53e_o.jpg",
    "id_image": "CardcaptorSakura_901301",
    "count_view": 0
  },
  {
    "link_thumb": "https://live.staticflickr.com/65535/40944762603_b8e058142f_n.jpg",
    "id_album": "-1017029057",
    "description": "CardcaptorSakura_901359",
    "title": "CardcaptorSakura_901359",
    "link_img": "https://live.staticflickr.com/65535/40944762603_4f8d8e82dc_o.jpg",
    "id_image": "CardcaptorSakura_901359",
    "count_view": 0
  },
  {
    "link_thumb": "https://live.staticflickr.com/65535/46995410455_ce8fc9390c_n.jpg",
    "id_album": "-1017029057",
    "description": "CardcaptorSakura_901558",
    "title": "CardcaptorSakura_901558",
    "link_img": "https://live.staticflickr.com/65535/46995410455_f9eef3b934_o.jpg",
    "id_image": "CardcaptorSakura_901558",
    "count_view": 0
  },
  {
    "link_thumb": "https://live.staticflickr.com/65535/40944764173_ef814c1413_n.jpg",
    "id_album": "-1017029057",
    "description": "CardcaptorSakura_902421",
    "title": "CardcaptorSakura_902421",
    "link_img": "https://live.staticflickr.com/65535/40944764173_99f910e76a_o.jpg",
    "id_image": "CardcaptorSakura_902421",
    "count_view": 0
  },
  {
    "link_thumb": "https://live.staticflickr.com/65535/47911347851_cc5f4b0950_n.jpg",
    "id_album": "-1017029057",
    "description": "CardcaptorSakura_902833",
    "title": "CardcaptorSakura_902833",
    "link_img": "https://live.staticflickr.com/65535/47911347851_67a0179c89_o.jpg",
    "id_image": "CardcaptorSakura_902833",
    "count_view": 0
  },
  {
    "link_thumb": "https://live.staticflickr.com/65535/47122017834_695450ea9d_n.jpg",
    "id_album": "-1017029057",
    "description": "CardcaptorSakura_902870",
    "title": "CardcaptorSakura_902870",
    "link_img": "https://live.staticflickr.com/65535/47122017834_a7f9e6b53b_o.jpg",
    "id_image": "CardcaptorSakura_902870",
    "count_view": 0
  },
  {
    "link_thumb": "https://live.staticflickr.com/65535/40944766323_42b0371064_n.jpg",
    "id_album": "-1017029057",
    "description": "CardcaptorSakura_903107",
    "title": "CardcaptorSakura_903107",
    "link_img": "https://live.staticflickr.com/65535/40944766323_66f1891b48_o.jpg",
    "id_image": "CardcaptorSakura_903107",
    "count_view": 0
  },
  {
    "link_thumb": "https://live.staticflickr.com/65535/40944766823_78ff405c05_n.jpg",
    "id_album": "-1017029057",
    "description": "CardcaptorSakura_903384",
    "title": "CardcaptorSakura_903384",
    "link_img": "https://live.staticflickr.com/65535/40944766823_e3fd7b0e0a_o.jpg",
    "id_image": "CardcaptorSakura_903384",
    "count_view": 0
  },
  {
    "link_thumb": "https://live.staticflickr.com/65535/40944767303_dac4334f99_n.jpg",
    "id_album": "-1017029057",
    "description": "CardcaptorSakura_903385",
    "title": "CardcaptorSakura_903385",
    "link_img": "https://live.staticflickr.com/65535/40944767303_f3d603e330_o.jpg",
    "id_image": "CardcaptorSakura_903385",
    "count_view": 0
  },
  {
    "link_thumb": "https://live.staticflickr.com/65535/47122021704_dda385524b_n.jpg",
    "id_album": "-1017029057",
    "description": "CardcaptorSakura_903386",
    "title": "CardcaptorSakura_903386",
    "link_img": "https://live.staticflickr.com/65535/47122021704_533b3b8674_o.jpg",
    "id_image": "CardcaptorSakura_903386",
    "count_view": 0
  },
  {
    "link_thumb": "https://live.staticflickr.com/65535/40944767973_3a72438eb8_n.jpg",
    "id_album": "-1017029057",
    "description": "CardcaptorSakura_903424",
    "title": "CardcaptorSakura_903424",
    "link_img": "https://live.staticflickr.com/65535/40944767973_71a3f09a00_o.jpg",
    "id_image": "CardcaptorSakura_903424",
    "count_view": 0
  },
  {
    "link_thumb": "https://live.staticflickr.com/65535/47122023224_db55ff8bdd_n.jpg",
    "id_album": "-1017029057",
    "description": "CardcaptorSakura_903908",
    "title": "CardcaptorSakura_903908",
    "link_img": "https://live.staticflickr.com/65535/47122023224_317f45a73f_o.jpg",
    "id_image": "CardcaptorSakura_903908",
    "count_view": 0
  },
  {
    "link_thumb": "https://live.staticflickr.com/65535/46995416205_53dcff9e0d_n.jpg",
    "id_album": "-1017029057",
    "description": "CardcaptorSakura_903976",
    "title": "CardcaptorSakura_903976",
    "link_img": "https://live.staticflickr.com/65535/46995416205_2a3b716589_o.jpg",
    "id_image": "CardcaptorSakura_903976",
    "count_view": 0
  },
  {
    "link_thumb": "https://live.staticflickr.com/65535/47911353011_e49473e9cb_n.jpg",
    "id_album": "-1017029057",
    "description": "CardcaptorSakura_903981",
    "title": "CardcaptorSakura_903981",
    "link_img": "https://live.staticflickr.com/65535/47911353011_c468208d66_o.jpg",
    "id_image": "CardcaptorSakura_903981",
    "count_view": 0
  },
  {
    "link_thumb": "https://live.staticflickr.com/65535/47911353901_5dd31522c7_n.jpg",
    "id_album": "-1017029057",
    "description": "CardcaptorSakura_904002",
    "title": "CardcaptorSakura_904002",
    "link_img": "https://live.staticflickr.com/65535/47911353901_4969322169_o.jpg",
    "id_image": "CardcaptorSakura_904002",
    "count_view": 0
  },
  {
    "link_thumb": "https://live.staticflickr.com/65535/47122025724_dca54d0b9c_n.jpg",
    "id_album": "-1017029057",
    "description": "CardcaptorSakura_904150",
    "title": "CardcaptorSakura_904150",
    "link_img": "https://live.staticflickr.com/65535/47122025724_df8f46c580_o.jpg",
    "id_image": "CardcaptorSakura_904150",
    "count_view": 0
  },
  {
    "link_thumb": "https://live.staticflickr.com/65535/40944770783_7350951688_n.jpg",
    "id_album": "-1017029057",
    "description": "CardcaptorSakura_904166",
    "title": "CardcaptorSakura_904166",
    "link_img": "https://live.staticflickr.com/65535/40944770783_1947a2b5da_o.jpg",
    "id_image": "CardcaptorSakura_904166",
    "count_view": 0
  },
  {
    "link_thumb": "https://live.staticflickr.com/65535/40944771783_78afd05aa1_n.jpg",
    "id_album": "-1017029057",
    "description": "CardcaptorSakura_905351",
    "title": "CardcaptorSakura_905351",
    "link_img": "https://live.staticflickr.com/65535/40944771783_611c83e1ed_o.jpg",
    "id_image": "CardcaptorSakura_905351",
    "count_view": 0
  },
  {
    "link_thumb": "https://live.staticflickr.com/65535/40944772293_16d775a796_n.jpg",
    "id_album": "-1017029057",
    "description": "CardcaptorSakura_908303",
    "title": "CardcaptorSakura_908303",
    "link_img": "https://live.staticflickr.com/65535/40944772293_67e7b03e01_o.jpg",
    "id_image": "CardcaptorSakura_908303",
    "count_view": 0
  },
  {
    "link_thumb": "https://live.staticflickr.com/65535/47122028304_6b06d344a5_n.jpg",
    "id_album": "-1017029057",
    "description": "CardcaptorSakura_908304",
    "title": "CardcaptorSakura_908304",
    "link_img": "https://live.staticflickr.com/65535/47122028304_852ed30599_o.jpg",
    "id_image": "CardcaptorSakura_908304",
    "count_view": 0
  },
  {
    "link_thumb": "https://live.staticflickr.com/65535/47122028904_a8bdd71a2f_n.jpg",
    "id_album": "-1017029057",
    "description": "CardcaptorSakura_908305",
    "title": "CardcaptorSakura_908305",
    "link_img": "https://live.staticflickr.com/65535/47122028904_3cb909ea6b_o.jpg",
    "id_image": "CardcaptorSakura_908305",
    "count_view": 0
  },
  {
    "link_thumb": "https://live.staticflickr.com/65535/46995422595_ff86c4ec0e_n.jpg",
    "id_album": "-1017029057",
    "description": "CardcaptorSakura_908306",
    "title": "CardcaptorSakura_908306",
    "link_img": "https://live.staticflickr.com/65535/46995422595_549c52a08f_o.jpg",
    "id_image": "CardcaptorSakura_908306",
    "count_view": 0
  },
  {
    "link_thumb": "https://live.staticflickr.com/65535/40944773873_8693c284e8_n.jpg",
    "id_album": "-1017029057",
    "description": "CardcaptorSakura_908307",
    "title": "CardcaptorSakura_908307",
    "link_img": "https://live.staticflickr.com/65535/40944773873_1d3cf04fc4_o.jpg",
    "id_image": "CardcaptorSakura_908307",
    "count_view": 0
  },
  {
    "link_thumb": "https://live.staticflickr.com/65535/40944774273_0dab90a266_n.jpg",
    "id_album": "-1017029057",
    "description": "CardcaptorSakura_908308",
    "title": "CardcaptorSakura_908308",
    "link_img": "https://live.staticflickr.com/65535/40944774273_e57ed50f75_o.jpg",
    "id_image": "CardcaptorSakura_908308",
    "count_view": 0
  },
  {
    "link_thumb": "https://live.staticflickr.com/65535/47911361411_ba35f766da_n.jpg",
    "id_album": "-1017029057",
    "description": "CardcaptorSakura_908310",
    "title": "CardcaptorSakura_908310",
    "link_img": "https://live.staticflickr.com/65535/47911361411_1e7989db8b_o.jpg",
    "id_image": "CardcaptorSakura_908310",
    "count_view": 0
  },
  {
    "link_thumb": "https://live.staticflickr.com/65535/47911362271_ceb00c18ab_n.jpg",
    "id_album": "-1017029057",
    "description": "CardcaptorSakura_908311",
    "title": "CardcaptorSakura_908311",
    "link_img": "https://live.staticflickr.com/65535/47911362271_8ffaf37d10_o.jpg",
    "id_image": "CardcaptorSakura_908311",
    "count_view": 0
  },
  {
    "link_thumb": "https://live.staticflickr.com/65535/47122033374_1d28132acf_n.jpg",
    "id_album": "-1017029057",
    "description": "CardcaptorSakura_908324",
    "title": "CardcaptorSakura_908324",
    "link_img": "https://live.staticflickr.com/65535/47122033374_fe9ff5f06f_o.jpg",
    "id_image": "CardcaptorSakura_908324",
    "count_view": 0
  },
  {
    "link_thumb": "https://live.staticflickr.com/65535/47122034174_6d41599e8b_n.jpg",
    "id_album": "-1017029057",
    "description": "CardcaptorSakura_908325",
    "title": "CardcaptorSakura_908325",
    "link_img": "https://live.staticflickr.com/65535/47122034174_9f3316b7b8_o.jpg",
    "id_image": "CardcaptorSakura_908325",
    "count_view": 0
  },
  {
    "link_thumb": "https://live.staticflickr.com/65535/47911364451_ac8e1436e1_n.jpg",
    "id_album": "-1017029057",
    "description": "CardcaptorSakura_908326",
    "title": "CardcaptorSakura_908326",
    "link_img": "https://live.staticflickr.com/65535/47911364451_1479e0ff3a_o.jpg",
    "id_image": "CardcaptorSakura_908326",
    "count_view": 0
  },
  {
    "link_thumb": "https://live.staticflickr.com/65535/40944778983_230cd41a85_n.jpg",
    "id_album": "-1017029057",
    "description": "CardcaptorSakura_908329",
    "title": "CardcaptorSakura_908329",
    "link_img": "https://live.staticflickr.com/65535/40944778983_20f5e337cb_o.jpg",
    "id_image": "CardcaptorSakura_908329",
    "count_view": 0
  },
  {
    "link_thumb": "https://live.staticflickr.com/65535/47859376752_30b5260bc8_n.jpg",
    "id_album": "-1017029057",
    "description": "CardcaptorSakura_908330",
    "title": "CardcaptorSakura_908330",
    "link_img": "https://live.staticflickr.com/65535/47859376752_136205245e_o.jpg",
    "id_image": "CardcaptorSakura_908330",
    "count_view": 0
  },
  {
    "link_thumb": "https://live.staticflickr.com/65535/47859377182_4ea71a5349_n.jpg",
    "id_album": "-1017029057",
    "description": "CardcaptorSakura_908333",
    "title": "CardcaptorSakura_908333",
    "link_img": "https://live.staticflickr.com/65535/47859377182_9c3f89b6a8_o.jpg",
    "id_image": "CardcaptorSakura_908333",
    "count_view": 0
  },
  {
    "link_thumb": "https://live.staticflickr.com/65535/40944781163_3a47a9a031_n.jpg",
    "id_album": "-1017029057",
    "description": "CardcaptorSakura_908335",
    "title": "CardcaptorSakura_908335",
    "link_img": "https://live.staticflickr.com/65535/40944781163_28e3fce17d_o.jpg",
    "id_image": "CardcaptorSakura_908335",
    "count_view": 0
  },
  {
    "link_thumb": "https://live.staticflickr.com/65535/47911369631_6f723a6019_n.jpg",
    "id_album": "-1017029057",
    "description": "CardcaptorSakura_908336",
    "title": "CardcaptorSakura_908336",
    "link_img": "https://live.staticflickr.com/65535/47911369631_4aae770788_o.jpg",
    "id_image": "CardcaptorSakura_908336",
    "count_view": 0
  },
  {
    "link_thumb": "https://live.staticflickr.com/65535/40944781863_ca833af246_n.jpg",
    "id_album": "-1017029057",
    "description": "CardcaptorSakura_908337",
    "title": "CardcaptorSakura_908337",
    "link_img": "https://live.staticflickr.com/65535/40944781863_ecd7dc4450_o.jpg",
    "id_image": "CardcaptorSakura_908337",
    "count_view": 0
  },
  {
    "link_thumb": "https://live.staticflickr.com/65535/47859379032_3c58897515_n.jpg",
    "id_album": "-1017029057",
    "description": "CardcaptorSakura_908338",
    "title": "CardcaptorSakura_908338",
    "link_img": "https://live.staticflickr.com/65535/47859379032_3d9151cdb8_o.jpg",
    "id_image": "CardcaptorSakura_908338",
    "count_view": 0
  },
  {
    "link_thumb": "https://live.staticflickr.com/65535/40944782533_cca10775f7_n.jpg",
    "id_album": "-1017029057",
    "description": "CardcaptorSakura_908339",
    "title": "CardcaptorSakura_908339",
    "link_img": "https://live.staticflickr.com/65535/40944782533_51728cb98a_o.jpg",
    "id_image": "CardcaptorSakura_908339",
    "count_view": 0
  },
  {
    "link_thumb": "https://live.staticflickr.com/65535/46995436095_ebdac1df25_n.jpg",
    "id_album": "-1017029057",
    "description": "CardcaptorSakura_908340",
    "title": "CardcaptorSakura_908340",
    "link_img": "https://live.staticflickr.com/65535/46995436095_56f0e5d54e_o.jpg",
    "id_image": "CardcaptorSakura_908340",
    "count_view": 0
  },
  {
    "link_thumb": "https://live.staticflickr.com/65535/47122047274_fdc3b3fd5e_n.jpg",
    "id_album": "-1017029057",
    "description": "CardcaptorSakura_908344",
    "title": "CardcaptorSakura_908344",
    "link_img": "https://live.staticflickr.com/65535/47122047274_cff0be0d29_o.jpg",
    "id_image": "CardcaptorSakura_908344",
    "count_view": 0
  },
  {
    "link_thumb": "https://live.staticflickr.com/65535/46995439595_238ab47cd8_n.jpg",
    "id_album": "-1017029057",
    "description": "CardcaptorSakura_908346",
    "title": "CardcaptorSakura_908346",
    "link_img": "https://live.staticflickr.com/65535/46995439595_5d7a00644f_o.jpg",
    "id_image": "CardcaptorSakura_908346",
    "count_view": 0
  },
  {
    "link_thumb": "https://live.staticflickr.com/65535/47122049924_106f37560c_n.jpg",
    "id_album": "-1017029057",
    "description": "CardcaptorSakura_908347",
    "title": "CardcaptorSakura_908347",
    "link_img": "https://live.staticflickr.com/65535/47122049924_551b5457d1_o.jpg",
    "id_image": "CardcaptorSakura_908347",
    "count_view": 0
  },
  {
    "link_thumb": "https://live.staticflickr.com/65535/47122050554_b1285cfa55_n.jpg",
    "id_album": "-1017029057",
    "description": "CardcaptorSakura_908348",
    "title": "CardcaptorSakura_908348",
    "link_img": "https://live.staticflickr.com/65535/47122050554_b3eaf7603f_o.jpg",
    "id_image": "CardcaptorSakura_908348",
    "count_view": 0
  },
  {
    "link_thumb": "https://live.staticflickr.com/65535/47859383492_184f1943d7_n.jpg",
    "id_album": "-1017029057",
    "description": "CardcaptorSakura_908350",
    "title": "CardcaptorSakura_908350",
    "link_img": "https://live.staticflickr.com/65535/47859383492_522068b729_o.jpg",
    "id_image": "CardcaptorSakura_908350",
    "count_view": 0
  },
  {
    "link_thumb": "https://live.staticflickr.com/65535/47859383952_ff42aef4bd_n.jpg",
    "id_album": "-1017029057",
    "description": "CardcaptorSakura_908354",
    "title": "CardcaptorSakura_908354",
    "link_img": "https://live.staticflickr.com/65535/47859383952_849fc5ac63_o.jpg",
    "id_image": "CardcaptorSakura_908354",
    "count_view": 0
  },
  {
    "link_thumb": "https://live.staticflickr.com/65535/40944788793_12e4c2aab8_n.jpg",
    "id_album": "-1017029057",
    "description": "CardcaptorSakura_908355",
    "title": "CardcaptorSakura_908355",
    "link_img": "https://live.staticflickr.com/65535/40944788793_49a48bf341_o.jpg",
    "id_image": "CardcaptorSakura_908355",
    "count_view": 0
  },
  {
    "link_thumb": "https://live.staticflickr.com/65535/47122053464_ebce7b399f_n.jpg",
    "id_album": "-1017029057",
    "description": "CardcaptorSakura_908356",
    "title": "CardcaptorSakura_908356",
    "link_img": "https://live.staticflickr.com/65535/47122053464_7104032d4a_o.jpg",
    "id_image": "CardcaptorSakura_908356",
    "count_view": 0
  },
  {
    "link_thumb": "https://live.staticflickr.com/65535/47122054234_13aab5920c_n.jpg",
    "id_album": "-1017029057",
    "description": "CardcaptorSakura_908357",
    "title": "CardcaptorSakura_908357",
    "link_img": "https://live.staticflickr.com/65535/47122054234_194630516a_o.jpg",
    "id_image": "CardcaptorSakura_908357",
    "count_view": 0
  },
  {
    "link_thumb": "https://live.staticflickr.com/65535/47122054884_615f1c35c9_n.jpg",
    "id_album": "-1017029057",
    "description": "CardcaptorSakura_908358",
    "title": "CardcaptorSakura_908358",
    "link_img": "https://live.staticflickr.com/65535/47122054884_e612acf9cd_o.jpg",
    "id_image": "CardcaptorSakura_908358",
    "count_view": 0
  },
  {
    "link_thumb": "https://live.staticflickr.com/65535/47911379551_f96471ceae_n.jpg",
    "id_album": "-1017029057",
    "description": "CardcaptorSakura_908359",
    "title": "CardcaptorSakura_908359",
    "link_img": "https://live.staticflickr.com/65535/47911379551_075cd7dc2e_o.jpg",
    "id_image": "CardcaptorSakura_908359",
    "count_view": 0
  },
  {
    "link_thumb": "https://live.staticflickr.com/65535/47859385852_87d3b6c938_n.jpg",
    "id_album": "-1017029057",
    "description": "CardcaptorSakura_908361",
    "title": "CardcaptorSakura_908361",
    "link_img": "https://live.staticflickr.com/65535/47859385852_30633f10e8_o.jpg",
    "id_image": "CardcaptorSakura_908361",
    "count_view": 0
  },
  {
    "link_thumb": "https://live.staticflickr.com/65535/47911380881_315506c26e_n.jpg",
    "id_album": "-1017029057",
    "description": "CardcaptorSakura_908363",
    "title": "CardcaptorSakura_908363",
    "link_img": "https://live.staticflickr.com/65535/47911380881_6f563f7ae1_o.jpg",
    "id_image": "CardcaptorSakura_908363",
    "count_view": 0
  },
  {
    "link_thumb": "https://live.staticflickr.com/65535/46995445435_be959a482a_n.jpg",
    "id_album": "-1017029057",
    "description": "CardcaptorSakura_908364",
    "title": "CardcaptorSakura_908364",
    "link_img": "https://live.staticflickr.com/65535/46995445435_1f8e19b023_o.jpg",
    "id_image": "CardcaptorSakura_908364",
    "count_view": 0
  },
  {
    "link_thumb": "https://live.staticflickr.com/65535/47859387602_9a405849b7_n.jpg",
    "id_album": "-1017029057",
    "description": "CardcaptorSakura_908365",
    "title": "CardcaptorSakura_908365",
    "link_img": "https://live.staticflickr.com/65535/47859387602_cc561de412_o.jpg",
    "id_image": "CardcaptorSakura_908365",
    "count_view": 0
  },
  {
    "link_thumb": "https://live.staticflickr.com/65535/40944793953_0988b3b5d7_n.jpg",
    "id_album": "-1017029057",
    "description": "CardcaptorSakura_908366",
    "title": "CardcaptorSakura_908366",
    "link_img": "https://live.staticflickr.com/65535/40944793953_412357bd0c_o.jpg",
    "id_image": "CardcaptorSakura_908366",
    "count_view": 0
  },
  {
    "link_thumb": "https://live.staticflickr.com/65535/40944795223_3df23e6e35_n.jpg",
    "id_album": "-1017029057",
    "description": "CardcaptorSakura_908368",
    "title": "CardcaptorSakura_908368",
    "link_img": "https://live.staticflickr.com/65535/40944795223_62ea07b1d6_o.jpg",
    "id_image": "CardcaptorSakura_908368",
    "count_view": 0
  },
  {
    "link_thumb": "https://live.staticflickr.com/65535/47122061254_cb1211f092_n.jpg",
    "id_album": "-1017029057",
    "description": "CardcaptorSakura_908370",
    "title": "CardcaptorSakura_908370",
    "link_img": "https://live.staticflickr.com/65535/47122061254_5ca93f3e7b_o.jpg",
    "id_image": "CardcaptorSakura_908370",
    "count_view": 0
  },
  {
    "link_thumb": "https://live.staticflickr.com/65535/47911385861_7f7d10103b_n.jpg",
    "id_album": "-1017029057",
    "description": "CardcaptorSakura_908371",
    "title": "CardcaptorSakura_908371",
    "link_img": "https://live.staticflickr.com/65535/47911385861_c108399a4a_o.jpg",
    "id_image": "CardcaptorSakura_908371",
    "count_view": 0
  },
  {
    "link_thumb": "https://live.staticflickr.com/65535/47122064054_051b53e67f_n.jpg",
    "id_album": "-1017029057",
    "description": "CardcaptorSakura_908374",
    "title": "CardcaptorSakura_908374",
    "link_img": "https://live.staticflickr.com/65535/47122064054_242e54a0b3_o.jpg",
    "id_image": "CardcaptorSakura_908374",
    "count_view": 0
  },
  {
    "link_thumb": "https://live.staticflickr.com/65535/46995453785_4c4abebd29_n.jpg",
    "id_album": "-1017029057",
    "description": "CardcaptorSakura_908376",
    "title": "CardcaptorSakura_908376",
    "link_img": "https://live.staticflickr.com/65535/46995453785_a27346d529_o.jpg",
    "id_image": "CardcaptorSakura_908376",
    "count_view": 0
  },
  {
    "link_thumb": "https://live.staticflickr.com/65535/47911390361_d0eee80675_n.jpg",
    "id_album": "-1017029057",
    "description": "CardcaptorSakura_908377",
    "title": "CardcaptorSakura_908377",
    "link_img": "https://live.staticflickr.com/65535/47911390361_60c96328e4_o.jpg",
    "id_image": "CardcaptorSakura_908377",
    "count_view": 0
  },
  {
    "link_thumb": "https://live.staticflickr.com/65535/40944800523_d3c1389724_n.jpg",
    "id_album": "-1017029057",
    "description": "CardcaptorSakura_908380",
    "title": "CardcaptorSakura_908380",
    "link_img": "https://live.staticflickr.com/65535/40944800523_2a69d27700_o.jpg",
    "id_image": "CardcaptorSakura_908380",
    "count_view": 0
  },
  {
    "link_thumb": "https://live.staticflickr.com/65535/46995456935_1895acf1bb_n.jpg",
    "id_album": "-1017029057",
    "description": "CardcaptorSakura_908381",
    "title": "CardcaptorSakura_908381",
    "link_img": "https://live.staticflickr.com/65535/46995456935_3351b2cc9a_o.jpg",
    "id_image": "CardcaptorSakura_908381",
    "count_view": 0
  },
  {
    "link_thumb": "https://live.staticflickr.com/65535/47911394231_18fe9a5859_n.jpg",
    "id_album": "-1017029057",
    "description": "CardcaptorSakura_908388",
    "title": "CardcaptorSakura_908388",
    "link_img": "https://live.staticflickr.com/65535/47911394231_b7806d334b_o.jpg",
    "id_image": "CardcaptorSakura_908388",
    "count_view": 0
  },
  {
    "link_thumb": "https://live.staticflickr.com/65535/47911394671_a3a4594aa6_n.jpg",
    "id_album": "-1017029057",
    "description": "CardcaptorSakura_908392",
    "title": "CardcaptorSakura_908392",
    "link_img": "https://live.staticflickr.com/65535/47911394671_f11e235436_o.jpg",
    "id_image": "CardcaptorSakura_908392",
    "count_view": 0
  },
  {
    "link_thumb": "https://live.staticflickr.com/65535/47122071364_b9192c0b5b_n.jpg",
    "id_album": "-1017029057",
    "description": "CardcaptorSakura_908393",
    "title": "CardcaptorSakura_908393",
    "link_img": "https://live.staticflickr.com/65535/47122071364_795cb4a7e6_o.jpg",
    "id_image": "CardcaptorSakura_908393",
    "count_view": 0
  },
  {
    "link_thumb": "https://live.staticflickr.com/65535/47859398672_6c3ec0c23c_n.jpg",
    "id_album": "-1017029057",
    "description": "CardcaptorSakura_908400",
    "title": "CardcaptorSakura_908400",
    "link_img": "https://live.staticflickr.com/65535/47859398672_db3d58c4bd_o.jpg",
    "id_image": "CardcaptorSakura_908400",
    "count_view": 0
  },
  {
    "link_thumb": "https://live.staticflickr.com/65535/47122073794_69fe0cd4eb_n.jpg",
    "id_album": "-1017029057",
    "description": "CardcaptorSakura_908409",
    "title": "CardcaptorSakura_908409",
    "link_img": "https://live.staticflickr.com/65535/47122073794_09570f61fe_o.jpg",
    "id_image": "CardcaptorSakura_908409",
    "count_view": 0
  },
  {
    "link_thumb": "https://live.staticflickr.com/65535/40944805513_a72a65c059_n.jpg",
    "id_album": "-1017029057",
    "description": "CardcaptorSakura_908417",
    "title": "CardcaptorSakura_908417",
    "link_img": "https://live.staticflickr.com/65535/40944805513_cb324284e9_o.jpg",
    "id_image": "CardcaptorSakura_908417",
    "count_view": 0
  },
  {
    "link_thumb": "https://live.staticflickr.com/65535/47122074574_2478511755_n.jpg",
    "id_album": "-1017029057",
    "description": "CardcaptorSakura_908490",
    "title": "CardcaptorSakura_908490",
    "link_img": "https://live.staticflickr.com/65535/47122074574_a311d3219c_o.jpg",
    "id_image": "CardcaptorSakura_908490",
    "count_view": 0
  },
  {
    "link_thumb": "https://live.staticflickr.com/65535/47122074994_2e9409aca8_n.jpg",
    "id_album": "-1017029057",
    "description": "CardcaptorSakura_908491",
    "title": "CardcaptorSakura_908491",
    "link_img": "https://live.staticflickr.com/65535/47122074994_6ca7097842_o.jpg",
    "id_image": "CardcaptorSakura_908491",
    "count_view": 0
  },
  {
    "link_thumb": "https://live.staticflickr.com/65535/47122075444_89dce2ba16_n.jpg",
    "id_album": "-1017029057",
    "description": "CardcaptorSakura_908492",
    "title": "CardcaptorSakura_908492",
    "link_img": "https://live.staticflickr.com/65535/47122075444_cc003f1e01_o.jpg",
    "id_image": "CardcaptorSakura_908492",
    "count_view": 0
  },
  {
    "link_thumb": "https://live.staticflickr.com/65535/47911401101_82a81a27ae_n.jpg",
    "id_album": "-1017029057",
    "description": "CardcaptorSakura_908495",
    "title": "CardcaptorSakura_908495",
    "link_img": "https://live.staticflickr.com/65535/47911401101_f79be8ab08_o.jpg",
    "id_image": "CardcaptorSakura_908495",
    "count_view": 0
  },
  {
    "link_thumb": "https://live.staticflickr.com/65535/47859404212_e4b0320665_n.jpg",
    "id_album": "-1017029057",
    "description": "CardcaptorSakura_908496",
    "title": "CardcaptorSakura_908496",
    "link_img": "https://live.staticflickr.com/65535/47859404212_e98e58fcf9_o.jpg",
    "id_image": "CardcaptorSakura_908496",
    "count_view": 0
  },
  {
    "link_thumb": "https://live.staticflickr.com/65535/47122078224_3f14db57df_n.jpg",
    "id_album": "-1017029057",
    "description": "CardcaptorSakura_908498",
    "title": "CardcaptorSakura_908498",
    "link_img": "https://live.staticflickr.com/65535/47122078224_277d838b6d_o.jpg",
    "id_image": "CardcaptorSakura_908498",
    "count_view": 0
  },
  {
    "link_thumb": "https://live.staticflickr.com/65535/47911403151_47e7621656_n.jpg",
    "id_album": "-1017029057",
    "description": "CardcaptorSakura_908499",
    "title": "CardcaptorSakura_908499",
    "link_img": "https://live.staticflickr.com/65535/47911403151_a98a3b9791_o.jpg",
    "id_image": "CardcaptorSakura_908499",
    "count_view": 0
  },
  {
    "link_thumb": "https://live.staticflickr.com/65535/40944809563_2e44b896fe_n.jpg",
    "id_album": "-1017029057",
    "description": "CardcaptorSakura_908500",
    "title": "CardcaptorSakura_908500",
    "link_img": "https://live.staticflickr.com/65535/40944809563_8e997ebf1b_o.jpg",
    "id_image": "CardcaptorSakura_908500",
    "count_view": 0
  },
  {
    "link_thumb": "https://live.staticflickr.com/65535/47911404641_8e22466c2c_n.jpg",
    "id_album": "-1017029057",
    "description": "CardcaptorSakura_908501",
    "title": "CardcaptorSakura_908501",
    "link_img": "https://live.staticflickr.com/65535/47911404641_1764a4dd60_o.jpg",
    "id_image": "CardcaptorSakura_908501",
    "count_view": 0
  },
  {
    "link_thumb": "https://live.staticflickr.com/65535/40944810273_67faf0db49_n.jpg",
    "id_album": "-1017029057",
    "description": "CardcaptorSakura_908502",
    "title": "CardcaptorSakura_908502",
    "link_img": "https://live.staticflickr.com/65535/40944810273_0853ff13e6_o.jpg",
    "id_image": "CardcaptorSakura_908502",
    "count_view": 0
  },
  {
    "link_thumb": "https://live.staticflickr.com/65535/47122079974_61d453d7d6_n.jpg",
    "id_album": "-1017029057",
    "description": "CardcaptorSakura_908503",
    "title": "CardcaptorSakura_908503",
    "link_img": "https://live.staticflickr.com/65535/47122079974_e61fc7654d_o.jpg",
    "id_image": "CardcaptorSakura_908503",
    "count_view": 0
  },
  {
    "link_thumb": "https://live.staticflickr.com/65535/47859408702_17ff804329_n.jpg",
    "id_album": "-1017029057",
    "description": "CardcaptorSakura_908504",
    "title": "CardcaptorSakura_908504",
    "link_img": "https://live.staticflickr.com/65535/47859408702_e9992d17e3_o.jpg",
    "id_image": "CardcaptorSakura_908504",
    "count_view": 0
  },
  {
    "link_thumb": "https://live.staticflickr.com/65535/47911407701_9b8a330702_n.jpg",
    "id_album": "-1017029057",
    "description": "CardcaptorSakura_908505",
    "title": "CardcaptorSakura_908505",
    "link_img": "https://live.staticflickr.com/65535/47911407701_582aaf791b_o.jpg",
    "id_image": "CardcaptorSakura_908505",
    "count_view": 0
  },
  {
    "link_thumb": "https://live.staticflickr.com/65535/40944811963_fbb7921298_n.jpg",
    "id_album": "-1017029057",
    "description": "CardcaptorSakura_908506",
    "title": "CardcaptorSakura_908506",
    "link_img": "https://live.staticflickr.com/65535/40944811963_78aa05ef9c_o.jpg",
    "id_image": "CardcaptorSakura_908506",
    "count_view": 0
  },
  {
    "link_thumb": "https://live.staticflickr.com/65535/47122081014_d1472d2bb2_n.jpg",
    "id_album": "-1017029057",
    "description": "CardcaptorSakura_908507",
    "title": "CardcaptorSakura_908507",
    "link_img": "https://live.staticflickr.com/65535/47122081014_768687b8b0_o.jpg",
    "id_image": "CardcaptorSakura_908507",
    "count_view": 0
  },
  {
    "link_thumb": "https://live.staticflickr.com/65535/47859412322_3b6e85470d_n.jpg",
    "id_album": "-1017029057",
    "description": "CardcaptorSakura_908509",
    "title": "CardcaptorSakura_908509",
    "link_img": "https://live.staticflickr.com/65535/47859412322_f7fcb91c5b_o.jpg",
    "id_image": "CardcaptorSakura_908509",
    "count_view": 0
  },
  {
    "link_thumb": "https://live.staticflickr.com/65535/46995470575_e03366413c_n.jpg",
    "id_album": "-1017029057",
    "description": "CardcaptorSakura_908511",
    "title": "CardcaptorSakura_908511",
    "link_img": "https://live.staticflickr.com/65535/46995470575_164c05a1be_o.jpg",
    "id_image": "CardcaptorSakura_908511",
    "count_view": 0
  },
  {
    "link_thumb": "https://live.staticflickr.com/65535/47122083074_59061e19ba_n.jpg",
    "id_album": "-1017029057",
    "description": "CardcaptorSakura_908512",
    "title": "CardcaptorSakura_908512",
    "link_img": "https://live.staticflickr.com/65535/47122083074_65c2d9f853_o.jpg",
    "id_image": "CardcaptorSakura_908512",
    "count_view": 0
  },
  {
    "link_thumb": "https://live.staticflickr.com/65535/40944815213_11189e6d9b_n.jpg",
    "id_album": "-1017029057",
    "description": "CardcaptorSakura_908514",
    "title": "CardcaptorSakura_908514",
    "link_img": "https://live.staticflickr.com/65535/40944815213_81b5463e0b_o.jpg",
    "id_image": "CardcaptorSakura_908514",
    "count_view": 0
  },
  {
    "link_thumb": "https://live.staticflickr.com/65535/47911415621_2ee6ed2b34_n.jpg",
    "id_album": "-1017029057",
    "description": "CardcaptorSakura_908516",
    "title": "CardcaptorSakura_908516",
    "link_img": "https://live.staticflickr.com/65535/47911415621_7e9bed259e_o.jpg",
    "id_image": "CardcaptorSakura_908516",
    "count_view": 0
  },
  {
    "link_thumb": "https://live.staticflickr.com/65535/47122085244_79342d4af6_n.jpg",
    "id_album": "-1017029057",
    "description": "CardcaptorSakura_908517",
    "title": "CardcaptorSakura_908517",
    "link_img": "https://live.staticflickr.com/65535/47122085244_c2fa9a64d9_o.jpg",
    "id_image": "CardcaptorSakura_908517",
    "count_view": 0
  },
  {
    "link_thumb": "https://live.staticflickr.com/65535/46995475315_e576b9b6b0_n.jpg",
    "id_album": "-1017029057",
    "description": "CardcaptorSakura_908519",
    "title": "CardcaptorSakura_908519",
    "link_img": "https://live.staticflickr.com/65535/46995475315_a6217036b5_o.jpg",
    "id_image": "CardcaptorSakura_908519",
    "count_view": 0
  },
  {
    "link_thumb": "https://live.staticflickr.com/65535/47859422232_f81ab28ed0_n.jpg",
    "id_album": "-1017029057",
    "description": "CardcaptorSakura_908520",
    "title": "CardcaptorSakura_908520",
    "link_img": "https://live.staticflickr.com/65535/47859422232_7ca51aba35_o.jpg",
    "id_image": "CardcaptorSakura_908520",
    "count_view": 0
  },
  {
    "link_thumb": "https://live.staticflickr.com/65535/47122086674_ddb879f35d_n.jpg",
    "id_album": "-1017029057",
    "description": "CardcaptorSakura_908521",
    "title": "CardcaptorSakura_908521",
    "link_img": "https://live.staticflickr.com/65535/47122086674_fdf8a9393b_o.jpg",
    "id_image": "CardcaptorSakura_908521",
    "count_view": 0
  },
  {
    "link_thumb": "https://live.staticflickr.com/65535/47859423702_62f1810b19_n.jpg",
    "id_album": "-1017029057",
    "description": "CardcaptorSakura_908522",
    "title": "CardcaptorSakura_908522",
    "link_img": "https://live.staticflickr.com/65535/47859423702_d33b705562_o.jpg",
    "id_image": "CardcaptorSakura_908522",
    "count_view": 0
  },
  {
    "link_thumb": "https://live.staticflickr.com/65535/46995477515_896a8936cd_n.jpg",
    "id_album": "-1017029057",
    "description": "CardcaptorSakura_908523",
    "title": "CardcaptorSakura_908523",
    "link_img": "https://live.staticflickr.com/65535/46995477515_b6de824819_o.jpg",
    "id_image": "CardcaptorSakura_908523",
    "count_view": 0
  },
  {
    "link_thumb": "https://live.staticflickr.com/65535/47911421391_441df215a5_n.jpg",
    "id_album": "-1017029057",
    "description": "CardcaptorSakura_908524",
    "title": "CardcaptorSakura_908524",
    "link_img": "https://live.staticflickr.com/65535/47911421391_a28a5e6e59_o.jpg",
    "id_image": "CardcaptorSakura_908524",
    "count_view": 0
  },
  {
    "link_thumb": "https://live.staticflickr.com/65535/40944820023_6277f849b2_n.jpg",
    "id_album": "-1017029057",
    "description": "CardcaptorSakura_908525",
    "title": "CardcaptorSakura_908525",
    "link_img": "https://live.staticflickr.com/65535/40944820023_4bebe38dd0_o.jpg",
    "id_image": "CardcaptorSakura_908525",
    "count_view": 0
  },
  {
    "link_thumb": "https://live.staticflickr.com/65535/47122089344_7754952342_n.jpg",
    "id_album": "-1017029057",
    "description": "CardcaptorSakura_908527",
    "title": "CardcaptorSakura_908527",
    "link_img": "https://live.staticflickr.com/65535/47122089344_06dc6c9631_o.jpg",
    "id_image": "CardcaptorSakura_908527",
    "count_view": 0
  },
  {
    "link_thumb": "https://live.staticflickr.com/65535/46995480785_8301c0b303_n.jpg",
    "id_album": "-1017029057",
    "description": "CardcaptorSakura_908529",
    "title": "CardcaptorSakura_908529",
    "link_img": "https://live.staticflickr.com/65535/46995480785_abd043121a_o.jpg",
    "id_image": "CardcaptorSakura_908529",
    "count_view": 0
  },
  {
    "link_thumb": "https://live.staticflickr.com/65535/40944822563_6902ca0850_n.jpg",
    "id_album": "-1017029057",
    "description": "CardcaptorSakura_908532",
    "title": "CardcaptorSakura_908532",
    "link_img": "https://live.staticflickr.com/65535/40944822563_bd54577ae2_o.jpg",
    "id_image": "CardcaptorSakura_908532",
    "count_view": 0
  },
  {
    "link_thumb": "https://live.staticflickr.com/65535/40944825193_d5d7c9078a_n.jpg",
    "id_album": "-1017029057",
    "description": "CardcaptorSakura_908538",
    "title": "CardcaptorSakura_908538",
    "link_img": "https://live.staticflickr.com/65535/40944825193_8b0c2db8d4_o.jpg",
    "id_image": "CardcaptorSakura_908538",
    "count_view": 0
  },
  {
    "link_thumb": "https://live.staticflickr.com/65535/46995485295_7aae7ab36d_n.jpg",
    "id_album": "-1017029057",
    "description": "CardcaptorSakura_908540",
    "title": "CardcaptorSakura_908540",
    "link_img": "https://live.staticflickr.com/65535/46995485295_73888daaa3_o.jpg",
    "id_image": "CardcaptorSakura_908540",
    "count_view": 0
  },
  {
    "link_thumb": "https://live.staticflickr.com/65535/47122094034_d19ab0034a_n.jpg",
    "id_album": "-1017029057",
    "description": "CardcaptorSakura_908547",
    "title": "CardcaptorSakura_908547",
    "link_img": "https://live.staticflickr.com/65535/47122094034_d2872e4967_o.jpg",
    "id_image": "CardcaptorSakura_908547",
    "count_view": 0
  },
  {
    "link_thumb": "https://live.staticflickr.com/65535/46995489225_2d419b6e8f_n.jpg",
    "id_album": "-1017029057",
    "description": "CardcaptorSakura_908548",
    "title": "CardcaptorSakura_908548",
    "link_img": "https://live.staticflickr.com/65535/46995489225_40b979b11d_o.jpg",
    "id_image": "CardcaptorSakura_908548",
    "count_view": 0
  },
  {
    "link_thumb": "https://live.staticflickr.com/65535/47911435881_e72c9c2600_n.jpg",
    "id_album": "-1017029057",
    "description": "CardcaptorSakura_908550",
    "title": "CardcaptorSakura_908550",
    "link_img": "https://live.staticflickr.com/65535/47911435881_d2b4b7666b_o.jpg",
    "id_image": "CardcaptorSakura_908550",
    "count_view": 0
  },
  {
    "link_thumb": "https://live.staticflickr.com/65535/47122096524_2bf1f0585b_n.jpg",
    "id_album": "-1017029057",
    "description": "CardcaptorSakura_908551",
    "title": "CardcaptorSakura_908551",
    "link_img": "https://live.staticflickr.com/65535/47122096524_6dd02ac174_o.jpg",
    "id_image": "CardcaptorSakura_908551",
    "count_view": 0
  },
  {
    "link_thumb": "https://live.staticflickr.com/65535/47859433622_b9813d0d03_n.jpg",
    "id_album": "-1017029057",
    "description": "CardcaptorSakura_908553",
    "title": "CardcaptorSakura_908553",
    "link_img": "https://live.staticflickr.com/65535/47859433622_959fe23241_o.jpg",
    "id_image": "CardcaptorSakura_908553",
    "count_view": 0
  },
  {
    "link_thumb": "https://live.staticflickr.com/65535/47911438941_2f546d2f89_n.jpg",
    "id_album": "-1017029057",
    "description": "CardcaptorSakura_908554",
    "title": "CardcaptorSakura_908554",
    "link_img": "https://live.staticflickr.com/65535/47911438941_e214943962_o.jpg",
    "id_image": "CardcaptorSakura_908554",
    "count_view": 0
  },
  {
    "link_thumb": "https://live.staticflickr.com/65535/46995493045_298eb8192f_n.jpg",
    "id_album": "-1017029057",
    "description": "CardcaptorSakura_908556",
    "title": "CardcaptorSakura_908556",
    "link_img": "https://live.staticflickr.com/65535/46995493045_4440a5cc6b_o.jpg",
    "id_image": "CardcaptorSakura_908556",
    "count_view": 0
  }
]