[
  {
    "total_img": 28,
    "number_page": 1,
    "title": "FateStay Night Unlimited Blade Works",
    "tag": "Green Eyes, Caster FateStay Night, Black Hair, Sakura Matou, Weapon, Fate Series, Long Hair, Blonde, Twintails, Thigh Highs, Anime, Sword, Armor, EMIYA, Short Hair, Shirou Emiya, Artoria Pendragon, FateStay Night Unlimited Blade Works, Glove, Gilgamesh Fate Series, Illyasviel Von Einzbern, Saber Fate Series, Dress, Cu Chulainn, Brown Hair, Boy, Skirt, Blue Eyes, Blue Hair, Pantyhose, Lancer FateStay Night, Tokiomi Tohsaka, Assassin Fatestay night, Rin Tohsaka, Archer FateStay Night",
    "description": "FateStay Night Unlimited Blade Works",
    "link_thumb": "https://live.staticflickr.com/65535/47997460201_ec35989cf8_n.jpg",
    "id_album": "-612161294",
    "total_view": 28
  },
  {
    "total_img": 30,
    "number_page": 1,
    "title": "Archer FateStay Night",
    "tag": "Archer FateStay Night,",
    "description": "Archer FateStay Night",
    "link_thumb": "https://live.staticflickr.com/65535/47980162796_9f34d19bf5_n.jpg",
    "id_album": "1266976429",
    "total_view": 30
  },
  {
    "total_img": 10,
    "number_page": 1,
    "title": "Shirou Emiya",
    "tag": "Shirou Emiya,",
    "description": "Shirou Emiya",
    "link_thumb": "https://live.staticflickr.com/65535/47980162796_9f34d19bf5_n.jpg",
    "id_album": "266026870",
    "total_view": 10
  }
]