[
  {
    "total_img": 91,
    "number_page": 1,
    "title": "Benghuai Xueyuan",
    "tag": "Seele Vollerei, Crying, Weapon, Long Hair, Twintails, Kiana Kaslana, Raiden Mei, Theresa Apocalypse, Cecilia Shania, Japanese Clothes, White Hair, Bikini, Short Hair, Braid, Swimsuit, Face, Benghuai Xueyuan, Katana, Video Game, Murata Himeko, Purple Eyes, Pink Hair, School Uniform, Aqua Eyes, Kallen Kaslana, Honkai Impact 3rd, Gift, Blue Eyes, Bunny Ears, Pantyhose, Yae Sakura Benghuai Xueyuan, Bronya Zaychik, Guns Girl  School DayZ, Animal Ears",
    "description": "Benghuai Xueyuan",
    "link_thumb": "https://live.staticflickr.com/65535/47843346692_cdb8de9459_n.jpg",
    "id_album": "1468663853",
    "total_view": 91
  },
  {
    "total_img": 23,
    "number_page": 1,
    "title": "Kiana Kaslana",
    "tag": "Kiana Kaslana,",
    "description": "Kiana Kaslana",
    "link_thumb": "https://live.staticflickr.com/65535/46979439845_abb50aea69_n.jpg",
    "id_album": "1423486535",
    "total_view": 23
  },
  {
    "total_img": 10,
    "number_page": 1,
    "title": "Raiden Mei",
    "tag": "Raiden Mei,",
    "description": "Raiden Mei",
    "link_thumb": "https://live.staticflickr.com/65535/47895504221_2bfcdf49b1_n.jpg",
    "id_album": "-1339544942",
    "total_view": 10
  }
]