[
  {
    "total_img": 189,
    "number_page": 1,
    "title": "The Melancholy Of Haruhi Suzumiya",
    "tag": "Snow, Night, Taniguchi Haruhi, Stars, Tsuruya Haruhi, Shamisen Haruhi, Snowfall, Ryoko Asakura, Computer Research Society President, Long Hair, Itsuki Koizumi, Suzumiya Haruhi no Yuuutsu, Anime, Rosie the Riveter, The Melancholy of Haruhi Suzumiya, Winter, Ribbon, Teru teru bozu, Book, Melancholy of Haruhi Suzumiya, Short Hair, SOS Brigade Haruhi, Suzumiya Haruhi no Shoushitsu, Kunikida Haruhi, Yuki Nagato, Mikuru Asahina, Gun, Sasaki Haruhi, Purple Hair, Cute, Brown Eyes, Kyon Haruhi, Scarf, Yasumi Watahashi, Brown Hair, Haruhi Suzumiya, School Uniform, Yellow Eyes, The Melancholy Of Haruhi Suzumiya, Skirt, Kyons Sister Haruhi, Kyonko Haruhi, Emiri Kimidori, Cat, Glasses, The Creation of Adam",
    "description": "The Melancholy Of Haruhi Suzumiya",
    "link_thumb": "https://live.staticflickr.com/65535/48059852317_ab643e6e3c_n.jpg",
    "id_album": "2013093157",
    "total_view": 189
  },
  {
    "total_img": 34,
    "number_page": 1,
    "title": "Kyon Haruhi",
    "tag": "Kyon Haruhi,",
    "description": "Kyon Haruhi",
    "link_thumb": "https://live.staticflickr.com/65535/48059977233_420bd087a9_n.jpg",
    "id_album": "-1327438338",
    "total_view": 34
  },
  {
    "total_img": 28,
    "number_page": 1,
    "title": "Suzumiya Haruhi no Yuuutsu",
    "tag": "Suzumiya Haruhi no Yuuutsu,",
    "description": "Suzumiya Haruhi no Yuuutsu",
    "link_thumb": "https://live.staticflickr.com/65535/48059881493_aeb0fc8c7a_n.jpg",
    "id_album": "1245383886",
    "total_view": 28
  },
  {
    "total_img": 89,
    "number_page": 1,
    "title": "Yuki Nagato",
    "tag": "Yuki Nagato,",
    "description": "Yuki Nagato",
    "link_thumb": "https://live.staticflickr.com/65535/48064207357_50f51674ee_n.jpg",
    "id_album": "-338247458",
    "total_view": 89
  }
]