[
  {
    "total_img": 23,
    "number_page": 1,
    "title": "Citrus",
    "tag": "Building, Green Eyes, Ume Aihara, Night, Wink, Twilight, Blonde, Long Hair, Twintails, Bouquet, Citrus Anime, Sunbeam, Anime, Tokyo, bow Clothing, Tree, Yuri, River, Street, Leaf, Lamp, Face, Earrings, Nature, Mei Aihara, Purple Eyes, Flower, Purple Hair, Cute, Matsuri Mizusawa, Architecture, House, School Uniform, Pink Hair, Apartment, Arcade, Citrus, Tie, Blue Eyes, Blush, Hoodie, Brick, Bookshelf, Sad, Yuzu Aihara",
    "description": "Citrus",
    "link_thumb": "https://live.staticflickr.com/65535/40945482283_7ae05a6d87_n.jpg",
    "id_album": "1583923054",
    "total_view": 23
  },
  {
    "total_img": 959,
    "number_page": 5,
    "title": "Blue Eyes",
    "tag": "Blue Eyes,",
    "description": "Blue Eyes",
    "link_thumb": "https://live.staticflickr.com/65535/48609891276_d6beb9cf73_n.jpg",
    "id_album": "737375568",
    "total_view": 959
  },
  {
    "total_img": 18,
    "number_page": 1,
    "title": "Citrus Anime",
    "tag": "Citrus Anime,",
    "description": "Citrus Anime",
    "link_thumb": "https://live.staticflickr.com/65535/47122739784_ed4855381b_n.jpg",
    "id_album": "424431348",
    "total_view": 18
  },
  {
    "total_img": 65,
    "number_page": 1,
    "title": "Face",
    "tag": "Face,",
    "description": "Face",
    "link_thumb": "https://live.staticflickr.com/65535/48066708568_f57283b410_n.jpg",
    "id_album": "-743843787",
    "total_view": 65
  },
  {
    "total_img": 7,
    "number_page": 1,
    "title": "Matsuri Mizusawa",
    "tag": "Matsuri Mizusawa,",
    "description": "Matsuri Mizusawa",
    "link_thumb": "https://live.staticflickr.com/65535/47122739784_ed4855381b_n.jpg",
    "id_album": "1307664719",
    "total_view": 7
  },
  {
    "total_img": 295,
    "number_page": 2,
    "title": "Pink Hair",
    "tag": "Pink Hair,",
    "description": "Pink Hair",
    "link_thumb": "https://live.staticflickr.com/65535/48066953706_2771a62522_n.jpg",
    "id_album": "-30741026",
    "total_view": 295
  }
]