[
  {
    "link_thumb": "https://live.staticflickr.com/65535/47992788496_fcc98e5369_n.jpg",
    "id_album": "1657145195",
    "description": "GrimgarofFantasyandAsh_682451",
    "title": "GrimgarofFantasyandAsh_682451",
    "link_img": "https://live.staticflickr.com/65535/47992788496_8f4a2ea655_o.jpg",
    "id_image": "GrimgarofFantasyandAsh_682451",
    "count_view": 0
  },
  {
    "link_thumb": "https://live.staticflickr.com/65535/47992740912_9edb4f08ec_n.jpg",
    "id_album": "1657145195",
    "description": "GrimgarofFantasyandAsh_682452",
    "title": "GrimgarofFantasyandAsh_682452",
    "link_img": "https://live.staticflickr.com/65535/47992740912_c17ff93fe5_o.jpg",
    "id_image": "GrimgarofFantasyandAsh_682452",
    "count_view": 0
  },
  {
    "link_thumb": "https://live.staticflickr.com/65535/47992743533_4148f44c37_n.jpg",
    "id_album": "1657145195",
    "description": "GrimgarofFantasyandAsh_682462",
    "title": "GrimgarofFantasyandAsh_682462",
    "link_img": "https://live.staticflickr.com/65535/47992743533_0e65a21b24_o.jpg",
    "id_image": "GrimgarofFantasyandAsh_682462",
    "count_view": 0
  },
  {
    "link_thumb": "https://live.staticflickr.com/65535/47992744528_79245a3726_n.jpg",
    "id_album": "1657145195",
    "description": "GrimgarofFantasyandAsh_682465",
    "title": "GrimgarofFantasyandAsh_682465",
    "link_img": "https://live.staticflickr.com/65535/47992744528_dd6897ae6f_o.jpg",
    "id_image": "GrimgarofFantasyandAsh_682465",
    "count_view": 0
  },
  {
    "link_thumb": "https://live.staticflickr.com/65535/47992746353_aa7123907c_n.jpg",
    "id_album": "1657145195",
    "description": "GrimgarofFantasyandAsh_682479",
    "title": "GrimgarofFantasyandAsh_682479",
    "link_img": "https://live.staticflickr.com/65535/47992746353_7762a5ca6d_o.jpg",
    "id_image": "GrimgarofFantasyandAsh_682479",
    "count_view": 0
  },
  {
    "link_thumb": "https://live.staticflickr.com/65535/47992793641_9c46b5f41c_n.jpg",
    "id_album": "1657145195",
    "description": "GrimgarofFantasyandAsh_682481",
    "title": "GrimgarofFantasyandAsh_682481",
    "link_img": "https://live.staticflickr.com/65535/47992793641_fcc3f42245_o.jpg",
    "id_image": "GrimgarofFantasyandAsh_682481",
    "count_view": 0
  },
  {
    "link_thumb": "https://live.staticflickr.com/65535/47992747743_836a4187bc_n.jpg",
    "id_album": "1657145195",
    "description": "GrimgarofFantasyandAsh_682483",
    "title": "GrimgarofFantasyandAsh_682483",
    "link_img": "https://live.staticflickr.com/65535/47992747743_a00cc4a602_o.jpg",
    "id_image": "GrimgarofFantasyandAsh_682483",
    "count_view": 0
  },
  {
    "link_thumb": "https://live.staticflickr.com/65535/47992747167_498c7747b4_n.jpg",
    "id_album": "1657145195",
    "description": "GrimgarofFantasyandAsh_682485",
    "title": "GrimgarofFantasyandAsh_682485",
    "link_img": "https://live.staticflickr.com/65535/47992747167_b166f323c7_o.jpg",
    "id_image": "GrimgarofFantasyandAsh_682485",
    "count_view": 0
  },
  {
    "link_thumb": "https://live.staticflickr.com/65535/47992752043_8a087e216c_n.jpg",
    "id_album": "1657145195",
    "description": "GrimgarofFantasyandAsh_682588",
    "title": "GrimgarofFantasyandAsh_682588",
    "link_img": "https://live.staticflickr.com/65535/47992752043_443479921d_o.jpg",
    "id_image": "GrimgarofFantasyandAsh_682588",
    "count_view": 0
  },
  {
    "link_thumb": "https://live.staticflickr.com/65535/47992753963_2e6eedccbd_n.jpg",
    "id_album": "1657145195",
    "description": "GrimgarofFantasyandAsh_682591",
    "title": "GrimgarofFantasyandAsh_682591",
    "link_img": "https://live.staticflickr.com/65535/47992753963_5972dfab48_o.jpg",
    "id_image": "GrimgarofFantasyandAsh_682591",
    "count_view": 0
  },
  {
    "link_thumb": "https://live.staticflickr.com/65535/47992801016_35267bbc97_n.jpg",
    "id_album": "1657145195",
    "description": "GrimgarofFantasyandAsh_682592",
    "title": "GrimgarofFantasyandAsh_682592",
    "link_img": "https://live.staticflickr.com/65535/47992801016_7554d6dff9_o.jpg",
    "id_image": "GrimgarofFantasyandAsh_682592",
    "count_view": 0
  },
  {
    "link_thumb": "https://live.staticflickr.com/65535/47992754873_c5854b4485_n.jpg",
    "id_album": "1657145195",
    "description": "GrimgarofFantasyandAsh_682593",
    "title": "GrimgarofFantasyandAsh_682593",
    "link_img": "https://live.staticflickr.com/65535/47992754873_60b1ee537a_o.jpg",
    "id_image": "GrimgarofFantasyandAsh_682593",
    "count_view": 0
  },
  {
    "link_thumb": "https://live.staticflickr.com/65535/47992758077_f50e0da839_n.jpg",
    "id_album": "1657145195",
    "description": "GrimgarofFantasyandAsh_787748",
    "title": "GrimgarofFantasyandAsh_787748",
    "link_img": "https://live.staticflickr.com/65535/47992758077_b044829e20_o.jpg",
    "id_image": "GrimgarofFantasyandAsh_787748",
    "count_view": 0
  }
]