[
  {
    "total_img": 56,
    "number_page": 1,
    "title": "Masamunekuns Revenge",
    "tag": "Yoshino Koiwai, Orange Eyes, Pink Dress, Wink, Sitting, High Heels, Blonde, Thigh Highs, Anime, Kimono, bow Clothing, Kojuro Shuri, Short Hair, Face, Neko Fujinomiya, Armchair, Coat, Food, Eating, Jacket, Purple Hair, Dress, Scarf, Brown Hair, Muriel Besson, Kojuurou Shuri, Smile, Yellow Eyes, Boy, Aki Adagaki, Skirt, Blue Eyes, Masamune Makabe, Blush, Pantyhose, Masamunekuns Revenge, Tae Futaba, Masamunekun no Revenge",
    "description": "Masamunekuns Revenge",
    "link_thumb": "https://live.staticflickr.com/65535/48070494851_b4f88d064e_n.jpg",
    "id_album": "553726567",
    "total_view": 56
  },
  {
    "total_img": 40,
    "number_page": 1,
    "title": "Aki Adagaki",
    "tag": "Aki Adagaki,",
    "description": "Aki Adagaki",
    "link_thumb": "https://live.staticflickr.com/65535/48070631392_cfda93e255_n.jpg",
    "id_album": "-298355517",
    "total_view": 40
  },
  {
    "total_img": 1083,
    "number_page": 6,
    "title": "Anime",
    "tag": "Anime,",
    "description": "Anime",
    "link_thumb": "https://live.staticflickr.com/65535/48066953706_2771a62522_n.jpg",
    "id_album": "-1920923841",
    "total_view": 1083
  },
  {
    "total_img": 690,
    "number_page": 4,
    "title": "Blush",
    "tag": "Blush,",
    "description": "Blush",
    "link_thumb": "https://live.staticflickr.com/65535/48066945096_efda4835b6_n.jpg",
    "id_album": "1964454893",
    "total_view": 690
  },
  {
    "total_img": 320,
    "number_page": 2,
    "title": "Dress",
    "tag": "Dress,",
    "description": "Dress",
    "link_thumb": "https://live.staticflickr.com/65535/48066945096_efda4835b6_n.jpg",
    "id_album": "-1596424748",
    "total_view": 320
  },
  {
    "total_img": 12,
    "number_page": 1,
    "title": "High Heels",
    "tag": "High Heels,",
    "description": "High Heels",
    "link_thumb": "https://live.staticflickr.com/65535/48062917007_645f56f67d_n.jpg",
    "id_album": "-1651714499",
    "total_view": 12
  },
  {
    "total_img": 6,
    "number_page": 1,
    "title": "Kojuurou Shuri",
    "tag": "Kojuurou Shuri,",
    "description": "Kojuurou Shuri",
    "link_thumb": "https://live.staticflickr.com/65535/48070573698_4618d4583d_n.jpg",
    "id_album": "-917966760",
    "total_view": 6
  },
  {
    "total_img": 8,
    "number_page": 1,
    "title": "Masamune Makabe",
    "tag": "Masamune Makabe,",
    "description": "Masamune Makabe",
    "link_thumb": "https://live.staticflickr.com/65535/48070522246_12fd9be261_n.jpg",
    "id_album": "1929862254",
    "total_view": 8
  },
  {
    "total_img": 10,
    "number_page": 1,
    "title": "Masamunekun no Revenge",
    "tag": "Masamunekun no Revenge,",
    "description": "Masamunekun no Revenge",
    "link_thumb": "https://live.staticflickr.com/65535/48070629627_a6a9ccfb3e_n.jpg",
    "id_album": "179178751",
    "total_view": 10
  },
  {
    "total_img": 87,
    "number_page": 1,
    "title": "Pantyhose",
    "tag": "Pantyhose,",
    "description": "Pantyhose",
    "link_thumb": "https://live.staticflickr.com/65535/48609891276_d6beb9cf73_n.jpg",
    "id_album": "-1075427692",
    "total_view": 87
  },
  {
    "total_img": 9,
    "number_page": 1,
    "title": "Pink Dress",
    "tag": "Pink Dress,",
    "description": "Pink Dress",
    "link_thumb": "https://live.staticflickr.com/65535/48066083608_ab538698ff_n.jpg",
    "id_album": "-1669551062",
    "total_view": 9
  },
  {
    "total_img": 807,
    "number_page": 5,
    "title": "Smile",
    "tag": "Smile,",
    "description": "Smile",
    "link_thumb": "https://live.staticflickr.com/65535/48066953706_2771a62522_n.jpg",
    "id_album": "419891285",
    "total_view": 807
  },
  {
    "total_img": 18,
    "number_page": 1,
    "title": "Yoshino Koiwai",
    "tag": "Yoshino Koiwai,",
    "description": "Yoshino Koiwai",
    "link_thumb": "https://live.staticflickr.com/65535/48070575428_440162843d_n.jpg",
    "id_album": "-287113137",
    "total_view": 18
  }
]