[
  {
    "total_img": 20,
    "number_page": 1,
    "title": "Arifureta Shokugyou de Sekai Saikyou",
    "tag": "Yue Arifureta Shokugyou de Sekai Saikyou, Gun, Orange Eyes, Revolver, Dress, Brown Eyes, Black Hair, Minimalist, White Dress, Boy, Hajime Nagumo, Arifureta, Long Hair, Blonde, Red Eyes, Blush, Arifureta Shokugyou de Sekai Saikyou, White Hair, Arifureta Shokugyou de Sekai Saikyo, Kaori Shirasaki, Hat, Face, Eye Patch, Coat",
    "description": "Arifureta Shokugyou de Sekai Saikyou",
    "link_thumb": "https://live.staticflickr.com/65535/48609617506_097c9363a3_n.jpg",
    "id_album": "1151780972",
    "total_view": 20
  },
  {
    "total_img": 752,
    "number_page": 4,
    "title": "Black Hair",
    "tag": "Black Hair,",
    "description": "Black Hair",
    "link_thumb": "https://live.staticflickr.com/65535/48066328668_b63565e5e3_n.jpg",
    "id_album": "1485204216",
    "total_view": 752
  },
  {
    "total_img": 690,
    "number_page": 4,
    "title": "Blush",
    "tag": "Blush,",
    "description": "Blush",
    "link_thumb": "https://live.staticflickr.com/65535/48066945096_efda4835b6_n.jpg",
    "id_album": "1964454893",
    "total_view": 690
  },
  {
    "total_img": 363,
    "number_page": 2,
    "title": "Brown Eyes",
    "tag": "Brown Eyes,",
    "description": "Brown Eyes",
    "link_thumb": "https://live.staticflickr.com/65535/48609891276_d6beb9cf73_n.jpg",
    "id_album": "-346700115",
    "total_view": 363
  },
  {
    "total_img": 320,
    "number_page": 2,
    "title": "Dress",
    "tag": "Dress,",
    "description": "Dress",
    "link_thumb": "https://live.staticflickr.com/65535/48066945096_efda4835b6_n.jpg",
    "id_album": "-1596424748",
    "total_view": 320
  },
  {
    "total_img": 297,
    "number_page": 2,
    "title": "Hat",
    "tag": "Hat,",
    "description": "Hat",
    "link_thumb": "https://live.staticflickr.com/65535/48609886896_3658155406_n.jpg",
    "id_album": "-1741487314",
    "total_view": 297
  },
  {
    "total_img": 1729,
    "number_page": 9,
    "title": "Long Hair",
    "tag": "Long Hair,",
    "description": "Long Hair",
    "link_thumb": "https://live.staticflickr.com/65535/48066953706_2771a62522_n.jpg",
    "id_album": "186170098",
    "total_view": 1729
  },
  {
    "total_img": 48,
    "number_page": 1,
    "title": "White Dress",
    "tag": "White Dress,",
    "description": "White Dress",
    "link_thumb": "https://live.staticflickr.com/65535/48066945096_efda4835b6_n.jpg",
    "id_album": "131756070",
    "total_view": 48
  }
]