[
  {
    "total_img": 114,
    "number_page": 1,
    "title": "Angel",
    "tag": "Sky, Water, Heart, Colorful, Moon, Black Hair, Staff, Flute, Weapon, Psychedelic, Sword, Ribbon, White Hair, Book, Redhead, Braid, Arrow, Earrings, Gauntlet, Glove, Purple Eyes, Scarf, Angel, Reflection, Smile, Skirt, Colors, Blush, Belt, Scooter, Chain, Rose, White Dress, Wings, Sunbeam, Ilolamai, Feather, Original Anime, Blue, Brown Hair, Pink Hair, Blue Eyes, Hat, Smartphone, Pillow, Green Eyes, Night, Stars, Long Hair, Thigh Highs, Anime, Light, Kimono, Heterochromia, Headdress, Woman, Coat, Purple Hair, Bow, Yellow Eyes, Red Eyes, Koishikawa Kohane, Dark, Fantasy, The Snow Queen Fairytale, Eye Patch, Ponytail, Orange Eyes, Cherry Blossom, Butterfly, Cross, Bird, Blonde, Twintails, Armor, bow Clothing, Bones, Skeleton, Short Hair, Sketchbook, Necklace, Flower, Dress, Brown Eyes, Baby, Bag, Pink Eyes, Apron, Maid, Gothic, Axe, Sunset, White, Blue Hair, Grey Hair, Cloud, Petal",
    "description": "Angel",
    "link_thumb": "https://live.staticflickr.com/65535/47839873682_fb10ac2408_n.jpg",
    "id_album": "394356656",
    "total_view": 114
  },
  {
    "total_img": 1376,
    "number_page": 7,
    "title": "Original Anime",
    "tag": "Original Anime,",
    "description": "Original Anime",
    "link_thumb": "https://live.staticflickr.com/65535/48066086398_88977312bf_n.jpg",
    "id_album": "-335032857",
    "total_view": 1376
  }
]