[
  {
    "total_img": 91,
    "number_page": 1,
    "title": "Benghuai Xueyuan",
    "tag": "Seele Vollerei, Crying, Weapon, Long Hair, Twintails, Kiana Kaslana, Raiden Mei, Theresa Apocalypse, Cecilia Shania, Japanese Clothes, White Hair, Bikini, Short Hair, Braid, Swimsuit, Face, Benghuai Xueyuan, Katana, Video Game, Murata Himeko, Purple Eyes, Pink Hair, School Uniform, Aqua Eyes, Kallen Kaslana, Honkai Impact 3rd, Gift, Blue Eyes, Bunny Ears, Pantyhose, Yae Sakura Benghuai Xueyuan, Bronya Zaychik, Guns Girl  School DayZ, Animal Ears",
    "description": "Benghuai Xueyuan",
    "link_thumb": "https://live.staticflickr.com/65535/47843346692_cdb8de9459_n.jpg",
    "id_album": "1468663853",
    "total_view": 91
  },
  {
    "total_img": 2,
    "number_page": 1,
    "title": "Murata Himeko",
    "tag": "Murata Himeko,",
    "description": "Murata Himeko",
    "link_thumb": "https://live.staticflickr.com/65535/47843375082_6768203e60_n.jpg",
    "id_album": "814916038",
    "total_view": 2
  }
]