[
  {
    "total_img": 16,
    "number_page": 1,
    "title": "Super Sonico",
    "tag": "Guitar, Watanuki Fuuri, Fuuri Watanuki, Cute, Wink, Summer, Pink Eyes, Pink Hair, Sakura, Smile, Suni Soniko, Nitro Super Sonic, Pink, Blush, Winter, Hoodie, Super Sonico, Suzu Fujimi, Fujimi Suzu, Animal Ears, Woman, Naitoukun",
    "description": "Super Sonico",
    "link_thumb": "https://live.staticflickr.com/65535/48058422517_69fa92e3b1_n.jpg",
    "id_album": "-52805232",
    "total_view": 16
  },
  {
    "total_img": 104,
    "number_page": 1,
    "title": "Pink Eyes",
    "tag": "Pink Eyes,",
    "description": "Pink Eyes",
    "link_thumb": "https://live.staticflickr.com/65535/48066953706_2771a62522_n.jpg",
    "id_album": "245161063",
    "total_view": 104
  },
  {
    "total_img": 295,
    "number_page": 2,
    "title": "Pink Hair",
    "tag": "Pink Hair,",
    "description": "Pink Hair",
    "link_thumb": "https://live.staticflickr.com/65535/48066953706_2771a62522_n.jpg",
    "id_album": "-30741026",
    "total_view": 295
  }
]