[
  {
    "total_img": 15,
    "number_page": 1,
    "title": "Death Parade",
    "tag": "Water, Green Hair, Orange Eyes, Quin Death Parade, Chair, Mayu Arita, Black Hair, Minimalist, Ginti Death Parade, Clavis Death Parade, High Heels, Long Hair, Anime, Chiyuki Death Parade, Bottle, White Hair, Darts, Braid, Billiard, Nona Death Parade, Death Parade, Earrings, Necklace, Purple Eyes, Oculus Death Parade, Flower, Purple Hair, Brown Eyes, Brown Hair, Castra Death Parade, Decim Death Parade, Pink Eyes, Pink Hair, Smile, Yellow Eyes, Red Hair, Aqua Hair, Card, Red Eyes, Lollipop, Skirt, Blue Eyes, Bar, Cat, Skull, Dart Board",
    "description": "Death Parade",
    "link_thumb": "https://live.staticflickr.com/65535/47967231686_b51526cb2d_n.jpg",
    "id_album": "738245794",
    "total_view": 15
  },
  {
    "total_img": 752,
    "number_page": 4,
    "title": "Black Hair",
    "tag": "Black Hair,",
    "description": "Black Hair",
    "link_thumb": "https://live.staticflickr.com/65535/48066328668_b63565e5e3_n.jpg",
    "id_album": "1485204216",
    "total_view": 752
  },
  {
    "total_img": 446,
    "number_page": 3,
    "title": "Flower",
    "tag": "Flower,",
    "description": "Flower",
    "link_thumb": "https://live.staticflickr.com/65535/48066963006_4ebcb40f16_n.jpg",
    "id_album": "-1577336454",
    "total_view": 446
  },
  {
    "total_img": 129,
    "number_page": 1,
    "title": "Water",
    "tag": "Water,",
    "description": "Water",
    "link_thumb": "https://live.staticflickr.com/65535/48066865002_2f12560e78_n.jpg",
    "id_album": "78692563",
    "total_view": 129
  }
]