[
  {
    "link_thumb": "https://live.staticflickr.com/65535/48611359482_e8db513824_n.jpg",
    "id_album": "502195616",
    "description": "MushokuTenseiJoblessReincarnation_1001185,[isGirlAnime],[isSadAnime],[isSadAnimeGirl],[isCuteAnime],[isGirlsLoliAnime],[isGirlsSharpCanineToothAnime],[Mushoku Tensei Jobless Reincarnation],[MushokuTenseiJoblessReincarnation]",
    "title": "MushokuTenseiJoblessReincarnation_1001185",
    "link_img": "https://live.staticflickr.com/65535/48611359482_7dd4d4efbe_o.jpg",
    "id_image": "MushokuTenseiJoblessReincarnation_1001185",
    "count_view": 0
  },
  {
    "link_thumb": "https://live.staticflickr.com/65535/48610846353_0200fcd651_n.jpg",
    "id_album": "502195616",
    "description": "MushokuTenseiJoblessReincarnation_1001249,[isGirlAnime],[isSadAnime],[isSadAnimeGirl],[isCuteAnime],[isGirlEarsNekoAnime],[isGirlsLoliAnime],[Mushoku Tensei Jobless Reincarnation],[MushokuTenseiJoblessReincarnation]",
    "title": "MushokuTenseiJoblessReincarnation_1001249",
    "link_img": "https://live.staticflickr.com/65535/48610846353_9a8f5af62f_o.jpg",
    "id_image": "MushokuTenseiJoblessReincarnation_1001249",
    "count_view": 0
  },
  {
    "link_thumb": "https://live.staticflickr.com/65535/48611359707_e5a9b6d0fe_n.jpg",
    "id_album": "502195616",
    "description": "MushokuTenseiJoblessReincarnation_1001253,[isGirlAnime],[isSadAnimeGirl],[isCuteAnime],[isGirlsHatsHoodieAnime],[isGirlsLoliAnime],[Mushoku Tensei Jobless Reincarnation],[MushokuTenseiJoblessReincarnation]",
    "title": "MushokuTenseiJoblessReincarnation_1001253",
    "link_img": "https://live.staticflickr.com/65535/48611359707_58bc263aab_o.jpg",
    "id_image": "MushokuTenseiJoblessReincarnation_1001253",
    "count_view": 0
  },
  {
    "link_thumb": "https://live.staticflickr.com/65535/48611207621_1171b55290_n.jpg",
    "id_album": "502195616",
    "description": "MushokuTenseiJoblessReincarnation_1001263,[isGirlAnime],[isSadAnime],[isSadAnimeGirl],[isCuteAnime],[isGirlsHatsHoodieAnime],[isGirlsLoliAnime],[Mushoku Tensei Jobless Reincarnation],[MushokuTenseiJoblessReincarnation]",
    "title": "MushokuTenseiJoblessReincarnation_1001263",
    "link_img": "https://live.staticflickr.com/65535/48611207621_7fedf9925e_o.jpg",
    "id_image": "MushokuTenseiJoblessReincarnation_1001263",
    "count_view": 0
  },
  {
    "link_thumb": "https://live.staticflickr.com/65535/48611207941_8c220e413c_n.jpg",
    "id_album": "502195616",
    "description": "MushokuTenseiJoblessReincarnation_1001265,[isGirlAnime],[isSadAnime],[isSadAnimeGirl],[isCuteAnime],[isGirlEarsNekoAnime],[isGirlsHatsHoodieAnime],[isGirlsLoliAnime],[Mushoku Tensei Jobless Reincarnation],[MushokuTenseiJoblessReincarnation]",
    "title": "MushokuTenseiJoblessReincarnation_1001265",
    "link_img": "https://live.staticflickr.com/65535/48611207941_631c2b28bd_o.jpg",
    "id_image": "MushokuTenseiJoblessReincarnation_1001265",
    "count_view": 0
  },
  {
    "link_thumb": "https://live.staticflickr.com/65535/48611208426_cd73db900a_n.jpg",
    "id_album": "502195616",
    "description": "MushokuTenseiJoblessReincarnation_1001272,[isGirlAnime],[isBoyAnime],[isCoupleAnime],[Mushoku Tensei Jobless Reincarnation],[MushokuTenseiJoblessReincarnation]",
    "title": "MushokuTenseiJoblessReincarnation_1001272",
    "link_img": "https://live.staticflickr.com/65535/48611208426_f62e6cd73c_o.jpg",
    "id_image": "MushokuTenseiJoblessReincarnation_1001272",
    "count_view": 0
  },
  {
    "link_thumb": "https://live.staticflickr.com/65535/48611208551_ed7970ca0d_n.jpg",
    "id_album": "502195616",
    "description": "MushokuTenseiJoblessReincarnation_1001274,[isGirlAnime],[isSadAnime],[isSadAnimeGirl],[isCuteAnime],[isGirlsHatsHoodieAnime],[isGirlsLoliAnime],[Mushoku Tensei Jobless Reincarnation],[MushokuTenseiJoblessReincarnation]",
    "title": "MushokuTenseiJoblessReincarnation_1001274",
    "link_img": "https://live.staticflickr.com/65535/48611208551_134a7d3158_o.jpg",
    "id_image": "MushokuTenseiJoblessReincarnation_1001274",
    "count_view": 0
  },
  {
    "link_thumb": "https://live.staticflickr.com/65535/48610848093_c97dab266d_n.jpg",
    "id_album": "502195616",
    "description": "MushokuTenseiJoblessReincarnation_1001275,[isGirlAnime],[isSadAnime],[isSadAnimeGirl],[isCuteAnime],[isGirlsHatsHoodieAnime],[isGirlsLoliAnime],[Mushoku Tensei Jobless Reincarnation],[MushokuTenseiJoblessReincarnation]",
    "title": "MushokuTenseiJoblessReincarnation_1001275",
    "link_img": "https://live.staticflickr.com/65535/48610848093_a26c146582_o.jpg",
    "id_image": "MushokuTenseiJoblessReincarnation_1001275",
    "count_view": 0
  }
]