[
  {
    "total_img": 27,
    "number_page": 1,
    "title": "City",
    "tag": "Sky, Bench, Original Anime, Artistic, Night, Stars, People, City, Street Light, ShangriLa, Anime, Cloud, Umbrella, Fantasy, Castle, Street, Robot",
    "description": "City",
    "link_thumb": "https://live.staticflickr.com/65535/47860111742_e9345a490f_n.jpg",
    "id_album": "-1964113117",
    "total_view": 27
  },
  {
    "total_img": 1083,
    "number_page": 6,
    "title": "Anime",
    "tag": "Anime,",
    "description": "Anime",
    "link_thumb": "https://live.staticflickr.com/65535/48066953706_2771a62522_n.jpg",
    "id_album": "-1920923841",
    "total_view": 1083
  },
  {
    "total_img": 11,
    "number_page": 1,
    "title": "Bench",
    "tag": "Bench,",
    "description": "Bench",
    "link_thumb": "https://live.staticflickr.com/65535/48054697613_64afbfd878_n.jpg",
    "id_album": "1971408224",
    "total_view": 11
  },
  {
    "total_img": 153,
    "number_page": 1,
    "title": "Night",
    "tag": "Night,",
    "description": "Night",
    "link_thumb": "https://live.staticflickr.com/65535/48066526828_78bf2dcb6b_n.jpg",
    "id_album": "742877003",
    "total_view": 153
  }
]