[
  {
    "total_img": 35,
    "number_page": 1,
    "title": "Arknights",
    "tag": "Croissant Arknights, Gun, Orange Eyes, Purple Eyes, Cat Girl, Grani Arknights, Demon, Amiya Arknights, Nightingale Arknights, Red Hair, Long Hair, Pramanix Arknights, Sword, White Hair, Ifrit Arknights, Sora Arknights, Kaltsit Arknights, Arknights, Texas Arknights, Animal Ears, Exusiai Arknights, Chen Arknights, Liskarm Arknights",
    "description": "Arknights",
    "link_thumb": "https://live.staticflickr.com/65535/48609775707_cd9905f6a0_n.jpg",
    "id_album": "940931938",
    "total_view": 35
  }
]