[
  {
    "total_img": 14,
    "number_page": 1,
    "title": "Gourmet Girl Graffiti",
    "tag": "Akira Machiko, Shiina Gourmet Girl Graffiti, Frying Pan, White Dress, Long Hair, Anime, Gourmet Girl Graffiti, bow Clothing, Short Hair, Food, Rice, Flower, Purple Eyes, Bee, Purple Hair, Brown Hair, Pink Eyes, Headband, School Uniform, Ryou Machiko, Yellow Eyes, Smile, Yuki Uchiki, Red Eyes, Skirt, Tsuyuko Gourmet Girl Graffiti, Blue Eyes, Blush, Pantyhose, Spoon, Animal Ears, Kirin Morino",
    "description": "Gourmet Girl Graffiti",
    "link_thumb": "https://live.staticflickr.com/65535/47992742931_0d22e71da7_n.jpg",
    "id_album": "1438030950",
    "total_view": 14
  },
  {
    "total_img": 6,
    "number_page": 1,
    "title": "Kirin Morino",
    "tag": "Kirin Morino,",
    "description": "Kirin Morino",
    "link_thumb": "https://live.staticflickr.com/65535/47992703413_a346714c37_n.jpg",
    "id_album": "-138078756",
    "total_view": 6
  },
  {
    "total_img": 9,
    "number_page": 1,
    "title": "Ryou Machiko",
    "tag": "Ryou Machiko,",
    "description": "Ryou Machiko",
    "link_thumb": "https://live.staticflickr.com/65535/48059400666_1d36b0f0d7_n.jpg",
    "id_album": "211197935",
    "total_view": 9
  }
]