[
  {
    "link_thumb": "https://live.staticflickr.com/65535/47891647861_0ff0c16952_n.jpg",
    "id_album": "-2120548530",
    "description": "AmagiBrilliantPark_687128",
    "title": "AmagiBrilliantPark_687128",
    "link_img": "https://live.staticflickr.com/65535/47891647861_72df069945_o.jpg",
    "id_image": "AmagiBrilliantPark_687128",
    "count_view": 0
  },
  {
    "link_thumb": "https://live.staticflickr.com/65535/47102401094_3d5fc67ccd_n.jpg",
    "id_album": "-2120548530",
    "description": "AmagiBrilliantPark_704188",
    "title": "AmagiBrilliantPark_704188",
    "link_img": "https://live.staticflickr.com/65535/47102401094_8a9af8b13c_o.jpg",
    "id_image": "AmagiBrilliantPark_704188",
    "count_view": 0
  },
  {
    "link_thumb": "https://live.staticflickr.com/65535/47839750662_d7bba665ee_n.jpg",
    "id_album": "-2120548530",
    "description": "AmagiBrilliantPark_704943",
    "title": "AmagiBrilliantPark_704943",
    "link_img": "https://live.staticflickr.com/65535/47839750662_7929869a51_o.jpg",
    "id_image": "AmagiBrilliantPark_704943",
    "count_view": 0
  },
  {
    "link_thumb": "https://live.staticflickr.com/65535/47891652851_521ebc3f1a_n.jpg",
    "id_album": "-2120548530",
    "description": "AmagiBrilliantPark_704944",
    "title": "AmagiBrilliantPark_704944",
    "link_img": "https://live.staticflickr.com/65535/47891652851_2f23577aee_o.jpg",
    "id_image": "AmagiBrilliantPark_704944",
    "count_view": 0
  },
  {
    "link_thumb": "https://live.staticflickr.com/65535/47839752922_96d7a4c5f0_n.jpg",
    "id_album": "-2120548530",
    "description": "AmagiBrilliantPark_704946",
    "title": "AmagiBrilliantPark_704946",
    "link_img": "https://live.staticflickr.com/65535/47839752922_190667f562_o.jpg",
    "id_image": "AmagiBrilliantPark_704946",
    "count_view": 0
  },
  {
    "link_thumb": "https://live.staticflickr.com/65535/46975586875_6abd1b53c9_n.jpg",
    "id_album": "-2120548530",
    "description": "AmagiBrilliantPark_717081",
    "title": "AmagiBrilliantPark_717081",
    "link_img": "https://live.staticflickr.com/65535/46975586875_3a29fa5d92_o.jpg",
    "id_image": "AmagiBrilliantPark_717081",
    "count_view": 0
  },
  {
    "link_thumb": "https://live.staticflickr.com/65535/46975590115_7422298e8f_n.jpg",
    "id_album": "-2120548530",
    "description": "AmagiBrilliantPark_745136",
    "title": "AmagiBrilliantPark_745136",
    "link_img": "https://live.staticflickr.com/65535/46975590115_e97cd3a41e_o.jpg",
    "id_image": "AmagiBrilliantPark_745136",
    "count_view": 0
  },
  {
    "link_thumb": "https://live.staticflickr.com/65535/46975592825_98f2bf296d_n.jpg",
    "id_album": "-2120548530",
    "description": "AmagiBrilliantPark_830954",
    "title": "AmagiBrilliantPark_830954",
    "link_img": "https://live.staticflickr.com/65535/46975592825_1c7c1fd094_o.jpg",
    "id_image": "AmagiBrilliantPark_830954",
    "count_view": 0
  }
]