[
  {
    "total_img": 533,
    "number_page": 3,
    "title": "Touhou",
    "tag": "Water, Green Hair, Utsuho Reiuji, Kisume Touhou, Narumi Yatadera, Wink, Staff, Black Hair, High Heels, Monochrome, Weapon, YuugenMagan Touhou, Curtain, Parsee Mizuhashi, Umbrella, Murasa Minamitsu, Sekibanki Touhou, Reimu Hakurei, Wakasagihime Touhou, Lyrica Prismriver, Glove, Watatsuki No Yorihime, Black Dress, Okina Matara, Smile, Watasuki No Toyohime, Spring, Sea, Skirt, Shizuha Aki, Rumia Touhou, Devil, Bunny Ears, Lily Black, Mamizou Futatsuiwa, Momiji Inubashiri, Kosuzu Motoori, Ichirin Kumoi, Kotohime Touhou, Yuri, Face, Yamame Kurodani, Patchouli Knowledge, Seiran Touhou, Bed, Video Game, Brown Hair, Suika Ibuki, Kagerou Imaizumi, Pink Hair, Hieda no Akyuu, Red, Tie, Blue Eyes, Iowa Kancolle, Raiko Horikawa, Cyberpunk, Boots, Fire, Sketch, Hat, Hata no Kokoro, Animal Ears, Eirin Yagokoro, Green Eyes, Doremy Sweet Touhou, Sumireko Usami, Reisen Udongein Inaba, Long Hair, Ran Yakumo, Thigh Highs, Winter, Kimono, Minamitsu Murasa, Heterochromia, Headdress, Cirno Touhou, Purple Hair, Maribel Hearn, Chen Touhou, Ellis Touhou, Shikieiki Yamaxanadu, Marisa Kirisame, Eiki Shiki, Aunn Komano, Glasses, Candelabra, Elly Touhou, Bird, Sitting, Blonde, Twintails, Benben Tsukumo, Knife, Hina Kagiyama, Shinki Touhou, Lunasa Prismriver, Katana, Mokou Fujiwara, Sunny Milk, Sandal, Clownpiece Touhou, Pink Eyes, School Uniform, Gothic, Green Dress, Ruin, Shou Toramaru, Apple, Tenshi Hinanawi, Merlin Prismriver, Kaguya Houraisan, Seiga Kaku, Blossom, Vampire, Yuuka Kazami, Flandre Scarlet, Colorful, Schoolgirl, Junko Touhou, Sword, Ribbon, White Hair, Lily White, Book, Fangs, Hecatia Lapislazuli, Horns, Koakuma Touhou, Kogasa Tatara, Gun, Satori Komeiji, Purple Eyes, Scarf, Keine Kamishirasawa, Letty Whiterock, Ringo Touhou, Shoe, Shanghai touhou, Daiyousei Touhou, Aqua Eyes, Blush, Belt, Pantyhose, Joon Yorigami, SuSan Touhou, Rin Kaenbyou, Alice Margatroid, Lantern, Yukari Yakumo, Black  White, Seija Kijin, Toyosatomimi no Miko, Star Sapphire, Wings, Sunbeam, Nitori Kawashiro, Leaf, Yuki Touhou, Mystia Lorelei, Wriggle Nightbug, Headband, Shanghai Doll, Yuyuko Saigyouji, Nazrin Touhou, Luna Child, Grey Eyes, Kasen Ibaraki, Sakuya Izayoi, Steampunk, Touhou, Sakura Blossom, Pillow, Eternity Larva, Night, Snow, Fujiwara no Mokou, Uniform, Soga no Tojiko, Medicine Melancholy, Yuugi Hoshiguma, Remilia Scarlet, Bubble, Shion Yorigami, Anime, Yatsuhashi Tsukumo, Hourai Touhou, Tokiko Touhou, Coat, Shinmyoumaru Sukuna, Youmu Konpaku, Samurai, Koishi Komeiji, Yellow Eyes, Komachi Onozuka, Red Eyes, Myon Touhou, Dark, Cat, Suwako Moriya, Tewi Inaba, Orange Eyes, Hatate Himekaidou, Cherry Blossom, Kanako Yasaka, Kyouko Kasodani, Butterfly, Iku Nagae, Rinnosuke Morichika, Basket, Mai Touhou, Kana Anaberal, Byakuren Hijiri, Rikaku Asakura, Hong Meiling, bow Clothing, Short Hair, Lamp, Flower, Dress, Mononobe No Futo, Sanae Kochiya, Red Dress, Blue Dress, Nue Houjuu, Maid, Renko Usami, Yoshika Miyako, Assault Rifle, Blue Hair, Minoriko Aki, Aya Shameimaru, Sagume Kishin",
    "description": "Touhou",
    "link_thumb": "https://live.staticflickr.com/65535/48060789663_2f21fb67de_n.jpg",
    "id_album": "-1148832256",
    "total_view": 533
  },
  {
    "total_img": 718,
    "number_page": 4,
    "title": "Brown Hair",
    "tag": "Brown Hair,",
    "description": "Brown Hair",
    "link_thumb": "https://live.staticflickr.com/65535/48609891276_d6beb9cf73_n.jpg",
    "id_album": "119672248",
    "total_view": 718
  },
  {
    "total_img": 18,
    "number_page": 1,
    "title": "Kaguya Houraisan",
    "tag": "Kaguya Houraisan,",
    "description": "Kaguya Houraisan",
    "link_thumb": "https://live.staticflickr.com/65535/48062894173_99dca61405_n.jpg",
    "id_album": "528547277",
    "total_view": 18
  },
  {
    "total_img": 1729,
    "number_page": 9,
    "title": "Long Hair",
    "tag": "Long Hair,",
    "description": "Long Hair",
    "link_thumb": "https://live.staticflickr.com/65535/48066953706_2771a62522_n.jpg",
    "id_album": "186170098",
    "total_view": 1729
  }
]