[
  {
    "link_thumb": "https://live.staticflickr.com/65535/48065915198_e307a6fa7e_n.jpg",
    "id_album": "272039584",
    "description": "WhenTheyCry_146299",
    "title": "WhenTheyCry_146299",
    "link_img": "https://live.staticflickr.com/65535/48065915198_0dd2f0e076_o.jpg",
    "id_image": "WhenTheyCry_146299",
    "count_view": 0
  },
  {
    "link_thumb": "https://live.staticflickr.com/65535/48065915883_0d11629671_n.jpg",
    "id_album": "272039584",
    "description": "WhenTheyCry_146608",
    "title": "WhenTheyCry_146608",
    "link_img": "https://live.staticflickr.com/65535/48065915883_80126e0d2e_o.jpg",
    "id_image": "WhenTheyCry_146608",
    "count_view": 0
  },
  {
    "link_thumb": "https://live.staticflickr.com/65535/48065973017_659d078fb2_n.jpg",
    "id_album": "272039584",
    "description": "WhenTheyCry_197581",
    "title": "WhenTheyCry_197581",
    "link_img": "https://live.staticflickr.com/65535/48065973017_afbf9cf07b_o.jpg",
    "id_image": "WhenTheyCry_197581",
    "count_view": 0
  },
  {
    "link_thumb": "https://live.staticflickr.com/65535/48065880106_20323dc5d2_n.jpg",
    "id_album": "272039584",
    "description": "WhenTheyCry_630408",
    "title": "WhenTheyCry_630408",
    "link_img": "https://live.staticflickr.com/65535/48065880106_b4d9a4b3a4_o.jpg",
    "id_image": "WhenTheyCry_630408",
    "count_view": 0
  }
]