[
  {
    "link_thumb": "https://live.staticflickr.com/65535/47992788496_fcc98e5369_n.jpg",
    "id_album": "1622591748",
    "description": "GrimgarofFantasyandAsh_682451",
    "title": "GrimgarofFantasyandAsh_682451",
    "link_img": "https://live.staticflickr.com/65535/47992788496_8f4a2ea655_o.jpg",
    "id_image": "GrimgarofFantasyandAsh_682451",
    "count_view": 0
  },
  {
    "link_thumb": "https://live.staticflickr.com/65535/47992740912_9edb4f08ec_n.jpg",
    "id_album": "1622591748",
    "description": "GrimgarofFantasyandAsh_682452",
    "title": "GrimgarofFantasyandAsh_682452",
    "link_img": "https://live.staticflickr.com/65535/47992740912_c17ff93fe5_o.jpg",
    "id_image": "GrimgarofFantasyandAsh_682452",
    "count_view": 0
  },
  {
    "link_thumb": "https://live.staticflickr.com/65535/47992743533_4148f44c37_n.jpg",
    "id_album": "1622591748",
    "description": "GrimgarofFantasyandAsh_682462",
    "title": "GrimgarofFantasyandAsh_682462",
    "link_img": "https://live.staticflickr.com/65535/47992743533_0e65a21b24_o.jpg",
    "id_image": "GrimgarofFantasyandAsh_682462",
    "count_view": 0
  },
  {
    "link_thumb": "https://live.staticflickr.com/65535/47992744528_79245a3726_n.jpg",
    "id_album": "1622591748",
    "description": "GrimgarofFantasyandAsh_682465",
    "title": "GrimgarofFantasyandAsh_682465",
    "link_img": "https://live.staticflickr.com/65535/47992744528_dd6897ae6f_o.jpg",
    "id_image": "GrimgarofFantasyandAsh_682465",
    "count_view": 0
  },
  {
    "link_thumb": "https://live.staticflickr.com/65535/47992747743_836a4187bc_n.jpg",
    "id_album": "1622591748",
    "description": "GrimgarofFantasyandAsh_682483",
    "title": "GrimgarofFantasyandAsh_682483",
    "link_img": "https://live.staticflickr.com/65535/47992747743_a00cc4a602_o.jpg",
    "id_image": "GrimgarofFantasyandAsh_682483",
    "count_view": 0
  },
  {
    "link_thumb": "https://live.staticflickr.com/65535/47992747167_498c7747b4_n.jpg",
    "id_album": "1622591748",
    "description": "GrimgarofFantasyandAsh_682485",
    "title": "GrimgarofFantasyandAsh_682485",
    "link_img": "https://live.staticflickr.com/65535/47992747167_b166f323c7_o.jpg",
    "id_image": "GrimgarofFantasyandAsh_682485",
    "count_view": 0
  },
  {
    "link_thumb": "https://live.staticflickr.com/65535/47992753963_2e6eedccbd_n.jpg",
    "id_album": "1622591748",
    "description": "GrimgarofFantasyandAsh_682591",
    "title": "GrimgarofFantasyandAsh_682591",
    "link_img": "https://live.staticflickr.com/65535/47992753963_5972dfab48_o.jpg",
    "id_image": "GrimgarofFantasyandAsh_682591",
    "count_view": 0
  },
  {
    "link_thumb": "https://live.staticflickr.com/65535/47992802246_81a75a45d4_n.jpg",
    "id_album": "1622591748",
    "description": "GrimgarofFantasyandAsh_689560",
    "title": "GrimgarofFantasyandAsh_689560",
    "link_img": "https://live.staticflickr.com/65535/47992802246_65b8b78e41_o.jpg",
    "id_image": "GrimgarofFantasyandAsh_689560",
    "count_view": 0
  },
  {
    "link_thumb": "https://live.staticflickr.com/65535/47992802821_1da4342335_n.jpg",
    "id_album": "1622591748",
    "description": "GrimgarofFantasyandAsh_689562",
    "title": "GrimgarofFantasyandAsh_689562",
    "link_img": "https://live.staticflickr.com/65535/47992802821_887d26953a_o.jpg",
    "id_image": "GrimgarofFantasyandAsh_689562",
    "count_view": 0
  },
  {
    "link_thumb": "https://live.staticflickr.com/65535/47992756827_35e453fbc5_n.jpg",
    "id_album": "1622591748",
    "description": "GrimgarofFantasyandAsh_749950",
    "title": "GrimgarofFantasyandAsh_749950",
    "link_img": "https://live.staticflickr.com/65535/47992756827_edb3b2ffdc_o.jpg",
    "id_image": "GrimgarofFantasyandAsh_749950",
    "count_view": 0
  },
  {
    "link_thumb": "https://live.staticflickr.com/65535/47992805576_6c09958e24_n.jpg",
    "id_album": "1622591748",
    "description": "GrimgarofFantasyandAsh_787266",
    "title": "GrimgarofFantasyandAsh_787266",
    "link_img": "https://live.staticflickr.com/65535/47992805576_4464c0e01a_o.jpg",
    "id_image": "GrimgarofFantasyandAsh_787266",
    "count_view": 0
  },
  {
    "link_thumb": "https://live.staticflickr.com/65535/47992764278_d60208b3b6_n.jpg",
    "id_album": "1622591748",
    "description": "GrimgarofFantasyandAsh_960070",
    "title": "GrimgarofFantasyandAsh_960070",
    "link_img": "https://live.staticflickr.com/65535/47992764278_7281923fe3_o.jpg",
    "id_image": "GrimgarofFantasyandAsh_960070",
    "count_view": 0
  }
]