[
  {
    "total_img": 79,
    "number_page": 1,
    "title": "Kill La Kill",
    "tag": "Ira Gamagoori, Green Hair, Genderbend, Black Hair, Minimalist, Uzu Sanageyama, White Dress, Wound, Blood, Long Hair, Blonde, Twintails, Eye, Nonon Jakuzure, Thigh Highs, Rain, Anime, Sword, Nui Harime, Kill La Kill, Short Hair, TwoToned Hair, Flame, Glove, Original Anime, Dress, Hoka Inumuta, Houka Inumuta, Red Dress, Mako Mankanshoku, Pink Eyes, School Uniform, Pink Hair, Blade, Smile, Aqua Eyes, Skirt, Blue Eyes, Aikuro Mikisugi, Blue Hair, Senketsu Kill la Kill, Boots, Lying Down, Ryuko Matoi, Hat, Tsumugu Kinagase, Satsuki Kiryuin, Tears",
    "description": "Kill La Kill",
    "link_thumb": "https://live.staticflickr.com/65535/48047830561_ba1eaa6c7b_n.jpg",
    "id_album": "1058285257",
    "total_view": 79
  },
  {
    "total_img": 67,
    "number_page": 1,
    "title": "Aqua Eyes",
    "tag": "Aqua Eyes,",
    "description": "Aqua Eyes",
    "link_thumb": "https://live.staticflickr.com/65535/48066498592_45d83fb9bf_n.jpg",
    "id_album": "-287276594",
    "total_view": 67
  },
  {
    "total_img": 771,
    "number_page": 4,
    "title": "Blonde",
    "tag": "Blonde,",
    "description": "Blonde",
    "link_thumb": "https://live.staticflickr.com/65535/48066912028_16d8f475b6_n.jpg",
    "id_album": "-768622073",
    "total_view": 771
  },
  {
    "total_img": 959,
    "number_page": 5,
    "title": "Blue Eyes",
    "tag": "Blue Eyes,",
    "description": "Blue Eyes",
    "link_thumb": "https://live.staticflickr.com/65535/48609891276_d6beb9cf73_n.jpg",
    "id_album": "737375568",
    "total_view": 959
  },
  {
    "total_img": 321,
    "number_page": 2,
    "title": "Blue Hair",
    "tag": "Blue Hair,",
    "description": "Blue Hair",
    "link_thumb": "https://live.staticflickr.com/65535/48066963397_8bc256f64f_n.jpg",
    "id_album": "-1193928153",
    "total_view": 321
  },
  {
    "total_img": 1729,
    "number_page": 9,
    "title": "Long Hair",
    "tag": "Long Hair,",
    "description": "Long Hair",
    "link_thumb": "https://live.staticflickr.com/65535/48066953706_2771a62522_n.jpg",
    "id_album": "186170098",
    "total_view": 1729
  },
  {
    "total_img": 2,
    "number_page": 1,
    "title": "Nui Harime",
    "tag": "Nui Harime,",
    "description": "Nui Harime",
    "link_thumb": "https://live.staticflickr.com/65535/48047972902_a74d4032b3_n.jpg",
    "id_album": "1422755798",
    "total_view": 2
  },
  {
    "total_img": 53,
    "number_page": 1,
    "title": "Ryuko Matoi",
    "tag": "Ryuko Matoi,",
    "description": "Ryuko Matoi",
    "link_thumb": "https://live.staticflickr.com/65535/48047983902_90299eb35f_n.jpg",
    "id_album": "1689177901",
    "total_view": 53
  },
  {
    "total_img": 21,
    "number_page": 1,
    "title": "Satsuki Kiryuin",
    "tag": "Satsuki Kiryuin,",
    "description": "Satsuki Kiryuin",
    "link_thumb": "https://live.staticflickr.com/65535/48047983902_90299eb35f_n.jpg",
    "id_album": "-1511525282",
    "total_view": 21
  },
  {
    "total_img": 436,
    "number_page": 3,
    "title": "School Uniform",
    "tag": "School Uniform,",
    "description": "School Uniform",
    "link_thumb": "https://live.staticflickr.com/65535/48066912028_16d8f475b6_n.jpg",
    "id_album": "873278772",
    "total_view": 436
  },
  {
    "total_img": 316,
    "number_page": 2,
    "title": "Twintails",
    "tag": "Twintails,",
    "description": "Twintails",
    "link_thumb": "https://live.staticflickr.com/65535/48066258522_1a2a958ca1_n.jpg",
    "id_album": "-916794598",
    "total_view": 316
  }
]