[
  {
    "total_img": 791,
    "number_page": 4,
    "title": "Girls Horns",
    "tag": "Girls Horns,",
    "description": "Girls Horns",
    "link_thumb": "https://live.staticflickr.com/65535/50151017648_00424987ab_n.jpg",
    "id_album": "-1468922705",
    "total_view": 791
  }
]