[
  {
    "total_img": 189,
    "number_page": 1,
    "title": "The Melancholy Of Haruhi Suzumiya",
    "tag": "Snow, Night, Taniguchi Haruhi, Stars, Tsuruya Haruhi, Shamisen Haruhi, Snowfall, Ryoko Asakura, Computer Research Society President, Long Hair, Itsuki Koizumi, Suzumiya Haruhi no Yuuutsu, Anime, Rosie the Riveter, The Melancholy of Haruhi Suzumiya, Winter, Ribbon, Teru teru bozu, Book, Melancholy of Haruhi Suzumiya, Short Hair, SOS Brigade Haruhi, Suzumiya Haruhi no Shoushitsu, Kunikida Haruhi, Yuki Nagato, Mikuru Asahina, Gun, Sasaki Haruhi, Purple Hair, Cute, Brown Eyes, Kyon Haruhi, Scarf, Yasumi Watahashi, Brown Hair, Haruhi Suzumiya, School Uniform, Yellow Eyes, The Melancholy Of Haruhi Suzumiya, Skirt, Kyons Sister Haruhi, Kyonko Haruhi, Emiri Kimidori, Cat, Glasses, The Creation of Adam",
    "description": "The Melancholy Of Haruhi Suzumiya",
    "link_thumb": "https://live.staticflickr.com/65535/48059852317_ab643e6e3c_n.jpg",
    "id_album": "2013093157",
    "total_view": 189
  },
  {
    "total_img": 363,
    "number_page": 2,
    "title": "Brown Eyes",
    "tag": "Brown Eyes,",
    "description": "Brown Eyes",
    "link_thumb": "https://live.staticflickr.com/65535/48609891276_d6beb9cf73_n.jpg",
    "id_album": "-346700115",
    "total_view": 363
  },
  {
    "total_img": 718,
    "number_page": 4,
    "title": "Brown Hair",
    "tag": "Brown Hair,",
    "description": "Brown Hair",
    "link_thumb": "https://live.staticflickr.com/65535/48609891276_d6beb9cf73_n.jpg",
    "id_album": "119672248",
    "total_view": 718
  },
  {
    "total_img": 95,
    "number_page": 1,
    "title": "Haruhi Suzumiya",
    "tag": "Haruhi Suzumiya,",
    "description": "Haruhi Suzumiya",
    "link_thumb": "https://live.staticflickr.com/65535/48059979458_ee8e16d144_n.jpg",
    "id_album": "-1642445997",
    "total_view": 95
  },
  {
    "total_img": 44,
    "number_page": 1,
    "title": "Mikuru Asahina",
    "tag": "Mikuru Asahina,",
    "description": "Mikuru Asahina",
    "link_thumb": "https://live.staticflickr.com/65535/48060028782_1ca2162b0f_n.jpg",
    "id_album": "274210639",
    "total_view": 44
  },
  {
    "total_img": 436,
    "number_page": 3,
    "title": "School Uniform",
    "tag": "School Uniform,",
    "description": "School Uniform",
    "link_thumb": "https://live.staticflickr.com/65535/48066912028_16d8f475b6_n.jpg",
    "id_album": "873278772",
    "total_view": 436
  },
  {
    "total_img": 900,
    "number_page": 5,
    "title": "Short Hair",
    "tag": "Short Hair,",
    "description": "Short Hair",
    "link_thumb": "https://live.staticflickr.com/65535/48066522393_1c85dd9992_n.jpg",
    "id_album": "1749242000",
    "total_view": 900
  },
  {
    "total_img": 354,
    "number_page": 2,
    "title": "Skirt",
    "tag": "Skirt,",
    "description": "Skirt",
    "link_thumb": "https://live.staticflickr.com/65535/48066953706_2771a62522_n.jpg",
    "id_album": "-1959065500",
    "total_view": 354
  },
  {
    "total_img": 89,
    "number_page": 1,
    "title": "Yuki Nagato",
    "tag": "Yuki Nagato,",
    "description": "Yuki Nagato",
    "link_thumb": "https://live.staticflickr.com/65535/48064207357_50f51674ee_n.jpg",
    "id_album": "-338247458",
    "total_view": 89
  }
]