[
  {
    "link_thumb": "https://live.staticflickr.com/65535/48059475713_3675162960_n.jpg",
    "id_album": "630696568",
    "description": "TheiDOLMSTER_312902",
    "title": "TheiDOLMSTER_312902",
    "link_img": "https://live.staticflickr.com/65535/48059475713_1f59284f51_o.jpg",
    "id_image": "TheiDOLMSTER_312902",
    "count_view": 0
  },
  {
    "link_thumb": "https://live.staticflickr.com/65535/48059508398_3242bce5bc_n.jpg",
    "id_album": "630696568",
    "description": "TheiDOLMSTER_538394",
    "title": "TheiDOLMSTER_538394",
    "link_img": "https://live.staticflickr.com/65535/48059508398_968d041f97_o.jpg",
    "id_image": "TheiDOLMSTER_538394",
    "count_view": 0
  },
  {
    "link_thumb": "https://live.staticflickr.com/65535/48059554398_2f1afd341d_n.jpg",
    "id_album": "630696568",
    "description": "TheiDOLMSTER_538716",
    "title": "TheiDOLMSTER_538716",
    "link_img": "https://live.staticflickr.com/65535/48059554398_11544e27d8_o.jpg",
    "id_image": "TheiDOLMSTER_538716",
    "count_view": 0
  },
  {
    "link_thumb": "https://live.staticflickr.com/65535/48059607683_f622c3159d_n.jpg",
    "id_album": "630696568",
    "description": "TheiDOLMSTER_620660",
    "title": "TheiDOLMSTER_620660",
    "link_img": "https://live.staticflickr.com/65535/48059607683_3d288a64b4_o.jpg",
    "id_image": "TheiDOLMSTER_620660",
    "count_view": 0
  },
  {
    "link_thumb": "https://live.staticflickr.com/65535/48059569821_8672c120aa_n.jpg",
    "id_album": "630696568",
    "description": "TheiDOLMSTER_620804",
    "title": "TheiDOLMSTER_620804",
    "link_img": "https://live.staticflickr.com/65535/48059569821_ce317c3e07_o.jpg",
    "id_image": "TheiDOLMSTER_620804",
    "count_view": 0
  },
  {
    "link_thumb": "https://live.staticflickr.com/65535/48059644343_0d60d3d4e9_n.jpg",
    "id_album": "630696568",
    "description": "TheiDOLMSTER_812448",
    "title": "TheiDOLMSTER_812448",
    "link_img": "https://live.staticflickr.com/65535/48059644343_2cbe841091_o.jpg",
    "id_image": "TheiDOLMSTER_812448",
    "count_view": 0
  },
  {
    "link_thumb": "https://live.staticflickr.com/65535/48059698077_d6fda5da9c_n.jpg",
    "id_album": "630696568",
    "description": "TheiDOLMSTER_843233",
    "title": "TheiDOLMSTER_843233",
    "link_img": "https://live.staticflickr.com/65535/48059698077_2904c06e4c_o.jpg",
    "id_image": "TheiDOLMSTER_843233",
    "count_view": 0
  },
  {
    "link_thumb": "https://live.staticflickr.com/65535/48059648898_3f8853e336_n.jpg",
    "id_album": "630696568",
    "description": "TheiDOLMSTER_843237",
    "title": "TheiDOLMSTER_843237",
    "link_img": "https://live.staticflickr.com/65535/48059648898_396b8cd9ec_o.jpg",
    "id_image": "TheiDOLMSTER_843237",
    "count_view": 0
  }
]