[
  {
    "total_img": 82,
    "number_page": 1,
    "title": "Yuru Yuri",
    "tag": "Himawari Furutani, Ayano Sugiura, Akari Akaza, School Uniform, Pink Hair, Yellow Eyes, Swimwear, Blonde, Long Hair, Sakurako Omuro, Hanako Omuro, Rise Matsumoto, Blue Eyes, Anime, Blue Hair, Chitose Ikeda, Yui Funami, Yuri, Yuru Yuri, Fall, YuriYuri, Kyoko Toshino, Chinatsu Yoshikawa",
    "description": "Yuru Yuri",
    "link_thumb": "https://live.staticflickr.com/65535/48066905523_9b41a839c4_n.jpg",
    "id_album": "-389894623",
    "total_view": 82
  },
  {
    "total_img": 12,
    "number_page": 1,
    "title": "Ayano Sugiura",
    "tag": "Ayano Sugiura,",
    "description": "Ayano Sugiura",
    "link_thumb": "https://live.staticflickr.com/65535/48066947108_885f311165_n.jpg",
    "id_album": "-1608801720",
    "total_view": 12
  }
]