[
  {
    "total_img": 16,
    "number_page": 1,
    "title": "Mote Sugite Shuraba na Ore",
    "tag": "Hagiwara Hinano, Shiho Kobayakawa, Mote Sugite Shuraba na Ore, Hinano Hagiwara, Aoi Kuonji, Hayato Niimura, Saki Katakura",
    "description": "Mote Sugite Shuraba na Ore",
    "link_thumb": "https://live.staticflickr.com/65535/48071213086_5b42f7b7c3_n.jpg",
    "id_album": "737455174",
    "total_view": 16
  },
  {
    "total_img": 5,
    "number_page": 1,
    "title": "Hinano Hagiwara",
    "tag": "Hinano Hagiwara,",
    "description": "Hinano Hagiwara",
    "link_thumb": "https://live.staticflickr.com/65535/48071322157_5b32d84116_n.jpg",
    "id_album": "1677285362",
    "total_view": 5
  }
]