[
  {
    "link_thumb": "https://live.staticflickr.com/65535/48092237672_b1ef5d4078_n.jpg",
    "id_album": "-435840145",
    "description": "Original_904151,[isSceneryArts],[Original 10],[Original10]",
    "title": "Original_904151",
    "link_img": "https://live.staticflickr.com/65535/48092237672_ce548a56c9_o.jpg",
    "id_image": "Original_904151",
    "count_view": 0
  },
  {
    "link_thumb": "https://live.staticflickr.com/65535/48092183263_f75e4dba2d_n.jpg",
    "id_album": "-435840145",
    "description": "Original_904248,[isGirlAnime],[isKimonoAnime],[Original 10],[Original10]",
    "title": "Original_904248",
    "link_img": "https://live.staticflickr.com/65535/48092183263_027189e4a4_o.jpg",
    "id_image": "Original_904248",
    "count_view": 0
  },
  {
    "link_thumb": "https://live.staticflickr.com/65535/48092183623_2f2a2c2a21_n.jpg",
    "id_album": "-435840145",
    "description": "Original_904252,[isGirlAnime],[isSadAnime],[isSadAnimeGirl],[isSceneryArts],[isCuteAnime],[Original 10],[Original10]",
    "title": "Original_904252",
    "link_img": "https://live.staticflickr.com/65535/48092183623_a1862d3ae0_o.jpg",
    "id_image": "Original_904252",
    "count_view": 0
  },
  {
    "link_thumb": "https://live.staticflickr.com/65535/48092184973_61d02d9e13_n.jpg",
    "id_album": "-435840145",
    "description": "Original_904289,[isGirlAnime],[isSadAnime],[isSadAnimeGirl],[isCuteAnime],[Original 10],[Original10]",
    "title": "Original_904289",
    "link_img": "https://live.staticflickr.com/65535/48092184973_6702853567_o.jpg",
    "id_image": "Original_904289",
    "count_view": 0
  },
  {
    "link_thumb": "https://live.staticflickr.com/65535/48092241892_40fefa1d3a_n.jpg",
    "id_album": "-435840145",
    "description": "Original_904413,[isGirlAnime],[isCuteAnime],[isGirlEarsNekoAnime],[isGirlsSharpCanineToothAnime],[isKimonoAnime],[Original 10],[Original10]",
    "title": "Original_904413",
    "link_img": "https://live.staticflickr.com/65535/48092241892_26943a3d28_o.jpg",
    "id_image": "Original_904413",
    "count_view": 0
  },
  {
    "link_thumb": "https://live.staticflickr.com/65535/48092146451_1b52e9552e_n.jpg",
    "id_album": "-435840145",
    "description": "Original_904556,[isGirlAnime],[isSadAnime],[isSadAnimeGirl],[isCuteAnime],[isGirlsHornsAnime],[Original 10],[Original10]",
    "title": "Original_904556",
    "link_img": "https://live.staticflickr.com/65535/48092146451_d5e03912a6_o.jpg",
    "id_image": "Original_904556",
    "count_view": 0
  },
  {
    "link_thumb": "https://live.staticflickr.com/65535/48092242882_e07d182db2_n.jpg",
    "id_album": "-435840145",
    "description": "Original_904559,[isBoyAnime],[isSadAnime],[isSadAnimeBoy],[isSceneryArts],[Original 10],[Original10]",
    "title": "Original_904559",
    "link_img": "https://live.staticflickr.com/65535/48092242882_21ff99a9b6_o.jpg",
    "id_image": "Original_904559",
    "count_view": 0
  },
  {
    "link_thumb": "https://live.staticflickr.com/65535/48092187703_a59867ddb0_n.jpg",
    "id_album": "-435840145",
    "description": "Original_904622,[isGirlAnime],[isSadAnime],[isSadAnimeGirl],[isCuteAnime],[isGirlsHatsHoodieAnime],[isGirlsLoliAnime],[Original 10],[Original10]",
    "title": "Original_904622",
    "link_img": "https://live.staticflickr.com/65535/48092187703_c4aeeced04_o.jpg",
    "id_image": "Original_904622",
    "count_view": 0
  },
  {
    "link_thumb": "https://live.staticflickr.com/65535/48092188153_a1696333e5_n.jpg",
    "id_album": "-435840145",
    "description": "Original_904638,[isGirlAnime],[isSadAnime],[isSadAnimeGirl],[isCuteAnime],[isGirlsHatsHoodieAnime],[Original 10],[Original10]",
    "title": "Original_904638",
    "link_img": "https://live.staticflickr.com/65535/48092188153_0fbd85034b_o.jpg",
    "id_image": "Original_904638",
    "count_view": 0
  },
  {
    "link_thumb": "https://live.staticflickr.com/65535/48092244557_9288392264_n.jpg",
    "id_album": "-435840145",
    "description": "Original_904640,[isGirlAnime],[isSadAnime],[isSadAnimeGirl],[isCuteAnime],[Original 10],[Original10]",
    "title": "Original_904640",
    "link_img": "https://live.staticflickr.com/65535/48092244557_9b4431226e_o.jpg",
    "id_image": "Original_904640",
    "count_view": 0
  },
  {
    "link_thumb": "https://live.staticflickr.com/65535/48092188698_99387a50f5_n.jpg",
    "id_album": "-435840145",
    "description": "Original_904641,[isGirlAnime],[isCuteAnime],[isGirlsHatsHoodieAnime],[isGirlsLoliAnime],[Original 10],[Original10]",
    "title": "Original_904641",
    "link_img": "https://live.staticflickr.com/65535/48092188698_5f31f92136_o.jpg",
    "id_image": "Original_904641",
    "count_view": 0
  },
  {
    "link_thumb": "https://live.staticflickr.com/65535/48092148556_05e4815b0a_n.jpg",
    "id_album": "-435840145",
    "description": "Original_904643,[isGirlAnime],[isBoyAnime],[isCuteAnime],[isGirlsLoliAnime],[Original 10],[Original10]",
    "title": "Original_904643",
    "link_img": "https://live.staticflickr.com/65535/48092148556_69204a14ec_o.jpg",
    "id_image": "Original_904643",
    "count_view": 0
  },
  {
    "link_thumb": "https://live.staticflickr.com/65535/48092189038_3e1a29a6ab_n.jpg",
    "id_album": "-435840145",
    "description": "Original_904644,[isGirlAnime],[isCuteAnime],[isGirlsLoliAnime],[Original 10],[Original10]",
    "title": "Original_904644",
    "link_img": "https://live.staticflickr.com/65535/48092189038_c46ec7f9bb_o.jpg",
    "id_image": "Original_904644",
    "count_view": 0
  },
  {
    "link_thumb": "https://live.staticflickr.com/65535/48092245297_f8cab2b78f_n.jpg",
    "id_album": "-435840145",
    "description": "Original_904645,[isGirlAnime],[isSadAnime],[isSadAnimeGirl],[isCuteAnime],[isGirlsLoliAnime],[Original 10],[Original10]",
    "title": "Original_904645",
    "link_img": "https://live.staticflickr.com/65535/48092245297_c64594d732_o.jpg",
    "id_image": "Original_904645",
    "count_view": 0
  },
  {
    "link_thumb": "https://live.staticflickr.com/65535/48092149171_2abf3a00c8_n.jpg",
    "id_album": "-435840145",
    "description": "Original_904646,[isGirlAnime],[isBoyAnime],[Original 10],[Original10]",
    "title": "Original_904646",
    "link_img": "https://live.staticflickr.com/65535/48092149171_2d8e7cf841_o.jpg",
    "id_image": "Original_904646",
    "count_view": 0
  },
  {
    "link_thumb": "https://live.staticflickr.com/65535/48092149411_a1044f6a58_n.jpg",
    "id_album": "-435840145",
    "description": "Original_904647,[isGirlAnime],[isSadAnime],[isSadAnimeGirl],[isCuteAnime],[isGirlsLoliAnime],[Original 10],[Original10]",
    "title": "Original_904647",
    "link_img": "https://live.staticflickr.com/65535/48092149411_934d34af20_o.jpg",
    "id_image": "Original_904647",
    "count_view": 0
  },
  {
    "link_thumb": "https://live.staticflickr.com/65535/48092246042_a710502f69_n.jpg",
    "id_album": "-435840145",
    "description": "Original_904648,[isGirlAnime],[isSadAnime],[isSadAnimeGirl],[isCuteAnime],[isGirlsLoliAnime],[Original 10],[Original10]",
    "title": "Original_904648",
    "link_img": "https://live.staticflickr.com/65535/48092246042_a6c14a3437_o.jpg",
    "id_image": "Original_904648",
    "count_view": 0
  },
  {
    "link_thumb": "https://live.staticflickr.com/65535/48092190173_0c9e4fb5b5_n.jpg",
    "id_album": "-435840145",
    "description": "Original_904649,[isGirlAnime],[isSadAnime],[isSadAnimeGirl],[isCuteAnime],[isGirlsLoliAnime],[Original 10],[Original10]",
    "title": "Original_904649",
    "link_img": "https://live.staticflickr.com/65535/48092190173_332a406fcf_o.jpg",
    "id_image": "Original_904649",
    "count_view": 0
  },
  {
    "link_thumb": "https://live.staticflickr.com/65535/48092246432_3a52950ab6_n.jpg",
    "id_album": "-435840145",
    "description": "Original_904650,[isGirlAnime],[isCuteAnime],[Original 10],[Original10]",
    "title": "Original_904650",
    "link_img": "https://live.staticflickr.com/65535/48092246432_7fbc2834c4_o.jpg",
    "id_image": "Original_904650",
    "count_view": 0
  },
  {
    "link_thumb": "https://live.staticflickr.com/65535/48092190643_2319f1a695_n.jpg",
    "id_album": "-435840145",
    "description": "Original_904651,[isGirlAnime],[isCuteAnime],[isGirlsLoliAnime],[Original 10],[Original10]",
    "title": "Original_904651",
    "link_img": "https://live.staticflickr.com/65535/48092190643_a4137667bc_o.jpg",
    "id_image": "Original_904651",
    "count_view": 0
  },
  {
    "link_thumb": "https://live.staticflickr.com/65535/48092150571_c63cf62eff_n.jpg",
    "id_album": "-435840145",
    "description": "Original_904652,[isGirlAnime],[isSadAnime],[isSadAnimeGirl],[isCuteAnime],[isGirlsLoliAnime],[Original 10],[Original10]",
    "title": "Original_904652",
    "link_img": "https://live.staticflickr.com/65535/48092150571_9cf7151791_o.jpg",
    "id_image": "Original_904652",
    "count_view": 0
  },
  {
    "link_thumb": "https://live.staticflickr.com/65535/48092191528_a56b7d156b_n.jpg",
    "id_album": "-435840145",
    "description": "Original_904859,[isGirlAnime],[isSadAnime],[isSadAnimeGirl],[isCuteAnime],[isGirlsLoliAnime],[Original 10],[Original10]",
    "title": "Original_904859",
    "link_img": "https://live.staticflickr.com/65535/48092191528_aa7e0ab495_o.jpg",
    "id_image": "Original_904859",
    "count_view": 0
  },
  {
    "link_thumb": "https://live.staticflickr.com/65535/48092151346_7bdf3b534a_n.jpg",
    "id_album": "-435840145",
    "description": "Original_904932,[isGirlAnime],[isSadAnime],[isSadAnimeGirl],[isSceneryArts],[isCuteAnime],[Original 10],[Original10]",
    "title": "Original_904932",
    "link_img": "https://live.staticflickr.com/65535/48092151346_22dd9dc1af_o.jpg",
    "id_image": "Original_904932",
    "count_view": 0
  },
  {
    "link_thumb": "https://live.staticflickr.com/65535/48092151826_a631a2d66f_n.jpg",
    "id_album": "-435840145",
    "description": "Original_904940,[isGirlAnime],[isSadAnime],[isSadAnimeGirl],[isCuteAnime],[isGirlsHatsHoodieAnime],[isGirlsHornsAnime],[isGirlsLoliAnime],[Original 10],[Original10]",
    "title": "Original_904940",
    "link_img": "https://live.staticflickr.com/65535/48092151826_ac97fe654c_o.jpg",
    "id_image": "Original_904940",
    "count_view": 0
  },
  {
    "link_thumb": "https://live.staticflickr.com/65535/48092152221_2226ce5da4_n.jpg",
    "id_album": "-435840145",
    "description": "Original_905125,[isGirlAnime],[isSadAnime],[isSadAnimeGirl],[isCuteAnime],[isGirlEarsNekoAnime],[Original 10],[Original10]",
    "title": "Original_905125",
    "link_img": "https://live.staticflickr.com/65535/48092152221_118a3b5e53_o.jpg",
    "id_image": "Original_905125",
    "count_view": 0
  },
  {
    "link_thumb": "https://live.staticflickr.com/65535/48092249162_992f7332e7_n.jpg",
    "id_album": "-435840145",
    "description": "Original_905130,[isGirlAnime],[isSadAnime],[isSadAnimeGirl],[isCuteAnime],[isKimonoAnime],[Original 10],[Original10]",
    "title": "Original_905130",
    "link_img": "https://live.staticflickr.com/65535/48092249162_568f9ec5db_o.jpg",
    "id_image": "Original_905130",
    "count_view": 0
  },
  {
    "link_thumb": "https://live.staticflickr.com/65535/48092153246_102d7b46dc_n.jpg",
    "id_album": "-435840145",
    "description": "Original_905133,[isGirlAnime],[isCuteAnime],[Original 10],[Original10]",
    "title": "Original_905133",
    "link_img": "https://live.staticflickr.com/65535/48092153246_85bf386229_o.jpg",
    "id_image": "Original_905133",
    "count_view": 0
  },
  {
    "link_thumb": "https://live.staticflickr.com/65535/48092193738_77cf9185f1_n.jpg",
    "id_album": "-435840145",
    "description": "Original_905134,[isGirlAnime],[isSadAnime],[isSadAnimeGirl],[isCuteAnime],[isGirlsLoliAnime],[Original 10],[Original10]",
    "title": "Original_905134",
    "link_img": "https://live.staticflickr.com/65535/48092193738_8707d7bdb3_o.jpg",
    "id_image": "Original_905134",
    "count_view": 0
  },
  {
    "link_thumb": "https://live.staticflickr.com/65535/48092194258_2c7ff3a9c0_n.jpg",
    "id_album": "-435840145",
    "description": "Original_905136,[isGirlAnime],[isSadAnime],[isSadAnimeGirl],[isCuteAnime],[isGirlsHatsHoodieAnime],[isGirlsLoliAnime],[Original 10],[Original10]",
    "title": "Original_905136",
    "link_img": "https://live.staticflickr.com/65535/48092194258_1f49882ed2_o.jpg",
    "id_image": "Original_905136",
    "count_view": 0
  },
  {
    "link_thumb": "https://live.staticflickr.com/65535/48092154136_fd1dfedb2d_n.jpg",
    "id_album": "-435840145",
    "description": "Original_905139,[isGirlAnime],[isSadAnime],[isSadAnimeGirl],[isCuteAnime],[isGirlsLoliAnime],[Original 10],[Original10]",
    "title": "Original_905139",
    "link_img": "https://live.staticflickr.com/65535/48092154136_422dbc61a9_o.jpg",
    "id_image": "Original_905139",
    "count_view": 0
  },
  {
    "link_thumb": "https://live.staticflickr.com/65535/48092250912_64f59dcc3a_n.jpg",
    "id_album": "-435840145",
    "description": "Original_905144,[isGirlAnime],[isSadAnime],[isSadAnimeGirl],[isCuteAnime],[isKimonoAnime],[Original 10],[Original10]",
    "title": "Original_905144",
    "link_img": "https://live.staticflickr.com/65535/48092250912_2f3bc192d2_o.jpg",
    "id_image": "Original_905144",
    "count_view": 0
  },
  {
    "link_thumb": "https://live.staticflickr.com/65535/48092194998_7471cdb502_n.jpg",
    "id_album": "-435840145",
    "description": "Original_905145,[isGirlAnime],[isSadAnime],[isSadAnimeGirl],[isCuteAnime],[isGirlsLoliAnime],[isGirlsSharpCanineToothAnime],[isKimonoAnime],[Original 10],[Original10]",
    "title": "Original_905145",
    "link_img": "https://live.staticflickr.com/65535/48092194998_d9af7eea14_o.jpg",
    "id_image": "Original_905145",
    "count_view": 0
  },
  {
    "link_thumb": "https://live.staticflickr.com/65535/48092195228_78ace48ded_n.jpg",
    "id_album": "-435840145",
    "description": "Original_905147,[isGirlAnime],[isSadAnime],[isSadAnimeGirl],[isCuteAnime],[Original 10],[Original10]",
    "title": "Original_905147",
    "link_img": "https://live.staticflickr.com/65535/48092195228_b1c6d5a529_o.jpg",
    "id_image": "Original_905147",
    "count_view": 0
  },
  {
    "link_thumb": "https://live.staticflickr.com/65535/48092251602_289ae421a8_n.jpg",
    "id_album": "-435840145",
    "description": "Original_905148,[isGirlAnime],[isSadAnime],[isSadAnimeGirl],[isCuteAnime],[Original 10],[Original10]",
    "title": "Original_905148",
    "link_img": "https://live.staticflickr.com/65535/48092251602_3286ee625a_o.jpg",
    "id_image": "Original_905148",
    "count_view": 0
  },
  {
    "link_thumb": "https://live.staticflickr.com/65535/48092251832_22e337c84e_n.jpg",
    "id_album": "-435840145",
    "description": "Original_905150,[isGirlAnime],[isSadAnime],[isSadAnimeGirl],[isCuteAnime],[isGirlsHatsHoodieAnime],[isGirlsLoliAnime],[Original 10],[Original10]",
    "title": "Original_905150",
    "link_img": "https://live.staticflickr.com/65535/48092251832_9e20bb7b93_o.jpg",
    "id_image": "Original_905150",
    "count_view": 0
  },
  {
    "link_thumb": "https://live.staticflickr.com/65535/48092155571_d6a5de471b_n.jpg",
    "id_album": "-435840145",
    "description": "Original_905151,[isGirlAnime],[isSadAnime],[isSadAnimeGirl],[isCuteAnime],[Original 10],[Original10]",
    "title": "Original_905151",
    "link_img": "https://live.staticflickr.com/65535/48092155571_d155cfe300_o.jpg",
    "id_image": "Original_905151",
    "count_view": 0
  },
  {
    "link_thumb": "https://live.staticflickr.com/65535/48092252317_b4a5882c76_n.jpg",
    "id_album": "-435840145",
    "description": "Original_905158,[isGirlAnime],[isSadAnime],[isSadAnimeGirl],[isCuteAnime],[Original 10],[Original10]",
    "title": "Original_905158",
    "link_img": "https://live.staticflickr.com/65535/48092252317_e4e540faf2_o.jpg",
    "id_image": "Original_905158",
    "count_view": 0
  },
  {
    "link_thumb": "https://live.staticflickr.com/65535/48092156006_f03bcb1184_n.jpg",
    "id_album": "-435840145",
    "description": "Original_905160,[isSceneryArts],[Original 10],[Original10]",
    "title": "Original_905160",
    "link_img": "https://live.staticflickr.com/65535/48092156006_3ea93ddc8d_o.jpg",
    "id_image": "Original_905160",
    "count_view": 0
  },
  {
    "link_thumb": "https://live.staticflickr.com/65535/48092253547_76fb473854_n.jpg",
    "id_album": "-435840145",
    "description": "Original_905226,[isSceneryArts],[Original 10],[Original10]",
    "title": "Original_905226",
    "link_img": "https://live.staticflickr.com/65535/48092253547_43228171bd_o.jpg",
    "id_image": "Original_905226",
    "count_view": 0
  },
  {
    "link_thumb": "https://live.staticflickr.com/65535/48092253727_9ef7ec7d5e_n.jpg",
    "id_album": "-435840145",
    "description": "Original_905228,[isSceneryArts],[Original 10],[Original10]",
    "title": "Original_905228",
    "link_img": "https://live.staticflickr.com/65535/48092253727_43ef808912_o.jpg",
    "id_image": "Original_905228",
    "count_view": 0
  },
  {
    "link_thumb": "https://live.staticflickr.com/65535/48092197898_c1ba2c038f_n.jpg",
    "id_album": "-435840145",
    "description": "Original_905238,[isGirlAnime],[isSadAnime],[isSadAnimeGirl],[isCuteAnime],[Original 10],[Original10]",
    "title": "Original_905238",
    "link_img": "https://live.staticflickr.com/65535/48092197898_4c00e63b14_o.jpg",
    "id_image": "Original_905238",
    "count_view": 0
  },
  {
    "link_thumb": "https://live.staticflickr.com/65535/48092157936_86de73f819_n.jpg",
    "id_album": "-435840145",
    "description": "Original_905253,[isBoyAnime],[isSadAnime],[isSadAnimeBoy],[isSceneryArts],[Original 10],[Original10]",
    "title": "Original_905253",
    "link_img": "https://live.staticflickr.com/65535/48092157936_50342f7142_o.jpg",
    "id_image": "Original_905253",
    "count_view": 0
  },
  {
    "link_thumb": "https://live.staticflickr.com/65535/48092254552_bc5cfa62b1_n.jpg",
    "id_album": "-435840145",
    "description": "Original_905265,[isSceneryArts],[Original 10],[Original10]",
    "title": "Original_905265",
    "link_img": "https://live.staticflickr.com/65535/48092254552_74411ece92_o.jpg",
    "id_image": "Original_905265",
    "count_view": 0
  },
  {
    "link_thumb": "https://live.staticflickr.com/65535/48092198643_884b5b40ce_n.jpg",
    "id_album": "-435840145",
    "description": "Original_905271,[isSceneryArts],[Original 10],[Original10]",
    "title": "Original_905271",
    "link_img": "https://live.staticflickr.com/65535/48092198643_5ed831c2ba_o.jpg",
    "id_image": "Original_905271",
    "count_view": 0
  },
  {
    "link_thumb": "https://live.staticflickr.com/65535/48092159206_2a7f46a2af_n.jpg",
    "id_album": "-435840145",
    "description": "Original_905373,[isGirlAnime],[isSadAnime],[isSadAnimeGirl],[isCuteAnime],[isGirlEarsNekoAnime],[isGirlsLoliAnime],[Original 10],[Original10]",
    "title": "Original_905373",
    "link_img": "https://live.staticflickr.com/65535/48092159206_c427b38309_o.jpg",
    "id_image": "Original_905373",
    "count_view": 0
  },
  {
    "link_thumb": "https://live.staticflickr.com/65535/48092200043_03dc401f4d_n.jpg",
    "id_album": "-435840145",
    "description": "Original_905378,[isSceneryArts],[Original 10],[Original10]",
    "title": "Original_905378",
    "link_img": "https://live.staticflickr.com/65535/48092200043_8d13330715_o.jpg",
    "id_image": "Original_905378",
    "count_view": 0
  },
  {
    "link_thumb": "https://live.staticflickr.com/65535/48092256707_6fc85a08af_n.jpg",
    "id_album": "-435840145",
    "description": "Original_905462,[isGirlAnime],[isSadAnime],[isSadAnimeGirl],[isCuteAnime],[Original 10],[Original10]",
    "title": "Original_905462",
    "link_img": "https://live.staticflickr.com/65535/48092256707_564a4ecdc5_o.jpg",
    "id_image": "Original_905462",
    "count_view": 0
  },
  {
    "link_thumb": "https://live.staticflickr.com/65535/48092256917_431e5bdc0d_n.jpg",
    "id_album": "-435840145",
    "description": "Original_905498,[isGirlAnime],[isSadAnime],[isSadAnimeGirl],[isCuteAnime],[Original 10],[Original10]",
    "title": "Original_905498",
    "link_img": "https://live.staticflickr.com/65535/48092256917_a766137749_o.jpg",
    "id_image": "Original_905498",
    "count_view": 0
  },
  {
    "link_thumb": "https://live.staticflickr.com/65535/48092201158_1f14dcf35d_n.jpg",
    "id_album": "-435840145",
    "description": "Original_905626,[isSceneryArts],[Original 10],[Original10]",
    "title": "Original_905626",
    "link_img": "https://live.staticflickr.com/65535/48092201158_a3124a5931_o.jpg",
    "id_image": "Original_905626",
    "count_view": 0
  },
  {
    "link_thumb": "https://live.staticflickr.com/65535/48092257377_529bb28cfc_n.jpg",
    "id_album": "-435840145",
    "description": "Original_905636,[isGirlAnime],[isSadAnime],[isSadAnimeGirl],[isCuteAnime],[Original 10],[Original10]",
    "title": "Original_905636",
    "link_img": "https://live.staticflickr.com/65535/48092257377_9dd7b769be_o.jpg",
    "id_image": "Original_905636",
    "count_view": 0
  },
  {
    "link_thumb": "https://live.staticflickr.com/65535/48092257597_73a2533dd1_n.jpg",
    "id_album": "-435840145",
    "description": "Original_905637,[isGirlAnime],[isCuteAnime],[Original 10],[Original10]",
    "title": "Original_905637",
    "link_img": "https://live.staticflickr.com/65535/48092257597_1476f47ec8_o.jpg",
    "id_image": "Original_905637",
    "count_view": 0
  },
  {
    "link_thumb": "https://live.staticflickr.com/65535/48092161561_fc1be4cf37_n.jpg",
    "id_album": "-435840145",
    "description": "Original_905638,[isGirlAnime],[isSadAnime],[isSadAnimeGirl],[isCuteAnime],[Original 10],[Original10]",
    "title": "Original_905638",
    "link_img": "https://live.staticflickr.com/65535/48092161561_71ffcd762a_o.jpg",
    "id_image": "Original_905638",
    "count_view": 0
  },
  {
    "link_thumb": "https://live.staticflickr.com/65535/48092161931_710777a641_n.jpg",
    "id_album": "-435840145",
    "description": "Original_905644,[isSceneryArts],[Original 10],[Original10]",
    "title": "Original_905644",
    "link_img": "https://live.staticflickr.com/65535/48092161931_2d12fff72e_o.jpg",
    "id_image": "Original_905644",
    "count_view": 0
  },
  {
    "link_thumb": "https://live.staticflickr.com/65535/48092162181_c7f2bb9e52_n.jpg",
    "id_album": "-435840145",
    "description": "Original_905646,[isSceneryArts],[Original 10],[Original10]",
    "title": "Original_905646",
    "link_img": "https://live.staticflickr.com/65535/48092162181_57e6bf8af4_o.jpg",
    "id_image": "Original_905646",
    "count_view": 0
  },
  {
    "link_thumb": "https://live.staticflickr.com/65535/48092162816_bb1dc7d2a9_n.jpg",
    "id_album": "-435840145",
    "description": "Original_905648,[isSceneryArts],[Original 10],[Original10]",
    "title": "Original_905648",
    "link_img": "https://live.staticflickr.com/65535/48092162816_c8fe1929e6_o.jpg",
    "id_image": "Original_905648",
    "count_view": 0
  },
  {
    "link_thumb": "https://live.staticflickr.com/65535/48092163021_11496d9028_n.jpg",
    "id_album": "-435840145",
    "description": "Original_905649,[isSceneryArts],[Original 10],[Original10]",
    "title": "Original_905649",
    "link_img": "https://live.staticflickr.com/65535/48092163021_5ab8517d1d_o.jpg",
    "id_image": "Original_905649",
    "count_view": 0
  },
  {
    "link_thumb": "https://live.staticflickr.com/65535/48092203598_aa617fa546_n.jpg",
    "id_album": "-435840145",
    "description": "Original_905651,[isGirlAnime],[isSadAnime],[isSadAnimeGirl],[isCuteAnime],[Original 10],[Original10]",
    "title": "Original_905651",
    "link_img": "https://live.staticflickr.com/65535/48092203598_5763081e5a_o.jpg",
    "id_image": "Original_905651",
    "count_view": 0
  },
  {
    "link_thumb": "https://live.staticflickr.com/65535/48092203873_5aa93105db_n.jpg",
    "id_album": "-435840145",
    "description": "Original_905652,[isGirlAnime],[isBoyAnime],[isSceneryArts],[Original 10],[Original10]",
    "title": "Original_905652",
    "link_img": "https://live.staticflickr.com/65535/48092203873_bdb1eaa16c_o.jpg",
    "id_image": "Original_905652",
    "count_view": 0
  },
  {
    "link_thumb": "https://live.staticflickr.com/65535/48092164116_c46d313fc8_n.jpg",
    "id_album": "-435840145",
    "description": "Original_905763,[isGirlAnime],[isCuteAnime],[isGirlsLoliAnime],[isGirlsSharpCanineToothAnime],[Original 10],[Original10]",
    "title": "Original_905763",
    "link_img": "https://live.staticflickr.com/65535/48092164116_c2eea6ea83_o.jpg",
    "id_image": "Original_905763",
    "count_view": 0
  },
  {
    "link_thumb": "https://live.staticflickr.com/65535/48092164321_6f1ed9b894_n.jpg",
    "id_album": "-435840145",
    "description": "Original_905791,[isGirlAnime],[isCuteAnime],[isGirlsHatsHoodieAnime],[isGirlsLoliAnime],[Original 10],[Original10]",
    "title": "Original_905791",
    "link_img": "https://live.staticflickr.com/65535/48092164321_5360353458_o.jpg",
    "id_image": "Original_905791",
    "count_view": 0
  },
  {
    "link_thumb": "https://live.staticflickr.com/65535/48092260972_8513ed6350_n.jpg",
    "id_album": "-435840145",
    "description": "Original_905794,[isGirlAnime],[isCuteAnime],[Original 10],[Original10]",
    "title": "Original_905794",
    "link_img": "https://live.staticflickr.com/65535/48092260972_7eef137a53_o.jpg",
    "id_image": "Original_905794",
    "count_view": 0
  },
  {
    "link_thumb": "https://live.staticflickr.com/65535/48092261212_5b0be76358_n.jpg",
    "id_album": "-435840145",
    "description": "Original_905795,[isGirlAnime],[isCuteAnime],[isKimonoAnime],[Original 10],[Original10]",
    "title": "Original_905795",
    "link_img": "https://live.staticflickr.com/65535/48092261212_2386c59204_o.jpg",
    "id_image": "Original_905795",
    "count_view": 0
  },
  {
    "link_thumb": "https://live.staticflickr.com/65535/48092261437_1ca8ae62d6_n.jpg",
    "id_album": "-435840145",
    "description": "Original_905796,[isGirlAnime],[isSadAnime],[isSadAnimeGirl],[isCuteAnime],[isGirlsLoliAnime],[Original 10],[Original10]",
    "title": "Original_905796",
    "link_img": "https://live.staticflickr.com/65535/48092261437_c549040912_o.jpg",
    "id_image": "Original_905796",
    "count_view": 0
  },
  {
    "link_thumb": "https://live.staticflickr.com/65535/48092263097_f32887dca2_n.jpg",
    "id_album": "-435840145",
    "description": "Original_905808,[isGirlAnime],[isSadAnime],[isSadAnimeGirl],[isCuteAnime],[Original 10],[Original10]",
    "title": "Original_905808",
    "link_img": "https://live.staticflickr.com/65535/48092263097_861a648961_o.jpg",
    "id_image": "Original_905808",
    "count_view": 0
  },
  {
    "link_thumb": "https://live.staticflickr.com/65535/48092207613_e96012035a_n.jpg",
    "id_album": "-435840145",
    "description": "Original_905818,[isGirlAnime],[isSadAnime],[isSadAnimeGirl],[isSceneryArts],[isCuteAnime],[isGirlsLoliAnime],[isBlackAnime],[Original 10],[Original10]",
    "title": "Original_905818",
    "link_img": "https://live.staticflickr.com/65535/48092207613_473644fc71_o.jpg",
    "id_image": "Original_905818",
    "count_view": 0
  },
  {
    "link_thumb": "https://live.staticflickr.com/65535/48092264192_0e625edc16_n.jpg",
    "id_album": "-435840145",
    "description": "Original_905821,[isSceneryArts],[Original 10],[Original10]",
    "title": "Original_905821",
    "link_img": "https://live.staticflickr.com/65535/48092264192_77b871483a_o.jpg",
    "id_image": "Original_905821",
    "count_view": 0
  },
  {
    "link_thumb": "https://live.staticflickr.com/65535/48092264502_bf95284035_n.jpg",
    "id_album": "-435840145",
    "description": "Original_905822,[isGirlAnime],[isSadAnime],[isSadAnimeGirl],[Original 10],[Original10]",
    "title": "Original_905822",
    "link_img": "https://live.staticflickr.com/65535/48092264502_fa74a35e88_o.jpg",
    "id_image": "Original_905822",
    "count_view": 0
  },
  {
    "link_thumb": "https://live.staticflickr.com/65535/48092209033_960c48dab0_n.jpg",
    "id_album": "-435840145",
    "description": "Original_905841,[isGirlAnime],[isSadAnime],[isSadAnimeGirl],[isCuteAnime],[Original 10],[Original10]",
    "title": "Original_905841",
    "link_img": "https://live.staticflickr.com/65535/48092209033_f23f5278f9_o.jpg",
    "id_image": "Original_905841",
    "count_view": 0
  },
  {
    "link_thumb": "https://live.staticflickr.com/65535/48092265302_794e297f1c_n.jpg",
    "id_album": "-435840145",
    "description": "Original_905843,[isGirlAnime],[isSadAnime],[isSadAnimeGirl],[isCuteAnime],[Original 10],[Original10]",
    "title": "Original_905843",
    "link_img": "https://live.staticflickr.com/65535/48092265302_0f713b8fbc_o.jpg",
    "id_image": "Original_905843",
    "count_view": 0
  },
  {
    "link_thumb": "https://live.staticflickr.com/65535/48092209823_f78139ebbf_n.jpg",
    "id_album": "-435840145",
    "description": "Original_905958,[isGirlAnime],[isSadAnime],[isSadAnimeGirl],[isCuteAnime],[Original 10],[Original10]",
    "title": "Original_905958",
    "link_img": "https://live.staticflickr.com/65535/48092209823_4e172f9b6d_o.jpg",
    "id_image": "Original_905958",
    "count_view": 0
  },
  {
    "link_thumb": "https://live.staticflickr.com/65535/48092211503_7c90faa3a6_n.jpg",
    "id_album": "-435840145",
    "description": "Original_905994,[isGirlAnime],[isSadAnime],[isSadAnimeGirl],[isCuteAnime],[isGirlsHatsHoodieAnime],[Original 10],[Original10]",
    "title": "Original_905994",
    "link_img": "https://live.staticflickr.com/65535/48092211503_61525297d2_o.jpg",
    "id_image": "Original_905994",
    "count_view": 0
  },
  {
    "link_thumb": "https://live.staticflickr.com/65535/48092212388_771f4c727e_n.jpg",
    "id_album": "-435840145",
    "description": "Original_906006,[isGirlAnime],[isSadAnime],[isSadAnimeGirl],[isCuteAnime],[isGirlsHatsHoodieAnime],[isGirlsLoliAnime],[Original 10],[Original10]",
    "title": "Original_906006",
    "link_img": "https://live.staticflickr.com/65535/48092212388_cef0e080ee_o.jpg",
    "id_image": "Original_906006",
    "count_view": 0
  },
  {
    "link_thumb": "https://live.staticflickr.com/65535/48092212603_c400aa4f38_n.jpg",
    "id_album": "-435840145",
    "description": "Original_906014,[isSceneryArts],[Original 10],[Original10]",
    "title": "Original_906014",
    "link_img": "https://live.staticflickr.com/65535/48092212603_5cd352ef96_o.jpg",
    "id_image": "Original_906014",
    "count_view": 0
  },
  {
    "link_thumb": "https://live.staticflickr.com/65535/48092174211_677f70c83e_n.jpg",
    "id_album": "-435840145",
    "description": "Original_906147,[isGirlAnime],[isSadAnime],[isSadAnimeGirl],[isCuteAnime],[isGirlsLoliAnime],[Original 10],[Original10]",
    "title": "Original_906147",
    "link_img": "https://live.staticflickr.com/65535/48092174211_a37bdffba5_o.jpg",
    "id_image": "Original_906147",
    "count_view": 0
  },
  {
    "link_thumb": "https://live.staticflickr.com/65535/48092214183_f9393482b6_n.jpg",
    "id_album": "-435840145",
    "description": "Original_906152,[isGirlAnime],[isBoyAnime],[isCoupleAnime],[Original 10],[Original10]",
    "title": "Original_906152",
    "link_img": "https://live.staticflickr.com/65535/48092214183_a9c95c29c0_o.jpg",
    "id_image": "Original_906152",
    "count_view": 0
  },
  {
    "link_thumb": "https://live.staticflickr.com/65535/48092174821_44e6f0c85a_n.jpg",
    "id_album": "-435840145",
    "description": "Original_906154,[isGirlAnime],[isSadAnime],[isSadAnimeGirl],[isCuteAnime],[Original 10],[Original10]",
    "title": "Original_906154",
    "link_img": "https://live.staticflickr.com/65535/48092174821_fa882789b1_o.jpg",
    "id_image": "Original_906154",
    "count_view": 0
  },
  {
    "link_thumb": "https://live.staticflickr.com/65535/48092271987_171aac9b09_n.jpg",
    "id_album": "-435840145",
    "description": "Original_906261,[isGirlAnime],[isSadAnime],[isSadAnimeGirl],[isCuteAnime],[isGirlsLoliAnime],[Original 10],[Original10]",
    "title": "Original_906261",
    "link_img": "https://live.staticflickr.com/65535/48092271987_77264d2e3d_o.jpg",
    "id_image": "Original_906261",
    "count_view": 0
  },
  {
    "link_thumb": "https://live.staticflickr.com/65535/48092272227_9792e31731_n.jpg",
    "id_album": "-435840145",
    "description": "Original_906267,[isGirlAnime],[isSadAnime],[isSadAnimeGirl],[isCuteAnime],[isGirlsLoliAnime],[Original 10],[Original10]",
    "title": "Original_906267",
    "link_img": "https://live.staticflickr.com/65535/48092272227_506ddd11a0_o.jpg",
    "id_image": "Original_906267",
    "count_view": 0
  },
  {
    "link_thumb": "https://live.staticflickr.com/65535/48092176881_c920cbe718_n.jpg",
    "id_album": "-435840145",
    "description": "Original_906272,[isGirlAnime],[isSadAnime],[isSadAnimeGirl],[isCuteAnime],[Original 10],[Original10]",
    "title": "Original_906272",
    "link_img": "https://live.staticflickr.com/65535/48092176881_6d8aa9b043_o.jpg",
    "id_image": "Original_906272",
    "count_view": 0
  },
  {
    "link_thumb": "https://live.staticflickr.com/65535/48092177806_6c3c73694a_n.jpg",
    "id_album": "-435840145",
    "description": "Original_906359,[isGirlAnime],[isSadAnime],[isSadAnimeGirl],[isCuteAnime],[Original 10],[Original10]",
    "title": "Original_906359",
    "link_img": "https://live.staticflickr.com/65535/48092177806_83321d0f23_o.jpg",
    "id_image": "Original_906359",
    "count_view": 0
  },
  {
    "link_thumb": "https://live.staticflickr.com/65535/48092178076_4b859c6ba7_n.jpg",
    "id_album": "-435840145",
    "description": "Original_906360,[isGirlAnime],[isSadAnime],[isSadAnimeGirl],[isCuteAnime],[Original 10],[Original10]",
    "title": "Original_906360",
    "link_img": "https://live.staticflickr.com/65535/48092178076_fb25d78565_o.jpg",
    "id_image": "Original_906360",
    "count_view": 0
  },
  {
    "link_thumb": "https://live.staticflickr.com/65535/48092274492_e6f3d543fb_n.jpg",
    "id_album": "-435840145",
    "description": "Original_906365,[isGirlAnime],[isSadAnime],[isSadAnimeGirl],[isCuteAnime],[Original 10],[Original10]",
    "title": "Original_906365",
    "link_img": "https://live.staticflickr.com/65535/48092274492_4f11dab98f_o.jpg",
    "id_image": "Original_906365",
    "count_view": 0
  },
  {
    "link_thumb": "https://live.staticflickr.com/65535/48092178881_da7b67aa13_n.jpg",
    "id_album": "-435840145",
    "description": "Original_906367,[isGirlAnime],[isSadAnime],[isSadAnimeGirl],[isCuteAnime],[isGirlEarsNekoAnime],[Original 10],[Original10]",
    "title": "Original_906367",
    "link_img": "https://live.staticflickr.com/65535/48092178881_955bed2cdd_o.jpg",
    "id_image": "Original_906367",
    "count_view": 0
  },
  {
    "link_thumb": "https://live.staticflickr.com/65535/48092179991_074671e484_n.jpg",
    "id_album": "-435840145",
    "description": "Original_906570,[isGirlAnime],[isSadAnime],[isSadAnimeGirl],[isCuteAnime],[isGirlsLoliAnime],[Original 10],[Original10]",
    "title": "Original_906570",
    "link_img": "https://live.staticflickr.com/65535/48092179991_b18ff638b4_o.jpg",
    "id_image": "Original_906570",
    "count_view": 0
  },
  {
    "link_thumb": "https://live.staticflickr.com/65535/48092180311_9bfc3a983b_n.jpg",
    "id_album": "-435840145",
    "description": "Original_906583,[isGirlAnime],[isSadAnime],[isSadAnimeGirl],[isSceneryArts],[isCuteAnime],[Original 10],[Original10]",
    "title": "Original_906583",
    "link_img": "https://live.staticflickr.com/65535/48092180311_ae5e0fce1a_o.jpg",
    "id_image": "Original_906583",
    "count_view": 0
  },
  {
    "link_thumb": "https://live.staticflickr.com/65535/48092180866_5f51bd18fa_n.jpg",
    "id_album": "-435840145",
    "description": "Original_906586,[isGirlAnime],[isSadAnime],[isSadAnimeGirl],[isCuteAnime],[Original 10],[Original10]",
    "title": "Original_906586",
    "link_img": "https://live.staticflickr.com/65535/48092180866_4112ebd6c7_o.jpg",
    "id_image": "Original_906586",
    "count_view": 0
  },
  {
    "link_thumb": "https://live.staticflickr.com/65535/48092181731_b006cd392a_n.jpg",
    "id_album": "-435840145",
    "description": "Original_906961,[isGirlAnime],[isSadAnime],[isSadAnimeGirl],[isCuteAnime],[Original 10],[Original10]",
    "title": "Original_906961",
    "link_img": "https://live.staticflickr.com/65535/48092181731_763ef1e67f_o.jpg",
    "id_image": "Original_906961",
    "count_view": 0
  },
  {
    "link_thumb": "https://live.staticflickr.com/65535/48092181951_fa71b952a8_n.jpg",
    "id_album": "-435840145",
    "description": "Original_906965,[isGirlAnime],[isSadAnime],[isSadAnimeGirl],[isSceneryArts],[isCuteAnime],[Original 10],[Original10]",
    "title": "Original_906965",
    "link_img": "https://live.staticflickr.com/65535/48092181951_f92f373753_o.jpg",
    "id_image": "Original_906965",
    "count_view": 0
  },
  {
    "link_thumb": "https://live.staticflickr.com/65535/48092278462_d3a34b0e37_n.jpg",
    "id_album": "-435840145",
    "description": "Original_907025,[isGirlAnime],[isSadAnime],[isSadAnimeGirl],[isCuteAnime],[isGirlsLoliAnime],[Original 10],[Original10]",
    "title": "Original_907025",
    "link_img": "https://live.staticflickr.com/65535/48092278462_058b9010fb_o.jpg",
    "id_image": "Original_907025",
    "count_view": 0
  },
  {
    "link_thumb": "https://live.staticflickr.com/65535/48092183296_a53b8e4b6f_n.jpg",
    "id_album": "-435840145",
    "description": "Original_907107,[isGirlAnime],[isSadAnime],[isSadAnimeGirl],[isCuteAnime],[isGirlEarsNekoAnime],[isGirlsHornsAnime],[isGirlsLoliAnime],[Original 10],[Original10]",
    "title": "Original_907107",
    "link_img": "https://live.staticflickr.com/65535/48092183296_eb566cf542_o.jpg",
    "id_image": "Original_907107",
    "count_view": 0
  },
  {
    "link_thumb": "https://live.staticflickr.com/65535/48092223088_be070297fb_n.jpg",
    "id_album": "-435840145",
    "description": "Original_907158,[isSceneryArts],[Original 10],[Original10]",
    "title": "Original_907158",
    "link_img": "https://live.staticflickr.com/65535/48092223088_65b9e15103_o.jpg",
    "id_image": "Original_907158",
    "count_view": 0
  },
  {
    "link_thumb": "https://live.staticflickr.com/65535/48092225088_30c7e80bd7_n.jpg",
    "id_album": "-435840145",
    "description": "Original_907181,[isSceneryArts],[Original 10],[Original10]",
    "title": "Original_907181",
    "link_img": "https://live.staticflickr.com/65535/48092225088_ed4cf71f19_o.jpg",
    "id_image": "Original_907181",
    "count_view": 0
  },
  {
    "link_thumb": "https://live.staticflickr.com/65535/48092226548_eb4cf1e999_n.jpg",
    "id_album": "-435840145",
    "description": "Original_907217,[isGirlAnime],[isSadAnime],[isSadAnimeGirl],[isCuteAnime],[Original 10],[Original10]",
    "title": "Original_907217",
    "link_img": "https://live.staticflickr.com/65535/48092226548_17a9e68c7f_o.jpg",
    "id_image": "Original_907217",
    "count_view": 0
  },
  {
    "link_thumb": "https://live.staticflickr.com/65535/48092188111_9c825c7ace_n.jpg",
    "id_album": "-435840145",
    "description": "Original_907295,[isGirlAnime],[isSadAnime],[isSadAnimeGirl],[isSceneryArts],[isCuteAnime],[Original 10],[Original10]",
    "title": "Original_907295",
    "link_img": "https://live.staticflickr.com/65535/48092188111_463e15a1ab_o.jpg",
    "id_image": "Original_907295",
    "count_view": 0
  },
  {
    "link_thumb": "https://live.staticflickr.com/65535/48092284512_14c9d3d86a_n.jpg",
    "id_album": "-435840145",
    "description": "Original_907317,[isGirlAnime],[isSadAnime],[isSadAnimeGirl],[isCuteAnime],[Original 10],[Original10]",
    "title": "Original_907317",
    "link_img": "https://live.staticflickr.com/65535/48092284512_7e8274c921_o.jpg",
    "id_image": "Original_907317",
    "count_view": 0
  },
  {
    "link_thumb": "https://live.staticflickr.com/65535/48092284747_ea52f54072_n.jpg",
    "id_album": "-435840145",
    "description": "Original_907318,[isGirlAnime],[isSadAnime],[isSadAnimeGirl],[isCuteAnime],[isGirlEarsNekoAnime],[Original 10],[Original10]",
    "title": "Original_907318",
    "link_img": "https://live.staticflickr.com/65535/48092284747_1cfb17bf68_o.jpg",
    "id_image": "Original_907318",
    "count_view": 0
  },
  {
    "link_thumb": "https://live.staticflickr.com/65535/48092285557_d29eb19a25_n.jpg",
    "id_album": "-435840145",
    "description": "Original_907482,[isGirlAnime],[isSadAnime],[isSadAnimeGirl],[isCuteAnime],[isGirlsHornsAnime],[isKimonoAnime],[Original 10],[Original10]",
    "title": "Original_907482",
    "link_img": "https://live.staticflickr.com/65535/48092285557_37545acedc_o.jpg",
    "id_image": "Original_907482",
    "count_view": 0
  },
  {
    "link_thumb": "https://live.staticflickr.com/65535/48092229118_c7d9739647_n.jpg",
    "id_album": "-435840145",
    "description": "Original_907497,[isGirlAnime],[isCuteAnime],[Original 10],[Original10]",
    "title": "Original_907497",
    "link_img": "https://live.staticflickr.com/65535/48092229118_5fdbe35a7f_o.jpg",
    "id_image": "Original_907497",
    "count_view": 0
  },
  {
    "link_thumb": "https://live.staticflickr.com/65535/48092231023_fb04252dee_n.jpg",
    "id_album": "-435840145",
    "description": "Original_907516,[isGirlAnime],[isSadAnime],[isSadAnimeGirl],[isCuteAnime],[isKimonoAnime],[Original 10],[Original10]",
    "title": "Original_907516",
    "link_img": "https://live.staticflickr.com/65535/48092231023_ccdeb797a7_o.jpg",
    "id_image": "Original_907516",
    "count_view": 0
  },
  {
    "link_thumb": "https://live.staticflickr.com/65535/48092192041_da6b1180e0_n.jpg",
    "id_album": "-435840145",
    "description": "Original_907520,[isGirlAnime],[isSadAnime],[isSadAnimeGirl],[isCuteAnime],[Original 10],[Original10]",
    "title": "Original_907520",
    "link_img": "https://live.staticflickr.com/65535/48092192041_229467aff5_o.jpg",
    "id_image": "Original_907520",
    "count_view": 0
  },
  {
    "link_thumb": "https://live.staticflickr.com/65535/48092192571_745f2fd5ab_n.jpg",
    "id_album": "-435840145",
    "description": "Original_907522,[isGirlAnime],[isCuteAnime],[Original 10],[Original10]",
    "title": "Original_907522",
    "link_img": "https://live.staticflickr.com/65535/48092192571_0c6242ee56_o.jpg",
    "id_image": "Original_907522",
    "count_view": 0
  },
  {
    "link_thumb": "https://live.staticflickr.com/65535/48092232323_d21f77262a_n.jpg",
    "id_album": "-435840145",
    "description": "Original_907524,[isGirlAnime],[isCuteAnime],[isGirlEarsNekoAnime],[isGirlsLoliAnime],[Original 10],[Original10]",
    "title": "Original_907524",
    "link_img": "https://live.staticflickr.com/65535/48092232323_9b9691cf86_o.jpg",
    "id_image": "Original_907524",
    "count_view": 0
  },
  {
    "link_thumb": "https://live.staticflickr.com/65535/48092193341_77a75145d0_n.jpg",
    "id_album": "-435840145",
    "description": "Original_907526,[isGirlAnime],[isSadAnime],[isSadAnimeGirl],[isCuteAnime],[isGirlEarsNekoAnime],[isGirlsLoliAnime],[Original 10],[Original10]",
    "title": "Original_907526",
    "link_img": "https://live.staticflickr.com/65535/48092193341_f76950eae4_o.jpg",
    "id_image": "Original_907526",
    "count_view": 0
  },
  {
    "link_thumb": "https://live.staticflickr.com/65535/48092193631_7ca2be646b_n.jpg",
    "id_album": "-435840145",
    "description": "Original_907528,[isGirlAnime],[isSadAnime],[isSadAnimeGirl],[isCuteAnime],[Original 10],[Original10]",
    "title": "Original_907528",
    "link_img": "https://live.staticflickr.com/65535/48092193631_53a647d7c2_o.jpg",
    "id_image": "Original_907528",
    "count_view": 0
  },
  {
    "link_thumb": "https://live.staticflickr.com/65535/48092193916_54ed61e7fd_n.jpg",
    "id_album": "-435840145",
    "description": "Original_907529,[isGirlAnime],[isSadAnime],[isSadAnimeGirl],[isCuteAnime],[Original 10],[Original10]",
    "title": "Original_907529",
    "link_img": "https://live.staticflickr.com/65535/48092193916_dd87f5e6c7_o.jpg",
    "id_image": "Original_907529",
    "count_view": 0
  },
  {
    "link_thumb": "https://live.staticflickr.com/65535/48092194426_2e32bf84cf_n.jpg",
    "id_album": "-435840145",
    "description": "Original_907627,[isGirlAnime],[isCuteAnime],[Original 10],[Original10]",
    "title": "Original_907627",
    "link_img": "https://live.staticflickr.com/65535/48092194426_cc56a0b25e_o.jpg",
    "id_image": "Original_907627",
    "count_view": 0
  },
  {
    "link_thumb": "https://live.staticflickr.com/65535/48092233948_6768b5a297_n.jpg",
    "id_album": "-435840145",
    "description": "Original_907628,[isSceneryArts],[Original 10],[Original10]",
    "title": "Original_907628",
    "link_img": "https://live.staticflickr.com/65535/48092233948_408c034d4f_o.jpg",
    "id_image": "Original_907628",
    "count_view": 0
  },
  {
    "link_thumb": "https://live.staticflickr.com/65535/48092234353_6136b20e12_n.jpg",
    "id_album": "-435840145",
    "description": "Original_907629,[isGirlAnime],[isSadAnime],[isSadAnimeGirl],[isCuteAnime],[isGirlFaceMasksAnime],[Original 10],[Original10]",
    "title": "Original_907629",
    "link_img": "https://live.staticflickr.com/65535/48092234353_d9ef674171_o.jpg",
    "id_image": "Original_907629",
    "count_view": 0
  },
  {
    "link_thumb": "https://live.staticflickr.com/65535/48092234628_b6a40c161d_n.jpg",
    "id_album": "-435840145",
    "description": "Original_907637,[isGirlAnime],[isCuteAnime],[isGirlsLoliAnime],[Original 10],[Original10]",
    "title": "Original_907637",
    "link_img": "https://live.staticflickr.com/65535/48092234628_b330cd04d2_o.jpg",
    "id_image": "Original_907637",
    "count_view": 0
  },
  {
    "link_thumb": "https://live.staticflickr.com/65535/48092235198_ffe4bfa9ac_n.jpg",
    "id_album": "-435840145",
    "description": "Original_907641,[isGirlAnime],[isSadAnime],[isSadAnimeGirl],[isCuteAnime],[Original 10],[Original10]",
    "title": "Original_907641",
    "link_img": "https://live.staticflickr.com/65535/48092235198_0f6c4ca65b_o.jpg",
    "id_image": "Original_907641",
    "count_view": 0
  },
  {
    "link_thumb": "https://live.staticflickr.com/65535/48092293507_0290cdf892_n.jpg",
    "id_album": "-435840145",
    "description": "Original_907703,[isGirlAnime],[isSadAnime],[isSadAnimeGirl],[isCuteAnime],[Original 10],[Original10]",
    "title": "Original_907703",
    "link_img": "https://live.staticflickr.com/65535/48092293507_f67f00f897_o.jpg",
    "id_image": "Original_907703",
    "count_view": 0
  },
  {
    "link_thumb": "https://live.staticflickr.com/65535/48092293882_5bd3b83ed5_n.jpg",
    "id_album": "-435840145",
    "description": "Original_907704,[isGirlAnime],[isSadAnime],[isSadAnimeGirl],[isCuteAnime],[isGirlsHatsHoodieAnime],[isGirlsLoliAnime],[Original 10],[Original10]",
    "title": "Original_907704",
    "link_img": "https://live.staticflickr.com/65535/48092293882_fd677cebb1_o.jpg",
    "id_image": "Original_907704",
    "count_view": 0
  },
  {
    "link_thumb": "https://live.staticflickr.com/65535/48092294162_c33e48c5c4_n.jpg",
    "id_album": "-435840145",
    "description": "Original_907705,[isGirlAnime],[isSadAnime],[isSadAnimeGirl],[isCuteAnime],[isKimonoAnime],[Original 10],[Original10]",
    "title": "Original_907705",
    "link_img": "https://live.staticflickr.com/65535/48092294162_07784c2b34_o.jpg",
    "id_image": "Original_907705",
    "count_view": 0
  },
  {
    "link_thumb": "https://live.staticflickr.com/65535/48092294382_5358094a21_n.jpg",
    "id_album": "-435840145",
    "description": "Original_907706,[isGirlAnime],[isSadAnime],[isSadAnimeGirl],[isCuteAnime],[Original 10],[Original10]",
    "title": "Original_907706",
    "link_img": "https://live.staticflickr.com/65535/48092294382_b57f0c0163_o.jpg",
    "id_image": "Original_907706",
    "count_view": 0
  },
  {
    "link_thumb": "https://live.staticflickr.com/65535/48092294657_4f0b13c003_n.jpg",
    "id_album": "-435840145",
    "description": "Original_907707,[isGirlAnime],[isSadAnime],[isSadAnimeGirl],[isCuteAnime],[Original 10],[Original10]",
    "title": "Original_907707",
    "link_img": "https://live.staticflickr.com/65535/48092294657_41ece372e2_o.jpg",
    "id_image": "Original_907707",
    "count_view": 0
  },
  {
    "link_thumb": "https://live.staticflickr.com/65535/48092198691_5666539739_n.jpg",
    "id_album": "-435840145",
    "description": "Original_907708,[isGirlAnime],[isSadAnime],[isSadAnimeGirl],[isCuteAnime],[isGirlEarsNekoAnime],[isKimonoAnime],[Original 10],[Original10]",
    "title": "Original_907708",
    "link_img": "https://live.staticflickr.com/65535/48092198691_66be304db7_o.jpg",
    "id_image": "Original_907708",
    "count_view": 0
  },
  {
    "link_thumb": "https://live.staticflickr.com/65535/48092295132_976ea4de71_n.jpg",
    "id_album": "-435840145",
    "description": "Original_907709,[isGirlAnime],[isSadAnime],[isSadAnimeGirl],[isCuteAnime],[isGirlsHatsHoodieAnime],[isGirlsLoliAnime],[Original 10],[Original10]",
    "title": "Original_907709",
    "link_img": "https://live.staticflickr.com/65535/48092295132_81ea4023fc_o.jpg",
    "id_image": "Original_907709",
    "count_view": 0
  },
  {
    "link_thumb": "https://live.staticflickr.com/65535/48092199641_77d65ea01c_n.jpg",
    "id_album": "-435840145",
    "description": "Original_907712,[isGirlAnime],[isSadAnime],[isSadAnimeGirl],[isCuteAnime],[isGirlsHatsHoodieAnime],[isGirlsLoliAnime],[Original 10],[Original10]",
    "title": "Original_907712",
    "link_img": "https://live.staticflickr.com/65535/48092199641_b34182dd05_o.jpg",
    "id_image": "Original_907712",
    "count_view": 0
  },
  {
    "link_thumb": "https://live.staticflickr.com/65535/48092199851_e8d769d7f8_n.jpg",
    "id_album": "-435840145",
    "description": "Original_907716,[isGirlAnime],[isSadAnime],[isSadAnimeGirl],[isCuteAnime],[Original 10],[Original10]",
    "title": "Original_907716",
    "link_img": "https://live.staticflickr.com/65535/48092199851_8c207ebc9e_o.jpg",
    "id_image": "Original_907716",
    "count_view": 0
  },
  {
    "link_thumb": "https://live.staticflickr.com/65535/48092239688_08a7bf925d_n.jpg",
    "id_album": "-435840145",
    "description": "Original_907720,[isGirlAnime],[isCuteAnime],[Original 10],[Original10]",
    "title": "Original_907720",
    "link_img": "https://live.staticflickr.com/65535/48092239688_23f3b3f8c7_o.jpg",
    "id_image": "Original_907720",
    "count_view": 0
  },
  {
    "link_thumb": "https://live.staticflickr.com/65535/48092296442_5c46394293_n.jpg",
    "id_album": "-435840145",
    "description": "Original_907721,[isGirlAnime],[isSadAnime],[isSadAnimeGirl],[isCuteAnime],[Original 10],[Original10]",
    "title": "Original_907721",
    "link_img": "https://live.staticflickr.com/65535/48092296442_725fd43af9_o.jpg",
    "id_image": "Original_907721",
    "count_view": 0
  },
  {
    "link_thumb": "https://live.staticflickr.com/65535/48092240248_9b6846aef5_n.jpg",
    "id_album": "-435840145",
    "description": "Original_907722,[isGirlAnime],[isSadAnime],[isSadAnimeGirl],[isCuteAnime],[Original 10],[Original10]",
    "title": "Original_907722",
    "link_img": "https://live.staticflickr.com/65535/48092240248_732a636c9d_o.jpg",
    "id_image": "Original_907722",
    "count_view": 0
  },
  {
    "link_thumb": "https://live.staticflickr.com/65535/48092240573_1b67527a2d_n.jpg",
    "id_album": "-435840145",
    "description": "Original_907723,[isGirlAnime],[isSadAnime],[isSadAnimeGirl],[isCuteAnime],[isKimonoAnime],[Original 10],[Original10]",
    "title": "Original_907723",
    "link_img": "https://live.staticflickr.com/65535/48092240573_f3bc51bd04_o.jpg",
    "id_image": "Original_907723",
    "count_view": 0
  },
  {
    "link_thumb": "https://live.staticflickr.com/65535/48092201841_70601fb93f_n.jpg",
    "id_album": "-435840145",
    "description": "Original_907727,[isGirlAnime],[isSadAnime],[isSadAnimeGirl],[isCuteAnime],[isGirlEarsNekoAnime],[isGirlsLoliAnime],[isKimonoAnime],[Original 10],[Original10]",
    "title": "Original_907727",
    "link_img": "https://live.staticflickr.com/65535/48092201841_39ab597368_o.jpg",
    "id_image": "Original_907727",
    "count_view": 0
  },
  {
    "link_thumb": "https://live.staticflickr.com/65535/48092298542_833ce7b7e4_n.jpg",
    "id_album": "-435840145",
    "description": "Original_907729,[isGirlAnime],[isSadAnime],[isSadAnimeGirl],[isCuteAnime],[Original 10],[Original10]",
    "title": "Original_907729",
    "link_img": "https://live.staticflickr.com/65535/48092298542_39c802dd8d_o.jpg",
    "id_image": "Original_907729",
    "count_view": 0
  },
  {
    "link_thumb": "https://live.staticflickr.com/65535/48092301062_f034f33acd_n.jpg",
    "id_album": "-435840145",
    "description": "Original_907754,[isGirlAnime],[isCuteAnime],[Original 10],[Original10]",
    "title": "Original_907754",
    "link_img": "https://live.staticflickr.com/65535/48092301062_a7053e0799_o.jpg",
    "id_image": "Original_907754",
    "count_view": 0
  },
  {
    "link_thumb": "https://live.staticflickr.com/65535/48092301992_27d435d4b7_n.jpg",
    "id_album": "-435840145",
    "description": "Original_907758,[isGirlAnime],[isSadAnime],[isSadAnimeGirl],[isCuteAnime],[isKimonoAnime],[Original 10],[Original10]",
    "title": "Original_907758",
    "link_img": "https://live.staticflickr.com/65535/48092301992_976e4fb4de_o.jpg",
    "id_image": "Original_907758",
    "count_view": 0
  },
  {
    "link_thumb": "https://live.staticflickr.com/65535/48092246033_046935c91d_n.jpg",
    "id_album": "-435840145",
    "description": "Original_907759,[isGirlAnime],[isSadAnime],[isSadAnimeGirl],[isCuteAnime],[isGirlsLoliAnime],[isKimonoAnime],[Original 10],[Original10]",
    "title": "Original_907759",
    "link_img": "https://live.staticflickr.com/65535/48092246033_6a12519625_o.jpg",
    "id_image": "Original_907759",
    "count_view": 0
  },
  {
    "link_thumb": "https://live.staticflickr.com/65535/48092207991_ff96c29628_n.jpg",
    "id_album": "-435840145",
    "description": "Original_907764,[isGirlAnime],[isSadAnime],[isSadAnimeGirl],[isCuteAnime],[Original 10],[Original10]",
    "title": "Original_907764",
    "link_img": "https://live.staticflickr.com/65535/48092207991_30cc9a450b_o.jpg",
    "id_image": "Original_907764",
    "count_view": 0
  },
  {
    "link_thumb": "https://live.staticflickr.com/65535/48092247908_a2550b4618_n.jpg",
    "id_album": "-435840145",
    "description": "Original_907765,[isGirlAnime],[isSadAnime],[isSadAnimeGirl],[isCuteAnime],[isGirlsLoliAnime],[isKimonoAnime],[Original 10],[Original10]",
    "title": "Original_907765",
    "link_img": "https://live.staticflickr.com/65535/48092247908_82bd210e3f_o.jpg",
    "id_image": "Original_907765",
    "count_view": 0
  },
  {
    "link_thumb": "https://live.staticflickr.com/65535/48092248093_8b500ef312_n.jpg",
    "id_album": "-435840145",
    "description": "Original_907766,[isGirlAnime],[isCuteAnime],[isGirlsHatsHoodieAnime],[isGirlsLoliAnime],[Original 10],[Original10]",
    "title": "Original_907766",
    "link_img": "https://live.staticflickr.com/65535/48092248093_f3013dfbb9_o.jpg",
    "id_image": "Original_907766",
    "count_view": 0
  },
  {
    "link_thumb": "https://live.staticflickr.com/65535/48092304642_d476b5cc8d_n.jpg",
    "id_album": "-435840145",
    "description": "Original_907767,[isGirlAnime],[isSadAnime],[isSadAnimeGirl],[isCuteAnime],[isKimonoAnime],[Original 10],[Original10]",
    "title": "Original_907767",
    "link_img": "https://live.staticflickr.com/65535/48092304642_0e7e9686e4_o.jpg",
    "id_image": "Original_907767",
    "count_view": 0
  },
  {
    "link_thumb": "https://live.staticflickr.com/65535/48092209211_d8aab2b7bf_n.jpg",
    "id_album": "-435840145",
    "description": "Original_907769,[isGirlAnime],[isSadAnime],[isSadAnimeGirl],[isCuteAnime],[Original 10],[Original10]",
    "title": "Original_907769",
    "link_img": "https://live.staticflickr.com/65535/48092209211_8e42c49b9e_o.jpg",
    "id_image": "Original_907769",
    "count_view": 0
  },
  {
    "link_thumb": "https://live.staticflickr.com/65535/48092305357_761708043f_n.jpg",
    "id_album": "-435840145",
    "description": "Original_907770,[isGirlAnime],[isSadAnime],[isSadAnimeGirl],[isCuteAnime],[isGirlsHatsHoodieAnime],[isGirlsLoliAnime],[Original 10],[Original10]",
    "title": "Original_907770",
    "link_img": "https://live.staticflickr.com/65535/48092305357_bac51d169c_o.jpg",
    "id_image": "Original_907770",
    "count_view": 0
  },
  {
    "link_thumb": "https://live.staticflickr.com/65535/48092209721_f537dc0b4c_n.jpg",
    "id_album": "-435840145",
    "description": "Original_907771,[isGirlAnime],[isSadAnime],[isSadAnimeGirl],[isCuteAnime],[isGirlEarsNekoAnime],[isKimonoAnime],[Original 10],[Original10]",
    "title": "Original_907771",
    "link_img": "https://live.staticflickr.com/65535/48092209721_8174c11a56_o.jpg",
    "id_image": "Original_907771",
    "count_view": 0
  },
  {
    "link_thumb": "https://live.staticflickr.com/65535/48092250293_c2d06b1e3b_n.jpg",
    "id_album": "-435840145",
    "description": "Original_907784,[isGirlAnime],[isSadAnime],[isSadAnimeGirl],[isCuteAnime],[isGirlsHatsHoodieAnime],[Original 10],[Original10]",
    "title": "Original_907784",
    "link_img": "https://live.staticflickr.com/65535/48092250293_5200f70e7b_o.jpg",
    "id_image": "Original_907784",
    "count_view": 0
  },
  {
    "link_thumb": "https://live.staticflickr.com/65535/48092306772_070b68d537_n.jpg",
    "id_album": "-435840145",
    "description": "Original_907785,[isGirlAnime],[isCuteAnime],[Original 10],[Original10]",
    "title": "Original_907785",
    "link_img": "https://live.staticflickr.com/65535/48092306772_e0eb725fae_o.jpg",
    "id_image": "Original_907785",
    "count_view": 0
  },
  {
    "link_thumb": "https://live.staticflickr.com/65535/48092212056_c769a5102f_n.jpg",
    "id_album": "-435840145",
    "description": "Original_907801,[isGirlAnime],[isSadAnime],[isSadAnimeGirl],[isCuteAnime],[Original 10],[Original10]",
    "title": "Original_907801",
    "link_img": "https://live.staticflickr.com/65535/48092212056_de6cf7ee61_o.jpg",
    "id_image": "Original_907801",
    "count_view": 0
  },
  {
    "link_thumb": "https://live.staticflickr.com/65535/48092252088_2c2770fed9_n.jpg",
    "id_album": "-435840145",
    "description": "Original_907802,[isGirlAnime],[isSadAnime],[isSadAnimeGirl],[isCuteAnime],[isGirlEarsNekoAnime],[isKimonoAnime],[Original 10],[Original10]",
    "title": "Original_907802",
    "link_img": "https://live.staticflickr.com/65535/48092252088_a4599a3be8_o.jpg",
    "id_image": "Original_907802",
    "count_view": 0
  },
  {
    "link_thumb": "https://live.staticflickr.com/65535/48092308572_c7c4b400dd_n.jpg",
    "id_album": "-435840145",
    "description": "Original_907803,[isGirlAnime],[isSadAnime],[isSadAnimeGirl],[isCuteAnime],[isGirlsLoliAnime],[Original 10],[Original10]",
    "title": "Original_907803",
    "link_img": "https://live.staticflickr.com/65535/48092308572_be026127bc_o.jpg",
    "id_image": "Original_907803",
    "count_view": 0
  },
  {
    "link_thumb": "https://live.staticflickr.com/65535/48092252678_a5d2c51070_n.jpg",
    "id_album": "-435840145",
    "description": "Original_907804,[isGirlAnime],[isSadAnime],[isSadAnimeGirl],[isCuteAnime],[isKimonoAnime],[Original 10],[Original10]",
    "title": "Original_907804",
    "link_img": "https://live.staticflickr.com/65535/48092252678_54221a72fd_o.jpg",
    "id_image": "Original_907804",
    "count_view": 0
  },
  {
    "link_thumb": "https://live.staticflickr.com/65535/48092213016_f443c7cb37_n.jpg",
    "id_album": "-435840145",
    "description": "Original_907805,[isGirlAnime],[isSadAnime],[isSadAnimeGirl],[isCuteAnime],[isKimonoAnime],[Original 10],[Original10]",
    "title": "Original_907805",
    "link_img": "https://live.staticflickr.com/65535/48092213016_b0ba5c0649_o.jpg",
    "id_image": "Original_907805",
    "count_view": 0
  },
  {
    "link_thumb": "https://live.staticflickr.com/65535/48092253238_b095ebd056_n.jpg",
    "id_album": "-435840145",
    "description": "Original_907806,[isGirlAnime],[isSadAnime],[isSadAnimeGirl],[isCuteAnime],[isKimonoAnime],[Original 10],[Original10]",
    "title": "Original_907806",
    "link_img": "https://live.staticflickr.com/65535/48092253238_e87d711bdd_o.jpg",
    "id_image": "Original_907806",
    "count_view": 0
  },
  {
    "link_thumb": "https://live.staticflickr.com/65535/48092253548_e9abebdbfa_n.jpg",
    "id_album": "-435840145",
    "description": "Original_907807,[isGirlAnime],[isSadAnime],[isSadAnimeGirl],[isCuteAnime],[isGirlsHatsHoodieAnime],[isGirlsLoliAnime],[Original 10],[Original10]",
    "title": "Original_907807",
    "link_img": "https://live.staticflickr.com/65535/48092253548_19ebaf80d0_o.jpg",
    "id_image": "Original_907807",
    "count_view": 0
  },
  {
    "link_thumb": "https://live.staticflickr.com/65535/48092309872_d3ba454a18_n.jpg",
    "id_album": "-435840145",
    "description": "Original_907808,[isGirlAnime],[isCuteAnime],[Original 10],[Original10]",
    "title": "Original_907808",
    "link_img": "https://live.staticflickr.com/65535/48092309872_390994bf4f_o.jpg",
    "id_image": "Original_907808",
    "count_view": 0
  },
  {
    "link_thumb": "https://live.staticflickr.com/65535/48092310277_696bbc09f6_n.jpg",
    "id_album": "-435840145",
    "description": "Original_907813,[isGirlAnime],[isCuteAnime],[isGirlsLoliAnime],[isKimonoAnime],[Original 10],[Original10]",
    "title": "Original_907813",
    "link_img": "https://live.staticflickr.com/65535/48092310277_5469f00625_o.jpg",
    "id_image": "Original_907813",
    "count_view": 0
  },
  {
    "link_thumb": "https://live.staticflickr.com/65535/48092214526_c8d58a1f14_n.jpg",
    "id_album": "-435840145",
    "description": "Original_907815,[isGirlAnime],[isCuteAnime],[Original 10],[Original10]",
    "title": "Original_907815",
    "link_img": "https://live.staticflickr.com/65535/48092214526_d35c11b86a_o.jpg",
    "id_image": "Original_907815",
    "count_view": 0
  },
  {
    "link_thumb": "https://live.staticflickr.com/65535/48092310997_e5a182e767_n.jpg",
    "id_album": "-435840145",
    "description": "Original_907816,[isGirlAnime],[isSadAnime],[isSadAnimeGirl],[isCuteAnime],[isGirlsLoliAnime],[Original 10],[Original10]",
    "title": "Original_907816",
    "link_img": "https://live.staticflickr.com/65535/48092310997_da45f12f32_o.jpg",
    "id_image": "Original_907816",
    "count_view": 0
  },
  {
    "link_thumb": "https://live.staticflickr.com/65535/48092215601_f43db1569a_n.jpg",
    "id_album": "-435840145",
    "description": "Original_907818,[isGirlAnime],[isSadAnime],[isSadAnimeGirl],[isCuteAnime],[isGirlsHatsHoodieAnime],[isGirlsLoliAnime],[Original 10],[Original10]",
    "title": "Original_907818",
    "link_img": "https://live.staticflickr.com/65535/48092215601_15858baaa1_o.jpg",
    "id_image": "Original_907818",
    "count_view": 0
  },
  {
    "link_thumb": "https://live.staticflickr.com/65535/48092216296_03059c0c50_n.jpg",
    "id_album": "-435840145",
    "description": "Original_907820,[isGirlAnime],[isSadAnime],[isSadAnimeGirl],[isCuteAnime],[Original 10],[Original10]",
    "title": "Original_907820",
    "link_img": "https://live.staticflickr.com/65535/48092216296_fda4ac6663_o.jpg",
    "id_image": "Original_907820",
    "count_view": 0
  },
  {
    "link_thumb": "https://live.staticflickr.com/65535/48092312462_6f3e076291_n.jpg",
    "id_album": "-435840145",
    "description": "Original_907823,[isGirlAnime],[isSadAnime],[isSadAnimeGirl],[isCuteAnime],[Original 10],[Original10]",
    "title": "Original_907823",
    "link_img": "https://live.staticflickr.com/65535/48092312462_d16d4a4f9b_o.jpg",
    "id_image": "Original_907823",
    "count_view": 0
  },
  {
    "link_thumb": "https://live.staticflickr.com/65535/48092217051_35a7d4c196_n.jpg",
    "id_album": "-435840145",
    "description": "Original_907828,[isGirlAnime],[isCuteAnime],[isGirlsLoliAnime],[isKimonoAnime],[Original 10],[Original10]",
    "title": "Original_907828",
    "link_img": "https://live.staticflickr.com/65535/48092217051_476a44dc72_o.jpg",
    "id_image": "Original_907828",
    "count_view": 0
  },
  {
    "link_thumb": "https://live.staticflickr.com/65535/48092257208_d24e597fc6_n.jpg",
    "id_album": "-435840145",
    "description": "Original_907829,[isGirlAnime],[isSadAnime],[isSadAnimeGirl],[isCuteAnime],[Original 10],[Original10]",
    "title": "Original_907829",
    "link_img": "https://live.staticflickr.com/65535/48092257208_2577183735_o.jpg",
    "id_image": "Original_907829",
    "count_view": 0
  },
  {
    "link_thumb": "https://live.staticflickr.com/65535/48092217701_896b40e0fc_n.jpg",
    "id_album": "-435840145",
    "description": "Original_907830,[isGirlAnime],[isSadAnime],[isSadAnimeGirl],[isCuteAnime],[isKimonoAnime],[Original 10],[Original10]",
    "title": "Original_907830",
    "link_img": "https://live.staticflickr.com/65535/48092217701_60f2428386_o.jpg",
    "id_image": "Original_907830",
    "count_view": 0
  },
  {
    "link_thumb": "https://live.staticflickr.com/65535/48092217916_1bd4d99847_n.jpg",
    "id_album": "-435840145",
    "description": "Original_907834,[isGirlAnime],[isSadAnime],[isSadAnimeGirl],[isCuteAnime],[isGirlsLoliAnime],[isKimonoAnime],[Original 10],[Original10]",
    "title": "Original_907834",
    "link_img": "https://live.staticflickr.com/65535/48092217916_151f923797_o.jpg",
    "id_image": "Original_907834",
    "count_view": 0
  },
  {
    "link_thumb": "https://live.staticflickr.com/65535/48092258033_09a49640b9_n.jpg",
    "id_album": "-435840145",
    "description": "Original_907835,[isGirlAnime],[isSadAnime],[isSadAnimeGirl],[isCuteAnime],[Original 10],[Original10]",
    "title": "Original_907835",
    "link_img": "https://live.staticflickr.com/65535/48092258033_daa7e81d78_o.jpg",
    "id_image": "Original_907835",
    "count_view": 0
  },
  {
    "link_thumb": "https://live.staticflickr.com/65535/48092314322_b2367d5dc7_n.jpg",
    "id_album": "-435840145",
    "description": "Original_907836,[isGirlAnime],[isSadAnime],[isSadAnimeGirl],[isCuteAnime],[Original 10],[Original10]",
    "title": "Original_907836",
    "link_img": "https://live.staticflickr.com/65535/48092314322_9a7aee9894_o.jpg",
    "id_image": "Original_907836",
    "count_view": 0
  },
  {
    "link_thumb": "https://live.staticflickr.com/65535/48092314612_755e8652ef_n.jpg",
    "id_album": "-435840145",
    "description": "Original_907837,[isGirlAnime],[isCuteAnime],[Original 10],[Original10]",
    "title": "Original_907837",
    "link_img": "https://live.staticflickr.com/65535/48092314612_383ee22c60_o.jpg",
    "id_image": "Original_907837",
    "count_view": 0
  },
  {
    "link_thumb": "https://live.staticflickr.com/65535/48092314877_2245e188ce_n.jpg",
    "id_album": "-435840145",
    "description": "Original_907838,[isGirlAnime],[isCuteAnime],[isGirlEarsNekoAnime],[isGirlsHatsHoodieAnime],[isGirlsLoliAnime],[Original 10],[Original10]",
    "title": "Original_907838",
    "link_img": "https://live.staticflickr.com/65535/48092314877_db8ede98e0_o.jpg",
    "id_image": "Original_907838",
    "count_view": 0
  },
  {
    "link_thumb": "https://live.staticflickr.com/65535/48092259618_790a0d0b89_n.jpg",
    "id_album": "-435840145",
    "description": "Original_907841,[isGirlAnime],[isCuteAnime],[isGirlsLoliAnime],[Original 10],[Original10]",
    "title": "Original_907841",
    "link_img": "https://live.staticflickr.com/65535/48092259618_2a552d25d7_o.jpg",
    "id_image": "Original_907841",
    "count_view": 0
  },
  {
    "link_thumb": "https://live.staticflickr.com/65535/48092259863_a0c2a57de5_n.jpg",
    "id_album": "-435840145",
    "description": "Original_907843,[isGirlAnime],[isSadAnime],[isSadAnimeGirl],[isCuteAnime],[Original 10],[Original10]",
    "title": "Original_907843",
    "link_img": "https://live.staticflickr.com/65535/48092259863_54c6918d86_o.jpg",
    "id_image": "Original_907843",
    "count_view": 0
  },
  {
    "link_thumb": "https://live.staticflickr.com/65535/48092260213_319f16d1e2_n.jpg",
    "id_album": "-435840145",
    "description": "Original_907845,[isGirlAnime],[isSadAnime],[isSadAnimeGirl],[isCuteAnime],[isGirlsHatsHoodieAnime],[isGirlsLoliAnime],[isKimonoAnime],[Original 10],[Original10]",
    "title": "Original_907845",
    "link_img": "https://live.staticflickr.com/65535/48092260213_942ed51a40_o.jpg",
    "id_image": "Original_907845",
    "count_view": 0
  },
  {
    "link_thumb": "https://live.staticflickr.com/65535/48092260608_9260706464_n.jpg",
    "id_album": "-435840145",
    "description": "Original_907848,[isGirlAnime],[isSadAnime],[isSadAnimeGirl],[isCuteAnime],[Original 10],[Original10]",
    "title": "Original_907848",
    "link_img": "https://live.staticflickr.com/65535/48092260608_b75db88f0a_o.jpg",
    "id_image": "Original_907848",
    "count_view": 0
  },
  {
    "link_thumb": "https://live.staticflickr.com/65535/48092260983_19a3c6af7b_n.jpg",
    "id_album": "-435840145",
    "description": "Original_907849,[isGirlAnime],[isSadAnime],[isSadAnimeGirl],[isCuteAnime],[isGirlsLoliAnime],[Original 10],[Original10]",
    "title": "Original_907849",
    "link_img": "https://live.staticflickr.com/65535/48092260983_54806c9a85_o.jpg",
    "id_image": "Original_907849",
    "count_view": 0
  },
  {
    "link_thumb": "https://live.staticflickr.com/65535/48092261398_37e3d75998_n.jpg",
    "id_album": "-435840145",
    "description": "Original_907850,[isGirlAnime],[isSadAnime],[isSadAnimeGirl],[isCuteAnime],[isKimonoAnime],[Original 10],[Original10]",
    "title": "Original_907850",
    "link_img": "https://live.staticflickr.com/65535/48092261398_808d4ed3f5_o.jpg",
    "id_image": "Original_907850",
    "count_view": 0
  },
  {
    "link_thumb": "https://live.staticflickr.com/65535/48092317687_d242ac699e_n.jpg",
    "id_album": "-435840145",
    "description": "Original_907851,[isGirlAnime],[isCuteAnime],[isGirlsSharpCanineToothAnime],[Original 10],[Original10]",
    "title": "Original_907851",
    "link_img": "https://live.staticflickr.com/65535/48092317687_a3013c2196_o.jpg",
    "id_image": "Original_907851",
    "count_view": 0
  },
  {
    "link_thumb": "https://live.staticflickr.com/65535/48092262008_488fb19e79_n.jpg",
    "id_album": "-435840145",
    "description": "Original_907852,[isGirlAnime],[isSadAnime],[isSadAnimeGirl],[isCuteAnime],[isKimonoAnime],[Original 10],[Original10]",
    "title": "Original_907852",
    "link_img": "https://live.staticflickr.com/65535/48092262008_1f0f3b7e75_o.jpg",
    "id_image": "Original_907852",
    "count_view": 0
  },
  {
    "link_thumb": "https://live.staticflickr.com/65535/48092262268_dc91fd51a3_n.jpg",
    "id_album": "-435840145",
    "description": "Original_907855,[isGirlAnime],[isSadAnime],[isSadAnimeGirl],[isCuteAnime],[isGirlsLoliAnime],[Original 10],[Original10]",
    "title": "Original_907855",
    "link_img": "https://live.staticflickr.com/65535/48092262268_eb12cae9e8_o.jpg",
    "id_image": "Original_907855",
    "count_view": 0
  },
  {
    "link_thumb": "https://live.staticflickr.com/65535/48092222726_247df621ca_n.jpg",
    "id_album": "-435840145",
    "description": "Original_907857,[isGirlAnime],[isSadAnime],[isSadAnimeGirl],[isCuteAnime],[isGirlsLoliAnime],[Original 10],[Original10]",
    "title": "Original_907857",
    "link_img": "https://live.staticflickr.com/65535/48092222726_7b4d9d74f0_o.jpg",
    "id_image": "Original_907857",
    "count_view": 0
  },
  {
    "link_thumb": "https://live.staticflickr.com/65535/48092222971_753bae80e6_n.jpg",
    "id_album": "-435840145",
    "description": "Original_907858,[isGirlAnime],[isSadAnime],[isSadAnimeGirl],[isCuteAnime],[isGirlsLoliAnime],[Original 10],[Original10]",
    "title": "Original_907858",
    "link_img": "https://live.staticflickr.com/65535/48092222971_eeb480ac75_o.jpg",
    "id_image": "Original_907858",
    "count_view": 0
  },
  {
    "link_thumb": "https://live.staticflickr.com/65535/48092223311_76ccb7139f_n.jpg",
    "id_album": "-435840145",
    "description": "Original_907860,[isGirlAnime],[isSadAnime],[isSadAnimeGirl],[isCuteAnime],[isGirlsLoliAnime],[Original 10],[Original10]",
    "title": "Original_907860",
    "link_img": "https://live.staticflickr.com/65535/48092223311_0f0191b2a5_o.jpg",
    "id_image": "Original_907860",
    "count_view": 0
  },
  {
    "link_thumb": "https://live.staticflickr.com/65535/48092263698_a78e795719_n.jpg",
    "id_album": "-435840145",
    "description": "Original_907861,[isGirlAnime],[isSadAnime],[isSadAnimeGirl],[isCuteAnime],[Original 10],[Original10]",
    "title": "Original_907861",
    "link_img": "https://live.staticflickr.com/65535/48092263698_9c2c8c0e44_o.jpg",
    "id_image": "Original_907861",
    "count_view": 0
  },
  {
    "link_thumb": "https://live.staticflickr.com/65535/48092263993_03c0e73a9a_n.jpg",
    "id_album": "-435840145",
    "description": "Original_907864,[isGirlAnime],[isSadAnime],[isSadAnimeGirl],[isCuteAnime],[isGirlsLoliAnime],[Original 10],[Original10]",
    "title": "Original_907864",
    "link_img": "https://live.staticflickr.com/65535/48092263993_166cf900b4_o.jpg",
    "id_image": "Original_907864",
    "count_view": 0
  },
  {
    "link_thumb": "https://live.staticflickr.com/65535/48092264343_b16b65e37a_n.jpg",
    "id_album": "-435840145",
    "description": "Original_907865,[isGirlAnime],[isSadAnime],[isSadAnimeGirl],[isCuteAnime],[isGirlsLoliAnime],[Original 10],[Original10]",
    "title": "Original_907865",
    "link_img": "https://live.staticflickr.com/65535/48092264343_31ef560885_o.jpg",
    "id_image": "Original_907865",
    "count_view": 0
  },
  {
    "link_thumb": "https://live.staticflickr.com/65535/48092320832_62c1b35ed2_n.jpg",
    "id_album": "-435840145",
    "description": "Original_907866,[isGirlAnime],[isSadAnime],[isSadAnimeGirl],[isCuteAnime],[isGirlsLoliAnime],[Original 10],[Original10]",
    "title": "Original_907866",
    "link_img": "https://live.staticflickr.com/65535/48092320832_0c78cabe4a_o.jpg",
    "id_image": "Original_907866",
    "count_view": 0
  },
  {
    "link_thumb": "https://live.staticflickr.com/65535/48092264883_e83d9a282d_n.jpg",
    "id_album": "-435840145",
    "description": "Original_907868,[isGirlAnime],[isSadAnime],[isSadAnimeGirl],[isCuteAnime],[isGirlsHatsHoodieAnime],[isGirlsLoliAnime],[isKimonoAnime],[Original 10],[Original10]",
    "title": "Original_907868",
    "link_img": "https://live.staticflickr.com/65535/48092264883_d7d3692325_o.jpg",
    "id_image": "Original_907868",
    "count_view": 0
  },
  {
    "link_thumb": "https://live.staticflickr.com/65535/48092225191_ce13053465_n.jpg",
    "id_album": "-435840145",
    "description": "Original_907869,[isGirlAnime],[isSadAnime],[isSadAnimeGirl],[isCuteAnime],[Original 10],[Original10]",
    "title": "Original_907869",
    "link_img": "https://live.staticflickr.com/65535/48092225191_38431f1176_o.jpg",
    "id_image": "Original_907869",
    "count_view": 0
  },
  {
    "link_thumb": "https://live.staticflickr.com/65535/48092265468_df64252640_n.jpg",
    "id_album": "-435840145",
    "description": "Original_907870,[isGirlAnime],[isSadAnime],[isSadAnimeGirl],[isCuteAnime],[isGirlsLoliAnime],[isKimonoAnime],[Original 10],[Original10]",
    "title": "Original_907870",
    "link_img": "https://live.staticflickr.com/65535/48092265468_a02c1dcb3b_o.jpg",
    "id_image": "Original_907870",
    "count_view": 0
  },
  {
    "link_thumb": "https://live.staticflickr.com/65535/48092322102_09872df419_n.jpg",
    "id_album": "-435840145",
    "description": "Original_907872,[isGirlAnime],[isSadAnime],[isSadAnimeGirl],[isCuteAnime],[isGirlsLoliAnime],[Original 10],[Original10]",
    "title": "Original_907872",
    "link_img": "https://live.staticflickr.com/65535/48092322102_5f369d6d6c_o.jpg",
    "id_image": "Original_907872",
    "count_view": 0
  },
  {
    "link_thumb": "https://live.staticflickr.com/65535/48092226451_1035f63f8e_n.jpg",
    "id_album": "-435840145",
    "description": "Original_908010,[isGirlAnime],[isSadAnime],[isSadAnimeGirl],[isCuteAnime],[isGirlsLoliAnime],[Original 10],[Original10]",
    "title": "Original_908010",
    "link_img": "https://live.staticflickr.com/65535/48092226451_9803047ff1_o.jpg",
    "id_image": "Original_908010",
    "count_view": 0
  },
  {
    "link_thumb": "https://live.staticflickr.com/65535/48092268108_a4a1a81e2d_n.jpg",
    "id_album": "-435840145",
    "description": "Original_908042,[isGirlAnime],[isSadAnime],[isSadAnimeGirl],[isCuteAnime],[isGirlsLoliAnime],[Original 10],[Original10]",
    "title": "Original_908042",
    "link_img": "https://live.staticflickr.com/65535/48092268108_cd979ee3a6_o.jpg",
    "id_image": "Original_908042",
    "count_view": 0
  },
  {
    "link_thumb": "https://live.staticflickr.com/65535/48092228226_e11b5c8472_n.jpg",
    "id_album": "-435840145",
    "description": "Original_908043,[isGirlAnime],[isCuteAnime],[isGirlsHatsHoodieAnime],[isGirlsLoliAnime],[Original 10],[Original10]",
    "title": "Original_908043",
    "link_img": "https://live.staticflickr.com/65535/48092228226_599bbb4b93_o.jpg",
    "id_image": "Original_908043",
    "count_view": 0
  },
  {
    "link_thumb": "https://live.staticflickr.com/65535/48092268908_f00f803bdf_n.jpg",
    "id_album": "-435840145",
    "description": "Original_908050,[isGirlAnime],[isSadAnime],[isSadAnimeGirl],[isCuteAnime],[isKimonoAnime],[Original 10],[Original10]",
    "title": "Original_908050",
    "link_img": "https://live.staticflickr.com/65535/48092268908_f17fcf02c2_o.jpg",
    "id_image": "Original_908050",
    "count_view": 0
  },
  {
    "link_thumb": "https://live.staticflickr.com/65535/48092228946_70888046f5_n.jpg",
    "id_album": "-435840145",
    "description": "Original_908051,[isGirlAnime],[isSadAnime],[isSadAnimeGirl],[isCuteAnime],[isKimonoAnime],[Original 10],[Original10]",
    "title": "Original_908051",
    "link_img": "https://live.staticflickr.com/65535/48092228946_3451b24c83_o.jpg",
    "id_image": "Original_908051",
    "count_view": 0
  },
  {
    "link_thumb": "https://live.staticflickr.com/65535/48092230401_781f187afe_n.jpg",
    "id_album": "-435840145",
    "description": "Original_908055,[isGirlAnime],[isSadAnime],[isSadAnimeGirl],[isCuteAnime],[isGirlsHatsHoodieAnime],[isGirlsLoliAnime],[Original 10],[Original10]",
    "title": "Original_908055",
    "link_img": "https://live.staticflickr.com/65535/48092230401_bbcabf53cd_o.jpg",
    "id_image": "Original_908055",
    "count_view": 0
  },
  {
    "link_thumb": "https://live.staticflickr.com/65535/48092270843_5097350990_n.jpg",
    "id_album": "-435840145",
    "description": "Original_908056,[isGirlAnime],[isSadAnime],[isSadAnimeGirl],[isCuteAnime],[isKimonoAnime],[Original 10],[Original10]",
    "title": "Original_908056",
    "link_img": "https://live.staticflickr.com/65535/48092270843_24eb67eaa4_o.jpg",
    "id_image": "Original_908056",
    "count_view": 0
  },
  {
    "link_thumb": "https://live.staticflickr.com/65535/48092327592_48161acbc7_n.jpg",
    "id_album": "-435840145",
    "description": "Original_908057,[isGirlAnime],[isSadAnime],[isSadAnimeGirl],[isCuteAnime],[Original 10],[Original10]",
    "title": "Original_908057",
    "link_img": "https://live.staticflickr.com/65535/48092327592_a7709cb08b_o.jpg",
    "id_image": "Original_908057",
    "count_view": 0
  },
  {
    "link_thumb": "https://live.staticflickr.com/65535/48092271363_3159f14533_n.jpg",
    "id_album": "-435840145",
    "description": "Original_908058,[isGirlAnime],[isSadAnime],[isSadAnimeGirl],[isCuteAnime],[isGirlsLoliAnime],[Original 10],[Original10]",
    "title": "Original_908058",
    "link_img": "https://live.staticflickr.com/65535/48092271363_122c57be74_o.jpg",
    "id_image": "Original_908058",
    "count_view": 0
  },
  {
    "link_thumb": "https://live.staticflickr.com/65535/48092231541_e545b50cec_n.jpg",
    "id_album": "-435840145",
    "description": "Original_908059,[isGirlAnime],[isCuteAnime],[Original 10],[Original10]",
    "title": "Original_908059",
    "link_img": "https://live.staticflickr.com/65535/48092231541_470c1020f7_o.jpg",
    "id_image": "Original_908059",
    "count_view": 0
  },
  {
    "link_thumb": "https://live.staticflickr.com/65535/48092271958_d85fd9e670_n.jpg",
    "id_album": "-435840145",
    "description": "Original_908060,[isGirlAnime],[isCuteAnime],[Original 10],[Original10]",
    "title": "Original_908060",
    "link_img": "https://live.staticflickr.com/65535/48092271958_0eba17e620_o.jpg",
    "id_image": "Original_908060",
    "count_view": 0
  },
  {
    "link_thumb": "https://live.staticflickr.com/65535/48092328697_c10173fde0_n.jpg",
    "id_album": "-435840145",
    "description": "Original_908064,[isGirlAnime],[isSadAnime],[isSadAnimeGirl],[isCuteAnime],[isGirlsLoliAnime],[Original 10],[Original10]",
    "title": "Original_908064",
    "link_img": "https://live.staticflickr.com/65535/48092328697_7e53dcaf2d_o.jpg",
    "id_image": "Original_908064",
    "count_view": 0
  },
  {
    "link_thumb": "https://live.staticflickr.com/65535/48092272768_1a68d3ff07_n.jpg",
    "id_album": "-435840145",
    "description": "Original_908071,[isGirlAnime],[isSadAnime],[isSadAnimeGirl],[isCuteAnime],[isGirlsLoliAnime],[isGirlsSharpCanineToothAnime],[Original 10],[Original10]",
    "title": "Original_908071",
    "link_img": "https://live.staticflickr.com/65535/48092272768_4704745d1c_o.jpg",
    "id_image": "Original_908071",
    "count_view": 0
  },
  {
    "link_thumb": "https://live.staticflickr.com/65535/48092273068_c296b7f35a_n.jpg",
    "id_album": "-435840145",
    "description": "Original_908072,[isGirlAnime],[isCuteAnime],[isGirlsLoliAnime],[isKimonoAnime],[Original 10],[Original10]",
    "title": "Original_908072",
    "link_img": "https://live.staticflickr.com/65535/48092273068_08c909864a_o.jpg",
    "id_image": "Original_908072",
    "count_view": 0
  },
  {
    "link_thumb": "https://live.staticflickr.com/65535/48092329707_c269acbeb4_n.jpg",
    "id_album": "-435840145",
    "description": "Original_908073,[isGirlAnime],[isSadAnime],[isSadAnimeGirl],[isCuteAnime],[isGirlsLoliAnime],[isKimonoAnime],[Original 10],[Original10]",
    "title": "Original_908073",
    "link_img": "https://live.staticflickr.com/65535/48092329707_9952f370ef_o.jpg",
    "id_image": "Original_908073",
    "count_view": 0
  },
  {
    "link_thumb": "https://live.staticflickr.com/65535/48092273658_0792bd2a64_n.jpg",
    "id_album": "-435840145",
    "description": "Original_908074,[isGirlAnime],[isSadAnime],[isSadAnimeGirl],[isCuteAnime],[isKimonoAnime],[Original 10],[Original10]",
    "title": "Original_908074",
    "link_img": "https://live.staticflickr.com/65535/48092273658_636c832fb1_o.jpg",
    "id_image": "Original_908074",
    "count_view": 0
  },
  {
    "link_thumb": "https://live.staticflickr.com/65535/48092233766_781003cd08_n.jpg",
    "id_album": "-435840145",
    "description": "Original_908075,[isGirlAnime],[isSadAnime],[isSadAnimeGirl],[isCuteAnime],[isGirlsLoliAnime],[isKimonoAnime],[Original 10],[Original10]",
    "title": "Original_908075",
    "link_img": "https://live.staticflickr.com/65535/48092233766_63a46ce45e_o.jpg",
    "id_image": "Original_908075",
    "count_view": 0
  },
  {
    "link_thumb": "https://live.staticflickr.com/65535/48092274203_0ccdccdd0c_n.jpg",
    "id_album": "-435840145",
    "description": "Original_908076,[isGirlAnime],[isSadAnime],[isSadAnimeGirl],[isCuteAnime],[Original 10],[Original10]",
    "title": "Original_908076",
    "link_img": "https://live.staticflickr.com/65535/48092274203_7bb2e12002_o.jpg",
    "id_image": "Original_908076",
    "count_view": 0
  },
  {
    "link_thumb": "https://live.staticflickr.com/65535/48092330982_901d1cd78a_n.jpg",
    "id_album": "-435840145",
    "description": "Original_908078,[isGirlAnime],[isSadAnime],[isSadAnimeGirl],[isCuteAnime],[Original 10],[Original10]",
    "title": "Original_908078",
    "link_img": "https://live.staticflickr.com/65535/48092330982_eaab2faf70_o.jpg",
    "id_image": "Original_908078",
    "count_view": 0
  },
  {
    "link_thumb": "https://live.staticflickr.com/65535/48092274918_63bab65dc2_n.jpg",
    "id_album": "-435840145",
    "description": "Original_908079,[isGirlAnime],[isSadAnime],[isSadAnimeGirl],[isCuteAnime],[isGirlsLoliAnime],[isKimonoAnime],[Original 10],[Original10]",
    "title": "Original_908079",
    "link_img": "https://live.staticflickr.com/65535/48092274918_db6686930b_o.jpg",
    "id_image": "Original_908079",
    "count_view": 0
  },
  {
    "link_thumb": "https://live.staticflickr.com/65535/48092331552_eb9bd5547d_n.jpg",
    "id_album": "-435840145",
    "description": "Original_908080,[isGirlAnime],[isCuteAnime],[isGirlsHornsAnime],[isKimonoAnime],[Original 10],[Original10]",
    "title": "Original_908080",
    "link_img": "https://live.staticflickr.com/65535/48092331552_6dfca7a619_o.jpg",
    "id_image": "Original_908080",
    "count_view": 0
  }
]