[
  {
    "link_thumb": "https://live.staticflickr.com/65535/48064172058_608c8050ae_n.jpg",
    "id_album": "-585977938",
    "description": "Vocaloid_127830",
    "title": "Vocaloid_127830",
    "link_img": "https://live.staticflickr.com/65535/48064172058_66eb381a84_o.jpg",
    "id_image": "Vocaloid_127830",
    "count_view": 0
  },
  {
    "link_thumb": "https://live.staticflickr.com/65535/48064154901_7bf204f1d4_n.jpg",
    "id_album": "-585977938",
    "description": "Vocaloid_148631",
    "title": "Vocaloid_148631",
    "link_img": "https://live.staticflickr.com/65535/48064154901_2e02401c79_o.jpg",
    "id_image": "Vocaloid_148631",
    "count_view": 0
  },
  {
    "link_thumb": "https://live.staticflickr.com/65535/48064215541_221f50759a_n.jpg",
    "id_album": "-585977938",
    "description": "Vocaloid_223215",
    "title": "Vocaloid_223215",
    "link_img": "https://live.staticflickr.com/65535/48064215541_64f751bd70_o.jpg",
    "id_image": "Vocaloid_223215",
    "count_view": 0
  },
  {
    "link_thumb": "https://live.staticflickr.com/65535/48064307803_a40cd16700_n.jpg",
    "id_album": "-585977938",
    "description": "Vocaloid_275368",
    "title": "Vocaloid_275368",
    "link_img": "https://live.staticflickr.com/65535/48064307803_634c56a526_o.jpg",
    "id_image": "Vocaloid_275368",
    "count_view": 0
  },
  {
    "link_thumb": "https://live.staticflickr.com/65535/48064352753_028d6d85bf_n.jpg",
    "id_album": "-585977938",
    "description": "Vocaloid_306842",
    "title": "Vocaloid_306842",
    "link_img": "https://live.staticflickr.com/65535/48064352753_f2d2f5abe0_o.jpg",
    "id_image": "Vocaloid_306842",
    "count_view": 0
  },
  {
    "link_thumb": "https://live.staticflickr.com/65535/48064355753_954b055792_n.jpg",
    "id_album": "-585977938",
    "description": "Vocaloid_306855",
    "title": "Vocaloid_306855",
    "link_img": "https://live.staticflickr.com/65535/48064355753_815d6ec5c4_o.jpg",
    "id_image": "Vocaloid_306855",
    "count_view": 0
  },
  {
    "link_thumb": "https://live.staticflickr.com/65535/48064361206_43f484ee6e_n.jpg",
    "id_album": "-585977938",
    "description": "Vocaloid_312950",
    "title": "Vocaloid_312950",
    "link_img": "https://live.staticflickr.com/65535/48064361206_26229545e8_o.jpg",
    "id_image": "Vocaloid_312950",
    "count_view": 0
  },
  {
    "link_thumb": "https://live.staticflickr.com/65535/48064470682_42008a8266_n.jpg",
    "id_album": "-585977938",
    "description": "Vocaloid_322167",
    "title": "Vocaloid_322167",
    "link_img": "https://live.staticflickr.com/65535/48064470682_8ed4945f9f_o.jpg",
    "id_image": "Vocaloid_322167",
    "count_view": 0
  },
  {
    "link_thumb": "https://live.staticflickr.com/65535/48064959972_669ba45455_n.jpg",
    "id_album": "-585977938",
    "description": "Vocaloid_757867",
    "title": "Vocaloid_757867",
    "link_img": "https://live.staticflickr.com/65535/48064959972_1fd7fd401d_o.jpg",
    "id_image": "Vocaloid_757867",
    "count_view": 0
  },
  {
    "link_thumb": "https://live.staticflickr.com/65535/48065190146_63aeef09af_n.jpg",
    "id_album": "-585977938",
    "description": "Vocaloid_768820",
    "title": "Vocaloid_768820",
    "link_img": "https://live.staticflickr.com/65535/48065190146_5fe9353c72_o.jpg",
    "id_image": "Vocaloid_768820",
    "count_view": 0
  }
]