[
  {
    "total_img": 41,
    "number_page": 1,
    "title": "Avatar The Last Airbender",
    "tag": "Water, Night, Yin  Yang, Moon, Ty Lee Avatar, Black Hair, Iroh Avatar, Glow, Weapon, Long Hair, Cigarette, Kuruk Avatar, Anime, Sword, White Eyes, Horns, Hood, Space, The Last Airbender, Mask, Zuko Avatar, Tui Avatar, Smile, Yellow Eyes, Suki Avatar, Flying, Pabu Avatar, Love, Animal, Bold, Eye Patch, Ponytail, Smoking, Chain, Aang Avatar, Korra The Legend Of Korra, Symbol, Sitting, Sokka Avatar, Appa Avatar, Kyoshi Avatar, Roku Avatar, Earth, Barefoot, Katara Avatar, Fish, Hug, Food, Necklace, Fur, Blue, Brown Hair, La Avatar, Headband, Toph Beifong, Tea, Blue Eyes, Yangchen Avatar, Glowing Eyes, Grey Hair, Lightning, Ferret, Grey Eyes, Fire, Avatar The Last Airbender, Mai Avatar",
    "description": "Avatar The Last Airbender",
    "link_thumb": "https://live.staticflickr.com/65535/47842734362_d99880909f_n.jpg",
    "id_album": "1121075891",
    "total_view": 41
  },
  {
    "total_img": 15,
    "number_page": 1,
    "title": "Barefoot",
    "tag": "Barefoot,",
    "description": "Barefoot",
    "link_thumb": "https://live.staticflickr.com/65535/48065227282_5af5997764_n.jpg",
    "id_album": "1632751537",
    "total_view": 15
  },
  {
    "total_img": 752,
    "number_page": 4,
    "title": "Black Hair",
    "tag": "Black Hair,",
    "description": "Black Hair",
    "link_thumb": "https://live.staticflickr.com/65535/48066328668_b63565e5e3_n.jpg",
    "id_album": "1485204216",
    "total_view": 752
  },
  {
    "total_img": 22,
    "number_page": 1,
    "title": "Chain",
    "tag": "Chain,",
    "description": "Chain",
    "link_thumb": "https://live.staticflickr.com/65535/48064187561_d6de2ba663_n.jpg",
    "id_album": "-787043502",
    "total_view": 22
  },
  {
    "total_img": 7,
    "number_page": 1,
    "title": "Cigarette",
    "tag": "Cigarette,",
    "description": "Cigarette",
    "link_thumb": "https://live.staticflickr.com/65535/48094921936_3903fefc5f_n.jpg",
    "id_album": "489642714",
    "total_view": 7
  },
  {
    "total_img": 38,
    "number_page": 1,
    "title": "Eye Patch",
    "tag": "Eye Patch,",
    "description": "Eye Patch",
    "link_thumb": "https://live.staticflickr.com/65535/48060483998_1c2e1b869c_n.jpg",
    "id_album": "1956247418",
    "total_view": 38
  },
  {
    "total_img": 36,
    "number_page": 1,
    "title": "Fire",
    "tag": "Fire,",
    "description": "Fire",
    "link_thumb": "https://live.staticflickr.com/65535/48609886896_3658155406_n.jpg",
    "id_album": "110303722",
    "total_view": 36
  },
  {
    "total_img": 29,
    "number_page": 1,
    "title": "Hood",
    "tag": "Hood,",
    "description": "Hood",
    "link_thumb": "https://live.staticflickr.com/65535/48064097992_45e54f9925_n.jpg",
    "id_album": "-730659369",
    "total_view": 29
  },
  {
    "total_img": 4,
    "number_page": 1,
    "title": "Smoking",
    "tag": "Smoking,",
    "description": "Smoking",
    "link_thumb": "https://live.staticflickr.com/65535/48052671862_11141469d8_n.jpg",
    "id_album": "1313997472",
    "total_view": 4
  },
  {
    "total_img": 6,
    "number_page": 1,
    "title": "Zuko Avatar",
    "tag": "Zuko Avatar,",
    "description": "Zuko Avatar",
    "link_thumb": "https://live.staticflickr.com/65535/47955669946_52e5cf0fba_n.jpg",
    "id_album": "25439476",
    "total_view": 6
  }
]