[
  {
    "total_img": 20,
    "number_page": 1,
    "title": "Arpeggio of Blue Steel",
    "tag": "Water, Green Eyes, Gunzou Chihaya, Takao Arpeggio Of Blue Steel, Long Hair, Makie Osakabe, Amaha Kotono, Hiei Arpeggio Of Blue Steel, Ashigara Arpeggio Of Blue Steel, Anime, White Hair, Sou Oribe, Haruna Arpeggio Of Blue Steel, Iori Watanuki, Haguro Arpeggio Of Blue Steel, Kyouhei Kashihara, Hyuuga Arpeggio Of Blue Steel, Blue, Chihaya Gunzou, Yotarou Arpeggio Of Blue Steel, Arpeggio of Blue Steel, Shizuka Hozumi, School Uniform, Kongou Arpeggio Of Blue Steel, Boy, Kirishima Arpeggio Of Blue Steel, Skirt, Missile, Tie, Nachi Arpeggio Of Blue Steel, Iona Arpeggio Of Blue Steel, Maya Arpeggio Of Blue Steel, Myoukou Arpeggio Of Blue Steel, Kiss",
    "description": "Arpeggio of Blue Steel",
    "link_thumb": "https://live.staticflickr.com/65535/47104416224_cce3faf27a_n.jpg",
    "id_album": "1953377619",
    "total_view": 20
  },
  {
    "total_img": 49,
    "number_page": 1,
    "title": "Blue",
    "tag": "Blue,",
    "description": "Blue",
    "link_thumb": "https://live.staticflickr.com/65535/48065548531_a6cf7e8358_n.jpg",
    "id_album": "-293177409",
    "total_view": 49
  },
  {
    "total_img": 2585,
    "number_page": 13,
    "title": "Boy",
    "tag": "Boy,",
    "description": "Boy",
    "link_thumb": "https://live.staticflickr.com/65535/51541746745_541d4f2e57_n.jpg",
    "id_album": "-1694302085",
    "total_view": 2226
  },
  {
    "total_img": 8,
    "number_page": 1,
    "title": "Iona Arpeggio Of Blue Steel",
    "tag": "Iona Arpeggio Of Blue Steel,",
    "description": "Iona Arpeggio Of Blue Steel",
    "link_thumb": "https://live.staticflickr.com/65535/47955698467_688a0f7e5a_n.jpg",
    "id_album": "-2079997841",
    "total_view": 8
  },
  {
    "total_img": 5,
    "number_page": 1,
    "title": "Kiss",
    "tag": "Kiss,",
    "description": "Kiss",
    "link_thumb": "https://live.staticflickr.com/65535/48060529556_cbe854d99e_n.jpg",
    "id_album": "1985253008",
    "total_view": 5
  }
]