[
  {
    "total_img": 14,
    "number_page": 1,
    "title": "BloodC",
    "tag": "Red, Saya Kisaragi, Anime, Dark, Black, BloodC, Bloodc, Woman, Blood, Katana, Weapon, Red Eyes",
    "description": "BloodC",
    "link_thumb": "https://live.staticflickr.com/65535/40942407563_c1ef184c60_n.jpg",
    "id_album": "1185202695",
    "total_view": 14
  }
]