[
  {
    "total_img": 20,
    "number_page": 1,
    "title": "Landscape",
    "tag": "Sky, Building, Waterfall, Butterfly, Night, Moon, Colorful, Bird, Stars, Lake, Grass, Field, School, Anime, Mountain, Tree, River, Fog, Space, Path, Flower, Landscape, Artistic, Blue, Shrub, House, Painting, Sunset, Shrine, Colors, Cloud, Sunlight, Forest",
    "description": "Landscape",
    "link_thumb": "https://live.staticflickr.com/65535/48048461331_d6880afd69_n.jpg",
    "id_album": "1402713104",
    "total_view": 20
  },
  {
    "total_img": 45,
    "number_page": 1,
    "title": "Forest",
    "tag": "Forest,",
    "description": "Forest",
    "link_thumb": "https://live.staticflickr.com/65535/48064512828_7bb061251f_n.jpg",
    "id_album": "-1083189875",
    "total_view": 45
  },
  {
    "total_img": 153,
    "number_page": 1,
    "title": "Night",
    "tag": "Night,",
    "description": "Night",
    "link_thumb": "https://live.staticflickr.com/65535/48066526828_78bf2dcb6b_n.jpg",
    "id_album": "742877003",
    "total_view": 153
  },
  {
    "total_img": 8,
    "number_page": 1,
    "title": "River",
    "tag": "River,",
    "description": "River",
    "link_thumb": "https://live.staticflickr.com/65535/48055234313_cd7e2cd0aa_n.jpg",
    "id_album": "1258793838",
    "total_view": 8
  },
  {
    "total_img": 132,
    "number_page": 1,
    "title": "Tree",
    "tag": "Tree,",
    "description": "Tree",
    "link_thumb": "https://live.staticflickr.com/65535/48064450476_96d2bfa810_n.jpg",
    "id_album": "419938685",
    "total_view": 132
  }
]