[
  {
    "total_img": 93,
    "number_page": 1,
    "title": "Dororo",
    "tag": "Dororo Dororo, Orange Eyes, Moon, Black Hair, Crying, Weapon, Blood, Long Hair, Rain, Sword, Bandage, Kimono, Glitch Art, Hyakkimaru Dororo, Child, Katana, Mio Dororo, Purple Eyes, Brown Eyes, Brown Hair, Smile, Boy, Dororo Anime, Red Eyes, Sunset, Blue Hair, Fire, Sad, Skull, Tahomaru Dororo, Ponytail, Yukata, Wheat, Dororo",
    "description": "Dororo",
    "link_thumb": "https://live.staticflickr.com/65535/48609889057_840f5c004a_n.jpg",
    "id_album": "64149076",
    "total_view": 93
  },
  {
    "total_img": 752,
    "number_page": 4,
    "title": "Black Hair",
    "tag": "Black Hair,",
    "description": "Black Hair",
    "link_thumb": "https://live.staticflickr.com/65535/48066328668_b63565e5e3_n.jpg",
    "id_album": "1485204216",
    "total_view": 752
  },
  {
    "total_img": 2585,
    "number_page": 13,
    "title": "Boy",
    "tag": "Boy,",
    "description": "Boy",
    "link_thumb": "https://live.staticflickr.com/65535/51541746745_541d4f2e57_n.jpg",
    "id_album": "-1694302085",
    "total_view": 2226
  },
  {
    "total_img": 20,
    "number_page": 1,
    "title": "Crying",
    "tag": "Crying,",
    "description": "Crying",
    "link_thumb": "https://live.staticflickr.com/65535/48065950277_1d983bf5cd_n.jpg",
    "id_album": "-1836532534",
    "total_view": 20
  },
  {
    "total_img": 59,
    "number_page": 1,
    "title": "Dororo Anime",
    "tag": "Dororo Anime,",
    "description": "Dororo Anime",
    "link_thumb": "https://live.staticflickr.com/65535/48609918077_e6db5599f5_n.jpg",
    "id_album": "-1175227425",
    "total_view": 59
  },
  {
    "total_img": 84,
    "number_page": 1,
    "title": "Hyakkimaru Dororo",
    "tag": "Hyakkimaru Dororo,",
    "description": "Hyakkimaru Dororo",
    "link_thumb": "https://live.staticflickr.com/65535/48609918077_e6db5599f5_n.jpg",
    "id_album": "1655147777",
    "total_view": 84
  },
  {
    "total_img": 1729,
    "number_page": 9,
    "title": "Long Hair",
    "tag": "Long Hair,",
    "description": "Long Hair",
    "link_thumb": "https://live.staticflickr.com/65535/48066953706_2771a62522_n.jpg",
    "id_album": "186170098",
    "total_view": 1729
  },
  {
    "total_img": 6118,
    "number_page": 31,
    "title": "Sad",
    "tag": "Sad,",
    "description": "Sad",
    "link_thumb": "https://live.staticflickr.com/65535/51540482412_c1e8ea7f3c_n.jpg",
    "id_album": "-1029026589",
    "total_view": 6105
  },
  {
    "total_img": 42,
    "number_page": 1,
    "title": "Yukata",
    "tag": "Yukata,",
    "description": "Yukata",
    "link_thumb": "https://live.staticflickr.com/65535/48065934602_f9befc5ac7_n.jpg",
    "id_album": "-1501301956",
    "total_view": 42
  }
]