[
  {
    "link_thumb": "https://live.staticflickr.com/65535/48054694011_1f79ed702f_n.jpg",
    "id_album": "-640474280",
    "description": "SailorMoon_136337,[isGirlAnime],[isBoyAnime],[Sailor Moon],[SailorMoon]",
    "title": "SailorMoon_136337",
    "link_img": "https://live.staticflickr.com/65535/48054694011_8f8f5eb117_o.jpg",
    "id_image": "SailorMoon_136337",
    "count_view": 0
  },
  {
    "link_thumb": "https://live.staticflickr.com/65535/48054739988_3af1775280_n.jpg",
    "id_album": "-640474280",
    "description": "SailorMoon_136338,[isGirlAnime],[Sailor Moon],[SailorMoon]",
    "title": "SailorMoon_136338",
    "link_img": "https://live.staticflickr.com/65535/48054739988_cc8e01fa4b_o.jpg",
    "id_image": "SailorMoon_136338",
    "count_view": 0
  },
  {
    "link_thumb": "https://live.staticflickr.com/65535/48054740588_6080c95d01_n.jpg",
    "id_album": "-640474280",
    "description": "SailorMoon_207265,[isGirlAnime],[Sailor Moon],[SailorMoon]",
    "title": "SailorMoon_207265",
    "link_img": "https://live.staticflickr.com/65535/48054740588_2b934ceff5_o.jpg",
    "id_image": "SailorMoon_207265",
    "count_view": 0
  },
  {
    "link_thumb": "https://live.staticflickr.com/65535/48054695376_76be1ab4ac_n.jpg",
    "id_album": "-640474280",
    "description": "SailorMoon_223014,[isGirlAnime],[isSadAnime],[isSadAnimeGirl],[isCuteAnime],[isGirlEarsNekoAnime],[isGirlsLoliAnime],[Sailor Moon],[SailorMoon]",
    "title": "SailorMoon_223014",
    "link_img": "https://live.staticflickr.com/65535/48054695376_cce7ff306c_o.jpg",
    "id_image": "SailorMoon_223014",
    "count_view": 0
  },
  {
    "link_thumb": "https://live.staticflickr.com/65535/48054695706_d3f674b576_n.jpg",
    "id_album": "-640474280",
    "description": "SailorMoon_226786,[isGirlAnime],[isCuteAnime],[Sailor Moon],[SailorMoon]",
    "title": "SailorMoon_226786",
    "link_img": "https://live.staticflickr.com/65535/48054695706_f62b8cf070_o.jpg",
    "id_image": "SailorMoon_226786",
    "count_view": 0
  },
  {
    "link_thumb": "https://live.staticflickr.com/65535/48054695906_fa63408e4d_n.jpg",
    "id_album": "-640474280",
    "description": "SailorMoon_226787,[isGirlAnime],[isSadAnime],[isSadAnimeGirl],[isCuteAnime],[isGirlsLoliAnime],[Sailor Moon],[SailorMoon]",
    "title": "SailorMoon_226787",
    "link_img": "https://live.staticflickr.com/65535/48054695906_725c4c37e2_o.jpg",
    "id_image": "SailorMoon_226787",
    "count_view": 0
  },
  {
    "link_thumb": "https://live.staticflickr.com/65535/48054742523_ee7033bcc0_n.jpg",
    "id_album": "-640474280",
    "description": "SailorMoon_227991,[isGirlAnime],[isCuteAnime],[Sailor Moon],[SailorMoon]",
    "title": "SailorMoon_227991",
    "link_img": "https://live.staticflickr.com/65535/48054742523_5f51c03f36_o.jpg",
    "id_image": "SailorMoon_227991",
    "count_view": 0
  },
  {
    "link_thumb": "https://live.staticflickr.com/65535/48054789292_1668dd2580_n.jpg",
    "id_album": "-640474280",
    "description": "SailorMoon_228011,[isGirlAnime],[isSadAnime],[isSadAnimeGirl],[isCuteAnime],[Sailor Moon],[SailorMoon]",
    "title": "SailorMoon_228011",
    "link_img": "https://live.staticflickr.com/65535/48054789292_e18b05ef16_o.jpg",
    "id_image": "SailorMoon_228011",
    "count_view": 0
  },
  {
    "link_thumb": "https://live.staticflickr.com/65535/48054744133_f87735087e_n.jpg",
    "id_album": "-640474280",
    "description": "SailorMoon_228013,[isGirlAnime],[Sailor Moon],[SailorMoon]",
    "title": "SailorMoon_228013",
    "link_img": "https://live.staticflickr.com/65535/48054744133_68b793dba0_o.jpg",
    "id_image": "SailorMoon_228013",
    "count_view": 0
  },
  {
    "link_thumb": "https://live.staticflickr.com/65535/48054745428_7a34a81d33_n.jpg",
    "id_album": "-640474280",
    "description": "SailorMoon_228021,[isGirlAnime],[Sailor Moon],[SailorMoon]",
    "title": "SailorMoon_228021",
    "link_img": "https://live.staticflickr.com/65535/48054745428_ea451b75e9_o.jpg",
    "id_image": "SailorMoon_228021",
    "count_view": 0
  },
  {
    "link_thumb": "https://live.staticflickr.com/65535/48054792147_6a47513f5e_n.jpg",
    "id_album": "-640474280",
    "description": "SailorMoon_228025,[isGirlAnime],[isSadAnime],[isSadAnimeGirl],[isCuteAnime],[Sailor Moon],[SailorMoon]",
    "title": "SailorMoon_228025",
    "link_img": "https://live.staticflickr.com/65535/48054792147_70e3169c62_o.jpg",
    "id_image": "SailorMoon_228025",
    "count_view": 0
  },
  {
    "link_thumb": "https://live.staticflickr.com/65535/48054702266_53d2538268_n.jpg",
    "id_album": "-640474280",
    "description": "SailorMoon_242992,[isGirlAnime],[isSadAnime],[isSadAnimeGirl],[isCuteAnime],[Sailor Moon],[SailorMoon]",
    "title": "SailorMoon_242992",
    "link_img": "https://live.staticflickr.com/65535/48054702266_b8a57e084d_o.jpg",
    "id_image": "SailorMoon_242992",
    "count_view": 0
  },
  {
    "link_thumb": "https://live.staticflickr.com/65535/48054704281_809f403fff_n.jpg",
    "id_album": "-640474280",
    "description": "SailorMoon_384829,[isGirlAnime],[isSadAnime],[isSadAnimeGirl],[isCuteAnime],[Sailor Moon],[SailorMoon]",
    "title": "SailorMoon_384829",
    "link_img": "https://live.staticflickr.com/65535/48054704281_2b12c2c030_o.jpg",
    "id_image": "SailorMoon_384829",
    "count_view": 0
  },
  {
    "link_thumb": "https://live.staticflickr.com/65535/48054796187_ce103d2ef0_n.jpg",
    "id_album": "-640474280",
    "description": "SailorMoon_392694,[isGirlAnime],[isSadAnime],[isSadAnimeGirl],[isCuteAnime],[isGirlsLoliAnime],[Sailor Moon],[SailorMoon]",
    "title": "SailorMoon_392694",
    "link_img": "https://live.staticflickr.com/65535/48054796187_f187bd2fb4_o.jpg",
    "id_image": "SailorMoon_392694",
    "count_view": 0
  },
  {
    "link_thumb": "https://live.staticflickr.com/65535/48054797237_9841151a4f_n.jpg",
    "id_album": "-640474280",
    "description": "SailorMoon_453963,[isGirlAnime],[isSadAnime],[isSadAnimeGirl],[isCuteAnime],[Sailor Moon],[SailorMoon]",
    "title": "SailorMoon_453963",
    "link_img": "https://live.staticflickr.com/65535/48054797237_56a62e5237_o.jpg",
    "id_image": "SailorMoon_453963",
    "count_view": 0
  },
  {
    "link_thumb": "https://live.staticflickr.com/65535/48054706016_0919e730a5_n.jpg",
    "id_album": "-640474280",
    "description": "SailorMoon_453965,[isGirlAnime],[isSadAnime],[isSadAnimeGirl],[isCuteAnime],[isGirlsLoliAnime],[Sailor Moon],[SailorMoon]",
    "title": "SailorMoon_453965",
    "link_img": "https://live.staticflickr.com/65535/48054706016_e0b8a3739f_o.jpg",
    "id_image": "SailorMoon_453965",
    "count_view": 0
  },
  {
    "link_thumb": "https://live.staticflickr.com/65535/48054799277_8aba523c9a_n.jpg",
    "id_album": "-640474280",
    "description": "SailorMoon_453972,[isGirlAnime],[isSadAnime],[isSadAnimeGirl],[isCuteAnime],[isGirlsLoliAnime],[Sailor Moon],[SailorMoon]",
    "title": "SailorMoon_453972",
    "link_img": "https://live.staticflickr.com/65535/48054799277_8e5d633e6f_o.jpg",
    "id_image": "SailorMoon_453972",
    "count_view": 0
  },
  {
    "link_thumb": "https://live.staticflickr.com/65535/48054753703_9fd3dda280_n.jpg",
    "id_album": "-640474280",
    "description": "SailorMoon_453973,[isGirlAnime],[isSadAnime],[isSadAnimeGirl],[isCuteAnime],[isGirlsLoliAnime],[Sailor Moon],[SailorMoon]",
    "title": "SailorMoon_453973",
    "link_img": "https://live.staticflickr.com/65535/48054753703_30eb908b21_o.jpg",
    "id_image": "SailorMoon_453973",
    "count_view": 0
  },
  {
    "link_thumb": "https://live.staticflickr.com/65535/48054709886_9aeab9b6b8_n.jpg",
    "id_album": "-640474280",
    "description": "SailorMoon_454762,[isGirlAnime],[isSadAnime],[isSadAnimeGirl],[isCuteAnime],[isGirlsLoliAnime],[Sailor Moon],[SailorMoon]",
    "title": "SailorMoon_454762",
    "link_img": "https://live.staticflickr.com/65535/48054709886_f762049041_o.jpg",
    "id_image": "SailorMoon_454762",
    "count_view": 0
  },
  {
    "link_thumb": "https://live.staticflickr.com/65535/48054802102_e345172027_n.jpg",
    "id_album": "-640474280",
    "description": "SailorMoon_454764,[isGirlAnime],[isSadAnime],[isSadAnimeGirl],[isCuteAnime],[Sailor Moon],[SailorMoon]",
    "title": "SailorMoon_454764",
    "link_img": "https://live.staticflickr.com/65535/48054802102_72f7a727e8_o.jpg",
    "id_image": "SailorMoon_454764",
    "count_view": 0
  },
  {
    "link_thumb": "https://live.staticflickr.com/65535/48054758428_297e8fea21_n.jpg",
    "id_album": "-640474280",
    "description": "SailorMoon_555123,[isGirlAnime],[isSadAnime],[isSadAnimeGirl],[isCuteAnime],[isGirlsLoliAnime],[Sailor Moon],[SailorMoon]",
    "title": "SailorMoon_555123",
    "link_img": "https://live.staticflickr.com/65535/48054758428_111f885d59_o.jpg",
    "id_image": "SailorMoon_555123",
    "count_view": 0
  },
  {
    "link_thumb": "https://live.staticflickr.com/65535/48054715201_b99fbbd1a6_n.jpg",
    "id_album": "-640474280",
    "description": "SailorMoon_656076,[isGirlAnime],[isSadAnime],[isSadAnimeGirl],[isCuteAnime],[isGirlsLoliAnime],[Sailor Moon],[SailorMoon]",
    "title": "SailorMoon_656076",
    "link_img": "https://live.staticflickr.com/65535/48054715201_fa0c6fda6b_o.jpg",
    "id_image": "SailorMoon_656076",
    "count_view": 0
  },
  {
    "link_thumb": "https://live.staticflickr.com/65535/48054762403_0f5170e5ab_n.jpg",
    "id_album": "-640474280",
    "description": "SailorMoon_656098,[isGirlAnime],[isSadAnime],[isSadAnimeGirl],[isCuteAnime],[isGirlsLoliAnime],[Sailor Moon],[SailorMoon]",
    "title": "SailorMoon_656098",
    "link_img": "https://live.staticflickr.com/65535/48054762403_98f84e9135_o.jpg",
    "id_image": "SailorMoon_656098",
    "count_view": 0
  },
  {
    "link_thumb": "https://live.staticflickr.com/65535/48054762938_1d07884e70_n.jpg",
    "id_album": "-640474280",
    "description": "SailorMoon_656101,[isGirlAnime],[isSadAnime],[isSadAnimeGirl],[isCuteAnime],[isGirlsLoliAnime],[Sailor Moon],[SailorMoon]",
    "title": "SailorMoon_656101",
    "link_img": "https://live.staticflickr.com/65535/48054762938_d88ee4874a_o.jpg",
    "id_image": "SailorMoon_656101",
    "count_view": 0
  },
  {
    "link_thumb": "https://live.staticflickr.com/65535/48054809157_e6703c7453_n.jpg",
    "id_album": "-640474280",
    "description": "SailorMoon_656102,[isGirlAnime],[isSadAnime],[isSadAnimeGirl],[isCuteAnime],[isGirlsLoliAnime],[Sailor Moon],[SailorMoon]",
    "title": "SailorMoon_656102",
    "link_img": "https://live.staticflickr.com/65535/48054809157_8a67305b32_o.jpg",
    "id_image": "SailorMoon_656102",
    "count_view": 0
  },
  {
    "link_thumb": "https://live.staticflickr.com/65535/48054809837_be4397090b_n.jpg",
    "id_album": "-640474280",
    "description": "SailorMoon_656108,[isGirlAnime],[isSadAnime],[isSadAnimeGirl],[isCuteAnime],[isGirlsLoliAnime],[Sailor Moon],[SailorMoon]",
    "title": "SailorMoon_656108",
    "link_img": "https://live.staticflickr.com/65535/48054809837_9958d13de4_o.jpg",
    "id_image": "SailorMoon_656108",
    "count_view": 0
  },
  {
    "link_thumb": "https://live.staticflickr.com/65535/48054810017_20d27e4c37_n.jpg",
    "id_album": "-640474280",
    "description": "SailorMoon_656109,[isGirlAnime],[isSadAnime],[isSadAnimeGirl],[isCuteAnime],[isGirlsLoliAnime],[Sailor Moon],[SailorMoon]",
    "title": "SailorMoon_656109",
    "link_img": "https://live.staticflickr.com/65535/48054810017_698f4c39db_o.jpg",
    "id_image": "SailorMoon_656109",
    "count_view": 0
  },
  {
    "link_thumb": "https://live.staticflickr.com/65535/48054764328_36062d128b_n.jpg",
    "id_album": "-640474280",
    "description": "SailorMoon_656111,[isGirlAnime],[isSadAnime],[isSadAnimeGirl],[isCuteAnime],[isGirlsLoliAnime],[Sailor Moon],[SailorMoon]",
    "title": "SailorMoon_656111",
    "link_img": "https://live.staticflickr.com/65535/48054764328_58795d56c7_o.jpg",
    "id_image": "SailorMoon_656111",
    "count_view": 0
  },
  {
    "link_thumb": "https://live.staticflickr.com/65535/48054810682_e13f7ee2e6_n.jpg",
    "id_album": "-640474280",
    "description": "SailorMoon_656112,[isGirlAnime],[isSadAnime],[isSadAnimeGirl],[isCuteAnime],[isGirlsLoliAnime],[Sailor Moon],[SailorMoon]",
    "title": "SailorMoon_656112",
    "link_img": "https://live.staticflickr.com/65535/48054810682_97c5423599_o.jpg",
    "id_image": "SailorMoon_656112",
    "count_view": 0
  },
  {
    "link_thumb": "https://live.staticflickr.com/65535/48054765838_75e4536d61_n.jpg",
    "id_album": "-640474280",
    "description": "SailorMoon_656118,[isGirlAnime],[isCuteAnime],[isGirlsLoliAnime],[Sailor Moon],[SailorMoon]",
    "title": "SailorMoon_656118",
    "link_img": "https://live.staticflickr.com/65535/48054765838_a0a693f96a_o.jpg",
    "id_image": "SailorMoon_656118",
    "count_view": 0
  },
  {
    "link_thumb": "https://live.staticflickr.com/65535/48054813212_c0b3009be4_n.jpg",
    "id_album": "-640474280",
    "description": "SailorMoon_656122,[isGirlAnime],[isSadAnime],[isSadAnimeGirl],[isCuteAnime],[isGirlsLoliAnime],[Sailor Moon],[SailorMoon]",
    "title": "SailorMoon_656122",
    "link_img": "https://live.staticflickr.com/65535/48054813212_b511318318_o.jpg",
    "id_image": "SailorMoon_656122",
    "count_view": 0
  },
  {
    "link_thumb": "https://live.staticflickr.com/65535/48054723781_71c722b8c0_n.jpg",
    "id_album": "-640474280",
    "description": "SailorMoon_656129,[isGirlAnime],[isSadAnime],[isSadAnimeGirl],[isCuteAnime],[isGirlsLoliAnime],[Sailor Moon],[SailorMoon]",
    "title": "SailorMoon_656129",
    "link_img": "https://live.staticflickr.com/65535/48054723781_f2058ab6e2_o.jpg",
    "id_image": "SailorMoon_656129",
    "count_view": 0
  },
  {
    "link_thumb": "https://live.staticflickr.com/65535/48054724606_ea7f0802c9_n.jpg",
    "id_album": "-640474280",
    "description": "SailorMoon_656132,[isRandom],[Sailor Moon],[SailorMoon]",
    "title": "SailorMoon_656132",
    "link_img": "https://live.staticflickr.com/65535/48054724606_37725a8c47_o.jpg",
    "id_image": "SailorMoon_656132",
    "count_view": 0
  },
  {
    "link_thumb": "https://live.staticflickr.com/65535/48054816807_6b26a6e4b0_n.jpg",
    "id_album": "-640474280",
    "description": "SailorMoon_656133,[isGirlAnime],[isSadAnime],[isSadAnimeGirl],[isCuteAnime],[isGirlsLoliAnime],[Sailor Moon],[SailorMoon]",
    "title": "SailorMoon_656133",
    "link_img": "https://live.staticflickr.com/65535/48054816807_bb832fba52_o.jpg",
    "id_image": "SailorMoon_656133",
    "count_view": 0
  },
  {
    "link_thumb": "https://live.staticflickr.com/65535/48054771868_04b7df8fca_n.jpg",
    "id_album": "-640474280",
    "description": "SailorMoon_656139,[isGirlAnime],[isSadAnime],[isSadAnimeGirl],[isCuteAnime],[isGirlsLoliAnime],[Sailor Moon],[SailorMoon]",
    "title": "SailorMoon_656139",
    "link_img": "https://live.staticflickr.com/65535/48054771868_09377e0146_o.jpg",
    "id_image": "SailorMoon_656139",
    "count_view": 0
  },
  {
    "link_thumb": "https://live.staticflickr.com/65535/48054728151_d5f846c25d_n.jpg",
    "id_album": "-640474280",
    "description": "SailorMoon_658160,[isGirlAnime],[isSadAnime],[isSadAnimeGirl],[isCuteAnime],[isGirlsLoliAnime],[Sailor Moon],[SailorMoon]",
    "title": "SailorMoon_658160",
    "link_img": "https://live.staticflickr.com/65535/48054728151_137730e5ba_o.jpg",
    "id_image": "SailorMoon_658160",
    "count_view": 0
  },
  {
    "link_thumb": "https://live.staticflickr.com/65535/48054822522_355286e95d_n.jpg",
    "id_album": "-640474280",
    "description": "SailorMoon_677100,[isGirlAnime],[isSadAnime],[isSadAnimeGirl],[isCuteAnime],[isGirlsLoliAnime],[Sailor Moon],[SailorMoon]",
    "title": "SailorMoon_677100",
    "link_img": "https://live.staticflickr.com/65535/48054822522_70f717ac9d_o.jpg",
    "id_image": "SailorMoon_677100",
    "count_view": 0
  },
  {
    "link_thumb": "https://live.staticflickr.com/65535/48054776213_c33762190b_n.jpg",
    "id_album": "-640474280",
    "description": "SailorMoon_688686,[isGirlAnime],[isSadAnime],[isSadAnimeGirl],[isCuteAnime],[isGirlsLoliAnime],[Sailor Moon],[SailorMoon]",
    "title": "SailorMoon_688686",
    "link_img": "https://live.staticflickr.com/65535/48054776213_cd2395695d_o.jpg",
    "id_image": "SailorMoon_688686",
    "count_view": 0
  },
  {
    "link_thumb": "https://live.staticflickr.com/65535/48054823422_ae8736c90e_n.jpg",
    "id_album": "-640474280",
    "description": "SailorMoon_705910,[isGirlAnime],[isSadAnime],[isSadAnimeGirl],[isCuteAnime],[isGirlsLoliAnime],[Sailor Moon],[SailorMoon]",
    "title": "SailorMoon_705910",
    "link_img": "https://live.staticflickr.com/65535/48054823422_2199735ee5_o.jpg",
    "id_image": "SailorMoon_705910",
    "count_view": 0
  },
  {
    "link_thumb": "https://live.staticflickr.com/65535/48054779023_75cb351bbf_n.jpg",
    "id_album": "-640474280",
    "description": "SailorMoon_722629,[isGirlAnime],[isSadAnime],[isSadAnimeGirl],[isCuteAnime],[isGirlsLoliAnime],[Sailor Moon],[SailorMoon]",
    "title": "SailorMoon_722629",
    "link_img": "https://live.staticflickr.com/65535/48054779023_4ba71ece88_o.jpg",
    "id_image": "SailorMoon_722629",
    "count_view": 0
  },
  {
    "link_thumb": "https://live.staticflickr.com/65535/48054780648_ab612f0f61_n.jpg",
    "id_album": "-640474280",
    "description": "SailorMoon_753128,[isGirlAnime],[isSadAnime],[isSadAnimeGirl],[isCuteAnime],[isGirlsLoliAnime],[Sailor Moon],[SailorMoon]",
    "title": "SailorMoon_753128",
    "link_img": "https://live.staticflickr.com/65535/48054780648_3ae6998cb3_o.jpg",
    "id_image": "SailorMoon_753128",
    "count_view": 0
  },
  {
    "link_thumb": "https://live.staticflickr.com/65535/48054735231_88dff2ee5d_n.jpg",
    "id_album": "-640474280",
    "description": "SailorMoon_756705,[isGirlAnime],[isSadAnime],[isSadAnimeGirl],[isCuteAnime],[isGirlsLoliAnime],[Sailor Moon],[SailorMoon]",
    "title": "SailorMoon_756705",
    "link_img": "https://live.staticflickr.com/65535/48054735231_8952c081d6_o.jpg",
    "id_image": "SailorMoon_756705",
    "count_view": 0
  },
  {
    "link_thumb": "https://live.staticflickr.com/65535/48054737226_b1f0b613b9_n.jpg",
    "id_album": "-640474280",
    "description": "SailorMoon_770594,[isGirlAnime],[isSadAnime],[isSadAnimeGirl],[isCuteAnime],[isGirlsLoliAnime],[Sailor Moon],[SailorMoon]",
    "title": "SailorMoon_770594",
    "link_img": "https://live.staticflickr.com/65535/48054737226_d9d779edf2_o.jpg",
    "id_image": "SailorMoon_770594",
    "count_view": 0
  },
  {
    "link_thumb": "https://live.staticflickr.com/65535/48054737421_ae444602cb_n.jpg",
    "id_album": "-640474280",
    "description": "SailorMoon_770597,[isGirlAnime],[isSadAnime],[isSadAnimeGirl],[isCuteAnime],[isGirlsLoliAnime],[Sailor Moon],[SailorMoon]",
    "title": "SailorMoon_770597",
    "link_img": "https://live.staticflickr.com/65535/48054737421_28b4367299_o.jpg",
    "id_image": "SailorMoon_770597",
    "count_view": 0
  },
  {
    "link_thumb": "https://live.staticflickr.com/65535/48054830762_25186bc4d4_n.jpg",
    "id_album": "-640474280",
    "description": "SailorMoon_783731,[isGirlAnime],[isSadAnime],[isSadAnimeGirl],[isCuteAnime],[isGirlsLoliAnime],[Sailor Moon],[SailorMoon]",
    "title": "SailorMoon_783731",
    "link_img": "https://live.staticflickr.com/65535/48054830762_b633f4917d_o.jpg",
    "id_image": "SailorMoon_783731",
    "count_view": 0
  },
  {
    "link_thumb": "https://live.staticflickr.com/65535/48054784063_850cef15c4_n.jpg",
    "id_album": "-640474280",
    "description": "SailorMoon_783732,[isGirlAnime],[isSadAnime],[isSadAnimeGirl],[isCuteAnime],[isGirlsLoliAnime],[Sailor Moon],[SailorMoon]",
    "title": "SailorMoon_783732",
    "link_img": "https://live.staticflickr.com/65535/48054784063_d4a2be07dd_o.jpg",
    "id_image": "SailorMoon_783732",
    "count_view": 0
  },
  {
    "link_thumb": "https://live.staticflickr.com/65535/48054785003_e0bd41442c_n.jpg",
    "id_album": "-640474280",
    "description": "SailorMoon_824247,[isGirlAnime],[isSadAnime],[isSadAnimeGirl],[isCuteAnime],[isGirlsLoliAnime],[Sailor Moon],[SailorMoon]",
    "title": "SailorMoon_824247",
    "link_img": "https://live.staticflickr.com/65535/48054785003_a45345bf52_o.jpg",
    "id_image": "SailorMoon_824247",
    "count_view": 0
  },
  {
    "link_thumb": "https://live.staticflickr.com/65535/48054739891_c01986d508_n.jpg",
    "id_album": "-640474280",
    "description": "SailorMoon_916940,[isGirlAnime],[isSadAnime],[isSadAnimeGirl],[isCuteAnime],[isGirlsLoliAnime],[Sailor Moon],[SailorMoon]",
    "title": "SailorMoon_916940",
    "link_img": "https://live.staticflickr.com/65535/48054739891_d4e6db07fb_o.jpg",
    "id_image": "SailorMoon_916940",
    "count_view": 0
  },
  {
    "link_thumb": "https://live.staticflickr.com/65535/48054786338_d79ec3dc5e_n.jpg",
    "id_album": "-640474280",
    "description": "SailorMoon_917885,[isGirlAnime],[isSadAnime],[isSadAnimeGirl],[isCuteAnime],[isGirlsLoliAnime],[Sailor Moon],[SailorMoon]",
    "title": "SailorMoon_917885",
    "link_img": "https://live.staticflickr.com/65535/48054786338_08e590d828_o.jpg",
    "id_image": "SailorMoon_917885",
    "count_view": 0
  },
  {
    "link_thumb": "https://live.staticflickr.com/65535/48054740631_d6f7b04393_n.jpg",
    "id_album": "-640474280",
    "description": "SailorMoon_917887,[isGirlAnime],[isSadAnime],[isSadAnimeGirl],[isCuteAnime],[isGirlsLoliAnime],[Sailor Moon],[SailorMoon]",
    "title": "SailorMoon_917887",
    "link_img": "https://live.staticflickr.com/65535/48054740631_c67d2f1a21_o.jpg",
    "id_image": "SailorMoon_917887",
    "count_view": 0
  },
  {
    "link_thumb": "https://live.staticflickr.com/65535/48054740856_79ea44688f_n.jpg",
    "id_album": "-640474280",
    "description": "SailorMoon_924855,[isGirlAnime],[isSadAnime],[isSadAnimeGirl],[isCuteAnime],[isGirlsLoliAnime],[Sailor Moon],[SailorMoon]",
    "title": "SailorMoon_924855",
    "link_img": "https://live.staticflickr.com/65535/48054740856_f84e17e5a4_o.jpg",
    "id_image": "SailorMoon_924855",
    "count_view": 0
  },
  {
    "link_thumb": "https://live.staticflickr.com/65535/48054788848_9e5f2e9092_n.jpg",
    "id_album": "-640474280",
    "description": "SailorMoon_977752,[isGirlAnime],[isSadAnime],[isSadAnimeGirl],[isCuteAnime],[isGirlsLoliAnime],[isBlackAnime],[Sailor Moon],[SailorMoon]",
    "title": "SailorMoon_977752",
    "link_img": "https://live.staticflickr.com/65535/48054788848_00d879949c_o.jpg",
    "id_image": "SailorMoon_977752",
    "count_view": 0
  }
]