[
  {
    "link_thumb": "https://live.staticflickr.com/65535/47890991201_a2b085a353_n.jpg",
    "id_album": "406431601",
    "description": "AjinDemiHuman_847394",
    "title": "AjinDemiHuman_847394",
    "link_img": "https://live.staticflickr.com/65535/47890991201_0f1bef957e_o.jpg",
    "id_image": "AjinDemiHuman_847394",
    "count_view": 0
  },
  {
    "link_thumb": "https://live.staticflickr.com/65535/46975352555_14d7f965ef_n.jpg",
    "id_album": "406431601",
    "description": "AliceInWonderland_845347",
    "title": "AliceInWonderland_845347",
    "link_img": "https://live.staticflickr.com/65535/46975352555_17d531c9f0_o.jpg",
    "id_image": "AliceInWonderland_845347",
    "count_view": 0
  },
  {
    "link_thumb": "https://live.staticflickr.com/65535/47841570342_ed7481f474_n.jpg",
    "id_album": "406431601",
    "description": "Aria_869291",
    "title": "Aria_869291",
    "link_img": "https://live.staticflickr.com/65535/47841570342_5a8b2e42cc_o.jpg",
    "id_image": "Aria_869291",
    "count_view": 0
  },
  {
    "link_thumb": "https://live.staticflickr.com/65535/47122734574_9cd5ba1e7f_n.jpg",
    "id_album": "406431601",
    "description": "Citrus_901542",
    "title": "Citrus_901542",
    "link_img": "https://live.staticflickr.com/65535/47122734574_28b7aebd47_o.jpg",
    "id_image": "Citrus_901542",
    "count_view": 0
  },
  {
    "link_thumb": "https://live.staticflickr.com/65535/46996148445_85f4376729_n.jpg",
    "id_album": "406431601",
    "description": "Citrus_903714",
    "title": "Citrus_903714",
    "link_img": "https://live.staticflickr.com/65535/46996148445_79fb82307a_o.jpg",
    "id_image": "Citrus_903714",
    "count_view": 0
  },
  {
    "link_thumb": "https://live.staticflickr.com/65535/47972995468_117d0914a1_n.jpg",
    "id_album": "406431601",
    "description": "EverlastingSummer_917560",
    "title": "EverlastingSummer_917560",
    "link_img": "https://live.staticflickr.com/65535/47972995468_1f6a49bc73_o.jpg",
    "id_image": "EverlastingSummer_917560",
    "count_view": 0
  },
  {
    "link_thumb": "https://live.staticflickr.com/65535/47973048216_eae406a04f_n.jpg",
    "id_album": "406431601",
    "description": "EverlastingSummer_917891",
    "title": "EverlastingSummer_917891",
    "link_img": "https://live.staticflickr.com/65535/47973048216_69179c19c7_o.jpg",
    "id_image": "EverlastingSummer_917891",
    "count_view": 0
  },
  {
    "link_thumb": "https://live.staticflickr.com/65535/47973048586_535c8fdb9b_n.jpg",
    "id_album": "406431601",
    "description": "EverlastingSummer_918009",
    "title": "EverlastingSummer_918009",
    "link_img": "https://live.staticflickr.com/65535/47973048586_984f7a776d_o.jpg",
    "id_image": "EverlastingSummer_918009",
    "count_view": 0
  },
  {
    "link_thumb": "https://live.staticflickr.com/65535/47973048971_19b9d9907c_n.jpg",
    "id_album": "406431601",
    "description": "EverlastingSummer_918010",
    "title": "EverlastingSummer_918010",
    "link_img": "https://live.staticflickr.com/65535/47973048971_2b69c6d9e4_o.jpg",
    "id_image": "EverlastingSummer_918010",
    "count_view": 0
  },
  {
    "link_thumb": "https://live.staticflickr.com/65535/47972988262_0b5f0719df_n.jpg",
    "id_album": "406431601",
    "description": "EverlastingSummer_918290",
    "title": "EverlastingSummer_918290",
    "link_img": "https://live.staticflickr.com/65535/47972988262_2cfaa44487_o.jpg",
    "id_image": "EverlastingSummer_918290",
    "count_view": 0
  },
  {
    "link_thumb": "https://live.staticflickr.com/65535/47973050711_5db3273efb_n.jpg",
    "id_album": "406431601",
    "description": "EverlastingSummer_918293",
    "title": "EverlastingSummer_918293",
    "link_img": "https://live.staticflickr.com/65535/47973050711_d5dc1b5110_o.jpg",
    "id_image": "EverlastingSummer_918293",
    "count_view": 0
  },
  {
    "link_thumb": "https://live.staticflickr.com/65535/47984345316_560f3086d5_n.jpg",
    "id_album": "406431601",
    "description": "Girl_502394",
    "title": "Girl_502394",
    "link_img": "https://live.staticflickr.com/65535/47984345316_3b3eb0f2b7_o.jpg",
    "id_image": "Girl_502394",
    "count_view": 0
  },
  {
    "link_thumb": "https://live.staticflickr.com/65535/48048463711_777d86a129_n.jpg",
    "id_album": "406431601",
    "description": "Landscape_856987",
    "title": "Landscape_856987",
    "link_img": "https://live.staticflickr.com/65535/48048463711_a61f31916a_o.jpg",
    "id_image": "Landscape_856987",
    "count_view": 0
  },
  {
    "link_thumb": "https://live.staticflickr.com/65535/48074965573_0e885efaa6_n.jpg",
    "id_album": "406431601",
    "description": "Original_266127",
    "title": "Original_266127",
    "link_img": "https://live.staticflickr.com/65535/48074965573_158478fa61_o.jpg",
    "id_image": "Original_266127",
    "count_view": 0
  },
  {
    "link_thumb": "https://live.staticflickr.com/65535/48075490851_4884df460c_n.jpg",
    "id_album": "406431601",
    "description": "Original_678860",
    "title": "Original_678860",
    "link_img": "https://live.staticflickr.com/65535/48075490851_c7cbb0a09e_o.jpg",
    "id_image": "Original_678860",
    "count_view": 0
  },
  {
    "link_thumb": "https://live.staticflickr.com/65535/48075495956_335014af5f_n.jpg",
    "id_album": "406431601",
    "description": "Original_679726",
    "title": "Original_679726",
    "link_img": "https://live.staticflickr.com/65535/48075495956_20edb98583_o.jpg",
    "id_image": "Original_679726",
    "count_view": 0
  },
  {
    "link_thumb": "https://live.staticflickr.com/65535/48075500831_af362999a0_n.jpg",
    "id_album": "406431601",
    "description": "Original_680746",
    "title": "Original_680746",
    "link_img": "https://live.staticflickr.com/65535/48075500831_a1c60ee4f6_o.jpg",
    "id_image": "Original_680746",
    "count_view": 0
  },
  {
    "link_thumb": "https://live.staticflickr.com/65535/48075540748_982ce8f21d_n.jpg",
    "id_album": "406431601",
    "description": "Original_680895",
    "title": "Original_680895",
    "link_img": "https://live.staticflickr.com/65535/48075540748_1b81218de0_o.jpg",
    "id_image": "Original_680895",
    "count_view": 0
  },
  {
    "link_thumb": "https://live.staticflickr.com/65535/48075506741_de949eb1d1_n.jpg",
    "id_album": "406431601",
    "description": "Original_681368",
    "title": "Original_681368",
    "link_img": "https://live.staticflickr.com/65535/48075506741_91926c69db_o.jpg",
    "id_image": "Original_681368",
    "count_view": 0
  },
  {
    "link_thumb": "https://live.staticflickr.com/65535/48075620227_754d44fefd_n.jpg",
    "id_album": "406431601",
    "description": "Original_682555",
    "title": "Original_682555",
    "link_img": "https://live.staticflickr.com/65535/48075620227_03cefe4365_o.jpg",
    "id_image": "Original_682555",
    "count_view": 0
  },
  {
    "link_thumb": "https://live.staticflickr.com/65535/48075519026_f1557c3fe5_n.jpg",
    "id_album": "406431601",
    "description": "Original_683001",
    "title": "Original_683001",
    "link_img": "https://live.staticflickr.com/65535/48075519026_64e1a37617_o.jpg",
    "id_image": "Original_683001",
    "count_view": 0
  },
  {
    "link_thumb": "https://live.staticflickr.com/65535/48075668377_6ff6961e8e_n.jpg",
    "id_album": "406431601",
    "description": "Original_690897",
    "title": "Original_690897",
    "link_img": "https://live.staticflickr.com/65535/48075668377_d3f5ddbc28_o.jpg",
    "id_image": "Original_690897",
    "count_view": 0
  },
  {
    "link_thumb": "https://live.staticflickr.com/65535/48075669342_b65d990f98_n.jpg",
    "id_album": "406431601",
    "description": "Original_690904",
    "title": "Original_690904",
    "link_img": "https://live.staticflickr.com/65535/48075669342_26b35ef9e7_o.jpg",
    "id_image": "Original_690904",
    "count_view": 0
  },
  {
    "link_thumb": "https://live.staticflickr.com/65535/48075688227_996451e6b7_n.jpg",
    "id_album": "406431601",
    "description": "Original_692510",
    "title": "Original_692510",
    "link_img": "https://live.staticflickr.com/65535/48075688227_cb54cdb575_o.jpg",
    "id_image": "Original_692510",
    "count_view": 0
  },
  {
    "link_thumb": "https://live.staticflickr.com/65535/48075891237_da5fb7382d_n.jpg",
    "id_album": "406431601",
    "description": "Original_715843",
    "title": "Original_715843",
    "link_img": "https://live.staticflickr.com/65535/48075891237_f42e04831a_o.jpg",
    "id_image": "Original_715843",
    "count_view": 0
  },
  {
    "link_thumb": "https://live.staticflickr.com/65535/48075902477_d77bb64490_n.jpg",
    "id_album": "406431601",
    "description": "Original_717300",
    "title": "Original_717300",
    "link_img": "https://live.staticflickr.com/65535/48075902477_3ec182c0f1_o.jpg",
    "id_image": "Original_717300",
    "count_view": 0
  },
  {
    "link_thumb": "https://live.staticflickr.com/65535/48077025952_cbf278be12_n.jpg",
    "id_album": "406431601",
    "description": "Original_767446",
    "title": "Original_767446",
    "link_img": "https://live.staticflickr.com/65535/48077025952_190867fbdb_o.jpg",
    "id_image": "Original_767446",
    "count_view": 0
  },
  {
    "link_thumb": "https://live.staticflickr.com/65535/48077748838_c72495c763_n.jpg",
    "id_album": "406431601",
    "description": "Original_825213",
    "title": "Original_825213",
    "link_img": "https://live.staticflickr.com/65535/48077748838_8b23752dcf_o.jpg",
    "id_image": "Original_825213",
    "count_view": 0
  },
  {
    "link_thumb": "https://live.staticflickr.com/65535/48077729661_c40aabe9e4_n.jpg",
    "id_album": "406431601",
    "description": "Original_828573",
    "title": "Original_828573",
    "link_img": "https://live.staticflickr.com/65535/48077729661_04e7ef6a28_o.jpg",
    "id_image": "Original_828573",
    "count_view": 0
  },
  {
    "link_thumb": "https://live.staticflickr.com/65535/48077790893_8c4b890ddd_n.jpg",
    "id_album": "406431601",
    "description": "Original_833680",
    "title": "Original_833680",
    "link_img": "https://live.staticflickr.com/65535/48077790893_e9d8e91741_o.jpg",
    "id_image": "Original_833680",
    "count_view": 0
  },
  {
    "link_thumb": "https://live.staticflickr.com/65535/48078286246_0398bffe5c_n.jpg",
    "id_album": "406431601",
    "description": "Original_852044",
    "title": "Original_852044",
    "link_img": "https://live.staticflickr.com/65535/48078286246_72dc793df9_o.jpg",
    "id_image": "Original_852044",
    "count_view": 0
  },
  {
    "link_thumb": "https://live.staticflickr.com/65535/48078347198_50e17de2b6_n.jpg",
    "id_album": "406431601",
    "description": "Original_852341",
    "title": "Original_852341",
    "link_img": "https://live.staticflickr.com/65535/48078347198_fb0c56e445_o.jpg",
    "id_image": "Original_852341",
    "count_view": 0
  },
  {
    "link_thumb": "https://live.staticflickr.com/65535/48078356783_641f09568f_n.jpg",
    "id_album": "406431601",
    "description": "Original_852437",
    "title": "Original_852437",
    "link_img": "https://live.staticflickr.com/65535/48078356783_3f09af7364_o.jpg",
    "id_image": "Original_852437",
    "count_view": 0
  },
  {
    "link_thumb": "https://live.staticflickr.com/65535/48078364778_68bb43be54_n.jpg",
    "id_album": "406431601",
    "description": "Original_852671",
    "title": "Original_852671",
    "link_img": "https://live.staticflickr.com/65535/48078364778_6fe1a0de13_o.jpg",
    "id_image": "Original_852671",
    "count_view": 0
  },
  {
    "link_thumb": "https://live.staticflickr.com/65535/48078369763_4132b3b866_n.jpg",
    "id_album": "406431601",
    "description": "Original_852897",
    "title": "Original_852897",
    "link_img": "https://live.staticflickr.com/65535/48078369763_f4ecd2cb47_o.jpg",
    "id_image": "Original_852897",
    "count_view": 0
  },
  {
    "link_thumb": "https://live.staticflickr.com/65535/48079266717_fb7f20aacb_n.jpg",
    "id_album": "406431601",
    "description": "Original_858117",
    "title": "Original_858117",
    "link_img": "https://live.staticflickr.com/65535/48079266717_edec80f835_o.jpg",
    "id_image": "Original_858117",
    "count_view": 0
  },
  {
    "link_thumb": "https://live.staticflickr.com/65535/48079271802_fef42cec70_n.jpg",
    "id_album": "406431601",
    "description": "Original_858188",
    "title": "Original_858188",
    "link_img": "https://live.staticflickr.com/65535/48079271802_47d7a0408b_o.jpg",
    "id_image": "Original_858188",
    "count_view": 0
  },
  {
    "link_thumb": "https://live.staticflickr.com/65535/48079194321_a874dd3b3d_n.jpg",
    "id_album": "406431601",
    "description": "Original_859658",
    "title": "Original_859658",
    "link_img": "https://live.staticflickr.com/65535/48079194321_ce8108ef0c_o.jpg",
    "id_image": "Original_859658",
    "count_view": 0
  },
  {
    "link_thumb": "https://live.staticflickr.com/65535/48079231053_893dd2c461_n.jpg",
    "id_album": "406431601",
    "description": "Original_859903",
    "title": "Original_859903",
    "link_img": "https://live.staticflickr.com/65535/48079231053_1b03671ea4_o.jpg",
    "id_image": "Original_859903",
    "count_view": 0
  },
  {
    "link_thumb": "https://live.staticflickr.com/65535/48079243931_33fcc2d003_n.jpg",
    "id_album": "406431601",
    "description": "Original_863921",
    "title": "Original_863921",
    "link_img": "https://live.staticflickr.com/65535/48079243931_7f8fd222c6_o.jpg",
    "id_image": "Original_863921",
    "count_view": 0
  },
  {
    "link_thumb": "https://live.staticflickr.com/65535/48079292726_0fa6940dc0_n.jpg",
    "id_album": "406431601",
    "description": "Original_865427",
    "title": "Original_865427",
    "link_img": "https://live.staticflickr.com/65535/48079292726_c5c0e3e689_o.jpg",
    "id_image": "Original_865427",
    "count_view": 0
  },
  {
    "link_thumb": "https://live.staticflickr.com/65535/48080004797_48ce1b9ed9_n.jpg",
    "id_album": "406431601",
    "description": "Original_870325",
    "title": "Original_870325",
    "link_img": "https://live.staticflickr.com/65535/48080004797_561a1fc9db_o.jpg",
    "id_image": "Original_870325",
    "count_view": 0
  },
  {
    "link_thumb": "https://live.staticflickr.com/65535/48079911706_8d8a7152b5_n.jpg",
    "id_album": "406431601",
    "description": "Original_870671",
    "title": "Original_870671",
    "link_img": "https://live.staticflickr.com/65535/48079911706_bcd35d827a_o.jpg",
    "id_image": "Original_870671",
    "count_view": 0
  },
  {
    "link_thumb": "https://live.staticflickr.com/65535/48080011667_8209138de6_n.jpg",
    "id_album": "406431601",
    "description": "Original_870687",
    "title": "Original_870687",
    "link_img": "https://live.staticflickr.com/65535/48080011667_a1f8be33a8_o.jpg",
    "id_image": "Original_870687",
    "count_view": 0
  },
  {
    "link_thumb": "https://live.staticflickr.com/65535/48079931321_9342446419_n.jpg",
    "id_album": "406431601",
    "description": "Original_871339",
    "title": "Original_871339",
    "link_img": "https://live.staticflickr.com/65535/48079931321_fc2334862d_o.jpg",
    "id_image": "Original_871339",
    "count_view": 0
  },
  {
    "link_thumb": "https://live.staticflickr.com/65535/48079978753_7f88e971c3_n.jpg",
    "id_album": "406431601",
    "description": "Original_871596",
    "title": "Original_871596",
    "link_img": "https://live.staticflickr.com/65535/48079978753_ca9d27eafd_o.jpg",
    "id_image": "Original_871596",
    "count_view": 0
  },
  {
    "link_thumb": "https://live.staticflickr.com/65535/48080056062_f6e85b91fb_n.jpg",
    "id_album": "406431601",
    "description": "Original_871765",
    "title": "Original_871765",
    "link_img": "https://live.staticflickr.com/65535/48080056062_279d6a9409_o.jpg",
    "id_image": "Original_871765",
    "count_view": 0
  },
  {
    "link_thumb": "https://live.staticflickr.com/65535/48092015842_37367b25cf_n.jpg",
    "id_album": "406431601",
    "description": "Original_873167",
    "title": "Original_873167",
    "link_img": "https://live.staticflickr.com/65535/48092015842_47d323aae5_o.jpg",
    "id_image": "Original_873167",
    "count_view": 0
  },
  {
    "link_thumb": "https://live.staticflickr.com/65535/48082707302_0962cff371_n.jpg",
    "id_album": "406431601",
    "description": "Original_882720",
    "title": "Original_882720",
    "link_img": "https://live.staticflickr.com/65535/48082707302_bd65040dcb_o.jpg",
    "id_image": "Original_882720",
    "count_view": 0
  },
  {
    "link_thumb": "https://live.staticflickr.com/65535/48082744117_3c018f2de4_n.jpg",
    "id_album": "406431601",
    "description": "Original_886211",
    "title": "Original_886211",
    "link_img": "https://live.staticflickr.com/65535/48082744117_3d23a212b6_o.jpg",
    "id_image": "Original_886211",
    "count_view": 0
  },
  {
    "link_thumb": "https://live.staticflickr.com/65535/48082643871_9758831b57_n.jpg",
    "id_album": "406431601",
    "description": "Original_886310",
    "title": "Original_886310",
    "link_img": "https://live.staticflickr.com/65535/48082643871_2af149f568_o.jpg",
    "id_image": "Original_886310",
    "count_view": 0
  },
  {
    "link_thumb": "https://live.staticflickr.com/65535/48085482507_bda702e498_n.jpg",
    "id_album": "406431601",
    "description": "Original_889182",
    "title": "Original_889182",
    "link_img": "https://live.staticflickr.com/65535/48085482507_8b9c9bb9c3_o.jpg",
    "id_image": "Original_889182",
    "count_view": 0
  },
  {
    "link_thumb": "https://live.staticflickr.com/65535/48092203577_60d9e7a7fb_n.jpg",
    "id_album": "406431601",
    "description": "Original_902987",
    "title": "Original_902987",
    "link_img": "https://live.staticflickr.com/65535/48092203577_954ecefdfd_o.jpg",
    "id_image": "Original_902987",
    "count_view": 0
  },
  {
    "link_thumb": "https://live.staticflickr.com/65535/48092203827_5484d3b326_n.jpg",
    "id_album": "406431601",
    "description": "Original_902990",
    "title": "Original_902990",
    "link_img": "https://live.staticflickr.com/65535/48092203827_27a48c2f6d_o.jpg",
    "id_image": "Original_902990",
    "count_view": 0
  },
  {
    "link_thumb": "https://live.staticflickr.com/65535/48092207917_c5d5788b40_n.jpg",
    "id_album": "406431601",
    "description": "Original_903010",
    "title": "Original_903010",
    "link_img": "https://live.staticflickr.com/65535/48092207917_0cb48a37bc_o.jpg",
    "id_image": "Original_903010",
    "count_view": 0
  },
  {
    "link_thumb": "https://live.staticflickr.com/65535/48092318106_29025c2706_n.jpg",
    "id_album": "406431601",
    "description": "Original_912079",
    "title": "Original_912079",
    "link_img": "https://live.staticflickr.com/65535/48092318106_292d9db360_o.jpg",
    "id_image": "Original_912079",
    "count_view": 0
  },
  {
    "link_thumb": "https://live.staticflickr.com/65535/48093111433_57eeea05be_n.jpg",
    "id_album": "406431601",
    "description": "Original_952455",
    "title": "Original_952455",
    "link_img": "https://live.staticflickr.com/65535/48093111433_1dc8798b26_o.jpg",
    "id_image": "Original_952455",
    "count_view": 0
  },
  {
    "link_thumb": "https://live.staticflickr.com/65535/48061112066_855dfabe36_n.jpg",
    "id_album": "406431601",
    "description": "Touhou_677322",
    "title": "Touhou_677322",
    "link_img": "https://live.staticflickr.com/65535/48061112066_3d70df35d3_o.jpg",
    "id_image": "Touhou_677322",
    "count_view": 0
  }
]