[
  {
    "link_thumb": "https://live.staticflickr.com/65535/51547724557_9b27d836dc_n.jpg",
    "id_album": "-316663319",
    "description": "ANIME_PIC_f6f593c062e1330c6c472cbc20adef5b,[Girl],[isBoyAnime],[isCoupleAnime],[isGirlAnime],[isCuteAnime]",
    "title": "ANIME_PIC_f6f593c062e1330c6c472cbc20adef5b",
    "link_img": "https://live.staticflickr.com/65535/51547724557_7c09ce52e0_o.jpg",
    "id_image": "ANIME_PIC_f6f593c062e1330c6c472cbc20adef5b",
    "count_view": 0
  },
  {
    "link_thumb": "https://live.staticflickr.com/65535/51547724767_66df0ecf4d_n.jpg",
    "id_album": "-316663319",
    "description": "ANIME_PIC_f6f61b38f3fa40e82c198212e7655e6a,[Girl],[isGirlAnime],[isCuteAnime]",
    "title": "ANIME_PIC_f6f61b38f3fa40e82c198212e7655e6a",
    "link_img": "https://live.staticflickr.com/65535/51547724767_dd4440dcd6_o.jpg",
    "id_image": "ANIME_PIC_f6f61b38f3fa40e82c198212e7655e6a",
    "count_view": 0
  },
  {
    "link_thumb": "https://live.staticflickr.com/65535/51549252189_9430c1802e_n.jpg",
    "id_album": "-316663319",
    "description": "ANIME_PIC_f6f97837019701cde13fa206f499903b,[Girl],[isGirlAnime],[isCuteAnime],[isGirlsLoliAnime]",
    "title": "ANIME_PIC_f6f97837019701cde13fa206f499903b",
    "link_img": "https://live.staticflickr.com/65535/51549252189_90df85c1d8_o.jpg",
    "id_image": "ANIME_PIC_f6f97837019701cde13fa206f499903b",
    "count_view": 0
  },
  {
    "link_thumb": "https://live.staticflickr.com/65535/51549252474_f1166a9688_n.jpg",
    "id_album": "-316663319",
    "description": "ANIME_PIC_f6fcdd3dbaf156655e6237359c3a4a52,[Girl],[isGirlAnime],[isCuteAnime],[isGirlsHatsHoodieAnime]",
    "title": "ANIME_PIC_f6fcdd3dbaf156655e6237359c3a4a52",
    "link_img": "https://live.staticflickr.com/65535/51549252474_e297aa9837_o.jpg",
    "id_image": "ANIME_PIC_f6fcdd3dbaf156655e6237359c3a4a52",
    "count_view": 0
  },
  {
    "link_thumb": "https://live.staticflickr.com/65535/51548763998_95771aebe1_n.jpg",
    "id_album": "-316663319",
    "description": "ANIME_PIC_f6fcfe7922292f4c0e33ac48411a1b03,[Girl],[isGirlAnime],[isCuteAnime],[isGirlsLoliAnime]",
    "title": "ANIME_PIC_f6fcfe7922292f4c0e33ac48411a1b03",
    "link_img": "https://live.staticflickr.com/65535/51548763998_4634f368ed_o.jpg",
    "id_image": "ANIME_PIC_f6fcfe7922292f4c0e33ac48411a1b03",
    "count_view": 0
  },
  {
    "link_thumb": "https://live.staticflickr.com/65535/51547725792_2e5624d169_n.jpg",
    "id_album": "-316663319",
    "description": "ANIME_PIC_f6fdf4bea8ffd1b5699740a3bfb0d733,[Girl],[isGirlAnime],[isCuteAnime],[isSadAnimeGirl],[isSadAnime]",
    "title": "ANIME_PIC_f6fdf4bea8ffd1b5699740a3bfb0d733",
    "link_img": "https://live.staticflickr.com/65535/51547725792_f13e6bb926_o.png",
    "id_image": "ANIME_PIC_f6fdf4bea8ffd1b5699740a3bfb0d733",
    "count_view": 0
  },
  {
    "link_thumb": "https://live.staticflickr.com/65535/51548526036_63934826c5_n.jpg",
    "id_album": "-316663319",
    "description": "ANIME_PIC_f704985d0279dee67307d4b07de38890,[Girl],[isGirlAnime],[isCuteAnime],[isGirlsHatsHoodieAnime],[isGirlsLoliAnime],[isSadAnimeGirl],[isSadAnime]",
    "title": "ANIME_PIC_f704985d0279dee67307d4b07de38890",
    "link_img": "https://live.staticflickr.com/65535/51548526036_55fc26eecb_o.png",
    "id_image": "ANIME_PIC_f704985d0279dee67307d4b07de38890",
    "count_view": 0
  },
  {
    "link_thumb": "https://live.staticflickr.com/65535/51548526321_a572cc7c47_n.jpg",
    "id_album": "-316663319",
    "description": "ANIME_PIC_f7055ae89c9fa8cd9f7f813966a7990e,[Girl],[isGirlAnime],[isCuteAnime],[isGirlsLoliAnime]",
    "title": "ANIME_PIC_f7055ae89c9fa8cd9f7f813966a7990e",
    "link_img": "https://live.staticflickr.com/65535/51548526321_b58ea2d6ca_o.jpg",
    "id_image": "ANIME_PIC_f7055ae89c9fa8cd9f7f813966a7990e",
    "count_view": 0
  },
  {
    "link_thumb": "https://live.staticflickr.com/65535/51549446540_a001a2e923_n.jpg",
    "id_album": "-316663319",
    "description": "ANIME_PIC_f7070f0a58ceb22c59010bf80210e3d5,[Girl],[isGirlAnime],[isCuteAnime]",
    "title": "ANIME_PIC_f7070f0a58ceb22c59010bf80210e3d5",
    "link_img": "https://live.staticflickr.com/65535/51549446540_f24889f14a_o.jpg",
    "id_image": "ANIME_PIC_f7070f0a58ceb22c59010bf80210e3d5",
    "count_view": 0
  },
  {
    "link_thumb": "https://live.staticflickr.com/65535/51549446810_574d119672_n.jpg",
    "id_album": "-316663319",
    "description": "ANIME_PIC_f707f614d16f4f542fda527077742989,[Girl],[isGirlAnime],[isCuteAnime],[isGirlsLoliAnime]",
    "title": "ANIME_PIC_f707f614d16f4f542fda527077742989",
    "link_img": "https://live.staticflickr.com/65535/51549446810_5ab7063e46_o.jpg",
    "id_image": "ANIME_PIC_f707f614d16f4f542fda527077742989",
    "count_view": 0
  },
  {
    "link_thumb": "https://live.staticflickr.com/65535/51549447100_f922293dce_n.jpg",
    "id_album": "-316663319",
    "description": "ANIME_PIC_f70af1256751ed5bdd4f600b8d6262c3,[Girl],[isGirlAnime],[isCuteAnime]",
    "title": "ANIME_PIC_f70af1256751ed5bdd4f600b8d6262c3",
    "link_img": "https://live.staticflickr.com/65535/51549447100_7365e51ab6_o.jpg",
    "id_image": "ANIME_PIC_f70af1256751ed5bdd4f600b8d6262c3",
    "count_view": 0
  },
  {
    "link_thumb": "https://live.staticflickr.com/65535/51548765618_bdb17f3030_n.jpg",
    "id_album": "-316663319",
    "description": "ANIME_PIC_f70ced1c0cab9508a50dbd80872f9e62,[Girl],[isGirlAnime],[isCuteAnime],[isGirlEarsNekoAnime],[isGirlsHatsHoodieAnime],[isGirlsLoliAnime],[isGirlsSharpCanineToothAnime]",
    "title": "ANIME_PIC_f70ced1c0cab9508a50dbd80872f9e62",
    "link_img": "https://live.staticflickr.com/65535/51548765618_a61170de3e_o.jpg",
    "id_image": "ANIME_PIC_f70ced1c0cab9508a50dbd80872f9e62",
    "count_view": 0
  },
  {
    "link_thumb": "https://live.staticflickr.com/65535/51548765753_8479ec56ea_n.jpg",
    "id_album": "-316663319",
    "description": "ANIME_PIC_f70eb7e261d17770e7851692710735fa,[Girl],[isGirlAnime],[isCuteAnime],[isGirlsLoliAnime],[isSadAnimeGirl],[isSadAnime]",
    "title": "ANIME_PIC_f70eb7e261d17770e7851692710735fa",
    "link_img": "https://live.staticflickr.com/65535/51548765753_63f8b6826c_o.jpg",
    "id_image": "ANIME_PIC_f70eb7e261d17770e7851692710735fa",
    "count_view": 0
  },
  {
    "link_thumb": "https://live.staticflickr.com/65535/51548527601_b9d3373649_n.jpg",
    "id_album": "-316663319",
    "description": "ANIME_PIC_f70f73f5159eab50b5143b73e281dde9,[Girl],[isGirlAnime],[isCuteAnime]",
    "title": "ANIME_PIC_f70f73f5159eab50b5143b73e281dde9",
    "link_img": "https://live.staticflickr.com/65535/51548527601_857bb7e2dd_o.png",
    "id_image": "ANIME_PIC_f70f73f5159eab50b5143b73e281dde9",
    "count_view": 0
  },
  {
    "link_thumb": "https://live.staticflickr.com/65535/51549447915_a31b4bc86f_n.jpg",
    "id_album": "-316663319",
    "description": "ANIME_PIC_f710dc091b0b41e7a0937a7efd8288c2,[Girl],[isGirlAnime],[isCuteAnime],[isGirlEarsNekoAnime],[isGirlsHatsHoodieAnime],[isGirlsLoliAnime]",
    "title": "ANIME_PIC_f710dc091b0b41e7a0937a7efd8288c2",
    "link_img": "https://live.staticflickr.com/65535/51549447915_ddd350cbc6_o.png",
    "id_image": "ANIME_PIC_f710dc091b0b41e7a0937a7efd8288c2",
    "count_view": 0
  },
  {
    "link_thumb": "https://live.staticflickr.com/65535/51548766438_efcf7a1106_n.jpg",
    "id_album": "-316663319",
    "description": "ANIME_PIC_f711777f28d3c9eeec89baae1646fb81,[Girl],[isGirlAnime],[isCuteAnime]",
    "title": "ANIME_PIC_f711777f28d3c9eeec89baae1646fb81",
    "link_img": "https://live.staticflickr.com/65535/51548766438_caba01fd9b_o.jpg",
    "id_image": "ANIME_PIC_f711777f28d3c9eeec89baae1646fb81",
    "count_view": 0
  },
  {
    "link_thumb": "https://live.staticflickr.com/65535/51548766598_721f13387c_n.jpg",
    "id_album": "-316663319",
    "description": "ANIME_PIC_f713b5b8f2fb4bab4c160feded334348,[Girl],[isGirlAnime],[isCuteAnime],[isSadAnimeGirl],[isSadAnime]",
    "title": "ANIME_PIC_f713b5b8f2fb4bab4c160feded334348",
    "link_img": "https://live.staticflickr.com/65535/51548766598_c0e07c4238_o.jpg",
    "id_image": "ANIME_PIC_f713b5b8f2fb4bab4c160feded334348",
    "count_view": 0
  },
  {
    "link_thumb": "https://live.staticflickr.com/65535/51547728542_542b78d749_n.jpg",
    "id_album": "-316663319",
    "description": "ANIME_PIC_f7197f23ae3b78daa6959147640debc4,[Girl],[isGirlAnime],[isCuteAnime],[isGirlsHatsHoodieAnime],[isSadAnimeGirl],[isSadAnime]",
    "title": "ANIME_PIC_f7197f23ae3b78daa6959147640debc4",
    "link_img": "https://live.staticflickr.com/65535/51547728542_11eea7ee49_o.jpg",
    "id_image": "ANIME_PIC_f7197f23ae3b78daa6959147640debc4",
    "count_view": 0
  },
  {
    "link_thumb": "https://live.staticflickr.com/65535/51547728787_d554614ed3_n.jpg",
    "id_album": "-316663319",
    "description": "ANIME_PIC_f71b676ac989693f098e28203a4b1993,[Girl],[isGirlAnime],[isCuteAnime],[isGirlsLoliAnime]",
    "title": "ANIME_PIC_f71b676ac989693f098e28203a4b1993",
    "link_img": "https://live.staticflickr.com/65535/51547728787_05fb103d4e_o.jpg",
    "id_image": "ANIME_PIC_f71b676ac989693f098e28203a4b1993",
    "count_view": 0
  },
  {
    "link_thumb": "https://live.staticflickr.com/65535/51549256224_14a41282d5_n.jpg",
    "id_album": "-316663319",
    "description": "ANIME_PIC_f71cae97ca81df4c7378d1379ae15f5e,[Girl],[isGirlAnime],[isCuteAnime]",
    "title": "ANIME_PIC_f71cae97ca81df4c7378d1379ae15f5e",
    "link_img": "https://live.staticflickr.com/65535/51549256224_f8bb00b96f_o.png",
    "id_image": "ANIME_PIC_f71cae97ca81df4c7378d1379ae15f5e",
    "count_view": 0
  },
  {
    "link_thumb": "https://live.staticflickr.com/65535/51549256464_c2821d190f_n.jpg",
    "id_album": "-316663319",
    "description": "ANIME_PIC_f71f302836e06694edbaf51d8b1601fc,[Girl],[isGirlAnime],[isCuteAnime],[isSadAnimeGirl],[isSadAnime]",
    "title": "ANIME_PIC_f71f302836e06694edbaf51d8b1601fc",
    "link_img": "https://live.staticflickr.com/65535/51549256464_fe767fc789_o.jpg",
    "id_image": "ANIME_PIC_f71f302836e06694edbaf51d8b1601fc",
    "count_view": 0
  },
  {
    "link_thumb": "https://live.staticflickr.com/65535/51548767863_2154ca1a22_n.jpg",
    "id_album": "-316663319",
    "description": "ANIME_PIC_f7211b6ae8d7ddaa744075ad03899da2,[Girl],[isGirlAnime],[isCuteAnime],[isGirlsHatsHoodieAnime]",
    "title": "ANIME_PIC_f7211b6ae8d7ddaa744075ad03899da2",
    "link_img": "https://live.staticflickr.com/65535/51548767863_83ae933f00_o.jpg",
    "id_image": "ANIME_PIC_f7211b6ae8d7ddaa744075ad03899da2",
    "count_view": 0
  },
  {
    "link_thumb": "https://live.staticflickr.com/65535/51549449735_d4ae8e030c_n.jpg",
    "id_album": "-316663319",
    "description": "ANIME_PIC_f721b10918879f1da3ea23d70d5ae23a,[Girl],[isGirlAnime],[isCuteAnime],[isGirlsLoliAnime]",
    "title": "ANIME_PIC_f721b10918879f1da3ea23d70d5ae23a",
    "link_img": "https://live.staticflickr.com/65535/51549449735_12dd55a8a9_o.jpg",
    "id_image": "ANIME_PIC_f721b10918879f1da3ea23d70d5ae23a",
    "count_view": 0
  },
  {
    "link_thumb": "https://live.staticflickr.com/65535/51549449895_9c86375e6b_n.jpg",
    "id_album": "-316663319",
    "description": "ANIME_PIC_f725d77916883ee53d0a97443f74112b,[Girl],[isBoyAnime],[isCoupleAnime],[isGirlAnime],[isCuteAnime]",
    "title": "ANIME_PIC_f725d77916883ee53d0a97443f74112b",
    "link_img": "https://live.staticflickr.com/65535/51549449895_dbdcb1e2d9_o.jpg",
    "id_image": "ANIME_PIC_f725d77916883ee53d0a97443f74112b",
    "count_view": 0
  },
  {
    "link_thumb": "https://live.staticflickr.com/65535/51549257379_16ca570471_n.jpg",
    "id_album": "-316663319",
    "description": "ANIME_PIC_f72762bf3b746497b5e373a9d3c327db,[Girl],[isGirlAnime],[isCuteAnime],[isGirlsHatsHoodieAnime],[isGirlsLoliAnime]",
    "title": "ANIME_PIC_f72762bf3b746497b5e373a9d3c327db",
    "link_img": "https://live.staticflickr.com/65535/51549257379_04072021fc_o.jpg",
    "id_image": "ANIME_PIC_f72762bf3b746497b5e373a9d3c327db",
    "count_view": 0
  },
  {
    "link_thumb": "https://live.staticflickr.com/65535/51547730422_896d8eee7b_n.jpg",
    "id_album": "-316663319",
    "description": "ANIME_PIC_f728997ec86404baee97844872d257e1,[Girl],[isGirlAnime],[isCuteAnime],[isSadAnimeGirl],[isSadAnime]",
    "title": "ANIME_PIC_f728997ec86404baee97844872d257e1",
    "link_img": "https://live.staticflickr.com/65535/51547730422_bf795885bc_o.jpg",
    "id_image": "ANIME_PIC_f728997ec86404baee97844872d257e1",
    "count_view": 0
  },
  {
    "link_thumb": "https://live.staticflickr.com/65535/51549257889_c700e9a512_n.jpg",
    "id_album": "-316663319",
    "description": "ANIME_PIC_f729a18b66154153f10b9daf9392778d,[Girl],[isGirlAnime],[isCuteAnime]",
    "title": "ANIME_PIC_f729a18b66154153f10b9daf9392778d",
    "link_img": "https://live.staticflickr.com/65535/51549257889_869827725e_o.jpg",
    "id_image": "ANIME_PIC_f729a18b66154153f10b9daf9392778d",
    "count_view": 0
  },
  {
    "link_thumb": "https://live.staticflickr.com/65535/51548531101_d7991c307a_n.jpg",
    "id_album": "-316663319",
    "description": "ANIME_PIC_f72cbd7607b694dcac48fc8e609e5634,[Girl],[isGirlAnime],[isCuteAnime]",
    "title": "ANIME_PIC_f72cbd7607b694dcac48fc8e609e5634",
    "link_img": "https://live.staticflickr.com/65535/51548531101_2122f744df_o.jpg",
    "id_image": "ANIME_PIC_f72cbd7607b694dcac48fc8e609e5634",
    "count_view": 0
  },
  {
    "link_thumb": "https://live.staticflickr.com/65535/51548531436_3b0708958d_n.jpg",
    "id_album": "-316663319",
    "description": "ANIME_PIC_f72eeb225e0c7b33fa5bc801e4b4537a,[Girl],[isGirlAnime],[isCuteAnime],[isSadAnimeGirl],[isSadAnime]",
    "title": "ANIME_PIC_f72eeb225e0c7b33fa5bc801e4b4537a",
    "link_img": "https://live.staticflickr.com/65535/51548531436_c5c76257de_o.jpg",
    "id_image": "ANIME_PIC_f72eeb225e0c7b33fa5bc801e4b4537a",
    "count_view": 0
  },
  {
    "link_thumb": "https://live.staticflickr.com/65535/51549259044_4db0a60855_n.jpg",
    "id_album": "-316663319",
    "description": "ANIME_PIC_f7320242e073177ed6a7c1fc3ee35da1,[Girl],[isGirlAnime],[isCuteAnime]",
    "title": "ANIME_PIC_f7320242e073177ed6a7c1fc3ee35da1",
    "link_img": "https://live.staticflickr.com/65535/51549259044_4c5580eba5_o.jpg",
    "id_image": "ANIME_PIC_f7320242e073177ed6a7c1fc3ee35da1",
    "count_view": 0
  },
  {
    "link_thumb": "https://live.staticflickr.com/65535/51549452040_13336218c7_n.jpg",
    "id_album": "-316663319",
    "description": "ANIME_PIC_f733add401a1e8956e9c90d05604e652,[Girl],[isGirlAnime],[isCuteAnime]",
    "title": "ANIME_PIC_f733add401a1e8956e9c90d05604e652",
    "link_img": "https://live.staticflickr.com/65535/51549452040_ce2f23b2c4_o.png",
    "id_image": "ANIME_PIC_f733add401a1e8956e9c90d05604e652",
    "count_view": 0
  },
  {
    "link_thumb": "https://live.staticflickr.com/65535/51547732902_0ba92da7ee_n.jpg",
    "id_album": "-316663319",
    "description": "ANIME_PIC_f734208e9924742f29348b9356e6c7f5,[Girl],[isGirlAnime],[isCuteAnime],[isGirlsHatsHoodieAnime],[isGirlsLoliAnime]",
    "title": "ANIME_PIC_f734208e9924742f29348b9356e6c7f5",
    "link_img": "https://live.staticflickr.com/65535/51547732902_f14c906370_o.jpg",
    "id_image": "ANIME_PIC_f734208e9924742f29348b9356e6c7f5",
    "count_view": 0
  },
  {
    "link_thumb": "https://live.staticflickr.com/65535/51549260094_1bbcbcacfe_n.jpg",
    "id_album": "-316663319",
    "description": "ANIME_PIC_f73512094b400914853fe117e09c31d0,[Girl],[isBoyAnime],[isCoupleAnime],[isGirlAnime],[isCuteAnime]",
    "title": "ANIME_PIC_f73512094b400914853fe117e09c31d0",
    "link_img": "https://live.staticflickr.com/65535/51549260094_98c4508257_o.jpg",
    "id_image": "ANIME_PIC_f73512094b400914853fe117e09c31d0",
    "count_view": 0
  },
  {
    "link_thumb": "https://live.staticflickr.com/65535/51547733412_23accb57e4_n.jpg",
    "id_album": "-316663319",
    "description": "ANIME_PIC_f7356f36af0d54f96ef27cee89f5e49e,[Girl],[isGirlAnime],[isSadAnimeGirl],[isSadAnime]",
    "title": "ANIME_PIC_f7356f36af0d54f96ef27cee89f5e49e",
    "link_img": "https://live.staticflickr.com/65535/51547733412_f4918610ef_o.jpg",
    "id_image": "ANIME_PIC_f7356f36af0d54f96ef27cee89f5e49e",
    "count_view": 0
  },
  {
    "link_thumb": "https://live.staticflickr.com/65535/51547733632_d925a7ddd7_n.jpg",
    "id_album": "-316663319",
    "description": "ANIME_PIC_f73ac6819f7e7b2af847cbcf4586f264,[Girl],[isGirlAnime],[isCuteAnime],[isGirlsLoliAnime]",
    "title": "ANIME_PIC_f73ac6819f7e7b2af847cbcf4586f264",
    "link_img": "https://live.staticflickr.com/65535/51547733632_b068936194_o.jpg",
    "id_image": "ANIME_PIC_f73ac6819f7e7b2af847cbcf4586f264",
    "count_view": 0
  },
  {
    "link_thumb": "https://live.staticflickr.com/65535/51548533516_b25a188847_n.jpg",
    "id_album": "-316663319",
    "description": "ANIME_PIC_f73b1c44ca0aa51f5ab2350e887aa739,[Girl],[isGirlAnime],[isCuteAnime]",
    "title": "ANIME_PIC_f73b1c44ca0aa51f5ab2350e887aa739",
    "link_img": "https://live.staticflickr.com/65535/51548533516_a989d9b631_o.jpg",
    "id_image": "ANIME_PIC_f73b1c44ca0aa51f5ab2350e887aa739",
    "count_view": 0
  },
  {
    "link_thumb": "https://live.staticflickr.com/65535/51548772298_b739f13639_n.jpg",
    "id_album": "-316663319",
    "description": "ANIME_PIC_f746b7625d8923500d44e8b5aa3650d8,[Girl],[isGirlAnime],[isCuteAnime],[isGirlsLoliAnime],[isSadAnimeGirl],[isSadAnime]",
    "title": "ANIME_PIC_f746b7625d8923500d44e8b5aa3650d8",
    "link_img": "https://live.staticflickr.com/65535/51548772298_f080f04c05_o.png",
    "id_image": "ANIME_PIC_f746b7625d8923500d44e8b5aa3650d8",
    "count_view": 0
  },
  {
    "link_thumb": "https://live.staticflickr.com/65535/51547734557_dc4dca5138_n.jpg",
    "id_album": "-316663319",
    "description": "ANIME_PIC_f747916d86b7546ee3b9ba947be7b023,[Girl],[isGirlAnime],[isCuteAnime]",
    "title": "ANIME_PIC_f747916d86b7546ee3b9ba947be7b023",
    "link_img": "https://live.staticflickr.com/65535/51547734557_d84d394b7c_o.jpg",
    "id_image": "ANIME_PIC_f747916d86b7546ee3b9ba947be7b023",
    "count_view": 0
  },
  {
    "link_thumb": "https://live.staticflickr.com/65535/51549454385_6f86b763c6_n.jpg",
    "id_album": "-316663319",
    "description": "ANIME_PIC_f747e408074ceb4c3684185d4c2bcc63,[Girl],[isGirlAnime],[isCuteAnime],[isGirlsLoliAnime],[isSadAnimeGirl],[isSadAnime]",
    "title": "ANIME_PIC_f747e408074ceb4c3684185d4c2bcc63",
    "link_img": "https://live.staticflickr.com/65535/51549454385_e3bbf32fb9_o.png",
    "id_image": "ANIME_PIC_f747e408074ceb4c3684185d4c2bcc63",
    "count_view": 0
  },
  {
    "link_thumb": "https://live.staticflickr.com/65535/51548534811_09a65dfc66_n.jpg",
    "id_album": "-316663319",
    "description": "ANIME_PIC_f747effeee1b8bee3678cddd91ff8910,[Girl],[isGirlAnime],[isCuteAnime],[isGirlsLoliAnime],[isSadAnimeGirl],[isSadAnime]",
    "title": "ANIME_PIC_f747effeee1b8bee3678cddd91ff8910",
    "link_img": "https://live.staticflickr.com/65535/51548534811_94fb4ae1a5_o.jpg",
    "id_image": "ANIME_PIC_f747effeee1b8bee3678cddd91ff8910",
    "count_view": 0
  },
  {
    "link_thumb": "https://live.staticflickr.com/65535/51549454880_d2593ddde5_n.jpg",
    "id_album": "-316663319",
    "description": "ANIME_PIC_f74b834c45344a416f9965817bbbaffb,[Girl],[isGirlAnime],[isCuteAnime],[isGirlsHatsHoodieAnime],[isGirlsLoliAnime]",
    "title": "ANIME_PIC_f74b834c45344a416f9965817bbbaffb",
    "link_img": "https://live.staticflickr.com/65535/51549454880_d3b172db55_o.png",
    "id_image": "ANIME_PIC_f74b834c45344a416f9965817bbbaffb",
    "count_view": 0
  },
  {
    "link_thumb": "https://live.staticflickr.com/65535/51548535521_954302c574_n.jpg",
    "id_album": "-316663319",
    "description": "ANIME_PIC_f74bc1dde93fc17ba0e790a84298796c,[Girl],[isGirlAnime],[isCuteAnime],[isGirlsLoliAnime]",
    "title": "ANIME_PIC_f74bc1dde93fc17ba0e790a84298796c",
    "link_img": "https://live.staticflickr.com/65535/51548535521_468553b414_o.jpg",
    "id_image": "ANIME_PIC_f74bc1dde93fc17ba0e790a84298796c",
    "count_view": 0
  },
  {
    "link_thumb": "https://live.staticflickr.com/65535/51549262924_cab78afc88_n.jpg",
    "id_album": "-316663319",
    "description": "ANIME_PIC_f74d89636b465494449857bf0f9bd32b,[Girl],[isGirlAnime],[isCuteAnime],[isGirlsHatsHoodieAnime],[isGirlsLoliAnime]",
    "title": "ANIME_PIC_f74d89636b465494449857bf0f9bd32b",
    "link_img": "https://live.staticflickr.com/65535/51549262924_d5b9c56852_o.jpg",
    "id_image": "ANIME_PIC_f74d89636b465494449857bf0f9bd32b",
    "count_view": 0
  },
  {
    "link_thumb": "https://live.staticflickr.com/65535/51549263194_3978504ae9_n.jpg",
    "id_album": "-316663319",
    "description": "ANIME_PIC_f750670159bbc2e377f015225dfd0ae4,[Girl],[isGirlAnime],[isCuteAnime],[isGirlEarsNekoAnime],[isGirlsLoliAnime]",
    "title": "ANIME_PIC_f750670159bbc2e377f015225dfd0ae4",
    "link_img": "https://live.staticflickr.com/65535/51549263194_365a2d66a4_o.jpg",
    "id_image": "ANIME_PIC_f750670159bbc2e377f015225dfd0ae4",
    "count_view": 0
  },
  {
    "link_thumb": "https://live.staticflickr.com/65535/51549456150_d7d3f5d362_n.jpg",
    "id_album": "-316663319",
    "description": "ANIME_PIC_f7599b8c619192397042abee9583dfa7,[Girl],[isGirlAnime],[isCuteAnime]",
    "title": "ANIME_PIC_f7599b8c619192397042abee9583dfa7",
    "link_img": "https://live.staticflickr.com/65535/51549456150_4ce8f1feaa_o.jpg",
    "id_image": "ANIME_PIC_f7599b8c619192397042abee9583dfa7",
    "count_view": 0
  },
  {
    "link_thumb": "https://live.staticflickr.com/65535/51548775008_578c238ef7_n.jpg",
    "id_album": "-316663319",
    "description": "ANIME_PIC_f759b5bd3783e4a1d5edb87f43a7d4d6,[Girl],[isGirlAnime],[isCuteAnime]",
    "title": "ANIME_PIC_f759b5bd3783e4a1d5edb87f43a7d4d6",
    "link_img": "https://live.staticflickr.com/65535/51548775008_b8a518638d_o.png",
    "id_image": "ANIME_PIC_f759b5bd3783e4a1d5edb87f43a7d4d6",
    "count_view": 0
  },
  {
    "link_thumb": "https://live.staticflickr.com/65535/51547737077_8129d70ab7_n.jpg",
    "id_album": "-316663319",
    "description": "ANIME_PIC_f75b60d928f06ab9b78be1b01a74eea3,[Girl],[isGirlAnime],[isCuteAnime],[isGirlFaceMasksAnime],[isGirlsHatsHoodieAnime],[isGirlsLoliAnime]",
    "title": "ANIME_PIC_f75b60d928f06ab9b78be1b01a74eea3",
    "link_img": "https://live.staticflickr.com/65535/51547737077_c441448e0c_o.jpg",
    "id_image": "ANIME_PIC_f75b60d928f06ab9b78be1b01a74eea3",
    "count_view": 0
  },
  {
    "link_thumb": "https://live.staticflickr.com/65535/51548775528_751244d5e6_n.jpg",
    "id_album": "-316663319",
    "description": "ANIME_PIC_f7629bb70866a8c6f0571acf5e720773,[Girl],[isGirlAnime],[isSadAnimeGirl],[isSadAnime]",
    "title": "ANIME_PIC_f7629bb70866a8c6f0571acf5e720773",
    "link_img": "https://live.staticflickr.com/65535/51548775528_76fbd36303_o.png",
    "id_image": "ANIME_PIC_f7629bb70866a8c6f0571acf5e720773",
    "count_view": 0
  },
  {
    "link_thumb": "https://live.staticflickr.com/65535/51547737722_b1a421e848_n.jpg",
    "id_album": "-316663319",
    "description": "ANIME_PIC_f763a073247ab32992c980057721b8ad,[Girl],[isGirlAnime],[isCuteAnime],[isGirlsHatsHoodieAnime],[isGirlsLoliAnime]",
    "title": "ANIME_PIC_f763a073247ab32992c980057721b8ad",
    "link_img": "https://live.staticflickr.com/65535/51547737722_6d5d4b9167_o.png",
    "id_image": "ANIME_PIC_f763a073247ab32992c980057721b8ad",
    "count_view": 0
  },
  {
    "link_thumb": "https://live.staticflickr.com/65535/51549264989_c98455353b_n.jpg",
    "id_album": "-316663319",
    "description": "ANIME_PIC_f76426328d66aaa1f5fcc5412822aeb1,[Girl],[isGirlAnime],[isCuteAnime],[isGirlsLoliAnime]",
    "title": "ANIME_PIC_f76426328d66aaa1f5fcc5412822aeb1",
    "link_img": "https://live.staticflickr.com/65535/51549264989_b74041bba8_o.jpg",
    "id_image": "ANIME_PIC_f76426328d66aaa1f5fcc5412822aeb1",
    "count_view": 0
  },
  {
    "link_thumb": "https://live.staticflickr.com/65535/51549265239_0b28e3f3ac_n.jpg",
    "id_album": "-316663319",
    "description": "ANIME_PIC_f765bbbea3fe1e6562aacf16f2aed65b,[Girl],[isGirlAnime],[isCuteAnime]",
    "title": "ANIME_PIC_f765bbbea3fe1e6562aacf16f2aed65b",
    "link_img": "https://live.staticflickr.com/65535/51549265239_0c6940578d_o.jpg",
    "id_image": "ANIME_PIC_f765bbbea3fe1e6562aacf16f2aed65b",
    "count_view": 0
  },
  {
    "link_thumb": "https://live.staticflickr.com/65535/51549458150_0e46984482_n.jpg",
    "id_album": "-316663319",
    "description": "ANIME_PIC_f765c507c7d57df2fde217dcd624fd16,[Girl],[isGirlAnime],[isCuteAnime],[isGirlsLoliAnime]",
    "title": "ANIME_PIC_f765c507c7d57df2fde217dcd624fd16",
    "link_img": "https://live.staticflickr.com/65535/51549458150_fa23f4dcc0_o.jpg",
    "id_image": "ANIME_PIC_f765c507c7d57df2fde217dcd624fd16",
    "count_view": 0
  },
  {
    "link_thumb": "https://live.staticflickr.com/65535/51548538636_f45811fa18_n.jpg",
    "id_album": "-316663319",
    "description": "ANIME_PIC_f768a322b6b607377dcb0fc2d3852bea,[Girl],[isGirlAnime],[isCuteAnime],[isGirlsLoliAnime]",
    "title": "ANIME_PIC_f768a322b6b607377dcb0fc2d3852bea",
    "link_img": "https://live.staticflickr.com/65535/51548538636_d48533b9ef_o.jpg",
    "id_image": "ANIME_PIC_f768a322b6b607377dcb0fc2d3852bea",
    "count_view": 0
  },
  {
    "link_thumb": "https://live.staticflickr.com/65535/51548538841_1d381ee77b_n.jpg",
    "id_album": "-316663319",
    "description": "ANIME_PIC_f768db025e1dc7715f286e5b795b5f5c,[Girl],[isGirlAnime],[isGirlsHatsHoodieAnime]",
    "title": "ANIME_PIC_f768db025e1dc7715f286e5b795b5f5c",
    "link_img": "https://live.staticflickr.com/65535/51548538841_df675c2e42_o.jpg",
    "id_image": "ANIME_PIC_f768db025e1dc7715f286e5b795b5f5c",
    "count_view": 0
  },
  {
    "link_thumb": "https://live.staticflickr.com/65535/51549458830_d0e3f29ee4_n.jpg",
    "id_album": "-316663319",
    "description": "ANIME_PIC_f769f3bb5abe91d9cc4f22e81fd70f7b,[Girl],[isGirlAnime],[isCuteAnime],[isGirlsLoliAnime]",
    "title": "ANIME_PIC_f769f3bb5abe91d9cc4f22e81fd70f7b",
    "link_img": "https://live.staticflickr.com/65535/51549458830_524b099ff8_o.png",
    "id_image": "ANIME_PIC_f769f3bb5abe91d9cc4f22e81fd70f7b",
    "count_view": 0
  },
  {
    "link_thumb": "https://live.staticflickr.com/65535/51548539306_3267218bc8_n.jpg",
    "id_album": "-316663319",
    "description": "ANIME_PIC_f76c553258251d36f99dc289befcf4d6,[Girl],[isGirlAnime],[isCuteAnime],[isSadAnimeGirl],[isSadAnime]",
    "title": "ANIME_PIC_f76c553258251d36f99dc289befcf4d6",
    "link_img": "https://live.staticflickr.com/65535/51548539306_a2b7358172_o.jpg",
    "id_image": "ANIME_PIC_f76c553258251d36f99dc289befcf4d6",
    "count_view": 0
  },
  {
    "link_thumb": "https://live.staticflickr.com/65535/51548539536_b26dddf98b_n.jpg",
    "id_album": "-316663319",
    "description": "ANIME_PIC_f76cc2fc217789b1fa089e143466d24e,[Girl],[isGirlAnime],[isCuteAnime],[isGirlsHatsHoodieAnime]",
    "title": "ANIME_PIC_f76cc2fc217789b1fa089e143466d24e",
    "link_img": "https://live.staticflickr.com/65535/51548539536_14b2539e12_o.png",
    "id_image": "ANIME_PIC_f76cc2fc217789b1fa089e143466d24e",
    "count_view": 0
  },
  {
    "link_thumb": "https://live.staticflickr.com/65535/51547739932_de38f53d9c_n.jpg",
    "id_album": "-316663319",
    "description": "ANIME_PIC_f77327afd0a659b80b08bd0e888dfabc,[Girl],[isGirlAnime],[isCuteAnime],[isGirlsLoliAnime]",
    "title": "ANIME_PIC_f77327afd0a659b80b08bd0e888dfabc",
    "link_img": "https://live.staticflickr.com/65535/51547739932_2a78fceba2_o.png",
    "id_image": "ANIME_PIC_f77327afd0a659b80b08bd0e888dfabc",
    "count_view": 0
  },
  {
    "link_thumb": "https://live.staticflickr.com/65535/51549267184_571fd28535_n.jpg",
    "id_album": "-316663319",
    "description": "ANIME_PIC_f77c72baf49f1a6ca37b37b0655036f7,[Girl],[isGirlAnime],[isCuteAnime],[isGirlsLoliAnime]",
    "title": "ANIME_PIC_f77c72baf49f1a6ca37b37b0655036f7",
    "link_img": "https://live.staticflickr.com/65535/51549267184_a9df3e89d2_o.jpg",
    "id_image": "ANIME_PIC_f77c72baf49f1a6ca37b37b0655036f7",
    "count_view": 0
  },
  {
    "link_thumb": "https://live.staticflickr.com/65535/51549267369_bed660389f_n.jpg",
    "id_album": "-316663319",
    "description": "ANIME_PIC_f780ef6e091139c0f49279e32c52f82e,[Girl],[isGirlAnime],[isCuteAnime],[isGirlEarsNekoAnime],[isGirlsLoliAnime],[isSadAnimeGirl],[isGirlsSharpCanineToothAnime],[isSadAnime]",
    "title": "ANIME_PIC_f780ef6e091139c0f49279e32c52f82e",
    "link_img": "https://live.staticflickr.com/65535/51549267369_58ff7cbb38_o.jpg",
    "id_image": "ANIME_PIC_f780ef6e091139c0f49279e32c52f82e",
    "count_view": 0
  },
  {
    "link_thumb": "https://live.staticflickr.com/65535/51549460285_0ac9497d47_n.jpg",
    "id_album": "-316663319",
    "description": "ANIME_PIC_f7824d144ef2f8cd791e1cfbbe7b5c3c,[Girl],[isGirlAnime],[isCuteAnime]",
    "title": "ANIME_PIC_f7824d144ef2f8cd791e1cfbbe7b5c3c",
    "link_img": "https://live.staticflickr.com/65535/51549460285_e80cceb0eb_o.png",
    "id_image": "ANIME_PIC_f7824d144ef2f8cd791e1cfbbe7b5c3c",
    "count_view": 0
  },
  {
    "link_thumb": "https://live.staticflickr.com/65535/51547740812_ee475a2f69_n.jpg",
    "id_album": "-316663319",
    "description": "ANIME_PIC_f782f8c7f7e261b48d7e66d4d9359b52,[Girl],[isGirlAnime],[isCuteAnime],[isGirlsLoliAnime]",
    "title": "ANIME_PIC_f782f8c7f7e261b48d7e66d4d9359b52",
    "link_img": "https://live.staticflickr.com/65535/51547740812_7be908f23d_o.jpg",
    "id_image": "ANIME_PIC_f782f8c7f7e261b48d7e66d4d9359b52",
    "count_view": 0
  },
  {
    "link_thumb": "https://live.staticflickr.com/65535/51549268024_7e1e2fbcb1_n.jpg",
    "id_album": "-316663319",
    "description": "ANIME_PIC_f78316c55111fbe8428ac8fc7543411f,[Girl],[isGirlAnime],[isCuteAnime],[isSadAnimeGirl],[isSadAnime]",
    "title": "ANIME_PIC_f78316c55111fbe8428ac8fc7543411f",
    "link_img": "https://live.staticflickr.com/65535/51549268024_27f7b3572c_o.png",
    "id_image": "ANIME_PIC_f78316c55111fbe8428ac8fc7543411f",
    "count_view": 0
  },
  {
    "link_thumb": "https://live.staticflickr.com/65535/51548541456_7512c1b283_n.jpg",
    "id_album": "-316663319",
    "description": "ANIME_PIC_f783d13015a5275ad7a1674a39d47e2e,[Girl],[isGirlAnime],[isCuteAnime]",
    "title": "ANIME_PIC_f783d13015a5275ad7a1674a39d47e2e",
    "link_img": "https://live.staticflickr.com/65535/51548541456_0974cb74c8_o.png",
    "id_image": "ANIME_PIC_f783d13015a5275ad7a1674a39d47e2e",
    "count_view": 0
  },
  {
    "link_thumb": "https://live.staticflickr.com/65535/51548780023_7d1fd14a0c_n.jpg",
    "id_album": "-316663319",
    "description": "ANIME_PIC_f7853279a044a19c889de9904a91f9e1,[Girl],[isGirlAnime],[isCuteAnime],[isGirlEarsNekoAnime],[isGirlsLoliAnime]",
    "title": "ANIME_PIC_f7853279a044a19c889de9904a91f9e1",
    "link_img": "https://live.staticflickr.com/65535/51548780023_aea2a7ee6c_o.jpg",
    "id_image": "ANIME_PIC_f7853279a044a19c889de9904a91f9e1",
    "count_view": 0
  },
  {
    "link_thumb": "https://live.staticflickr.com/65535/51549268914_b5cb42fa17_n.jpg",
    "id_album": "-316663319",
    "description": "ANIME_PIC_f786a298f80a5174e08c133899802fc0,[Girl],[isGirlAnime],[isCuteAnime],[isGirlsLoliAnime]",
    "title": "ANIME_PIC_f786a298f80a5174e08c133899802fc0",
    "link_img": "https://live.staticflickr.com/65535/51549268914_503cf07f4a_o.png",
    "id_image": "ANIME_PIC_f786a298f80a5174e08c133899802fc0",
    "count_view": 0
  },
  {
    "link_thumb": "https://live.staticflickr.com/65535/51549269199_db24d464d7_n.jpg",
    "id_album": "-316663319",
    "description": "ANIME_PIC_f788601c371bc67cd5abc662e68c3552,[Girl],[isGirlAnime],[isSadAnimeGirl],[isSadAnime]",
    "title": "ANIME_PIC_f788601c371bc67cd5abc662e68c3552",
    "link_img": "https://live.staticflickr.com/65535/51549269199_06c7fe309c_o.png",
    "id_image": "ANIME_PIC_f788601c371bc67cd5abc662e68c3552",
    "count_view": 0
  },
  {
    "link_thumb": "https://live.staticflickr.com/65535/51549269504_7d36a63dab_n.jpg",
    "id_album": "-316663319",
    "description": "ANIME_PIC_f78998162fa8b5224b5645a5ba51c7da,[Girl],[isGirlAnime],[isCuteAnime],[isGirlsHatsHoodieAnime],[isGirlsLoliAnime]",
    "title": "ANIME_PIC_f78998162fa8b5224b5645a5ba51c7da",
    "link_img": "https://live.staticflickr.com/65535/51549269504_aeaa76f2dc_o.png",
    "id_image": "ANIME_PIC_f78998162fa8b5224b5645a5ba51c7da",
    "count_view": 0
  },
  {
    "link_thumb": "https://live.staticflickr.com/65535/51548542851_3164bdd9f9_n.jpg",
    "id_album": "-316663319",
    "description": "ANIME_PIC_f790768c1941d83e8accd59a02c8f25f,[Girl],[isGirlAnime],[isCuteAnime],[isGirlsLoliAnime]",
    "title": "ANIME_PIC_f790768c1941d83e8accd59a02c8f25f",
    "link_img": "https://live.staticflickr.com/65535/51548542851_9d5e3991d5_o.jpg",
    "id_image": "ANIME_PIC_f790768c1941d83e8accd59a02c8f25f",
    "count_view": 0
  },
  {
    "link_thumb": "https://live.staticflickr.com/65535/51548781358_5fe2747465_n.jpg",
    "id_album": "-316663319",
    "description": "ANIME_PIC_f790c9e795e290f8865025f71d6740b5,[Girl],[isGirlAnime],[isCuteAnime]",
    "title": "ANIME_PIC_f790c9e795e290f8865025f71d6740b5",
    "link_img": "https://live.staticflickr.com/65535/51548781358_8fe1322c18_o.jpg",
    "id_image": "ANIME_PIC_f790c9e795e290f8865025f71d6740b5",
    "count_view": 0
  },
  {
    "link_thumb": "https://live.staticflickr.com/65535/51547743182_b6d2beb005_n.jpg",
    "id_album": "-316663319",
    "description": "ANIME_PIC_f792537bcecef081f6c207555629263c,[Girl],[isGirlAnime],[isCuteAnime]",
    "title": "ANIME_PIC_f792537bcecef081f6c207555629263c",
    "link_img": "https://live.staticflickr.com/65535/51547743182_d95edb0ee9_o.jpg",
    "id_image": "ANIME_PIC_f792537bcecef081f6c207555629263c",
    "count_view": 0
  },
  {
    "link_thumb": "https://live.staticflickr.com/65535/51548543491_cd9fab7eb3_n.jpg",
    "id_album": "-316663319",
    "description": "ANIME_PIC_f796e9344fd5e9874bcc3421e096abef,[Girl],[isGirlAnime],[isCuteAnime],[isGirlEarsNekoAnime],[isGirlsHatsHoodieAnime]",
    "title": "ANIME_PIC_f796e9344fd5e9874bcc3421e096abef",
    "link_img": "https://live.staticflickr.com/65535/51548543491_d860c8a68b_o.jpg",
    "id_image": "ANIME_PIC_f796e9344fd5e9874bcc3421e096abef",
    "count_view": 0
  },
  {
    "link_thumb": "https://live.staticflickr.com/65535/51549463495_e23afda9b5_n.jpg",
    "id_album": "-316663319",
    "description": "ANIME_PIC_f79731821cb3ec749d55343fca89e118,[Girl],[isGirlAnime],[isCuteAnime],[isGirlsLoliAnime]",
    "title": "ANIME_PIC_f79731821cb3ec749d55343fca89e118",
    "link_img": "https://live.staticflickr.com/65535/51549463495_ee78fdbf91_o.jpg",
    "id_image": "ANIME_PIC_f79731821cb3ec749d55343fca89e118",
    "count_view": 0
  },
  {
    "link_thumb": "https://live.staticflickr.com/65535/51548544011_7fcc7b4ea8_n.jpg",
    "id_album": "-316663319",
    "description": "ANIME_PIC_f797bda2e1dee37a2e9c16e4e53be214,[Girl],[isGirlAnime],[isCuteAnime],[isGirlsLoliAnime],[isSadAnimeGirl],[isSadAnime]",
    "title": "ANIME_PIC_f797bda2e1dee37a2e9c16e4e53be214",
    "link_img": "https://live.staticflickr.com/65535/51548544011_b9d37e4b03_o.png",
    "id_image": "ANIME_PIC_f797bda2e1dee37a2e9c16e4e53be214",
    "count_view": 0
  },
  {
    "link_thumb": "https://live.staticflickr.com/65535/51547744157_de6fa8107c_n.jpg",
    "id_album": "-316663319",
    "description": "ANIME_PIC_f79b424b8428778d82286df8fe08b8c4,[Girl],[isGirlAnime],[isCuteAnime]",
    "title": "ANIME_PIC_f79b424b8428778d82286df8fe08b8c4",
    "link_img": "https://live.staticflickr.com/65535/51547744157_26d46fa522_o.jpg",
    "id_image": "ANIME_PIC_f79b424b8428778d82286df8fe08b8c4",
    "count_view": 0
  },
  {
    "link_thumb": "https://live.staticflickr.com/65535/51548782923_9092cf3c04_n.jpg",
    "id_album": "-316663319",
    "description": "ANIME_PIC_f79e4e58e42577efe1363f5a9431b5ae,[Girl],[isGirlAnime],[isCuteAnime],[isGirlEarsNekoAnime],[isGirlsLoliAnime]",
    "title": "ANIME_PIC_f79e4e58e42577efe1363f5a9431b5ae",
    "link_img": "https://live.staticflickr.com/65535/51548782923_2775b08f33_o.jpg",
    "id_image": "ANIME_PIC_f79e4e58e42577efe1363f5a9431b5ae",
    "count_view": 0
  },
  {
    "link_thumb": "https://live.staticflickr.com/65535/51547744802_22a5d1be7d_n.jpg",
    "id_album": "-316663319",
    "description": "ANIME_PIC_f7a5c240311dea3f3f20a99b0080368c,[Girl],[isGirlAnime],[isCuteAnime],[isBlackAnime]",
    "title": "ANIME_PIC_f7a5c240311dea3f3f20a99b0080368c",
    "link_img": "https://live.staticflickr.com/65535/51547744802_c5f3a344c7_o.png",
    "id_image": "ANIME_PIC_f7a5c240311dea3f3f20a99b0080368c",
    "count_view": 0
  },
  {
    "link_thumb": "https://live.staticflickr.com/65535/51549272074_4210c56cf4_n.jpg",
    "id_album": "-316663319",
    "description": "ANIME_PIC_f7a609e1268120a8502521d6083d50d4,[Girl],[isGirlAnime],[isCuteAnime],[isGirlsLoliAnime]",
    "title": "ANIME_PIC_f7a609e1268120a8502521d6083d50d4",
    "link_img": "https://live.staticflickr.com/65535/51549272074_89f0505889_o.jpg",
    "id_image": "ANIME_PIC_f7a609e1268120a8502521d6083d50d4",
    "count_view": 0
  },
  {
    "link_thumb": "https://live.staticflickr.com/65535/51549465240_bc338440cd_n.jpg",
    "id_album": "-316663319",
    "description": "ANIME_PIC_f7aa3610277c270960eec36030207e8a,[Girl],[isGirlAnime],[isCuteAnime],[isGirlsLoliAnime]",
    "title": "ANIME_PIC_f7aa3610277c270960eec36030207e8a",
    "link_img": "https://live.staticflickr.com/65535/51549465240_b244e2f424_o.jpg",
    "id_image": "ANIME_PIC_f7aa3610277c270960eec36030207e8a",
    "count_view": 0
  },
  {
    "link_thumb": "https://live.staticflickr.com/65535/51547745512_fa280fa9b9_n.jpg",
    "id_album": "-316663319",
    "description": "ANIME_PIC_f7bc9dbaeb34716204fc1a8712b83d27,[Girl],[isGirlAnime],[isCuteAnime],[isSadAnimeGirl],[isSadAnime]",
    "title": "ANIME_PIC_f7bc9dbaeb34716204fc1a8712b83d27",
    "link_img": "https://live.staticflickr.com/65535/51547745512_7602c470f5_o.jpg",
    "id_image": "ANIME_PIC_f7bc9dbaeb34716204fc1a8712b83d27",
    "count_view": 0
  },
  {
    "link_thumb": "https://live.staticflickr.com/65535/51548784173_d4b3075a4b_n.jpg",
    "id_album": "-316663319",
    "description": "ANIME_PIC_f7bcb9a45ba0dee3133df59baa17accf,[Girl],[isGirlAnime],[isCuteAnime],[isGirlEarsNekoAnime],[isGirlsLoliAnime],[isGirlsSharpCanineToothAnime]",
    "title": "ANIME_PIC_f7bcb9a45ba0dee3133df59baa17accf",
    "link_img": "https://live.staticflickr.com/65535/51548784173_290cac6ed3_o.png",
    "id_image": "ANIME_PIC_f7bcb9a45ba0dee3133df59baa17accf",
    "count_view": 0
  },
  {
    "link_thumb": "https://live.staticflickr.com/65535/51549273084_151a6eac99_n.jpg",
    "id_album": "-316663319",
    "description": "ANIME_PIC_f7c27ed9f73bf3fcfb1f90bdbfbc3579,[Girl],[isGirlAnime],[isCuteAnime],[isGirlsHatsHoodieAnime]",
    "title": "ANIME_PIC_f7c27ed9f73bf3fcfb1f90bdbfbc3579",
    "link_img": "https://live.staticflickr.com/65535/51549273084_efd6490a1f_o.png",
    "id_image": "ANIME_PIC_f7c27ed9f73bf3fcfb1f90bdbfbc3579",
    "count_view": 0
  },
  {
    "link_thumb": "https://live.staticflickr.com/65535/51548546556_960fe1afae_n.jpg",
    "id_album": "-316663319",
    "description": "ANIME_PIC_f7c2b0f873e9b5ea86a2f0e9b0fdad09,[Girl],[isGirlAnime],[isCuteAnime]",
    "title": "ANIME_PIC_f7c2b0f873e9b5ea86a2f0e9b0fdad09",
    "link_img": "https://live.staticflickr.com/65535/51548546556_3cde017f72_o.jpg",
    "id_image": "ANIME_PIC_f7c2b0f873e9b5ea86a2f0e9b0fdad09",
    "count_view": 0
  },
  {
    "link_thumb": "https://live.staticflickr.com/65535/51548785223_ce1743b9e7_n.jpg",
    "id_album": "-316663319",
    "description": "ANIME_PIC_f7cc08839a24056ad180769e7d85c54b,[Girl],[isGirlAnime],[isCuteAnime],[isGirlsLoliAnime],[isSadAnimeGirl],[isSadAnime]",
    "title": "ANIME_PIC_f7cc08839a24056ad180769e7d85c54b",
    "link_img": "https://live.staticflickr.com/65535/51548785223_eeda92d7bd_o.jpg",
    "id_image": "ANIME_PIC_f7cc08839a24056ad180769e7d85c54b",
    "count_view": 0
  },
  {
    "link_thumb": "https://live.staticflickr.com/65535/51549274119_c075f75b4d_n.jpg",
    "id_album": "-316663319",
    "description": "ANIME_PIC_f7cf6fb95f651ea1f4f050f9ca39b10a,[Girl],[isGirlAnime],[isCuteAnime],[isGirlsLoliAnime]",
    "title": "ANIME_PIC_f7cf6fb95f651ea1f4f050f9ca39b10a",
    "link_img": "https://live.staticflickr.com/65535/51549274119_b6993440f4_o.jpg",
    "id_image": "ANIME_PIC_f7cf6fb95f651ea1f4f050f9ca39b10a",
    "count_view": 0
  },
  {
    "link_thumb": "https://live.staticflickr.com/65535/51547747447_d1a7918ec8_n.jpg",
    "id_album": "-316663319",
    "description": "ANIME_PIC_f7d39a98f2fa02f948ad809484198615,[Girl],[isGirlAnime],[isCuteAnime],[isGirlEarsNekoAnime]",
    "title": "ANIME_PIC_f7d39a98f2fa02f948ad809484198615",
    "link_img": "https://live.staticflickr.com/65535/51547747447_84fd168f14_o.jpg",
    "id_image": "ANIME_PIC_f7d39a98f2fa02f948ad809484198615",
    "count_view": 0
  },
  {
    "link_thumb": "https://live.staticflickr.com/65535/51549274579_a419d73d6b_n.jpg",
    "id_album": "-316663319",
    "description": "ANIME_PIC_f7d41706123b6d056dcd02c083171419,[Girl],[isGirlAnime],[isCuteAnime],[isGirlsLoliAnime]",
    "title": "ANIME_PIC_f7d41706123b6d056dcd02c083171419",
    "link_img": "https://live.staticflickr.com/65535/51549274579_e90abe9bdf_o.jpg",
    "id_image": "ANIME_PIC_f7d41706123b6d056dcd02c083171419",
    "count_view": 0
  },
  {
    "link_thumb": "https://live.staticflickr.com/65535/51549274834_0f271868fe_n.jpg",
    "id_album": "-316663319",
    "description": "ANIME_PIC_f7d4c03ad6a758a12b62db34c5dc8ee3,[Girl],[isGirlAnime],[isCuteAnime],[isGirlsLoliAnime]",
    "title": "ANIME_PIC_f7d4c03ad6a758a12b62db34c5dc8ee3",
    "link_img": "https://live.staticflickr.com/65535/51549274834_cb0180f183_o.png",
    "id_image": "ANIME_PIC_f7d4c03ad6a758a12b62db34c5dc8ee3",
    "count_view": 0
  },
  {
    "link_thumb": "https://live.staticflickr.com/65535/51548548256_1c3456f46e_n.jpg",
    "id_album": "-316663319",
    "description": "ANIME_PIC_f7dc66fc09cdae2d9ecbe9809eaa3d29,[Girl],[isGirlAnime],[isCuteAnime]",
    "title": "ANIME_PIC_f7dc66fc09cdae2d9ecbe9809eaa3d29",
    "link_img": "https://live.staticflickr.com/65535/51548548256_78a95f5a6f_o.jpg",
    "id_image": "ANIME_PIC_f7dc66fc09cdae2d9ecbe9809eaa3d29",
    "count_view": 0
  },
  {
    "link_thumb": "https://live.staticflickr.com/65535/51549468355_e10d144acc_n.jpg",
    "id_album": "-316663319",
    "description": "ANIME_PIC_f7e0626fe68383bd40be3103ce45917d,[Girl],[isGirlAnime],[isCuteAnime],[isGirlsLoliAnime]",
    "title": "ANIME_PIC_f7e0626fe68383bd40be3103ce45917d",
    "link_img": "https://live.staticflickr.com/65535/51549468355_3507a0d851_o.jpg",
    "id_image": "ANIME_PIC_f7e0626fe68383bd40be3103ce45917d",
    "count_view": 0
  },
  {
    "link_thumb": "https://live.staticflickr.com/65535/51549275604_f1dd3fe7d1_n.jpg",
    "id_album": "-316663319",
    "description": "ANIME_PIC_f7e31fbe50c7df7b5a4660bbf788b19d,[Girl],[isGirlAnime],[isCuteAnime],[isGirlEarsNekoAnime],[isGirlsHatsHoodieAnime]",
    "title": "ANIME_PIC_f7e31fbe50c7df7b5a4660bbf788b19d",
    "link_img": "https://live.staticflickr.com/65535/51549275604_6636611dc9_o.png",
    "id_image": "ANIME_PIC_f7e31fbe50c7df7b5a4660bbf788b19d",
    "count_view": 0
  },
  {
    "link_thumb": "https://live.staticflickr.com/65535/51548548921_873f1ff0bf_n.jpg",
    "id_album": "-316663319",
    "description": "ANIME_PIC_f7e4c4d577cf059ebc2d5916ca142151,[Girl],[isGirlAnime],[isCuteAnime],[isGirlsLoliAnime]",
    "title": "ANIME_PIC_f7e4c4d577cf059ebc2d5916ca142151",
    "link_img": "https://live.staticflickr.com/65535/51548548921_0685f08f25_o.png",
    "id_image": "ANIME_PIC_f7e4c4d577cf059ebc2d5916ca142151",
    "count_view": 0
  },
  {
    "link_thumb": "https://live.staticflickr.com/65535/51549276024_f722ffbd3c_n.jpg",
    "id_album": "-316663319",
    "description": "ANIME_PIC_f7e7f54260ce49af3f1fdb6f7af1df0a,[Girl],[isGirlAnime],[isCuteAnime],[isGirlsHatsHoodieAnime],[isGirlsLoliAnime]",
    "title": "ANIME_PIC_f7e7f54260ce49af3f1fdb6f7af1df0a",
    "link_img": "https://live.staticflickr.com/65535/51549276024_687c93acbd_o.png",
    "id_image": "ANIME_PIC_f7e7f54260ce49af3f1fdb6f7af1df0a",
    "count_view": 0
  },
  {
    "link_thumb": "https://live.staticflickr.com/65535/51549276449_f4cca040ed_n.jpg",
    "id_album": "-316663319",
    "description": "ANIME_PIC_f7edc4e385130b7028966e49028acc48,[Girl],[isGirlAnime],[isCuteAnime],[isGirlsHatsHoodieAnime],[isGirlsLoliAnime]",
    "title": "ANIME_PIC_f7edc4e385130b7028966e49028acc48",
    "link_img": "https://live.staticflickr.com/65535/51549276449_9254bee8a6_o.jpg",
    "id_image": "ANIME_PIC_f7edc4e385130b7028966e49028acc48",
    "count_view": 0
  },
  {
    "link_thumb": "https://live.staticflickr.com/65535/51549469715_0ec60b599a_n.jpg",
    "id_album": "-316663319",
    "description": "ANIME_PIC_f7ef944dd2a0dbd0d4a8d3a446234ba2,[Girl],[isGirlAnime],[isCuteAnime],[isGirlsHatsHoodieAnime],[isGirlsLoliAnime]",
    "title": "ANIME_PIC_f7ef944dd2a0dbd0d4a8d3a446234ba2",
    "link_img": "https://live.staticflickr.com/65535/51549469715_6d1e908f29_o.jpg",
    "id_image": "ANIME_PIC_f7ef944dd2a0dbd0d4a8d3a446234ba2",
    "count_view": 0
  },
  {
    "link_thumb": "https://live.staticflickr.com/65535/51548788213_ba28fbf738_n.jpg",
    "id_album": "-316663319",
    "description": "ANIME_PIC_f7f2ffd393861a15fafaf7eb4f260d59,[Girl],[isGirlAnime],[isCuteAnime]",
    "title": "ANIME_PIC_f7f2ffd393861a15fafaf7eb4f260d59",
    "link_img": "https://live.staticflickr.com/65535/51548788213_0b46eb68ff_o.jpg",
    "id_image": "ANIME_PIC_f7f2ffd393861a15fafaf7eb4f260d59",
    "count_view": 0
  },
  {
    "link_thumb": "https://live.staticflickr.com/65535/51549277154_62fcd696db_n.jpg",
    "id_album": "-316663319",
    "description": "ANIME_PIC_f7f51b5ad4ab3a99df951cd9bc3c0919,[Girl],[isGirlAnime],[isCuteAnime],[isGirlsLoliAnime]",
    "title": "ANIME_PIC_f7f51b5ad4ab3a99df951cd9bc3c0919",
    "link_img": "https://live.staticflickr.com/65535/51549277154_98fe204966_o.jpg",
    "id_image": "ANIME_PIC_f7f51b5ad4ab3a99df951cd9bc3c0919",
    "count_view": 0
  },
  {
    "link_thumb": "https://live.staticflickr.com/65535/51548550461_bf5ab4fe30_n.jpg",
    "id_album": "-316663319",
    "description": "ANIME_PIC_f7f89611aa5bb465c89c41f4093fdf32,[Girl],[isGirlAnime],[isCuteAnime],[isGirlsLoliAnime],[isSadAnimeGirl],[isSadAnime]",
    "title": "ANIME_PIC_f7f89611aa5bb465c89c41f4093fdf32",
    "link_img": "https://live.staticflickr.com/65535/51548550461_9d414a5c13_o.png",
    "id_image": "ANIME_PIC_f7f89611aa5bb465c89c41f4093fdf32",
    "count_view": 0
  },
  {
    "link_thumb": "https://live.staticflickr.com/65535/51548550891_945b27aa70_n.jpg",
    "id_album": "-316663319",
    "description": "ANIME_PIC_f7f8bffb2442ede0a5e0fce05aa4512d,[Girl],[isGirlAnime],[isCuteAnime],[isGirlsHatsHoodieAnime]",
    "title": "ANIME_PIC_f7f8bffb2442ede0a5e0fce05aa4512d",
    "link_img": "https://live.staticflickr.com/65535/51548550891_c101323fd3_o.jpg",
    "id_image": "ANIME_PIC_f7f8bffb2442ede0a5e0fce05aa4512d",
    "count_view": 0
  },
  {
    "link_thumb": "https://live.staticflickr.com/65535/51549471105_e403bda66b_n.jpg",
    "id_album": "-316663319",
    "description": "ANIME_PIC_f7fafb7d18451bda5f5b5d99a167f0ab,[Girl],[isGirlAnime],[isCuteAnime],[isGirlsLoliAnime]",
    "title": "ANIME_PIC_f7fafb7d18451bda5f5b5d99a167f0ab",
    "link_img": "https://live.staticflickr.com/65535/51549471105_54ce882386_o.jpg",
    "id_image": "ANIME_PIC_f7fafb7d18451bda5f5b5d99a167f0ab",
    "count_view": 0
  },
  {
    "link_thumb": "https://live.staticflickr.com/65535/51548551496_e14960e611_n.jpg",
    "id_album": "-316663319",
    "description": "ANIME_PIC_f7fb9571bdb4a4c3906418802d8d9553,[Girl],[isGirlAnime],[isCuteAnime],[isGirlsLoliAnime],[isSadAnimeGirl],[isSadAnime]",
    "title": "ANIME_PIC_f7fb9571bdb4a4c3906418802d8d9553",
    "link_img": "https://live.staticflickr.com/65535/51548551496_e9a7e981e9_o.jpg",
    "id_image": "ANIME_PIC_f7fb9571bdb4a4c3906418802d8d9553",
    "count_view": 0
  },
  {
    "link_thumb": "https://live.staticflickr.com/65535/51549278714_8e59082e7a_n.jpg",
    "id_album": "-316663319",
    "description": "ANIME_PIC_f7fbe2ebe09613d5e1ba5d2795313df4,[Girl],[isGirlAnime],[isCuteAnime]",
    "title": "ANIME_PIC_f7fbe2ebe09613d5e1ba5d2795313df4",
    "link_img": "https://live.staticflickr.com/65535/51549278714_1bd6654997_o.jpg",
    "id_image": "ANIME_PIC_f7fbe2ebe09613d5e1ba5d2795313df4",
    "count_view": 0
  },
  {
    "link_thumb": "https://live.staticflickr.com/65535/51549279014_b8a9626c15_n.jpg",
    "id_album": "-316663319",
    "description": "ANIME_PIC_f7ff137a90d1110dc3e4740255b923f9,[Girl],[isGirlAnime],[isCuteAnime],[isGirlsLoliAnime]",
    "title": "ANIME_PIC_f7ff137a90d1110dc3e4740255b923f9",
    "link_img": "https://live.staticflickr.com/65535/51549279014_8f58021300_o.jpg",
    "id_image": "ANIME_PIC_f7ff137a90d1110dc3e4740255b923f9",
    "count_view": 0
  },
  {
    "link_thumb": "https://live.staticflickr.com/65535/51548552566_174542a377_n.jpg",
    "id_album": "-316663319",
    "description": "ANIME_PIC_f7ff68f98118272bab15f2a1d4437433,[Girl],[isGirlAnime],[isCuteAnime],[isGirlsHatsHoodieAnime],[isGirlsLoliAnime]",
    "title": "ANIME_PIC_f7ff68f98118272bab15f2a1d4437433",
    "link_img": "https://live.staticflickr.com/65535/51548552566_e6118dd5c4_o.jpg",
    "id_image": "ANIME_PIC_f7ff68f98118272bab15f2a1d4437433",
    "count_view": 0
  },
  {
    "link_thumb": "https://live.staticflickr.com/65535/51548790973_25d4070241_n.jpg",
    "id_album": "-316663319",
    "description": "ANIME_PIC_f803b4c9bc7003e56a74a5c7439f3597,[Girl],[isGirlAnime],[isCuteAnime],[isGirlsLoliAnime],[isSadAnimeGirl],[isSadAnime]",
    "title": "ANIME_PIC_f803b4c9bc7003e56a74a5c7439f3597",
    "link_img": "https://live.staticflickr.com/65535/51548790973_d36efd0fd7_o.jpg",
    "id_image": "ANIME_PIC_f803b4c9bc7003e56a74a5c7439f3597",
    "count_view": 0
  },
  {
    "link_thumb": "https://live.staticflickr.com/65535/51549472935_7321314afd_n.jpg",
    "id_album": "-316663319",
    "description": "ANIME_PIC_f803d292e4545037d21edb1548d83c29,[Girl],[isGirlAnime],[isCuteAnime]",
    "title": "ANIME_PIC_f803d292e4545037d21edb1548d83c29",
    "link_img": "https://live.staticflickr.com/65535/51549472935_1e899c3487_o.jpg",
    "id_image": "ANIME_PIC_f803d292e4545037d21edb1548d83c29",
    "count_view": 0
  },
  {
    "link_thumb": "https://live.staticflickr.com/65535/51549279894_a92ce839f8_n.jpg",
    "id_album": "-316663319",
    "description": "ANIME_PIC_f8048c442b96dde3ce7c7bf2062609ba,[Girl],[isGirlAnime],[isCuteAnime],[isGirlsLoliAnime],[isSadAnimeGirl],[isSadAnime]",
    "title": "ANIME_PIC_f8048c442b96dde3ce7c7bf2062609ba",
    "link_img": "https://live.staticflickr.com/65535/51549279894_38ce786c3d_o.jpg",
    "id_image": "ANIME_PIC_f8048c442b96dde3ce7c7bf2062609ba",
    "count_view": 0
  },
  {
    "link_thumb": "https://live.staticflickr.com/65535/51548791708_365ce96625_n.jpg",
    "id_album": "-316663319",
    "description": "ANIME_PIC_f80c94d7807bb2ee3ce53b8bf5ddb667,[Girl],[isGirlAnime],[isCuteAnime],[isGirlsLoliAnime]",
    "title": "ANIME_PIC_f80c94d7807bb2ee3ce53b8bf5ddb667",
    "link_img": "https://live.staticflickr.com/65535/51548791708_bf0148b22e_o.png",
    "id_image": "ANIME_PIC_f80c94d7807bb2ee3ce53b8bf5ddb667",
    "count_view": 0
  },
  {
    "link_thumb": "https://live.staticflickr.com/65535/51549280364_aff3b7ff91_n.jpg",
    "id_album": "-316663319",
    "description": "ANIME_PIC_f811e2403d6d114dbba411256ae4a824,[Girl],[isGirlAnime],[isCuteAnime]",
    "title": "ANIME_PIC_f811e2403d6d114dbba411256ae4a824",
    "link_img": "https://live.staticflickr.com/65535/51549280364_5f66eeb4a8_o.jpg",
    "id_image": "ANIME_PIC_f811e2403d6d114dbba411256ae4a824",
    "count_view": 0
  },
  {
    "link_thumb": "https://live.staticflickr.com/65535/51547753847_249f6d46f3_n.jpg",
    "id_album": "-316663319",
    "description": "ANIME_PIC_f8124ad4836414a8879d74e4d1ee2729,[Girl],[isGirlAnime],[isCuteAnime],[isGirlsLoliAnime]",
    "title": "ANIME_PIC_f8124ad4836414a8879d74e4d1ee2729",
    "link_img": "https://live.staticflickr.com/65535/51547753847_e08f0ac7f9_o.jpg",
    "id_image": "ANIME_PIC_f8124ad4836414a8879d74e4d1ee2729",
    "count_view": 0
  },
  {
    "link_thumb": "https://live.staticflickr.com/65535/51548554126_ea7cae1dc5_n.jpg",
    "id_album": "-316663319",
    "description": "ANIME_PIC_f814255d36deab8809d4c7f885eb0afe,[Girl],[isGirlAnime],[isCuteAnime],[isGirlsHatsHoodieAnime]",
    "title": "ANIME_PIC_f814255d36deab8809d4c7f885eb0afe",
    "link_img": "https://live.staticflickr.com/65535/51548554126_64f365f0dc_o.jpg",
    "id_image": "ANIME_PIC_f814255d36deab8809d4c7f885eb0afe",
    "count_view": 0
  },
  {
    "link_thumb": "https://live.staticflickr.com/65535/51549281104_ebca03c1da_n.jpg",
    "id_album": "-316663319",
    "description": "ANIME_PIC_f819205c7430e6845a97ea252de31ac6,[Girl],[isGirlAnime],[isCuteAnime]",
    "title": "ANIME_PIC_f819205c7430e6845a97ea252de31ac6",
    "link_img": "https://live.staticflickr.com/65535/51549281104_3c6b12d60f_o.jpg",
    "id_image": "ANIME_PIC_f819205c7430e6845a97ea252de31ac6",
    "count_view": 0
  },
  {
    "link_thumb": "https://live.staticflickr.com/65535/51548554521_7837cb0641_n.jpg",
    "id_album": "-316663319",
    "description": "ANIME_PIC_f81c886a37088ed2c90df15debed0fdc,[Girl],[isGirlAnime],[isCuteAnime]",
    "title": "ANIME_PIC_f81c886a37088ed2c90df15debed0fdc",
    "link_img": "https://live.staticflickr.com/65535/51548554521_9dce7f674a_o.jpg",
    "id_image": "ANIME_PIC_f81c886a37088ed2c90df15debed0fdc",
    "count_view": 0
  },
  {
    "link_thumb": "https://live.staticflickr.com/65535/51548793338_b9f4c494a7_n.jpg",
    "id_album": "-316663319",
    "description": "ANIME_PIC_f81e0ed6eb2909540bdfac11d5129440,[Girl],[isGirlAnime],[isCuteAnime],[isGirlsLoliAnime]",
    "title": "ANIME_PIC_f81e0ed6eb2909540bdfac11d5129440",
    "link_img": "https://live.staticflickr.com/65535/51548793338_e66b2e720b_o.jpg",
    "id_image": "ANIME_PIC_f81e0ed6eb2909540bdfac11d5129440",
    "count_view": 0
  },
  {
    "link_thumb": "https://live.staticflickr.com/65535/51548554926_0ea0b2698b_n.jpg",
    "id_album": "-316663319",
    "description": "ANIME_PIC_f81eff8f9391328df271428b1773c7ba,[Girl],[isGirlAnime],[isCuteAnime],[isGirlsHatsHoodieAnime],[isGirlsLoliAnime]",
    "title": "ANIME_PIC_f81eff8f9391328df271428b1773c7ba",
    "link_img": "https://live.staticflickr.com/65535/51548554926_d5c55bcb25_o.jpg",
    "id_image": "ANIME_PIC_f81eff8f9391328df271428b1773c7ba",
    "count_view": 0
  },
  {
    "link_thumb": "https://live.staticflickr.com/65535/51547755057_f26bdf4eb3_n.jpg",
    "id_album": "-316663319",
    "description": "ANIME_PIC_f82352bd3f27518a6e021b20c34a60ec,[Girl],[isGirlAnime],[isCuteAnime]",
    "title": "ANIME_PIC_f82352bd3f27518a6e021b20c34a60ec",
    "link_img": "https://live.staticflickr.com/65535/51547755057_6d6c735e87_o.jpg",
    "id_image": "ANIME_PIC_f82352bd3f27518a6e021b20c34a60ec",
    "count_view": 0
  },
  {
    "link_thumb": "https://live.staticflickr.com/65535/51548555481_73d31f1bf4_n.jpg",
    "id_album": "-316663319",
    "description": "ANIME_PIC_f824c2533ee9f289306f44368b87d538,[Girl],[isGirlAnime],[isCuteAnime],[isGirlFaceMasksAnime]",
    "title": "ANIME_PIC_f824c2533ee9f289306f44368b87d538",
    "link_img": "https://live.staticflickr.com/65535/51548555481_fe0ea1c85b_o.png",
    "id_image": "ANIME_PIC_f824c2533ee9f289306f44368b87d538",
    "count_view": 0
  },
  {
    "link_thumb": "https://live.staticflickr.com/65535/51549282634_16c7aa8c63_n.jpg",
    "id_album": "-316663319",
    "description": "ANIME_PIC_f8295236b69968933ccb9f0d1303652e,[Girl],[isGirlAnime],[isCuteAnime],[isGirlsLoliAnime]",
    "title": "ANIME_PIC_f8295236b69968933ccb9f0d1303652e",
    "link_img": "https://live.staticflickr.com/65535/51549282634_1a54b827c8_o.jpg",
    "id_image": "ANIME_PIC_f8295236b69968933ccb9f0d1303652e",
    "count_view": 0
  },
  {
    "link_thumb": "https://live.staticflickr.com/65535/51547755942_6422b665ac_n.jpg",
    "id_album": "-316663319",
    "description": "ANIME_PIC_f82e7860e221e523abc6e8987dbed8f0,[Girl],[isGirlAnime],[isCuteAnime],[isGirlsLoliAnime]",
    "title": "ANIME_PIC_f82e7860e221e523abc6e8987dbed8f0",
    "link_img": "https://live.staticflickr.com/65535/51547755942_a964e77b71_o.png",
    "id_image": "ANIME_PIC_f82e7860e221e523abc6e8987dbed8f0",
    "count_view": 0
  },
  {
    "link_thumb": "https://live.staticflickr.com/65535/51549283229_311b533afd_n.jpg",
    "id_album": "-316663319",
    "description": "ANIME_PIC_f82f6ae98e03415d4a5e5ffca99eb9e7,[Girl],[isGirlAnime],[isCuteAnime],[isGirlsHatsHoodieAnime],[isGirlsLoliAnime],[isSadAnimeGirl],[isSadAnime]",
    "title": "ANIME_PIC_f82f6ae98e03415d4a5e5ffca99eb9e7",
    "link_img": "https://live.staticflickr.com/65535/51549283229_707e089a05_o.jpg",
    "id_image": "ANIME_PIC_f82f6ae98e03415d4a5e5ffca99eb9e7",
    "count_view": 0
  },
  {
    "link_thumb": "https://live.staticflickr.com/65535/51549476670_b97b922d45_n.jpg",
    "id_album": "-316663319",
    "description": "ANIME_PIC_f831b5687827a46fe70f0e58595a5f42,[Girl],[isGirlAnime],[isCuteAnime],[isGirlEarsNekoAnime]",
    "title": "ANIME_PIC_f831b5687827a46fe70f0e58595a5f42",
    "link_img": "https://live.staticflickr.com/65535/51549476670_c51fe553d4_o.jpg",
    "id_image": "ANIME_PIC_f831b5687827a46fe70f0e58595a5f42",
    "count_view": 0
  },
  {
    "link_thumb": "https://live.staticflickr.com/65535/51549476920_594d26a758_n.jpg",
    "id_album": "-316663319",
    "description": "ANIME_PIC_f83636058e1ef7ac24e05f7e4525835b,[Girl],[isGirlAnime],[isCuteAnime],[isGirlFaceMasksAnime],[isGirlsLoliAnime]",
    "title": "ANIME_PIC_f83636058e1ef7ac24e05f7e4525835b",
    "link_img": "https://live.staticflickr.com/65535/51549476920_957c2c5a20_o.jpg",
    "id_image": "ANIME_PIC_f83636058e1ef7ac24e05f7e4525835b",
    "count_view": 0
  },
  {
    "link_thumb": "https://live.staticflickr.com/65535/51547756807_83a6480ae7_n.jpg",
    "id_album": "-316663319",
    "description": "ANIME_PIC_f838fce37086f9890b864fd7c8054929,[Girl],[isGirlAnime],[isCuteAnime],[isSadAnimeGirl],[isSadAnime]",
    "title": "ANIME_PIC_f838fce37086f9890b864fd7c8054929",
    "link_img": "https://live.staticflickr.com/65535/51547756807_99307e04fc_o.png",
    "id_image": "ANIME_PIC_f838fce37086f9890b864fd7c8054929",
    "count_view": 0
  },
  {
    "link_thumb": "https://live.staticflickr.com/65535/51549477410_0c44b9393e_n.jpg",
    "id_album": "-316663319",
    "description": "ANIME_PIC_f83ce2e4585974188d8050cd28950527,[Girl],[isGirlAnime],[isSadAnimeGirl],[isSadAnime]",
    "title": "ANIME_PIC_f83ce2e4585974188d8050cd28950527",
    "link_img": "https://live.staticflickr.com/65535/51549477410_9c90b01b70_o.jpg",
    "id_image": "ANIME_PIC_f83ce2e4585974188d8050cd28950527",
    "count_view": 0
  },
  {
    "link_thumb": "https://live.staticflickr.com/65535/51548557336_89bcb6c3c6_n.jpg",
    "id_album": "-316663319",
    "description": "ANIME_PIC_f83e047e7285feea944dfa58b2485192,[Girl],[isGirlAnime],[isCuteAnime],[isGirlsLoliAnime]",
    "title": "ANIME_PIC_f83e047e7285feea944dfa58b2485192",
    "link_img": "https://live.staticflickr.com/65535/51548557336_20160ed8bb_o.jpg",
    "id_image": "ANIME_PIC_f83e047e7285feea944dfa58b2485192",
    "count_view": 0
  },
  {
    "link_thumb": "https://live.staticflickr.com/65535/51548557591_80b0e84399_n.jpg",
    "id_album": "-316663319",
    "description": "ANIME_PIC_f83f390b30d14f2b7a8bb567a78fa9a1,[Girl],[isGirlAnime],[isCuteAnime],[isGirlsLoliAnime]",
    "title": "ANIME_PIC_f83f390b30d14f2b7a8bb567a78fa9a1",
    "link_img": "https://live.staticflickr.com/65535/51548557591_55113c13b6_o.jpg",
    "id_image": "ANIME_PIC_f83f390b30d14f2b7a8bb567a78fa9a1",
    "count_view": 0
  },
  {
    "link_thumb": "https://live.staticflickr.com/65535/51547757757_2c7ed89148_n.jpg",
    "id_album": "-316663319",
    "description": "ANIME_PIC_f840870de6478dadc325d8ebad1e0334,[Girl],[isGirlAnime],[isCuteAnime],[isGirlsHatsHoodieAnime],[isGirlsLoliAnime]",
    "title": "ANIME_PIC_f840870de6478dadc325d8ebad1e0334",
    "link_img": "https://live.staticflickr.com/65535/51547757757_4fb65c0b7f_o.png",
    "id_image": "ANIME_PIC_f840870de6478dadc325d8ebad1e0334",
    "count_view": 0
  },
  {
    "link_thumb": "https://live.staticflickr.com/65535/51549478485_c46fd6795e_n.jpg",
    "id_album": "-316663319",
    "description": "ANIME_PIC_f844d13bfc2367cc7a90bafec1a96940,[Girl],[isGirlAnime],[isCuteAnime],[isGirlsLoliAnime]",
    "title": "ANIME_PIC_f844d13bfc2367cc7a90bafec1a96940",
    "link_img": "https://live.staticflickr.com/65535/51549478485_8f04368e48_o.jpg",
    "id_image": "ANIME_PIC_f844d13bfc2367cc7a90bafec1a96940",
    "count_view": 0
  },
  {
    "link_thumb": "https://live.staticflickr.com/65535/51548797008_3139d232d3_n.jpg",
    "id_album": "-316663319",
    "description": "ANIME_PIC_f8451161c023f90aad5a15d9f86edc58,[Girl],[isGirlAnime],[isCuteAnime],[isGirlsLoliAnime]",
    "title": "ANIME_PIC_f8451161c023f90aad5a15d9f86edc58",
    "link_img": "https://live.staticflickr.com/65535/51548797008_8a6e19bf54_o.jpg",
    "id_image": "ANIME_PIC_f8451161c023f90aad5a15d9f86edc58",
    "count_view": 0
  },
  {
    "link_thumb": "https://live.staticflickr.com/65535/51548558571_9a64320faa_n.jpg",
    "id_album": "-316663319",
    "description": "ANIME_PIC_f84df6b47a48737301af5b4ea5d922fb,[Girl],[isGirlAnime],[isCuteAnime],[isGirlsLoliAnime],[isSadAnimeGirl],[isSadAnime]",
    "title": "ANIME_PIC_f84df6b47a48737301af5b4ea5d922fb",
    "link_img": "https://live.staticflickr.com/65535/51548558571_6319eba539_o.jpg",
    "id_image": "ANIME_PIC_f84df6b47a48737301af5b4ea5d922fb",
    "count_view": 0
  },
  {
    "link_thumb": "https://live.staticflickr.com/65535/51549479190_83142365f8_n.jpg",
    "id_album": "-316663319",
    "description": "ANIME_PIC_f8506865aab1ec69130f2e603c9b113d,[Girl],[isGirlAnime],[isCuteAnime],[isGirlsLoliAnime],[isSadAnimeGirl],[isSadAnime]",
    "title": "ANIME_PIC_f8506865aab1ec69130f2e603c9b113d",
    "link_img": "https://live.staticflickr.com/65535/51549479190_5c10d029fa_o.png",
    "id_image": "ANIME_PIC_f8506865aab1ec69130f2e603c9b113d",
    "count_view": 0
  },
  {
    "link_thumb": "https://live.staticflickr.com/65535/51548559136_e353fef16e_n.jpg",
    "id_album": "-316663319",
    "description": "ANIME_PIC_f85232d5dab17d69e337a060e2d8956a,[Girl],[isGirlAnime],[isCuteAnime],[isGirlEarsNekoAnime]",
    "title": "ANIME_PIC_f85232d5dab17d69e337a060e2d8956a",
    "link_img": "https://live.staticflickr.com/65535/51548559136_1e43b658de_o.png",
    "id_image": "ANIME_PIC_f85232d5dab17d69e337a060e2d8956a",
    "count_view": 0
  },
  {
    "link_thumb": "https://live.staticflickr.com/65535/51548798233_bb70ce8a2d_n.jpg",
    "id_album": "-316663319",
    "description": "ANIME_PIC_f85342a5ab331b3311e9e7b3b9337250,[Girl],[isGirlAnime],[isCuteAnime]",
    "title": "ANIME_PIC_f85342a5ab331b3311e9e7b3b9337250",
    "link_img": "https://live.staticflickr.com/65535/51548798233_1ff3374f09_o.png",
    "id_image": "ANIME_PIC_f85342a5ab331b3311e9e7b3b9337250",
    "count_view": 0
  },
  {
    "link_thumb": "https://live.staticflickr.com/65535/51549480230_9be4967f50_n.jpg",
    "id_album": "-316663319",
    "description": "ANIME_PIC_f855ff3b01934fe074896ba6693af397,[Girl],[isGirlAnime],[isCuteAnime],[isGirlEarsNekoAnime],[isGirlsLoliAnime]",
    "title": "ANIME_PIC_f855ff3b01934fe074896ba6693af397",
    "link_img": "https://live.staticflickr.com/65535/51549480230_324d151b59_o.jpg",
    "id_image": "ANIME_PIC_f855ff3b01934fe074896ba6693af397",
    "count_view": 0
  },
  {
    "link_thumb": "https://live.staticflickr.com/65535/51549286994_2b8c6bb50a_n.jpg",
    "id_album": "-316663319",
    "description": "ANIME_PIC_f8587bdfb4712ee25518517ba940c9ff,[Girl],[isGirlAnime],[isCuteAnime],[isGirlsLoliAnime]",
    "title": "ANIME_PIC_f8587bdfb4712ee25518517ba940c9ff",
    "link_img": "https://live.staticflickr.com/65535/51549286994_e4db64dfed_o.jpg",
    "id_image": "ANIME_PIC_f8587bdfb4712ee25518517ba940c9ff",
    "count_view": 0
  },
  {
    "link_thumb": "https://live.staticflickr.com/65535/51547760297_7e523d6788_n.jpg",
    "id_album": "-316663319",
    "description": "ANIME_PIC_f858d1cdef0548e491268b0f57016510,[Girl],[isGirlAnime],[isCuteAnime]",
    "title": "ANIME_PIC_f858d1cdef0548e491268b0f57016510",
    "link_img": "https://live.staticflickr.com/65535/51547760297_d8c0bfa86e_o.png",
    "id_image": "ANIME_PIC_f858d1cdef0548e491268b0f57016510",
    "count_view": 0
  },
  {
    "link_thumb": "https://live.staticflickr.com/65535/51548799368_50c6505b71_n.jpg",
    "id_album": "-316663319",
    "description": "ANIME_PIC_f85bf821d6249ee524839ecc2d129343,[Girl],[isGirlAnime],[isCuteAnime],[isGirlsLoliAnime]",
    "title": "ANIME_PIC_f85bf821d6249ee524839ecc2d129343",
    "link_img": "https://live.staticflickr.com/65535/51548799368_263877d8e1_o.jpg",
    "id_image": "ANIME_PIC_f85bf821d6249ee524839ecc2d129343",
    "count_view": 0
  },
  {
    "link_thumb": "https://live.staticflickr.com/65535/51547760797_75f54a0f25_n.jpg",
    "id_album": "-316663319",
    "description": "ANIME_PIC_f85d967705772816e651b75d27923389,[Girl],[isGirlAnime],[isCuteAnime],[isGirlsLoliAnime]",
    "title": "ANIME_PIC_f85d967705772816e651b75d27923389",
    "link_img": "https://live.staticflickr.com/65535/51547760797_468bebc59a_o.jpg",
    "id_image": "ANIME_PIC_f85d967705772816e651b75d27923389",
    "count_view": 0
  },
  {
    "link_thumb": "https://live.staticflickr.com/65535/51547760972_3ff46bd48c_n.jpg",
    "id_album": "-316663319",
    "description": "ANIME_PIC_f85ff78408c41c8390da8569c4e26b11,[Girl],[isGirlAnime],[isCuteAnime],[isGirlsHatsHoodieAnime],[isGirlsLoliAnime]",
    "title": "ANIME_PIC_f85ff78408c41c8390da8569c4e26b11",
    "link_img": "https://live.staticflickr.com/65535/51547760972_c31cd9b2b0_o.jpg",
    "id_image": "ANIME_PIC_f85ff78408c41c8390da8569c4e26b11",
    "count_view": 0
  },
  {
    "link_thumb": "https://live.staticflickr.com/65535/51549288079_9cda5c6224_n.jpg",
    "id_album": "-316663319",
    "description": "ANIME_PIC_f861f00edcbf09117af1f717cb6045b8,[Girl],[isGirlAnime],[isCuteAnime],[isGirlFaceMasksAnime],[isGirlsHatsHoodieAnime],[isGirlsLoliAnime]",
    "title": "ANIME_PIC_f861f00edcbf09117af1f717cb6045b8",
    "link_img": "https://live.staticflickr.com/65535/51549288079_e539b14612_o.png",
    "id_image": "ANIME_PIC_f861f00edcbf09117af1f717cb6045b8",
    "count_view": 0
  },
  {
    "link_thumb": "https://live.staticflickr.com/65535/51547761592_77a7712c95_n.jpg",
    "id_album": "-316663319",
    "description": "ANIME_PIC_f86427bd3f2270ddaecbb9aa2bddfce9,[Girl],[isGirlAnime],[isCuteAnime]",
    "title": "ANIME_PIC_f86427bd3f2270ddaecbb9aa2bddfce9",
    "link_img": "https://live.staticflickr.com/65535/51547761592_614b48982f_o.jpg",
    "id_image": "ANIME_PIC_f86427bd3f2270ddaecbb9aa2bddfce9",
    "count_view": 0
  },
  {
    "link_thumb": "https://live.staticflickr.com/65535/51548800398_0e0c99366e_n.jpg",
    "id_album": "-316663319",
    "description": "ANIME_PIC_f86abba4251a5bb55f5365f3f67c7b3c,[Girl],[isGirlAnime],[isCuteAnime]",
    "title": "ANIME_PIC_f86abba4251a5bb55f5365f3f67c7b3c",
    "link_img": "https://live.staticflickr.com/65535/51548800398_7186361df7_o.jpg",
    "id_image": "ANIME_PIC_f86abba4251a5bb55f5365f3f67c7b3c",
    "count_view": 0
  },
  {
    "link_thumb": "https://live.staticflickr.com/65535/51548562081_4a86e2b67b_n.jpg",
    "id_album": "-316663319",
    "description": "ANIME_PIC_f86ff61d8e9a18fa151b8571e821e97e,[Girl],[isGirlAnime],[isCuteAnime]",
    "title": "ANIME_PIC_f86ff61d8e9a18fa151b8571e821e97e",
    "link_img": "https://live.staticflickr.com/65535/51548562081_d66d6d61f4_o.png",
    "id_image": "ANIME_PIC_f86ff61d8e9a18fa151b8571e821e97e",
    "count_view": 0
  },
  {
    "link_thumb": "https://live.staticflickr.com/65535/51549289004_beb9875b32_n.jpg",
    "id_album": "-316663319",
    "description": "ANIME_PIC_f87c4c08d319c813185e8981f6abd26b,[Girl],[isGirlAnime],[isCuteAnime],[isGirlsLoliAnime]",
    "title": "ANIME_PIC_f87c4c08d319c813185e8981f6abd26b",
    "link_img": "https://live.staticflickr.com/65535/51549289004_150e2dd224_o.jpg",
    "id_image": "ANIME_PIC_f87c4c08d319c813185e8981f6abd26b",
    "count_view": 0
  },
  {
    "link_thumb": "https://live.staticflickr.com/65535/51548801053_8bf4ee2461_n.jpg",
    "id_album": "-316663319",
    "description": "ANIME_PIC_f8808d1c4bdaa50b043dcfd5055d5ee9,[Girl],[isGirlAnime],[isCuteAnime],[isGirlsLoliAnime]",
    "title": "ANIME_PIC_f8808d1c4bdaa50b043dcfd5055d5ee9",
    "link_img": "https://live.staticflickr.com/65535/51548801053_b9c271dfec_o.jpg",
    "id_image": "ANIME_PIC_f8808d1c4bdaa50b043dcfd5055d5ee9",
    "count_view": 0
  },
  {
    "link_thumb": "https://live.staticflickr.com/65535/51547762692_c570018644_n.jpg",
    "id_album": "-316663319",
    "description": "ANIME_PIC_f884cce4a23f8650b395f32154bc6604,[Girl],[isGirlAnime],[isCuteAnime],[isGirlsLoliAnime]",
    "title": "ANIME_PIC_f884cce4a23f8650b395f32154bc6604",
    "link_img": "https://live.staticflickr.com/65535/51547762692_88d39c1a3f_o.jpg",
    "id_image": "ANIME_PIC_f884cce4a23f8650b395f32154bc6604",
    "count_view": 0
  },
  {
    "link_thumb": "https://live.staticflickr.com/65535/51553630120_e75f489028_n.jpg",
    "id_album": "-316663319",
    "description": "ANIME_PIC_f8889164780b793ea617c4e97fd4c0a2,[Girl],[isGirlAnime],[isSadAnimeGirl],[isSadAnime],[isSceneryArts]",
    "title": "ANIME_PIC_f8889164780b793ea617c4e97fd4c0a2",
    "link_img": "https://live.staticflickr.com/65535/51553630120_df67642845_o.png",
    "id_image": "ANIME_PIC_f8889164780b793ea617c4e97fd4c0a2",
    "count_view": 0
  },
  {
    "link_thumb": "https://live.staticflickr.com/65535/51548801508_ffa007a9b9_n.jpg",
    "id_album": "-316663319",
    "description": "ANIME_PIC_f88ff7deb2174e20b0d900be11c5355a,[Girl],[isGirlAnime],[isCuteAnime],[isGirlsLoliAnime]",
    "title": "ANIME_PIC_f88ff7deb2174e20b0d900be11c5355a",
    "link_img": "https://live.staticflickr.com/65535/51548801508_d3be72b192_o.jpg",
    "id_image": "ANIME_PIC_f88ff7deb2174e20b0d900be11c5355a",
    "count_view": 0
  },
  {
    "link_thumb": "https://live.staticflickr.com/65535/51549289819_cf115e4c97_n.jpg",
    "id_album": "-316663319",
    "description": "ANIME_PIC_f8902d68dfec93316b77a7b232333702,[Girl],[isGirlAnime],[isCuteAnime],[isGirlEarsNekoAnime]",
    "title": "ANIME_PIC_f8902d68dfec93316b77a7b232333702",
    "link_img": "https://live.staticflickr.com/65535/51549289819_634da93930_o.png",
    "id_image": "ANIME_PIC_f8902d68dfec93316b77a7b232333702",
    "count_view": 0
  },
  {
    "link_thumb": "https://live.staticflickr.com/65535/51548802258_080014ff43_n.jpg",
    "id_album": "-316663319",
    "description": "ANIME_PIC_f89376e595c1d9088ec5d0c2baa389be,[Girl],[isGirlAnime],[isCuteAnime]",
    "title": "ANIME_PIC_f89376e595c1d9088ec5d0c2baa389be",
    "link_img": "https://live.staticflickr.com/65535/51548802258_8a5b62d5bd_o.jpg",
    "id_image": "ANIME_PIC_f89376e595c1d9088ec5d0c2baa389be",
    "count_view": 0
  },
  {
    "link_thumb": "https://live.staticflickr.com/65535/51548563751_7254ba502d_n.jpg",
    "id_album": "-316663319",
    "description": "ANIME_PIC_f895348e64cbe12dd6bde9309013f1ad,[Girl],[isGirlAnime],[isCuteAnime],[isGirlsLoliAnime]",
    "title": "ANIME_PIC_f895348e64cbe12dd6bde9309013f1ad",
    "link_img": "https://live.staticflickr.com/65535/51548563751_bb44a8e652_o.jpg",
    "id_image": "ANIME_PIC_f895348e64cbe12dd6bde9309013f1ad",
    "count_view": 0
  },
  {
    "link_thumb": "https://live.staticflickr.com/65535/51547763957_8825f1c1de_n.jpg",
    "id_album": "-316663319",
    "description": "ANIME_PIC_f895d8cd4a3f5b673759b634728479dd,[Girl],[isGirlAnime],[isCuteAnime]",
    "title": "ANIME_PIC_f895d8cd4a3f5b673759b634728479dd",
    "link_img": "https://live.staticflickr.com/65535/51547763957_70ff53947a_o.jpg",
    "id_image": "ANIME_PIC_f895d8cd4a3f5b673759b634728479dd",
    "count_view": 0
  },
  {
    "link_thumb": "https://live.staticflickr.com/65535/51549484455_130dfcf8a0_n.jpg",
    "id_album": "-316663319",
    "description": "ANIME_PIC_f8968a7e89eb7e2c51e820aa15f67315,[Girl],[isGirlAnime],[isCuteAnime],[isSadAnimeGirl],[isSadAnime]",
    "title": "ANIME_PIC_f8968a7e89eb7e2c51e820aa15f67315",
    "link_img": "https://live.staticflickr.com/65535/51549484455_d40f005d62_o.jpg",
    "id_image": "ANIME_PIC_f8968a7e89eb7e2c51e820aa15f67315",
    "count_view": 0
  },
  {
    "link_thumb": "https://live.staticflickr.com/65535/51549291124_442c907bb1_n.jpg",
    "id_album": "-316663319",
    "description": "ANIME_PIC_f896f486806a80127f6ea2ede4b14155,[Girl],[isGirlAnime],[isCuteAnime],[isGirlsLoliAnime]",
    "title": "ANIME_PIC_f896f486806a80127f6ea2ede4b14155",
    "link_img": "https://live.staticflickr.com/65535/51549291124_b897d15e32_o.jpg",
    "id_image": "ANIME_PIC_f896f486806a80127f6ea2ede4b14155",
    "count_view": 0
  },
  {
    "link_thumb": "https://live.staticflickr.com/65535/51549484825_bfa0cd7156_n.jpg",
    "id_album": "-316663319",
    "description": "ANIME_PIC_f89a0d0c34f5cb960131a199fc46c1d6,[Girl],[isBoyAnime],[isGirlAnime],[isCuteAnime]",
    "title": "ANIME_PIC_f89a0d0c34f5cb960131a199fc46c1d6",
    "link_img": "https://live.staticflickr.com/65535/51549484825_3a0b3565cb_o.jpg",
    "id_image": "ANIME_PIC_f89a0d0c34f5cb960131a199fc46c1d6",
    "count_view": 0
  },
  {
    "link_thumb": "https://live.staticflickr.com/65535/51548564726_3220baa9fd_n.jpg",
    "id_album": "-316663319",
    "description": "ANIME_PIC_f89a7de9ae8a0a8b8e9cf139fcb0bfe5,[Girl],[isGirlAnime],[isCuteAnime]",
    "title": "ANIME_PIC_f89a7de9ae8a0a8b8e9cf139fcb0bfe5",
    "link_img": "https://live.staticflickr.com/65535/51548564726_e25ca222e0_o.jpg",
    "id_image": "ANIME_PIC_f89a7de9ae8a0a8b8e9cf139fcb0bfe5",
    "count_view": 0
  },
  {
    "link_thumb": "https://live.staticflickr.com/65535/51548564881_763b323b8d_n.jpg",
    "id_album": "-316663319",
    "description": "ANIME_PIC_f89c4b4cd9176f01ef93d73baf0c159b,[Girl],[isGirlAnime],[isCuteAnime],[isGirlsLoliAnime]",
    "title": "ANIME_PIC_f89c4b4cd9176f01ef93d73baf0c159b",
    "link_img": "https://live.staticflickr.com/65535/51548564881_62e4cf7c19_o.png",
    "id_image": "ANIME_PIC_f89c4b4cd9176f01ef93d73baf0c159b",
    "count_view": 0
  },
  {
    "link_thumb": "https://live.staticflickr.com/65535/51548803908_cbcf1e3d29_n.jpg",
    "id_album": "-316663319",
    "description": "ANIME_PIC_f89dd33ca01af8adbaeb156516bd77ba,[Girl],[isGirlAnime],[isSadAnimeGirl],[isSadAnime]",
    "title": "ANIME_PIC_f89dd33ca01af8adbaeb156516bd77ba",
    "link_img": "https://live.staticflickr.com/65535/51548803908_ecf9f8e17f_o.jpg",
    "id_image": "ANIME_PIC_f89dd33ca01af8adbaeb156516bd77ba",
    "count_view": 0
  },
  {
    "link_thumb": "https://live.staticflickr.com/65535/51547765392_463ccb321f_n.jpg",
    "id_album": "-316663319",
    "description": "ANIME_PIC_f89e1672441c51655341b644195a2622,[Girl],[isGirlAnime],[isCuteAnime],[isGirlsLoliAnime],[isSadAnimeGirl],[isSadAnime]",
    "title": "ANIME_PIC_f89e1672441c51655341b644195a2622",
    "link_img": "https://live.staticflickr.com/65535/51547765392_65ca89fbca_o.jpg",
    "id_image": "ANIME_PIC_f89e1672441c51655341b644195a2622",
    "count_view": 0
  },
  {
    "link_thumb": "https://live.staticflickr.com/65535/51549292494_4a796c83f3_n.jpg",
    "id_album": "-316663319",
    "description": "ANIME_PIC_f8a5f59216b96ef22f9893afdd4eee7d,[Girl],[isGirlAnime],[isCuteAnime],[isGirlsLoliAnime],[isSadAnimeGirl],[isSadAnime]",
    "title": "ANIME_PIC_f8a5f59216b96ef22f9893afdd4eee7d",
    "link_img": "https://live.staticflickr.com/65535/51549292494_f114d95f29_o.jpg",
    "id_image": "ANIME_PIC_f8a5f59216b96ef22f9893afdd4eee7d",
    "count_view": 0
  },
  {
    "link_thumb": "https://live.staticflickr.com/65535/51547766017_7143ac7925_n.jpg",
    "id_album": "-316663319",
    "description": "ANIME_PIC_f8a7f60f81042b152ea3d376e4147f08,[Girl],[isGirlAnime],[isCuteAnime],[isSadAnimeGirl],[isSadAnime]",
    "title": "ANIME_PIC_f8a7f60f81042b152ea3d376e4147f08",
    "link_img": "https://live.staticflickr.com/65535/51547766017_6589087930_o.jpg",
    "id_image": "ANIME_PIC_f8a7f60f81042b152ea3d376e4147f08",
    "count_view": 0
  },
  {
    "link_thumb": "https://live.staticflickr.com/65535/51548566506_ef28468762_n.jpg",
    "id_album": "-316663319",
    "description": "ANIME_PIC_f8adf0e7d952ee2c9497801126643b0c,[Girl],[isGirlAnime],[isCuteAnime],[isGirlEarsNekoAnime],[isGirlsLoliAnime]",
    "title": "ANIME_PIC_f8adf0e7d952ee2c9497801126643b0c",
    "link_img": "https://live.staticflickr.com/65535/51548566506_f31c80c38f_o.jpg",
    "id_image": "ANIME_PIC_f8adf0e7d952ee2c9497801126643b0c",
    "count_view": 0
  },
  {
    "link_thumb": "https://live.staticflickr.com/65535/51549293294_cfda755063_n.jpg",
    "id_album": "-316663319",
    "description": "ANIME_PIC_f8aec74455e57d243f3624716654c6c6,[Girl],[isGirlAnime],[isCuteAnime],[isGirlEarsNekoAnime],[isGirlsLoliAnime]",
    "title": "ANIME_PIC_f8aec74455e57d243f3624716654c6c6",
    "link_img": "https://live.staticflickr.com/65535/51549293294_bda130b3e4_o.jpg",
    "id_image": "ANIME_PIC_f8aec74455e57d243f3624716654c6c6",
    "count_view": 0
  },
  {
    "link_thumb": "https://live.staticflickr.com/65535/51549487240_9428afe410_n.jpg",
    "id_album": "-316663319",
    "description": "ANIME_PIC_f8b0069f8c59b58132a729e08123e9d3,[Girl],[isGirlAnime],[isCuteAnime],[isGirlsHatsHoodieAnime],[isGirlsLoliAnime]",
    "title": "ANIME_PIC_f8b0069f8c59b58132a729e08123e9d3",
    "link_img": "https://live.staticflickr.com/65535/51549487240_2097747dd5_o.jpg",
    "id_image": "ANIME_PIC_f8b0069f8c59b58132a729e08123e9d3",
    "count_view": 0
  },
  {
    "link_thumb": "https://live.staticflickr.com/65535/51547767237_9316c9d2ef_n.jpg",
    "id_album": "-316663319",
    "description": "ANIME_PIC_f8b095542d8ab7fd23cdb93a5ce91eb8,[Girl],[isGirlAnime],[isCuteAnime]",
    "title": "ANIME_PIC_f8b095542d8ab7fd23cdb93a5ce91eb8",
    "link_img": "https://live.staticflickr.com/65535/51547767237_0cfe152c5c_o.png",
    "id_image": "ANIME_PIC_f8b095542d8ab7fd23cdb93a5ce91eb8",
    "count_view": 0
  },
  {
    "link_thumb": "https://live.staticflickr.com/65535/51549294439_f18ec82981_n.jpg",
    "id_album": "-316663319",
    "description": "ANIME_PIC_f8b0bcc1aab9d0a5ce8dc52b511f2dff,[Girl],[isGirlAnime],[isCuteAnime],[isGirlsHatsHoodieAnime],[isGirlsLoliAnime],[isGirlsSharpCanineToothAnime]",
    "title": "ANIME_PIC_f8b0bcc1aab9d0a5ce8dc52b511f2dff",
    "link_img": "https://live.staticflickr.com/65535/51549294439_100a529ef1_o.jpg",
    "id_image": "ANIME_PIC_f8b0bcc1aab9d0a5ce8dc52b511f2dff",
    "count_view": 0
  },
  {
    "link_thumb": "https://live.staticflickr.com/65535/51549294704_a03f5f4cbf_n.jpg",
    "id_album": "-316663319",
    "description": "ANIME_PIC_f8bbde5ee623f47cba166622126c6890,[Girl],[isGirlAnime],[isCuteAnime],[isGirlsHornsAnime]",
    "title": "ANIME_PIC_f8bbde5ee623f47cba166622126c6890",
    "link_img": "https://live.staticflickr.com/65535/51549294704_b9d908f927_o.jpg",
    "id_image": "ANIME_PIC_f8bbde5ee623f47cba166622126c6890",
    "count_view": 0
  },
  {
    "link_thumb": "https://live.staticflickr.com/65535/51549294969_2f722da9d3_n.jpg",
    "id_album": "-316663319",
    "description": "ANIME_PIC_f8bbede070b5de48d0512d706b768121,[Girl],[isGirlAnime],[isCuteAnime],[isGirlsLoliAnime],[isSadAnimeGirl],[isSadAnime]",
    "title": "ANIME_PIC_f8bbede070b5de48d0512d706b768121",
    "link_img": "https://live.staticflickr.com/65535/51549294969_60e574407d_o.jpg",
    "id_image": "ANIME_PIC_f8bbede070b5de48d0512d706b768121",
    "count_view": 0
  },
  {
    "link_thumb": "https://live.staticflickr.com/65535/51548807288_9792defba8_n.jpg",
    "id_album": "-316663319",
    "description": "ANIME_PIC_f8bdd73f4fdce31cbfdeb287929e0f7f,[Girl],[isGirlAnime],[isCuteAnime],[isGirlsHatsHoodieAnime],[isGirlsLoliAnime],[isGirlsSharpCanineToothAnime]",
    "title": "ANIME_PIC_f8bdd73f4fdce31cbfdeb287929e0f7f",
    "link_img": "https://live.staticflickr.com/65535/51548807288_02ee9756ac_o.jpg",
    "id_image": "ANIME_PIC_f8bdd73f4fdce31cbfdeb287929e0f7f",
    "count_view": 0
  },
  {
    "link_thumb": "https://live.staticflickr.com/65535/51548807523_904e9e44e0_n.jpg",
    "id_album": "-316663319",
    "description": "ANIME_PIC_f8be96c8df2acc11013647a9adf52b04,[Girl],[isGirlAnime],[isCuteAnime],[isGirlEarsNekoAnime]",
    "title": "ANIME_PIC_f8be96c8df2acc11013647a9adf52b04",
    "link_img": "https://live.staticflickr.com/65535/51548807523_2971881c7e_o.png",
    "id_image": "ANIME_PIC_f8be96c8df2acc11013647a9adf52b04",
    "count_view": 0
  },
  {
    "link_thumb": "https://live.staticflickr.com/65535/51549295809_0facd8f9e8_n.jpg",
    "id_album": "-316663319",
    "description": "ANIME_PIC_f8c0ffbc0b93830a4cbefbc428a36816,[Girl],[isGirlAnime],[isCuteAnime],[isGirlEarsNekoAnime],[isGirlsHatsHoodieAnime],[isSadAnimeGirl],[isSadAnime]",
    "title": "ANIME_PIC_f8c0ffbc0b93830a4cbefbc428a36816",
    "link_img": "https://live.staticflickr.com/65535/51549295809_78614e76fd_o.jpg",
    "id_image": "ANIME_PIC_f8c0ffbc0b93830a4cbefbc428a36816",
    "count_view": 0
  },
  {
    "link_thumb": "https://live.staticflickr.com/65535/51549489665_ab1517d375_n.jpg",
    "id_album": "-316663319",
    "description": "ANIME_PIC_f8c34926ff38cfea32cc532465ca238a,[Girl],[isGirlAnime],[isCuteAnime],[isGirlsHatsHoodieAnime],[isGirlsLoliAnime]",
    "title": "ANIME_PIC_f8c34926ff38cfea32cc532465ca238a",
    "link_img": "https://live.staticflickr.com/65535/51549489665_bc6358e956_o.jpg",
    "id_image": "ANIME_PIC_f8c34926ff38cfea32cc532465ca238a",
    "count_view": 0
  },
  {
    "link_thumb": "https://live.staticflickr.com/65535/51548569796_eaf28da353_n.jpg",
    "id_album": "-316663319",
    "description": "ANIME_PIC_f8c474e718c7be3355398e90e24ad869,[Girl],[isGirlAnime],[isCuteAnime]",
    "title": "ANIME_PIC_f8c474e718c7be3355398e90e24ad869",
    "link_img": "https://live.staticflickr.com/65535/51548569796_fef5a872c0_o.jpg",
    "id_image": "ANIME_PIC_f8c474e718c7be3355398e90e24ad869",
    "count_view": 0
  },
  {
    "link_thumb": "https://live.staticflickr.com/65535/51548570041_79211cb962_n.jpg",
    "id_album": "-316663319",
    "description": "ANIME_PIC_f8c789974632c5e19331811bc7f98bad,[Girl],[isGirlAnime],[isCuteAnime],[isGirlsHatsHoodieAnime],[isGirlsLoliAnime]",
    "title": "ANIME_PIC_f8c789974632c5e19331811bc7f98bad",
    "link_img": "https://live.staticflickr.com/65535/51548570041_9eeb8fc413_o.jpg",
    "id_image": "ANIME_PIC_f8c789974632c5e19331811bc7f98bad",
    "count_view": 0
  },
  {
    "link_thumb": "https://live.staticflickr.com/65535/51548570366_a0ac0566d4_n.jpg",
    "id_album": "-316663319",
    "description": "ANIME_PIC_f8cd0fb76539c5b60f6bb139aab45e85,[Girl],[isGirlAnime],[isCuteAnime],[isSadAnimeGirl],[isSadAnime]",
    "title": "ANIME_PIC_f8cd0fb76539c5b60f6bb139aab45e85",
    "link_img": "https://live.staticflickr.com/65535/51548570366_c71a086d8b_o.jpg",
    "id_image": "ANIME_PIC_f8cd0fb76539c5b60f6bb139aab45e85",
    "count_view": 0
  },
  {
    "link_thumb": "https://live.staticflickr.com/65535/51548809173_3957403185_n.jpg",
    "id_album": "-316663319",
    "description": "ANIME_PIC_f8cea580f663f82cf80b3af396881f5b,[Girl],[isGirlAnime],[isCuteAnime],[isGirlsLoliAnime],[isSadAnimeGirl],[isSadAnime]",
    "title": "ANIME_PIC_f8cea580f663f82cf80b3af396881f5b",
    "link_img": "https://live.staticflickr.com/65535/51548809173_ee8907aecd_o.jpg",
    "id_image": "ANIME_PIC_f8cea580f663f82cf80b3af396881f5b",
    "count_view": 0
  },
  {
    "link_thumb": "https://live.staticflickr.com/65535/51549297589_02df058b98_n.jpg",
    "id_album": "-316663319",
    "description": "ANIME_PIC_f8cebdba7ccadce19e9e925446b89117,[Girl],[isGirlAnime],[isCuteAnime],[isGirlsHatsHoodieAnime],[isGirlsLoliAnime]",
    "title": "ANIME_PIC_f8cebdba7ccadce19e9e925446b89117",
    "link_img": "https://live.staticflickr.com/65535/51549297589_b779568a9a_o.jpg",
    "id_image": "ANIME_PIC_f8cebdba7ccadce19e9e925446b89117",
    "count_view": 0
  },
  {
    "link_thumb": "https://live.staticflickr.com/65535/51549297784_2c109b4680_n.jpg",
    "id_album": "-316663319",
    "description": "ANIME_PIC_f8cf6cc1ffe2a3a1bcf883e230ed21a9,[Girl],[isGirlAnime],[isCuteAnime],[isGirlsLoliAnime]",
    "title": "ANIME_PIC_f8cf6cc1ffe2a3a1bcf883e230ed21a9",
    "link_img": "https://live.staticflickr.com/65535/51549297784_f54e845c49_o.jpg",
    "id_image": "ANIME_PIC_f8cf6cc1ffe2a3a1bcf883e230ed21a9",
    "count_view": 0
  },
  {
    "link_thumb": "https://live.staticflickr.com/65535/51547771082_4910ec19be_n.jpg",
    "id_album": "-316663319",
    "description": "ANIME_PIC_f8d315d303f9f3125dcc2ca752e6fe51,[Girl],[isGirlAnime],[isCuteAnime],[isGirlEarsNekoAnime],[isGirlsLoliAnime],[isSadAnimeGirl],[isSadAnime]",
    "title": "ANIME_PIC_f8d315d303f9f3125dcc2ca752e6fe51",
    "link_img": "https://live.staticflickr.com/65535/51547771082_1310540664_o.png",
    "id_image": "ANIME_PIC_f8d315d303f9f3125dcc2ca752e6fe51",
    "count_view": 0
  },
  {
    "link_thumb": "https://live.staticflickr.com/65535/51549491965_ca97eea611_n.jpg",
    "id_album": "-316663319",
    "description": "ANIME_PIC_f8d3e4ce3c660b8d952013228dcbcd86,[Girl],[isGirlAnime],[isCuteAnime],[isGirlsLoliAnime]",
    "title": "ANIME_PIC_f8d3e4ce3c660b8d952013228dcbcd86",
    "link_img": "https://live.staticflickr.com/65535/51549491965_82efc34ed3_o.png",
    "id_image": "ANIME_PIC_f8d3e4ce3c660b8d952013228dcbcd86",
    "count_view": 0
  },
  {
    "link_thumb": "https://live.staticflickr.com/65535/51548810728_db002347c5_n.jpg",
    "id_album": "-316663319",
    "description": "ANIME_PIC_f8d4c223150040c3de3f6c2665b88e65,[Girl],[isBoyAnime],[isCoupleAnime],[isGirlAnime],[isCuteAnime],[isGirlsHatsHoodieAnime]",
    "title": "ANIME_PIC_f8d4c223150040c3de3f6c2665b88e65",
    "link_img": "https://live.staticflickr.com/65535/51548810728_77383687e7_o.jpg",
    "id_image": "ANIME_PIC_f8d4c223150040c3de3f6c2665b88e65",
    "count_view": 0
  },
  {
    "link_thumb": "https://live.staticflickr.com/65535/51549299019_09939849ee_n.jpg",
    "id_album": "-316663319",
    "description": "ANIME_PIC_f8d81a92743820e8d5b047966b1ac62a,[Girl],[isGirlAnime],[isCuteAnime],[isGirlEarsNekoAnime],[isGirlsLoliAnime]",
    "title": "ANIME_PIC_f8d81a92743820e8d5b047966b1ac62a",
    "link_img": "https://live.staticflickr.com/65535/51549299019_dc1c71c4b8_o.jpg",
    "id_image": "ANIME_PIC_f8d81a92743820e8d5b047966b1ac62a",
    "count_view": 0
  },
  {
    "link_thumb": "https://live.staticflickr.com/65535/51549492745_3ac64c216b_n.jpg",
    "id_album": "-316663319",
    "description": "ANIME_PIC_f8d9a8e88624300228aa4eef8d466798,[Girl],[isGirlAnime],[isCuteAnime],[isGirlsHatsHoodieAnime]",
    "title": "ANIME_PIC_f8d9a8e88624300228aa4eef8d466798",
    "link_img": "https://live.staticflickr.com/65535/51549492745_81946546e0_o.jpg",
    "id_image": "ANIME_PIC_f8d9a8e88624300228aa4eef8d466798",
    "count_view": 0
  },
  {
    "link_thumb": "https://live.staticflickr.com/65535/51549299509_cb5b6065f0_n.jpg",
    "id_album": "-316663319",
    "description": "ANIME_PIC_f8dbb0848b9d14600f0931bbdd8d5eea,[Girl],[isGirlAnime],[isCuteAnime],[isGirlsHatsHoodieAnime],[isGirlsLoliAnime]",
    "title": "ANIME_PIC_f8dbb0848b9d14600f0931bbdd8d5eea",
    "link_img": "https://live.staticflickr.com/65535/51549299509_8eaf982595_o.png",
    "id_image": "ANIME_PIC_f8dbb0848b9d14600f0931bbdd8d5eea",
    "count_view": 0
  },
  {
    "link_thumb": "https://live.staticflickr.com/65535/51549299864_d799a1bc1d_n.jpg",
    "id_album": "-316663319",
    "description": "ANIME_PIC_f8dc3dccc8e31a23924f02ca90041ba9,[Girl],[isGirlAnime],[isCuteAnime]",
    "title": "ANIME_PIC_f8dc3dccc8e31a23924f02ca90041ba9",
    "link_img": "https://live.staticflickr.com/65535/51549299864_0f12bf03bf_o.png",
    "id_image": "ANIME_PIC_f8dc3dccc8e31a23924f02ca90041ba9",
    "count_view": 0
  },
  {
    "link_thumb": "https://live.staticflickr.com/65535/51549493590_c3b9403b8a_n.jpg",
    "id_album": "-316663319",
    "description": "ANIME_PIC_f8dd594b0b9f7224533195d1f53d42b3,[Girl],[isBoyAnime],[isCoupleAnime],[isGirlAnime],[isCuteAnime]",
    "title": "ANIME_PIC_f8dd594b0b9f7224533195d1f53d42b3",
    "link_img": "https://live.staticflickr.com/65535/51549493590_64cc33b4a3_o.jpg",
    "id_image": "ANIME_PIC_f8dd594b0b9f7224533195d1f53d42b3",
    "count_view": 0
  },
  {
    "link_thumb": "https://live.staticflickr.com/65535/51548573696_f04a6d88ed_n.jpg",
    "id_album": "-316663319",
    "description": "ANIME_PIC_f8ded3b428bbf22c8a2bfb8b05b8aa41,[Girl],[isGirlAnime],[isCuteAnime]",
    "title": "ANIME_PIC_f8ded3b428bbf22c8a2bfb8b05b8aa41",
    "link_img": "https://live.staticflickr.com/65535/51548573696_c745c1c00e_o.png",
    "id_image": "ANIME_PIC_f8ded3b428bbf22c8a2bfb8b05b8aa41",
    "count_view": 0
  },
  {
    "link_thumb": "https://live.staticflickr.com/65535/51548812343_cd8067b6d1_n.jpg",
    "id_album": "-316663319",
    "description": "ANIME_PIC_f8e34abaa3e7337ea85e2e23d0b6837c,[Girl],[isGirlAnime],[isCuteAnime],[isGirlsLoliAnime]",
    "title": "ANIME_PIC_f8e34abaa3e7337ea85e2e23d0b6837c",
    "link_img": "https://live.staticflickr.com/65535/51548812343_9b1d15b1f3_o.jpg",
    "id_image": "ANIME_PIC_f8e34abaa3e7337ea85e2e23d0b6837c",
    "count_view": 0
  },
  {
    "link_thumb": "https://live.staticflickr.com/65535/51548812493_8fb96917a6_n.jpg",
    "id_album": "-316663319",
    "description": "ANIME_PIC_f8e563a13c22ef5d5941ca6cf2733351,[Girl],[isGirlAnime],[isCuteAnime],[isGirlsLoliAnime]",
    "title": "ANIME_PIC_f8e563a13c22ef5d5941ca6cf2733351",
    "link_img": "https://live.staticflickr.com/65535/51548812493_52bde9314f_o.jpg",
    "id_image": "ANIME_PIC_f8e563a13c22ef5d5941ca6cf2733351",
    "count_view": 0
  },
  {
    "link_thumb": "https://live.staticflickr.com/65535/51548812723_5b3a41a208_n.jpg",
    "id_album": "-316663319",
    "description": "ANIME_PIC_f8e642a0fdee9e529de01f036aba9c5e,[Girl],[isGirlAnime],[isCuteAnime],[isGirlsLoliAnime]",
    "title": "ANIME_PIC_f8e642a0fdee9e529de01f036aba9c5e",
    "link_img": "https://live.staticflickr.com/65535/51548812723_5cbee1375a_o.jpg",
    "id_image": "ANIME_PIC_f8e642a0fdee9e529de01f036aba9c5e",
    "count_view": 0
  },
  {
    "link_thumb": "https://live.staticflickr.com/65535/51548574621_6cd2aedbdb_n.jpg",
    "id_album": "-316663319",
    "description": "ANIME_PIC_f8e6e9b75ea13694dc92a7e7afad5ed4,[Girl],[isGirlAnime],[isCuteAnime],[isGirlsLoliAnime],[isSadAnimeGirl],[isSadAnime]",
    "title": "ANIME_PIC_f8e6e9b75ea13694dc92a7e7afad5ed4",
    "link_img": "https://live.staticflickr.com/65535/51548574621_e547bbbd46_o.jpg",
    "id_image": "ANIME_PIC_f8e6e9b75ea13694dc92a7e7afad5ed4",
    "count_view": 0
  },
  {
    "link_thumb": "https://live.staticflickr.com/65535/51549494770_98e4c19f8f_n.jpg",
    "id_album": "-316663319",
    "description": "ANIME_PIC_f8eed89a246af4f939a7277872393e1a,[Girl],[isGirlAnime],[isCuteAnime],[isGirlsHatsHoodieAnime],[isGirlsLoliAnime]",
    "title": "ANIME_PIC_f8eed89a246af4f939a7277872393e1a",
    "link_img": "https://live.staticflickr.com/65535/51549494770_d601897a67_o.jpg",
    "id_image": "ANIME_PIC_f8eed89a246af4f939a7277872393e1a",
    "count_view": 0
  },
  {
    "link_thumb": "https://live.staticflickr.com/65535/51547774772_a30de6be33_n.jpg",
    "id_album": "-316663319",
    "description": "ANIME_PIC_f8ef189ef0f2df297d0e81da03dcd180,[Girl],[isGirlAnime],[isCuteAnime],[isGirlsHatsHoodieAnime],[isGirlsLoliAnime]",
    "title": "ANIME_PIC_f8ef189ef0f2df297d0e81da03dcd180",
    "link_img": "https://live.staticflickr.com/65535/51547774772_7ef7031d72_o.jpg",
    "id_image": "ANIME_PIC_f8ef189ef0f2df297d0e81da03dcd180",
    "count_view": 0
  },
  {
    "link_thumb": "https://live.staticflickr.com/65535/51549301829_dc675fb9c2_n.jpg",
    "id_album": "-316663319",
    "description": "ANIME_PIC_f8f331e60820016d49ca46e7c58ce59a,[Girl],[isGirlAnime],[isCuteAnime],[isGirlsLoliAnime]",
    "title": "ANIME_PIC_f8f331e60820016d49ca46e7c58ce59a",
    "link_img": "https://live.staticflickr.com/65535/51549301829_322592b8b3_o.jpg",
    "id_image": "ANIME_PIC_f8f331e60820016d49ca46e7c58ce59a",
    "count_view": 0
  },
  {
    "link_thumb": "https://live.staticflickr.com/65535/51548813973_58f5824f89_n.jpg",
    "id_album": "-316663319",
    "description": "ANIME_PIC_f8f4054364112159039ce4fae1bf8438,[Girl],[isGirlAnime],[isCuteAnime],[isGirlsLoliAnime]",
    "title": "ANIME_PIC_f8f4054364112159039ce4fae1bf8438",
    "link_img": "https://live.staticflickr.com/65535/51548813973_2efb8db200_o.jpg",
    "id_image": "ANIME_PIC_f8f4054364112159039ce4fae1bf8438",
    "count_view": 0
  },
  {
    "link_thumb": "https://live.staticflickr.com/65535/51547775667_c7b6a272d0_n.jpg",
    "id_album": "-316663319",
    "description": "ANIME_PIC_f8f50b59baf805ddbfac6802a4c7b7a4,[Girl],[isGirlAnime],[isCuteAnime],[isGirlsLoliAnime]",
    "title": "ANIME_PIC_f8f50b59baf805ddbfac6802a4c7b7a4",
    "link_img": "https://live.staticflickr.com/65535/51547775667_c5b857f8bb_o.jpg",
    "id_image": "ANIME_PIC_f8f50b59baf805ddbfac6802a4c7b7a4",
    "count_view": 0
  },
  {
    "link_thumb": "https://live.staticflickr.com/65535/51549496075_6d2f1b11c7_n.jpg",
    "id_album": "-316663319",
    "description": "ANIME_PIC_f8f5f6249146ed643e24110293c6143d,[Girl],[isGirlAnime],[isCuteAnime]",
    "title": "ANIME_PIC_f8f5f6249146ed643e24110293c6143d",
    "link_img": "https://live.staticflickr.com/65535/51549496075_7b8e3d3bd2_o.jpg",
    "id_image": "ANIME_PIC_f8f5f6249146ed643e24110293c6143d",
    "count_view": 0
  },
  {
    "link_thumb": "https://live.staticflickr.com/65535/51549302984_a1411f4e98_n.jpg",
    "id_album": "-316663319",
    "description": "ANIME_PIC_f8f64a62cdd4725a593a97cd9183a55c,[Girl],[isGirlAnime],[isCuteAnime]",
    "title": "ANIME_PIC_f8f64a62cdd4725a593a97cd9183a55c",
    "link_img": "https://live.staticflickr.com/65535/51549302984_a07f18f352_o.png",
    "id_image": "ANIME_PIC_f8f64a62cdd4725a593a97cd9183a55c",
    "count_view": 0
  },
  {
    "link_thumb": "https://live.staticflickr.com/65535/51547776797_a99ac18a77_n.jpg",
    "id_album": "-316663319",
    "description": "ANIME_PIC_f8fb0602f0dde50d286961ce4f2a62e8,[Girl],[isGirlAnime],[isCuteAnime],[isGirlsLoliAnime]",
    "title": "ANIME_PIC_f8fb0602f0dde50d286961ce4f2a62e8",
    "link_img": "https://live.staticflickr.com/65535/51547776797_79d4941f81_o.jpg",
    "id_image": "ANIME_PIC_f8fb0602f0dde50d286961ce4f2a62e8",
    "count_view": 0
  },
  {
    "link_thumb": "https://live.staticflickr.com/65535/51548815623_06a9e91980_n.jpg",
    "id_album": "-316663319",
    "description": "ANIME_PIC_f8fb37edf394b338fb05b0584523be66,[Girl],[isGirlAnime],[isCuteAnime],[isGirlsLoliAnime]",
    "title": "ANIME_PIC_f8fb37edf394b338fb05b0584523be66",
    "link_img": "https://live.staticflickr.com/65535/51548815623_cc46057704_o.jpg",
    "id_image": "ANIME_PIC_f8fb37edf394b338fb05b0584523be66",
    "count_view": 0
  }
]