[
  {
    "total_img": 4,
    "number_page": 1,
    "title": "Kowarekake no Orgel",
    "tag": "Flower, Purple Eyes, Brown Eyes, Flower Kowarekake no Orgel, Chibi, Tomato, Smile, Lily, Long Hair, Red Eyes, Anime, Blue Hair, Blush, Kowarekake no Orgel, White Hair, Book",
    "description": "Kowarekake no Orgel",
    "link_thumb": "https://live.staticflickr.com/65535/48048394901_0598eb0d52_n.jpg",
    "id_album": "1777638501",
    "total_view": 4
  }
]