[
  {
    "total_img": 385,
    "number_page": 2,
    "title": "Crossover",
    "tag": "Shinigami, Nagisa Furukawa, Super Saiyan 2, The Last Supper, Akira, Pack ReZERO, Byakuya Kuchiki, Obito Uchiha, Okita Souji, Pikachu, Hentai Oji to Warawanai Neko, Yuna Yunohana, Hidamari Sketch, Hikari Kohinata, Koi to Uso, Kirame Hanada, Rumbling hearts, Hei Darker than Black, Reimu Hakurei, Arrow, Erika Itsumi, Berserker of Black FateApocrypha, Glove, Scraggy Pokemon, Kotomi Ichinose, Aoki Lapis, Yuusuke Urameshi, Botan Clannad, Castra Death Parade, Black Dress, Daryun Arslan Senki, Akari Akaza, Sunkern Pokemon, Toshiro Hitsugaya, Lucario Pokemon, Suki Avatar, Haikyu, Rumia Touhou, Aoba Suzukaze, Mercy Overwatch, Masamunekuns Revenge, Nunnally Lamperouge, Satsuki Kiryuin, Irina Jelavic, Subaru Natsuki, Sket Dance, Ensemble Stars, Uzuki Shimamura, Zero Grimoire of Zero, Asuka Langley Sohryu, Orange Hair, Wakana Sakai, Mio Akiyama, Jeanne Darc Granblue Fantasy, Diaboromon, Akiha Shishidou, Sora No Game No Life, Sora No Otoshimono, Bulma Dragon Ball, Atsushi Murasakibara, Machine, Dragon, Dio Brando, Kamui Shiro, Hisoka Hunter  Hunter, Itsuki Koizumi, Kaichou wa Maidsama, Rin Shelter, Kirei Kotomine, Koutetsujou no Kabaneri, Buggy One Piece, Nia Teppelin, Tail, Ninjask Pokemon, Zigzagoon Pokemon, Megumin KonoSuba, Mitsuki Naruto, Kannabi no Mikoto, Yuuri Girls Last Tour, Miia Monster Musume, Sabagebu, The Idolmaster SideM, Kushina Uzumaki, Original Anime, Aiko Andou, Motorcycle, Accelgor Pokemon, Asia Argento High School DxD, Brown Hair, Kurama Naruto, Hiromi Yuasa, Magi the labyrinth of magic, Neko K Project, Caesar Clown, Galaxy Angel, Nozomi Tojo, Kiniro Mosaic, Pink Hair, Magic Kaito, Star Wars, Tet No Game No Life, Blue Eyes, Izzy, Eruruu Utawarerumono, RoboticsNotes, Ryou Fujibayashi, Emilia ReZERO, Boots, Leafa Sword Art Online, Len Kagamine, Ryota Kise, Lelouch Lamperouge, Toushirou Hijikata, Gajeel Redfox, Ryuuji Takasu, Green Eyes, Ryuunosuke Uryuu, Shu Ouma, Aria Anime, The Legend of Zelda, Axel Kingdom Hearts, Mayuri Shiina, Madoka Kaname, Reisen Udongein Inaba, Long Hair, Sena Kashiwazaki, Boku Dake Ga Inai Machi, Silent Hill, Winter, Chizuru Hishiro, Light, Noelle Silva, Kurome Akame Ga Kill, Kenpachi Zaraki, Heterochromia, Cirno Touhou, Shizuku Mizutani, Golden Lion Shiki, Sasuke Uchiha, Espeon Pokemon, RoKyuBu, Saix Kingdom hearts, Lisbeth Sword Art Online, Greninja Pokemon, Sosuke Aizen, Diana Cavendish, Ochaco Uraraka, Kara no Kyokai, Gauche Suede, Miyuki Takara, Kaori Miyazono, Magical Girl Lyrical Nanoha, A Certain Magical Index, Anne Hanakoizumi, Lily Vocaloid, Toradora, Bird, Nursery Rhyme, Shoukaku Kancolle, Lyza Made in Abyss, Itachi Uchiha, Minase Hirari, The Melancholy of Haruhi Suzumiya, Izumi Shinichi, Inspector Gadget, K Project, Ui Hirasawa, The Evil Within, Shiroe Log Horizon, Haruhi Suzumiya, Tsunade Naruto, Asami Sato, Darker than Black, Aki Adagaki, Shou Toramaru, Crested Ibis Kemono Friends, Shinta Fukuda, Yuuka Kazami, Kallen Kozuki, Latias Pokemon, Ore Monogatari, Unicorn Azur Lane, IA Vocaloid, Tekken, Akari Mizunashi, Water Pokemon, Minato Namikaze, Girls Last Tour, Tentomon Digimon, Rimi Sakihata, Yuudachi Kancolle, Sword, Shirt, Chi Chobits, Akame Akame Ga Kill, Rikako Segawa, Megumi Sakura, Child Of Light, Gun, Creepypasta, GUMI Vocaloid, Avenger FateGrand Order, Shigeo Kageyama, Nine Zankyou no Terror, Zuko Avatar, Shokugeki No Soma, Tokito Minoru, Accelerator To Aru Kagaku No Railgun, Suiseiseki Rozen Maiden, Pain Naruto, Portgas D Ace, Snow White, Hagoromo Gitsune, Taiga Kagami, Eucliwood Hellscythe, Silica Sword Art Online, Vileplume Pokemon, Guts Kill la Kill, Super Saiyan, Isekai Shokudou, Sachiko Ogasawara, Madara Uchiha, Zootopia, Yui Angel Beats, Kanzashi Sarashiki, Chiyuki Death Parade, Detroit Become Human, Denki Kaminari, Edward Elric, Noire Hyperdimension Neptunia, Yomi Takanashi, Aladdin Magi, Lala Satalin Deviluke, Neptune Hyperdimension Neptunia, Megumi Kato, Azusa Nakano, My Chemical Romance, Michiru Air, Eijiro Kirishima, Vegito Dragon Ball, L Death Note, Shinichi Izumi, Yuudachi Azur Lane, Headband, Yukina Koutetsujou No Kabaneri, Ground Control to Psychoelectric Girl, Kenshin Himura, Darjeeling Girls und Panzer, Minagi Tohno, Ichigo Kurosaki, Restia Ashdoll, Monkey D Luffy, NieR Automata, Grey Eyes, Mysterious Girlfriend X, Kasen Ibaraki, Ushiwakamaru FateGrand Order, Ryuk Death Note, Bedivere FateGrand Order, Meiko Honma, Sanji One Piece, PacMan, Yozora Mikazuki, Yuki Takeya, Penguin, Minimalist, Hooh Pokemon, Timothy AnneHappy, Taki Tachibana, Riko Sakurauchi, Suzumiya Haruhi no Yuuutsu, All Might, Light Yagami, Jack Skellington, Piplup Pokemon, Planaterian Anime, Kirito Sword Art Online, Ajipon Wooser no Sono Higurashi, Megumi Natsu, Alice Parade, Ayu Tsukimiya, Nura Rise of the Yokai Clan, Ulquiorra Cifer, ONE CeVIO, Saber Fate Series, Manaka Mukaido, Kurisu Makise, Deoxys Pokemon, Shana Shakugan No Shana, Emporio Ivankov, Xiao Ma, Shrine, Laxus Dreyar, Tsumugi Inuzuka, Sebastian Michaelis, Kuuki Shoujo, Transformers, Nodame Cantabile, Collage, Darth Wooser Wooser no Sono Higurashi, Gabriel Tenma White, Gundam, Takumi Usui, Bench, Izaya Orihara, Amnesia Anime, Reiri Kamura, Kasane Teto, Korra The Legend Of Korra, Euphemia Li Britannia, YuGiOh, You Watanabe, Toriko Toriko, EroMangaSensei, Saya Saya No Uta, Giarlish Number, Fate Series, Go Anpanman, Clemont Pokemon, Altaria Pokemon, bow Clothing, Koushiro, Short Hair, Naka Kancolle, TK Angel Beats, Minako Aino, Albedo Overlord, ChaosHead, Koneko Toujou, Illyasviel Von Einzbern, Dress, Hachiman Hikigaya, Lupin the Third, Sanae Kochiya, Ichigo Hitofuri, Arataka Reigen, Takeo Gouda, Mitsuha Miyamizu, Maid, Yukichan Nanatsuiro Drops, Kirishima Arpeggio Of Blue Steel, Froakie Pokemon, Legend Of The Galactic Heroes, Colossal Titan, Arslan Arslan Senki, Kurumi Tokisaki, Misaki Ayuzawa, Serval Kemono Friends, Cocoa Hoto, Dream Club, Military Uniform, The Personification of Atmosphere, Nagisa Shiota, Rock Lee, Suzaku Kururugi, Eevee Pokemon, Saeko Busujima, Mayaka Ibara, Akiho Senomiya, Akihito Kanbara, Platelet Cells at Work, Momo Velia Deviluke, Ai Hinatsuru, Kore wa Zombie Desu ka, Nonon Jakuzure, Goggles, Chiya Ujimatsu, Milfeulle Sakuraba, Sayoko Takayama, Mega Man, Kotori Kanbe, Yoko Littner, Trigun, Rifle, Nico Robin, Rinne Rokudou, Faye Valentine, Rize Tedeza, Irisviel Von Einzbern, Raccoon Kemono Friends, Yang Xiao Long, Uryu Ishida, Spring, Pirates Of The Caribbean, Tsumugi Kotobuki, Sound Euphonium, Yotsuba Koiwai, MeMeMe, Gon Freecss, Kyubi Naruto, John Doe Yumekui Merry, Denpa Onna to Seishun Otoko, Jeanne dArc Alter, Alphonse Elric, Saber of Red FateApocrypha, RyuZU Clockwork Planet, Red Rose, Shouto Todoroki, Another Anime, Maria Holic, Junk Robot, Chito Girls Last Tour, Yumi Fukuzawa, Hyperdimension Neptunia, RG Veda, Tsubasa Hanekawa, Erina Nakiri, Mercenary Grimoire of Zero, Momoka Sonokawa, Kobato Anime, Sephiroth Final Fantasy, Lagiacrus Monster Hunter, Hikari Takanashi, Shizuo Heiwajima, Riko Made in Abyss, Kaito Kuroba, Guilty Gear, Kirby, Shinx Pokemon, Kaede Takagaki, Charlotte Puella Magi Madoka Magica, Grell Sutcliff, Ai Haibara, Nature, Echidna ReZERO, Gaara Naruto, Saya Takagi, Kosaki Onodera, Rintaro Okabe, Renji Abarai, Fou FateGrand Order, Koga Oogami, Ash Ketchum, Shinsekai, Leonidas FateGrand Order, Yamato Naruto, Mizuki Usami, Masami Iwasawa, Hat, Mew Pokemon, Animal Ears, Rin Kagamine, Might Guy, Mordred FateApocrypha, Erza Scarlet, ReZERO Starting Life in Another World, Escavalier Pokemon, Soul Eater, Glaceon Pokemon, Regu Made in Abyss, Kakashi Hatake, Lazengann Gurren Lagann, Alois Trancy, Satoshi Fukube, Kyou Fujibayashi, Karen Kujou, Sakura Kinomoto, Kobayashisan Chi no Maid Dragon, Showdown, Sachiko Shinozaki, Thigh Highs, Akai Ito, Kasumi Toyama, Musaigen no Phantom World, Spirited Away, Sora wo Kakeru Shoujo, Sheila El Elise, Keiko Ayano, Gintoki Sakata, Rin Wooser No Sono Higurashi, Chika Takami, Doom 2016, Ken Kaneki, Fumikage Tokoyami, Akanashi Rikka, Monster Hunter, Yuno Gasai, Android 17 Dragon Ball, Free, Charles Fairy Tail, Akagi Kancolle, Toshizou Hijikata, Satanichia Kurumizawa McDowell, Komari Kamikita, Tomoyo Sakagami, Smile Precure, Kanna Kamui, Ruby Rose RWBY, Akame ga Kill, Megakabuterimon, Tsurumaru Kuninaga, Viktoriya Ivanovna Serebryakov, Wooser Wooser No Sono Higurashi, Gakusen Toshi Asterisk, Flareon Pokemon, Eikichi Onizuka, Sadaharu Gintama, Guts Berserk, KonoSuba, Eiko Aizawa, Yumeji Fujiwara, Natsume Yuujinchou, Black Butler, Berserk, Black Clover, Yui Akamatsu, Kongou Kancolle, Raku Ichijo, Kimi No Na Wa, Watamote, Furude Rika, Armor, Crusch Karsten, Minato Nagase, Pyramid Head, Merlin Fate Series, Dino Katekyo Hitman Reborn, Kannagi Crazy Shrine Maidens, Taiga Aisaka, Anthea Kallenberg, Hiyori Iki, Boruto Anime, Sasori Naruto, Boruto Uzumaki, Haruna Kancolle, Tenshi Hinanawi, Seiga Kaku, Lightning, Hotarubi No Mori E, Kiritsugu Emiya, Sabo One Piece, Shoyo Hinata, Shiro Deadman Wonderland, Yuki Kotonomiya, Kudryavka Noumi, Akeno Himejima, Haruyuki Arita, Asta Black Clover, Bonnie Pokemon, Ainz Ooal Gown, Bottle, Fangs, Cygnus Hyoga, Berserker FateZero, Saint Seiya, Kizuna AI, Advent Cirno, Louise Francoise Le Blanc de La Valliere, Ram ReZERO, Namine Ritsu, Maki Nishikino, CUL Vocaloid, Holo Spice  Wolf, Macross Delta, Purple Eyes, Sonic the Hedgehog, Shinichi Kudo, Tanya Degurechaff, Gintama, The Tatami Galaxy, The Nightmare Before Christmas, Mikoto Nishina, Akatsuki Naruto, Ghost in the Shell Stand Alone Complex, Jumpluff Pokemon, Aqua Eyes, Red Hair, Rin Shima, Korosensei, Sucy Manbavaran, Rei Miyamoto, Moltres Pokemon, Shiro No Game No Life, Ruri Miyamoto, Rin Kaenbyou, Yuzuki Yukari, Lightsaber, Kindaichi Shounen no Jikenbo, Alice Margatroid, Yoshino Koiwai, Mukuro Rokudo, Strike Witches, Blade Dance of the Elementalers, Great Teacher Onizuka, Glass, Yui Yuigahama, Kaku Tatakaeri, Inori Yuzuriha, Mobile Suit Gundam Seed, Fallout, Arcueid Brunestud, Allen Walker, Hiraga Saito, Wild Adapter, Sunflora Pokemon, Nanoha Takamachi, Nona Death Parade, Tsubasa Kira, Guitar, Index Librorum Prohibitorum, Wriggle Nightbug, Kyoko Sakura, KON, Vincent Nightray, Zero Kirby, Highschool Of The Dead, Akane Tsunemori, GaRei Zero, Gunbuster, Kobato Hanato, Roronoa Zoro, Taichi, Sakuya Izayoi, Atsuko Kagari, Rin Tohsaka, Halloween, Gojo Reina, Kona Furugoori, Death the Kid, Tomoe Gozen FateGrand Order, Spike Spiegel, Love Live, Clavis Death Parade, Kiseki no Sedai, Uniform, Under the dog, Tracer Overwatch, Minori Kushieda, Fate Testarossa, Bleached Eyes, Remilia Scarlet, Tonari no Kyuuketsukisan, Anime, Mayoi Hachikuji, Haruna Arpeggio Of Blue Steel, Shimakaze Kancolle, Kon Bleach, Kyoko Kirigiri, Mari Ohara, Ayumu Aikawa, Usagi Tsukino, Ruri Goko, Hideri Kanzaki, Enterprise Azur Lane, Sayaka Miki, Ohana Matsumae, Akatsuki no Yona, The Simpsons, Reno Final Fantasy, Nagi Kannagi, Kokoa Hoto, Aho girl, Sistine Fibel, Youmu Konpaku, Maximillion Pegasus, Tetsuya Kuroko, Bleach, Tsukasa Ayatsuji, Cloud Strife, Tomoki Sakurai, Iona Arpeggio Of Blue Steel, Akita Neru, Genjo Sanzo, SchoolLive, Love, Yukiteru Amano, Megumi Jinno, Fall, Mikasa Ackerman, Ponytail, Shinya Kogami, Black Star Soul Eater, Iku Nagae, Gash Bell, Misao Kusakabe, Erica Hartmann, Jyushimatsu Matsuno, Jigglypuff Pokemon, Soma Yukihira, Magane Chikujoin, Potato Air, Igneel Fairy Tail, Eren Yeager, Tyrantrum Pokemon, Genji Overwatch, Cells at Work, Shouko Nishimiya, Armin Arlert, Flower, Marie Antoinette FateGrand Order, Gray Fullbuster, Touken Ranbu Hanamaru, Yuina Wakura, Mononobe No Futo, Junko Enoshima, Yukino Yukinoshita, Vivio ViVid Strike, Lancer FateGrand Order, Hitman Reborn, Squirtle Pokemon, Yoshika Miyako, Vash the Stampede, Takaishi, Chitose Karasuma, Gallade Pokemon, Blue Hair, Misae Sagara, Tony Tony Chopper, Dango, Maya Arpeggio Of Blue Steel, Len Wooser No Sono Higurashi, Ciel Phantomhive, Shougo Makishima, Skull, Yumemi Hoshino, Tashigi One Piece, Sena Kobayakawa, Levi Ackerman, Masamunekun no Revenge, Ursula Callistis, Merry Nightmare, Natsu Dragneel, Green Hair, Superman, Einhard Stratos, Grimmjow Jaegerjaquez, Victorique de Blois, Flying Nimbus, Kaori Kanzaki, Wink, Gakuen Alice, Sieghart Rave, Soul Evans, Rei Ryugazaki, Weapon, YoRHa No9 Type S, Ikezawa, Ryone Yami, Aozora no Mieru Oka, Medaka Box, Rin Okumura, Tenzin The Legend of Korra, Rokka Braves Of The Six Flowers, Umbreon Pokemon, SteinsGate, Parsee Mizuhashi, Chizuru Ikeda, Majin Buu, Space, Sinbad Magi, Gilgamesh Fate Series, Kokonoe Mercury, Watatsuki No Yorihime, Kirin Toudou, Armored Core, Ritsu Tainaka, Seto Kaiba, Yowane Haku, Greed Packet Unlimited, D Gray Man, Shoto Todoroki, Haqua du Lot Herminium, Yamadakun, Senketsu Kill la Kill, Trunks Dragon Ball, Sonya Kill Me Baby, Corpse Party, Link, Udon no Kuni no Kiniro Kemari, Shimura Shinpachi, Ushio Okazaki, Momiji Inubashiri, M16a1 Girls Frontline, Hestia DanMachi, Girl from the Illusionary World, Hotaro Oreki, Mr Bear Gakuen Alice, Choromatsu Matsuno, White Dress, Bakuman, Prinz Eugen Kancolle, Ghost in the Shell, Goku, Jojos Bizarre Adventure, Akihiko Sanada, Engi Threepiece, Nanachi Made in Abyss, Season, Ryoutarou Tsuboi, Grisaia No Kajitsu, Hoka Inumuta, Blue, Elf Yamada, Metalgarurumon, Konata Izumi, Minko Tsurugi, Itsuki Kannagi, Beelzebub IV, Ikaros Sora No Otoshimono, Brook One Piece, Mitsuki Nase, Dr Slump, Mami Tomoe, Air Anime, Saber Lily, Show by Rock, Rider FateZero, Urusei Yatsura, Ren Kizaki, Nami One Piece, Quin Death Parade, Sand, Kanata Futaki, Shenron Dragon Ball, Sora Kasugano, Shadowverse, Shiki Ichinose, Dead Master Black Rock Shooter, Zero no Tsukaima, Freyja Wion, Lancer of Black FateApocrypha, Widowmaker Overwatch, Miach Mihie, Aqua KonoSuba, Kayneth ElMelloi Archibald, Hajime Kindaichi, Akiha Toono, Kurokos Basketball, Princess Party, Reina Kousaka, Chitoge Kirisaki, Athrun Zala, Kisuke Urahara, Cho Hakkai, Purple Hair, Trafalgar Law, Frieza Dragon Ball, Moritaka Mashiro, Lucy Heartfilia, Vocaloid, Kiseijuu Sei No Kakuritsu, Marisa Kirisame, Gurren Lagann, Parasyte the Maxim, Michiru Matsushima, Kongou Arpeggio Of Blue Steel, Arisu Shimada, Gawain FateExtra, Kaito Vocaloid, Glasses, Raichu Pokemon, Planetarian, Eye Patch, Sunflower, Ruby Kurosawa, Aang Avatar, Dia Kurosawa, Di Gi Charat, Lucina Fire Emblem, Karamatsu Matsuno, Eriri Spencer Sawamura, Zankyou No Terror, Twintails, Blonde, Evangelion Unit01, Field, New Game, Koiso, Rensouhouchan, DVa Overwatch, Mashu Kyrielight, Aoi Miyamori, Ichimatsu Matsuno, Segawa Rikako, Misuzu Kamio, Beatrice ReZERO, Zapdos Pokemon, Cirno Advent Cirno, Drum Set, Jinnouchi, Koyomi Araragi, Magi in Wanchin Basilica, Pink Eyes, School Uniform, Sagiri Izumi, DGrayman, Aikuro Mikisugi, Boota Tengen Toppa Gurren Lagann, Grey Hair, Yuri Nakamura, Shizuru Nakatsu, Reshiram Pokemon, Hunter x Hunter, Himiko Btooom, Waver Velvet, Hatou Kei, Sky, Lucky Star, Yuzuru Nishimiya, Dango Clannad, Natsu no Ame, Jeanne dArc Fate Series, Yahiko Naruto, Satoru Fujinuma, Togame Katanagatari, Ursaring Pokemon, Nico Yazawa, Hinata Hyuga, Senju Muramasa, Nichijo, Solrock Pokemon, Yoshiko Tsushima, Pidgeot Pokemon, Yoruichi Shihoin, Luka Megurine, Hajime Tenga, Kagami Hiiragi, Ranma Saotome, Hokago Play, Rika Shinozaki, Yotsugi Ononoki, Reflection, Agumon Digimon, Asseylum Vers Allusia, Japanese, Fuuka, Ao No Exorcist, Cosplay, Kud Wafter, Working, Latios Pokemon, Bolin Avatar, Manaka Komaki, Gosick, Omnimon Digimon, Nagisa Saito, Mahiro Fuwa, Ran Mouri, Prushka Made in Abyss, Canaan, Saya no Uta, Shielder FateGrand Order, Chain, Miori Alice Parade, Miyoshi Joker Game, Nao Tomori, Wish Manga, Shinoa Hiragi, Rose, Midare Toushirou, Sokka Avatar, Takao Arpeggio Of Blue Steel, Sinon Sword Art Online, Shino Amakusa, Orihime Inoue, Iroha Isshiki, King Hassan FateGrand Order, Wings, Kaguya Luna, Melancholy of Haruhi Suzumiya, Dejiko Di Gi Charat, Amaama to Inazuma, Daiki Aomine, Badou Nails, Rias Gremory, Kousei Arima, Overlord Anime, Mystia Lorelei, Ranma, Issei Hyoudou, Broly Dragon Ball, Violet Evergarden Character, Russia Hetalia, Kokoro Tsurumaki, Amanchu, Rolo Lamperouge, Aegislash Pokemon, Shinobu Oshino, Akamaru Naruto, Mumei Kabaneri of the Iron Fortress, Tsuyu Asui, Kumiko Oumae, Xuan Ying, Rama FateGrand Order, Nazrin Touhou, Youkoso Jitsuryoku Shijou Shugi no Kyoushitsu e, Konatsu Miyamoto, Futaba Ooki, Sawa Okita, Monika Doki Doki Literature Club, Black Eyes, Keima Katsuragi, Esdeath Akame Ga Kill, Snow, Tohru Miss Kobayashis Dragon Maid, Jintsuu Kancolle, Mahotsukai no Yoru, Mikoto Misaka, Shino Asada, Franky One Piece, Shingetsutan Tsukihime, Naru Kotoishi, Pina Sword Art Online, Vanellope von Schweetz, Ika Musume, Akatsuki Log Horizon, A Silent Voice, Tsunayoshi Sawada, Tiramie Amagi Brilliant Park, Roy Mustang, Farfetchd Pokemon, Rukia Kuchiki, Android 16 Dragon Ball, Mako Mankanshoku, Nokia Greed Packet Unlimited, Sendai Kancolle, Bow, Himemiya Ruri, Yellow Eyes, Komachi Onozuka, Boy, Panty  Stocking with Garterbelt, Attack on Titan, Saitama OnePunch Man, Sanae Nagatsuki, Volcarona Pokemon, Kiyoko Shimizu, Golden Darkness, Chunibyo Demo Koi ga Shitai, Kittan Bachika, Fantasy, Chiyo Sakura, Archer FateStay Night, Bakemonogatari, Yuuko Kanoe, Hataraku Saibou, Microphone, Orange Eyes, Shidare Hotaru, Archer FateGrand Order, The iDOLMSTER Cinderella Girls, Rinnosuke Morichika, Articuno Pokemon, Keroberos Card Captor Sakura, Takeru, Girls und Panzer, Juvia Lockser, Ghost Rider, Barefoot, Kagura Gintama, Hong Meiling, Fullmetal Alchemist, Yui Funami, Splatoon, Takagi Karakai Jouzu no Takagisan, Kurapika Hunter  Hunter, Vault Boy, Ran Mitake, Kenichi The Mightiest Disciple, Katekyo Hitman Reborn, Urara Shiraishi, The iDOLMSTER, WreckIt Ralph, Touka Kirishima, Brown Eyes, Kyon Haruhi, Seishirou Tsugumi, Magic, Violet Evergarden Anime, Kill Me Baby, Kotori Minami, Zetsuen no tempest, Hanamaru Kunikida, Panther Lily Fairy Tail, Girls Frontline, Yuuki Konno, Cloud, Mephisto Pheles, Sha Gojyo, Serafall Leviathan, Yumeno Sally, Petal, Guy Cecil, SukaSuka, Happy Fairy Tail, Fremy Speeddraw, Haruka Suzumiya, Fullmetal Alchemist Brotherhood, Isla Plastic Memories, Utsuho Reiuji, Toyohisa Shimazu, Black Hair, Ayano Sugiura, Wilhelmina Braunschweig Ingenohl Friedeburg, Slender Man, Haruko Kamio, Miss Monochrome Character, Klein Sword Art Online, Tales of Zestiria, Kuroko Shirai, Gekkan Shoujo Nozakikun, Tsukasa Hiiragi, Doki Doki Literature Club, Murasa Minamitsu, Jack the Ripper FateApocrypha, Jigoku Shoujo, Marika Tachibana, Yuki Nagato, Suzuha Amane, Alice Alice Parade, Durarara, Seijuro Akashi, Kanade Tachibana, Mei Sunohara, Tohka Yatogami, Ryota Sakamoto, Smile, Swadloon Pokemon, Mai Kawakami, Simon Tengen Toppa Gurren Lagann, Skirt, Nessa Fractale, Maria Oosawa, Krillin Dragon Ball, Osanai Syouko, Rem ReZERO, Shiki Ryougi, Chihiro Spirited Away, Hataraku Maousama, Crossover, Irina Pyatkh, Leonardo Watch, Rurouni Kenshin, Neferpitou Hunter  Hunter, Kouichi Sakakibara, Beelzebub Anime, Naruto Uzumaki, Nanami Madobe, Special Week Uma Musume, Claire Harvey, Toshinori Yagi, Stocking Anarchy, Goten Dragon Ball, Mayuri Kurotsuchi, The Garden of Sinners, Conan Edogawa, Hakuouin Ayaka, Boa Hancock, Inaho Kaizuka, Artoria Pendragon, Chino Kafu, Merry Christmas, Video Game, Gochuumon wa Usagi Desu ka, Nekomimi, Elfen Lied, Akane Iro ni Somaru Saka, Kaede Elfen Lied, Drifters, Monokuma Danganronpa, Usopp One Piece, Mobile Suit Gundam Seed Destiny, Maho Misawa, ReLIFE, CC Code Geass, Haruka Nanase Free, Akko Kagari, Ghost, Tentacruel Pokemon, Sakura Haruno, Sesshomaru InuYasha, Leafeon Pokemon, Tristan FateGrand Order, Genos OnePunch Man, Cell Dragon Ball, Yomi Isayama, InuYasha Character, Wars, High School DxD, Asuna Yuuki, Celty Sturluson, Kyoukai no Rinne, Doremy Sweet Touhou, Snowfall, Acchi Kocchi, Nagisa Hazuki, Sakurasou no Pet na Kanojo, Garchomp Pokemon, Megatron, Kate Hoshimiya, Ako Tamaki, Phantom Breaker, Baikinman Go Anpanman, Devil May Cry 3, Yuichiro Hyakuya, Akito Takagi, Umineko no Naku Koro ni, Haruka Amami, Alucard Hellsing, Homura Akemi, Holy Breaker, Inkling Splatoon, Ken Masters, Mikuru Asahina, Jotaro Kujo, Ruler FateApocrypha, Kyoka Izumi, Teruhashi Kokomi, World Trigger, Tomoko Kuroki, Jolteon Pokemon, Yotarou Arpeggio Of Blue Steel, Little Busters, Himiko Toga, Rajang Monster Hunter, Aqua Hair, DanMachi, Lugia Pokemon, Mitty Made in Abyss, Gohan Dragon Ball, Nanatsuiro Drops, Mayuri Date A Live, Renge Miyauchi, Mako Avatar, Izumo Kusanagi, Bold, Eri Ayase, Sergestid Shrimp in Tungkang, Kiki Kikis Delivery Service, Wheatley Portal, Ira Gamagoori, Mirai Kuriyama, Sanae Furukawa, Cucumber Cucumber Quest, Chika Amatori, Shingeki No Kyojin, iDOLMSTER Cinderella Girls, Is This a Zombie, Angel Beats, Love Chunibyo  Other Delusions, Rikka Takanashi, Katara Avatar, Eri Watari, Hiroomi Nase, Charlotte Anime, Kyoko Toshino, Lyria Granblue Fantasy, Ririchiyo Shirakiin, Monogatari Series, Katana, Yui Sword Art Online, Rin Natsume, Noe Isurugi, Scenery, Zero Two Darling in the FranXX, Yaobikuni Air, Migi Parasyte the Maxim, Darkness KonoSuba, Demichan wa Kataritai, Kano Kirishima, Piccolo Dragon Ball, Conan, My Neighbor Totoro, Aoko Aozaki, Charizard Pokemon, Aria Pokoteng, Ikazuchi Kancolle, Jellal Fernandes, Dante Devil May Cry, Bulbasaur Pokemon, Kaguya Houraisan, Meiko Shiraki, Vampire, Aria Holmes Kanzaki, Greed Fullmetal Alchemist, Mato Kuroi, Kuroyukihime Accel World, Flandre Scarlet, Shintaro Midorima, Katsuki Shima, Kyoukai no Kanata, Uzu Sanageyama, Tatsumaki OnePunch Man, Himouto Umaruchan, Maoyuu Maou Yuusha, Hitagi Senjogahara, Heracross Pokemon, Hana Midorikawa, Sarada Uchiha, Tatsuya Himuro, Plue Fairy Tail, White Hair, Hanayo Koizumi, Kagami Atsuko, Tokyo Babylon, Sophie Twilight, Killua Zoldyck, Mikan Sakura, Hibiki Kancolle, Child, Osomatsusan, Letty Whiterock, Katsuki Bakugou, Yashiro Kasumi, Inazuma Kancolle, Kubota Makoto, YoRHa No2 Type B, Fujimaru Ritsuka Male, Kira Death Note, Blush, Hetalia Axis Powers, Kayo Hinazuki, Arslan Senki, Osomatsu Matsuno, Poco Pocos Udon World, xxxHOLiC, Chinatsu Yoshikawa, Smoker One Piece, Iron Man, Koe no Katachi, Baby Beel, Mayu Arita, Samurott Pokemon, Yukari Yakumo, Kamina Tengen Toppa Gurren Lagann, Ayame Kajou, Hulk, Patomon, Arakawa Under the Bridge, Plusle Pokemon, Tatsumi Oga, Gabumon Digimon, Vampy Granblue Fantasy, Panty Anarchy, Overwatch, Resident Evil, Ginty Death Parade, Tokyo Ghoul A, Rory Mercury, Goblin Slayer, Batman, Boku no Hero Academia, Kousetsu Samonji, Princess Resurrection, Rosario  Vampire, Ro500 KanColle, Toph Beifong, Ai Enma, Nako Oshimizu, Noel Celestial Method, Harmony Anime, MuvLuv, Mahou Sensei Negima, Grisaia no Rakuen, Haruhiko Ichijo, Yui Hirasawa, Charlotta Granblue Fantasy, Cagalli Yula Athha, Fujimaru Ritsuka, Sunlight, Ryuko Matoi, Tamako Kitashirakawa, Zatch Bell, Fuuko Ibuki, To LoveRu, Tai, Kamijou Touma, Todomatsu Matsuno, Night, Rei Ayanami, Cecile Croomy, PsychoPass, Mecha, Hatsune Miku, Summer, Nishimura Haruna, Honoka Kousaka, Nono Diebuster, Twinitails, Kurumi Kumamakura, Food Wars Shokugeki no Soma, Mikoto Suoh, No 6 Anime, FLCL, Gate Jieitai Kanochi nite Kaku Tatakaeri, Kira Yamato, Rain, Beyblade, Moka Akashiya, Hamakaze Kancolle, Umaru Doma, Shirou Emiya, OnePunch Man, Kazuma Satou, Alice Carroll, Nezuko Kamado, Sayonara ZetsubouSensei, Decim Death Parade, Tippy Is The Order A Rabbit, Kazuto Kirigaya, Mei Misaki, Mob Psycho 100, Red Eyes, Kiba Inuzuka, Yuuto Kiba, Made in Abyss, Tenshinhan Dragon Ball, Android 18 Dragon Ball, Cat, Eru Chitanda, Gastly Pokemon, OStan, Goku Saiyuki, Yato Noragami, Mewtwo Pokemon, Anko Kitashirakawa, Fractale Anime, Cherry Blossom, Makoto Tachibana, Izetta Izetta The Last Witch, Minun Pokemon, Lin Beifong, Yami Yugi, Vaporeon Pokemon, Shanks One Piece, Yukio Okumura, Tsuruya Haruhi, Lennon, Cyan Hijirikawa, Izuku Midoriya, Rin Toyama, Andrew Gilbert Mills, Chitose Ikeda, Maid Sama, Pokemon, Vegeta Dragon Ball, Enju Aihara, Love Live Sunshine, CeVIO, Maya Kancolle, Hanamichi Sakuragi, Fire Emblem, Haguro Kancolle, Pharah Overwatch, Sayuki Reload Blast, Doom, Yuu Koutari, Squid Girl, Tachikoma Ghost in the Shell, Noriko Sonozaki, Sharo Kirima, Hellsing, Braviary Pokemon, Hachune Miku, Charmander Pokemon, Suguha Kirigaya, Kono Subarashii Sekai ni Shukufuku wo, Manga, Takao Kancolle",
    "description": "Crossover",
    "link_thumb": "https://live.staticflickr.com/65535/47955555487_8293930844_n.jpg",
    "id_album": "1441399821",
    "total_view": 385
  },
  {
    "total_img": 153,
    "number_page": 1,
    "title": "Homura Akemi",
    "tag": "Homura Akemi,",
    "description": "Homura Akemi",
    "link_thumb": "https://live.staticflickr.com/65535/48052907848_0681e60d49_n.jpg",
    "id_album": "-1669126850",
    "total_view": 153
  },
  {
    "total_img": 31,
    "number_page": 1,
    "title": "Ruri Goko",
    "tag": "Ruri Goko,",
    "description": "Ruri Goko",
    "link_thumb": "https://live.staticflickr.com/65535/48074590168_6ac0b2ccfb_n.jpg",
    "id_album": "-1495177206",
    "total_view": 31
  }
]