[
  {
    "link_thumb": "https://live.staticflickr.com/65535/47966958852_e55d162936_n.jpg",
    "id_album": "-485619187",
    "description": "Crossover_917122",
    "title": "Crossover_917122",
    "link_img": "https://live.staticflickr.com/65535/47966958852_93fdcc89d1_o.jpg",
    "id_image": "Crossover_917122",
    "count_view": 0
  },
  {
    "link_thumb": "https://live.staticflickr.com/65535/48055337481_0efd44a0a5_n.jpg",
    "id_album": "-485619187",
    "description": "SergestidShrimpInTungKang_815799",
    "title": "SergestidShrimpInTungKang_815799",
    "link_img": "https://live.staticflickr.com/65535/48055337481_d26cafc34b_o.jpg",
    "id_image": "SergestidShrimpInTungKang_815799",
    "count_view": 0
  },
  {
    "link_thumb": "https://live.staticflickr.com/65535/48055337796_dfbe4b092f_n.jpg",
    "id_album": "-485619187",
    "description": "SergestidShrimpInTungKang_836344",
    "title": "SergestidShrimpInTungKang_836344",
    "link_img": "https://live.staticflickr.com/65535/48055337796_cbcd7a6c6e_o.jpg",
    "id_image": "SergestidShrimpInTungKang_836344",
    "count_view": 0
  },
  {
    "link_thumb": "https://live.staticflickr.com/65535/48055384193_99f777407b_n.jpg",
    "id_album": "-485619187",
    "description": "SergestidShrimpInTungKang_846554",
    "title": "SergestidShrimpInTungKang_846554",
    "link_img": "https://live.staticflickr.com/65535/48055384193_5fc3c367dc_o.jpg",
    "id_image": "SergestidShrimpInTungKang_846554",
    "count_view": 0
  },
  {
    "link_thumb": "https://live.staticflickr.com/65535/48055386018_f9ba8068aa_n.jpg",
    "id_album": "-485619187",
    "description": "SergestidShrimpInTungKang_917881",
    "title": "SergestidShrimpInTungKang_917881",
    "link_img": "https://live.staticflickr.com/65535/48055386018_28bbd3304e_o.jpg",
    "id_image": "SergestidShrimpInTungKang_917881",
    "count_view": 0
  }
]