[
  {
    "link_thumb": "https://live.staticflickr.com/65535/48072417416_d7ec4bfd19_n.jpg",
    "id_album": "-2068220380",
    "description": "NatsumesBookofFriends_176756,[isBoyAnime],[isSadAnime],[isSadAnimeBoy],[isBlackAnime],[Natsumes Book of Friends],[NatsumesBookofFriends]",
    "title": "NatsumesBookofFriends_176756",
    "link_img": "https://live.staticflickr.com/65535/48072417416_bc6fcace47_o.jpg",
    "id_image": "NatsumesBookofFriends_176756",
    "count_view": 0
  },
  {
    "link_thumb": "https://live.staticflickr.com/65535/48072419761_7b081e366e_n.jpg",
    "id_album": "-2068220380",
    "description": "NatsumesBookofFriends_557146,[isBoyAnime],[isSadAnime],[isSadAnimeBoy],[Natsumes Book of Friends],[NatsumesBookofFriends]",
    "title": "NatsumesBookofFriends_557146",
    "link_img": "https://live.staticflickr.com/65535/48072419761_5ac5512be7_o.jpg",
    "id_image": "NatsumesBookofFriends_557146",
    "count_view": 0
  },
  {
    "link_thumb": "https://live.staticflickr.com/65535/48072526047_109f8d9b69_n.jpg",
    "id_album": "-2068220380",
    "description": "NatsumesBookofFriends_723739,[isBoyAnime],[Natsumes Book of Friends],[NatsumesBookofFriends]",
    "title": "NatsumesBookofFriends_723739",
    "link_img": "https://live.staticflickr.com/65535/48072526047_81d6516652_o.jpg",
    "id_image": "NatsumesBookofFriends_723739",
    "count_view": 0
  },
  {
    "link_thumb": "https://live.staticflickr.com/65535/48072526267_842d895253_n.jpg",
    "id_album": "-2068220380",
    "description": "NatsumesBookofFriends_723740,[isRandom],[Natsumes Book of Friends],[NatsumesBookofFriends]",
    "title": "NatsumesBookofFriends_723740",
    "link_img": "https://live.staticflickr.com/65535/48072526267_26ec955dc5_o.jpg",
    "id_image": "NatsumesBookofFriends_723740",
    "count_view": 0
  },
  {
    "link_thumb": "https://live.staticflickr.com/65535/48072469203_ee536bb187_n.jpg",
    "id_album": "-2068220380",
    "description": "NatsumesBookofFriends_723745,[isRandom],[Natsumes Book of Friends],[NatsumesBookofFriends]",
    "title": "NatsumesBookofFriends_723745",
    "link_img": "https://live.staticflickr.com/65535/48072469203_2f5a0d89b0_o.jpg",
    "id_image": "NatsumesBookofFriends_723745",
    "count_view": 0
  },
  {
    "link_thumb": "https://live.staticflickr.com/65535/48072471803_87c2f6f1a1_n.jpg",
    "id_album": "-2068220380",
    "description": "NatsumesBookofFriends_744835,[isGirlAnime],[isGirlEarsNekoAnime],[isKimonoAnime],[Natsumes Book of Friends],[NatsumesBookofFriends]",
    "title": "NatsumesBookofFriends_744835",
    "link_img": "https://live.staticflickr.com/65535/48072471803_235b4f5eb3_o.jpg",
    "id_image": "NatsumesBookofFriends_744835",
    "count_view": 0
  },
  {
    "link_thumb": "https://live.staticflickr.com/65535/48072471988_f692f54eeb_n.jpg",
    "id_album": "-2068220380",
    "description": "NatsumesBookofFriends_744836,[isGirlAnime],[isBoyAnime],[Natsumes Book of Friends],[NatsumesBookofFriends]",
    "title": "NatsumesBookofFriends_744836",
    "link_img": "https://live.staticflickr.com/65535/48072471988_2fba56edba_o.jpg",
    "id_image": "NatsumesBookofFriends_744836",
    "count_view": 0
  },
  {
    "link_thumb": "https://live.staticflickr.com/65535/48072530797_e2b572e9bf_n.jpg",
    "id_album": "-2068220380",
    "description": "NatsumesBookofFriends_744837,[isRandom],[Natsumes Book of Friends],[NatsumesBookofFriends]",
    "title": "NatsumesBookofFriends_744837",
    "link_img": "https://live.staticflickr.com/65535/48072530797_fdc5317602_o.jpg",
    "id_image": "NatsumesBookofFriends_744837",
    "count_view": 0
  },
  {
    "link_thumb": "https://live.staticflickr.com/65535/48072425196_0bb27a3a88_n.jpg",
    "id_album": "-2068220380",
    "description": "NatsumesBookofFriends_744838,[isGirlAnime],[isBoyAnime],[Natsumes Book of Friends],[NatsumesBookofFriends]",
    "title": "NatsumesBookofFriends_744838",
    "link_img": "https://live.staticflickr.com/65535/48072425196_19064578b3_o.jpg",
    "id_image": "NatsumesBookofFriends_744838",
    "count_view": 0
  },
  {
    "link_thumb": "https://live.staticflickr.com/65535/48072472998_f5b8824f91_n.jpg",
    "id_album": "-2068220380",
    "description": "NatsumesBookofFriends_744839,[isBoyAnime],[isSadAnime],[isSadAnimeBoy],[Natsumes Book of Friends],[NatsumesBookofFriends]",
    "title": "NatsumesBookofFriends_744839",
    "link_img": "https://live.staticflickr.com/65535/48072472998_f19717014e_o.jpg",
    "id_image": "NatsumesBookofFriends_744839",
    "count_view": 0
  },
  {
    "link_thumb": "https://live.staticflickr.com/65535/48072532777_f7ca1f0a16_n.jpg",
    "id_album": "-2068220380",
    "description": "NatsumesBookofFriends_744845,[isBoyAnime],[isSadAnime],[isSadAnimeBoy],[Natsumes Book of Friends],[NatsumesBookofFriends]",
    "title": "NatsumesBookofFriends_744845",
    "link_img": "https://live.staticflickr.com/65535/48072532777_7229ab0d7f_o.jpg",
    "id_image": "NatsumesBookofFriends_744845",
    "count_view": 0
  },
  {
    "link_thumb": "https://live.staticflickr.com/65535/48072533127_9db2ca19cd_n.jpg",
    "id_album": "-2068220380",
    "description": "NatsumesBookofFriends_744846,[isGirlAnime],[isBoyAnime],[Natsumes Book of Friends],[NatsumesBookofFriends]",
    "title": "NatsumesBookofFriends_744846",
    "link_img": "https://live.staticflickr.com/65535/48072533127_a69f3f2087_o.jpg",
    "id_image": "NatsumesBookofFriends_744846",
    "count_view": 0
  },
  {
    "link_thumb": "https://live.staticflickr.com/65535/48072533357_e72753e5c4_n.jpg",
    "id_album": "-2068220380",
    "description": "NatsumesBookofFriends_744847,[isGirlAnime],[isBoyAnime],[Natsumes Book of Friends],[NatsumesBookofFriends]",
    "title": "NatsumesBookofFriends_744847",
    "link_img": "https://live.staticflickr.com/65535/48072533357_4383e3cee9_o.jpg",
    "id_image": "NatsumesBookofFriends_744847",
    "count_view": 0
  },
  {
    "link_thumb": "https://live.staticflickr.com/65535/48072475583_1dc59b5d10_n.jpg",
    "id_album": "-2068220380",
    "description": "NatsumesBookofFriends_744850,[isBoyAnime],[isSadAnime],[isSadAnimeBoy],[Natsumes Book of Friends],[NatsumesBookofFriends]",
    "title": "NatsumesBookofFriends_744850",
    "link_img": "https://live.staticflickr.com/65535/48072475583_11815b598c_o.jpg",
    "id_image": "NatsumesBookofFriends_744850",
    "count_view": 0
  },
  {
    "link_thumb": "https://live.staticflickr.com/65535/48072428831_62884997e8_n.jpg",
    "id_album": "-2068220380",
    "description": "NatsumesBookofFriends_744856,[isGirlAnime],[isBlackAnime],[Natsumes Book of Friends],[NatsumesBookofFriends]",
    "title": "NatsumesBookofFriends_744856",
    "link_img": "https://live.staticflickr.com/65535/48072428831_6862ce2e54_o.jpg",
    "id_image": "NatsumesBookofFriends_744856",
    "count_view": 0
  },
  {
    "link_thumb": "https://live.staticflickr.com/65535/48072535347_e9832faedf_n.jpg",
    "id_album": "-2068220380",
    "description": "NatsumesBookofFriends_744857,[isRandom],[Natsumes Book of Friends],[NatsumesBookofFriends]",
    "title": "NatsumesBookofFriends_744857",
    "link_img": "https://live.staticflickr.com/65535/48072535347_b24bf58fa4_o.jpg",
    "id_image": "NatsumesBookofFriends_744857",
    "count_view": 0
  },
  {
    "link_thumb": "https://live.staticflickr.com/65535/48072478413_cccdbd1560_n.jpg",
    "id_album": "-2068220380",
    "description": "NatsumesBookofFriends_744862,[isBoyAnime],[isSadAnime],[isSadAnimeBoy],[Natsumes Book of Friends],[NatsumesBookofFriends]",
    "title": "NatsumesBookofFriends_744862",
    "link_img": "https://live.staticflickr.com/65535/48072478413_030ab05600_o.jpg",
    "id_image": "NatsumesBookofFriends_744862",
    "count_view": 0
  },
  {
    "link_thumb": "https://live.staticflickr.com/65535/48072432181_40012931dd_n.jpg",
    "id_album": "-2068220380",
    "description": "NatsumesBookofFriends_744868,[isRandom],[Natsumes Book of Friends],[NatsumesBookofFriends]",
    "title": "NatsumesBookofFriends_744868",
    "link_img": "https://live.staticflickr.com/65535/48072432181_a2e8b32b6f_o.jpg",
    "id_image": "NatsumesBookofFriends_744868",
    "count_view": 0
  },
  {
    "link_thumb": "https://live.staticflickr.com/65535/48072432801_b38d3c7d02_n.jpg",
    "id_album": "-2068220380",
    "description": "NatsumesBookofFriends_744870,[isBoyAnime],[isSadAnime],[isSadAnimeBoy],[isBlackAnime],[Natsumes Book of Friends],[NatsumesBookofFriends]",
    "title": "NatsumesBookofFriends_744870",
    "link_img": "https://live.staticflickr.com/65535/48072432801_aa9eaa42ea_o.jpg",
    "id_image": "NatsumesBookofFriends_744870",
    "count_view": 0
  },
  {
    "link_thumb": "https://live.staticflickr.com/65535/48072433816_d46174e0cd_n.jpg",
    "id_album": "-2068220380",
    "description": "NatsumesBookofFriends_744874,[isGirlAnime],[isBoyAnime],[Natsumes Book of Friends],[NatsumesBookofFriends]",
    "title": "NatsumesBookofFriends_744874",
    "link_img": "https://live.staticflickr.com/65535/48072433816_22f2339bcd_o.jpg",
    "id_image": "NatsumesBookofFriends_744874",
    "count_view": 0
  },
  {
    "link_thumb": "https://live.staticflickr.com/65535/48072540212_e85e70335f_n.jpg",
    "id_album": "-2068220380",
    "description": "NatsumesBookofFriends_744875,[isBoyAnime],[isSadAnime],[isSadAnimeBoy],[isBlackAnime],[Natsumes Book of Friends],[NatsumesBookofFriends]",
    "title": "NatsumesBookofFriends_744875",
    "link_img": "https://live.staticflickr.com/65535/48072540212_476c8190e8_o.jpg",
    "id_image": "NatsumesBookofFriends_744875",
    "count_view": 0
  },
  {
    "link_thumb": "https://live.staticflickr.com/65535/48072434276_4030827e29_n.jpg",
    "id_album": "-2068220380",
    "description": "NatsumesBookofFriends_744876,[isBoyAnime],[isSadAnime],[isSadAnimeBoy],[Natsumes Book of Friends],[NatsumesBookofFriends]",
    "title": "NatsumesBookofFriends_744876",
    "link_img": "https://live.staticflickr.com/65535/48072434276_523a1d2a8e_o.jpg",
    "id_image": "NatsumesBookofFriends_744876",
    "count_view": 0
  },
  {
    "link_thumb": "https://live.staticflickr.com/65535/48072482048_0d9ae8581b_n.jpg",
    "id_album": "-2068220380",
    "description": "NatsumesBookofFriends_744877,[isBoyAnime],[isSadAnime],[isSadAnimeBoy],[Natsumes Book of Friends],[NatsumesBookofFriends]",
    "title": "NatsumesBookofFriends_744877",
    "link_img": "https://live.staticflickr.com/65535/48072482048_34c1b8ba8a_o.jpg",
    "id_image": "NatsumesBookofFriends_744877",
    "count_view": 0
  },
  {
    "link_thumb": "https://live.staticflickr.com/65535/48079206782_1052396049_n.jpg",
    "id_album": "-2068220380",
    "description": "NatsumesBookofFriends_744879,[isBoyAnime],[Natsumes Book of Friends],[NatsumesBookofFriends]",
    "title": "NatsumesBookofFriends_744879",
    "link_img": "https://live.staticflickr.com/65535/48079206782_6bba8f272d_o.jpg",
    "id_image": "NatsumesBookofFriends_744879",
    "count_view": 0
  },
  {
    "link_thumb": "https://live.staticflickr.com/65535/48072441016_4f9ded9683_n.jpg",
    "id_album": "-2068220380",
    "description": "NatsumesBookofFriends_744883,[isBoyAnime],[Natsumes Book of Friends],[NatsumesBookofFriends]",
    "title": "NatsumesBookofFriends_744883",
    "link_img": "https://live.staticflickr.com/65535/48072441016_5664fc8691_o.jpg",
    "id_image": "NatsumesBookofFriends_744883",
    "count_view": 0
  },
  {
    "link_thumb": "https://live.staticflickr.com/65535/48072489038_5b092fdd28_n.jpg",
    "id_album": "-2068220380",
    "description": "NatsumesBookofFriends_744884,[isBoyAnime],[isSadAnime],[isSadAnimeBoy],[Natsumes Book of Friends],[NatsumesBookofFriends]",
    "title": "NatsumesBookofFriends_744884",
    "link_img": "https://live.staticflickr.com/65535/48072489038_55f48f4609_o.jpg",
    "id_image": "NatsumesBookofFriends_744884",
    "count_view": 0
  },
  {
    "link_thumb": "https://live.staticflickr.com/65535/48072443496_3a879f69a4_n.jpg",
    "id_album": "-2068220380",
    "description": "NatsumesBookofFriends_764297,[isBoyAnime],[isSadAnime],[isSadAnimeBoy],[Natsumes Book of Friends],[NatsumesBookofFriends]",
    "title": "NatsumesBookofFriends_764297",
    "link_img": "https://live.staticflickr.com/65535/48072443496_bd8fffa690_o.jpg",
    "id_image": "NatsumesBookofFriends_764297",
    "count_view": 0
  },
  {
    "link_thumb": "https://live.staticflickr.com/65535/48072492523_32cb394337_n.jpg",
    "id_album": "-2068220380",
    "description": "NatsumesBookofFriends_764302,[isBoyAnime],[isSadAnime],[isSadAnimeBoy],[Natsumes Book of Friends],[NatsumesBookofFriends]",
    "title": "NatsumesBookofFriends_764302",
    "link_img": "https://live.staticflickr.com/65535/48072492523_63a812966f_o.jpg",
    "id_image": "NatsumesBookofFriends_764302",
    "count_view": 0
  },
  {
    "link_thumb": "https://live.staticflickr.com/65535/48072445876_48a5201d9c_n.jpg",
    "id_album": "-2068220380",
    "description": "NatsumesBookofFriends_764304,[isBoyAnime],[isSadAnime],[isSadAnimeBoy],[Natsumes Book of Friends],[NatsumesBookofFriends]",
    "title": "NatsumesBookofFriends_764304",
    "link_img": "https://live.staticflickr.com/65535/48072445876_10373ed7f2_o.jpg",
    "id_image": "NatsumesBookofFriends_764304",
    "count_view": 0
  },
  {
    "link_thumb": "https://live.staticflickr.com/65535/48072448766_8bdf59d72e_n.jpg",
    "id_album": "-2068220380",
    "description": "NatsumesBookofFriends_764315,[isBoyAnime],[isSadAnime],[isSadAnimeBoy],[Natsumes Book of Friends],[NatsumesBookofFriends]",
    "title": "NatsumesBookofFriends_764315",
    "link_img": "https://live.staticflickr.com/65535/48072448766_2d2c986faa_o.jpg",
    "id_image": "NatsumesBookofFriends_764315",
    "count_view": 0
  },
  {
    "link_thumb": "https://live.staticflickr.com/65535/48072450576_260fa2de52_n.jpg",
    "id_album": "-2068220380",
    "description": "NatsumesBookofFriends_764322,[isBoyAnime],[isSadAnime],[isSadAnimeBoy],[Natsumes Book of Friends],[NatsumesBookofFriends]",
    "title": "NatsumesBookofFriends_764322",
    "link_img": "https://live.staticflickr.com/65535/48072450576_746f2b77d7_o.jpg",
    "id_image": "NatsumesBookofFriends_764322",
    "count_view": 0
  },
  {
    "link_thumb": "https://live.staticflickr.com/65535/48072559577_993f629008_n.jpg",
    "id_album": "-2068220380",
    "description": "NatsumesBookofFriends_764330,[isBoyAnime],[Natsumes Book of Friends],[NatsumesBookofFriends]",
    "title": "NatsumesBookofFriends_764330",
    "link_img": "https://live.staticflickr.com/65535/48072559577_1bbf69db99_o.jpg",
    "id_image": "NatsumesBookofFriends_764330",
    "count_view": 0
  },
  {
    "link_thumb": "https://live.staticflickr.com/65535/48072453796_7f9273df0d_n.jpg",
    "id_album": "-2068220380",
    "description": "NatsumesBookofFriends_764333,[isBoyAnime],[isSadAnime],[isSadAnimeBoy],[Natsumes Book of Friends],[NatsumesBookofFriends]",
    "title": "NatsumesBookofFriends_764333",
    "link_img": "https://live.staticflickr.com/65535/48072453796_960507249d_o.jpg",
    "id_image": "NatsumesBookofFriends_764333",
    "count_view": 0
  },
  {
    "link_thumb": "https://live.staticflickr.com/65535/48072561172_05a952f4db_n.jpg",
    "id_album": "-2068220380",
    "description": "NatsumesBookofFriends_784816,[isGirlAnime],[Natsumes Book of Friends],[NatsumesBookofFriends]",
    "title": "NatsumesBookofFriends_784816",
    "link_img": "https://live.staticflickr.com/65535/48072561172_ba6e580764_o.jpg",
    "id_image": "NatsumesBookofFriends_784816",
    "count_view": 0
  },
  {
    "link_thumb": "https://live.staticflickr.com/65535/48072561382_dc90ceaa3b_n.jpg",
    "id_album": "-2068220380",
    "description": "NatsumesBookofFriends_786584,[isGirlAnime],[isBoyAnime],[Natsumes Book of Friends],[NatsumesBookofFriends]",
    "title": "NatsumesBookofFriends_786584",
    "link_img": "https://live.staticflickr.com/65535/48072561382_363a1fab4b_o.jpg",
    "id_image": "NatsumesBookofFriends_786584",
    "count_view": 0
  },
  {
    "link_thumb": "https://live.staticflickr.com/65535/48072502438_44df0ae271_n.jpg",
    "id_album": "-2068220380",
    "description": "NatsumesBookofFriends_792625,[isRandom],[Natsumes Book of Friends],[NatsumesBookofFriends]",
    "title": "NatsumesBookofFriends_792625",
    "link_img": "https://live.staticflickr.com/65535/48072502438_3c581403f2_o.jpg",
    "id_image": "NatsumesBookofFriends_792625",
    "count_view": 0
  },
  {
    "link_thumb": "https://live.staticflickr.com/65535/48072502718_2c17a5fb09_n.jpg",
    "id_album": "-2068220380",
    "description": "NatsumesBookofFriends_817452,[isRandom],[Natsumes Book of Friends],[NatsumesBookofFriends]",
    "title": "NatsumesBookofFriends_817452",
    "link_img": "https://live.staticflickr.com/65535/48072502718_5408871acc_o.jpg",
    "id_image": "NatsumesBookofFriends_817452",
    "count_view": 0
  },
  {
    "link_thumb": "https://live.staticflickr.com/65535/48072562797_7de0ca761d_n.jpg",
    "id_album": "-2068220380",
    "description": "NatsumesBookofFriends_830960,[isBoyAnime],[isSadAnime],[isSadAnimeBoy],[Natsumes Book of Friends],[NatsumesBookofFriends]",
    "title": "NatsumesBookofFriends_830960",
    "link_img": "https://live.staticflickr.com/65535/48072562797_8aea0ba5cd_o.jpg",
    "id_image": "NatsumesBookofFriends_830960",
    "count_view": 0
  },
  {
    "link_thumb": "https://live.staticflickr.com/65535/48072457046_2971ec54b5_n.jpg",
    "id_album": "-2068220380",
    "description": "NatsumesBookofFriends_957824,[isBoyAnime],[isSadAnime],[isSadAnimeBoy],[Natsumes Book of Friends],[NatsumesBookofFriends]",
    "title": "NatsumesBookofFriends_957824",
    "link_img": "https://live.staticflickr.com/65535/48072457046_2b00bd2058_o.jpg",
    "id_image": "NatsumesBookofFriends_957824",
    "count_view": 0
  }
]