[
  {
    "total_img": 46,
    "number_page": 1,
    "title": "Rokudenashi Majutsu Koushi to Akashic Records",
    "tag": "Green Eyes, Wink, Weapon, Albert Frazer, Blonde, Long Hair, Thigh Highs, Anime, Sword, Book, White Hair, Short Hair, Rokudenashi Majutsu Koushi to Akashic Records, Sara Silvers, Glove, Dress, Sistine Fibel, Black Dress, Celica Arfonia, Smile, Boy, Glenn Radars, Skirt, ReL Rayford, Tie, Blue Eyes, Riel Rayford, Belt, Blush, Pantyhose, Akashic Records of Bastard Magic Instructor, Boots, Rumia Tingel",
    "description": "Rokudenashi Majutsu Koushi to Akashic Records",
    "link_thumb": "https://live.staticflickr.com/65535/48053497033_19a33d3176_n.jpg",
    "id_album": "-826844378",
    "total_view": 46
  },
  {
    "total_img": 26,
    "number_page": 1,
    "title": "Rumia Tingel",
    "tag": "Rumia Tingel,",
    "description": "Rumia Tingel",
    "link_thumb": "https://live.staticflickr.com/65535/48053477521_3b16a86479_n.jpg",
    "id_album": "801836906",
    "total_view": 26
  }
]