[
  {
    "link_thumb": "https://live.staticflickr.com/65535/48048382088_f985fb3dff_n.jpg",
    "id_album": "-2100663605",
    "description": "KonoSubaGodsblessingonthiswonderfulworld_795604",
    "title": "KonoSubaGodsblessingonthiswonderfulworld_795604",
    "link_img": "https://live.staticflickr.com/65535/48048382088_688a8889ec_o.jpg",
    "id_image": "KonoSubaGodsblessingonthiswonderfulworld_795604",
    "count_view": 0
  },
  {
    "link_thumb": "https://live.staticflickr.com/65535/48048383818_9546d9675b_n.jpg",
    "id_album": "-2100663605",
    "description": "KonoSubaGodsblessingonthiswonderfulworld_796023",
    "title": "KonoSubaGodsblessingonthiswonderfulworld_796023",
    "link_img": "https://live.staticflickr.com/65535/48048383818_2a783decdb_o.jpg",
    "id_image": "KonoSubaGodsblessingonthiswonderfulworld_796023",
    "count_view": 0
  },
  {
    "link_thumb": "https://live.staticflickr.com/65535/48048432167_2157df36b5_n.jpg",
    "id_album": "-2100663605",
    "description": "KonoSubaGodsblessingonthiswonderfulworld_798211",
    "title": "KonoSubaGodsblessingonthiswonderfulworld_798211",
    "link_img": "https://live.staticflickr.com/65535/48048432167_e8f03d34c9_o.jpg",
    "id_image": "KonoSubaGodsblessingonthiswonderfulworld_798211",
    "count_view": 0
  },
  {
    "link_thumb": "https://live.staticflickr.com/65535/48048394923_1e4a7baba5_n.jpg",
    "id_album": "-2100663605",
    "description": "KonoSubaGodsblessingonthiswonderfulworld_798214",
    "title": "KonoSubaGodsblessingonthiswonderfulworld_798214",
    "link_img": "https://live.staticflickr.com/65535/48048394923_31a8b642a5_o.jpg",
    "id_image": "KonoSubaGodsblessingonthiswonderfulworld_798214",
    "count_view": 0
  },
  {
    "link_thumb": "https://live.staticflickr.com/65535/48048395453_b63f4529b5_n.jpg",
    "id_album": "-2100663605",
    "description": "KonoSubaGodsblessingonthiswonderfulworld_798217",
    "title": "KonoSubaGodsblessingonthiswonderfulworld_798217",
    "link_img": "https://live.staticflickr.com/65535/48048395453_d6990278fd_o.jpg",
    "id_image": "KonoSubaGodsblessingonthiswonderfulworld_798217",
    "count_view": 0
  },
  {
    "link_thumb": "https://live.staticflickr.com/65535/48048401908_9226b3062a_n.jpg",
    "id_album": "-2100663605",
    "description": "KonoSubaGodsblessingonthiswonderfulworld_798247",
    "title": "KonoSubaGodsblessingonthiswonderfulworld_798247",
    "link_img": "https://live.staticflickr.com/65535/48048401908_dbf6474656_o.jpg",
    "id_image": "KonoSubaGodsblessingonthiswonderfulworld_798247",
    "count_view": 0
  },
  {
    "link_thumb": "https://live.staticflickr.com/65535/48048379276_769dda0332_n.jpg",
    "id_album": "-2100663605",
    "description": "KonoSubaGodsblessingonthiswonderfulworld_854584",
    "title": "KonoSubaGodsblessingonthiswonderfulworld_854584",
    "link_img": "https://live.staticflickr.com/65535/48048379276_04bd9646f9_o.jpg",
    "id_image": "KonoSubaGodsblessingonthiswonderfulworld_854584",
    "count_view": 0
  }
]