[
  {
    "total_img": 8,
    "number_page": 1,
    "title": "Ookamisan to Shichinin no Nakamatachi",
    "tag": "Ookamisan to Shichinin no Nakamatachi, Alice Kiriki, Akai Ringo, Ringo Akai, Majolica le Fay, Le Fay Majolica, Tsurugaya Otsuu, Otsuu Tsurugaya, Ryouko Ookami, Ookami Ryouko",
    "description": "Ookamisan to Shichinin no Nakamatachi",
    "link_thumb": "https://live.staticflickr.com/65535/48074405523_161ce16109_n.jpg",
    "id_album": "-248350112",
    "total_view": 8
  }
]