[
  {
    "link_thumb": "https://live.staticflickr.com/65535/48071297483_6e0f7b1ca4_n.jpg",
    "id_album": "-907348810",
    "description": "Music_849086",
    "title": "Music_849086",
    "link_img": "https://live.staticflickr.com/65535/48071297483_625ea1acce_o.jpg",
    "id_image": "Music_849086",
    "count_view": 0
  },
  {
    "link_thumb": "https://live.staticflickr.com/65535/48092309872_d3ba454a18_n.jpg",
    "id_album": "-907348810",
    "description": "Original_907808",
    "title": "Original_907808",
    "link_img": "https://live.staticflickr.com/65535/48092309872_390994bf4f_o.jpg",
    "id_image": "Original_907808",
    "count_view": 0
  },
  {
    "link_thumb": "https://live.staticflickr.com/65535/48092314612_755e8652ef_n.jpg",
    "id_album": "-907348810",
    "description": "Original_907837",
    "title": "Original_907837",
    "link_img": "https://live.staticflickr.com/65535/48092314612_383ee22c60_o.jpg",
    "id_image": "Original_907837",
    "count_view": 0
  }
]