[
  {
    "link_thumb": "https://live.staticflickr.com/65535/46975811875_b7736ede63_n.jpg",
    "id_album": "1701495152",
    "description": "Angel_916035",
    "title": "Angel_916035",
    "link_img": "https://live.staticflickr.com/65535/46975811875_9516941684_o.jpg",
    "id_image": "Angel_916035",
    "count_view": 0
  },
  {
    "link_thumb": "https://live.staticflickr.com/65535/47983960956_a05eeaec1d_n.jpg",
    "id_album": "1701495152",
    "description": "GATE_610776",
    "title": "GATE_610776",
    "link_img": "https://live.staticflickr.com/65535/47983960956_a7b6fa6d52_o.jpg",
    "id_image": "GATE_610776",
    "count_view": 0
  },
  {
    "link_thumb": "https://live.staticflickr.com/65535/47983915053_478c233784_n.jpg",
    "id_album": "1701495152",
    "description": "GATE_677418",
    "title": "GATE_677418",
    "link_img": "https://live.staticflickr.com/65535/47983915053_ce5ea90ec1_o.jpg",
    "id_image": "GATE_677418",
    "count_view": 0
  },
  {
    "link_thumb": "https://live.staticflickr.com/65535/47983962656_1665fba74f_n.jpg",
    "id_album": "1701495152",
    "description": "GATE_693590",
    "title": "GATE_693590",
    "link_img": "https://live.staticflickr.com/65535/47983962656_5b485faab2_o.jpg",
    "id_image": "GATE_693590",
    "count_view": 0
  },
  {
    "link_thumb": "https://live.staticflickr.com/65535/47983917713_dbe4defdb1_n.jpg",
    "id_album": "1701495152",
    "description": "GATE_702763",
    "title": "GATE_702763",
    "link_img": "https://live.staticflickr.com/65535/47983917713_0d27c4a458_o.jpg",
    "id_image": "GATE_702763",
    "count_view": 0
  },
  {
    "link_thumb": "https://live.staticflickr.com/65535/47983918048_b77627592c_n.jpg",
    "id_album": "1701495152",
    "description": "GATE_716855",
    "title": "GATE_716855",
    "link_img": "https://live.staticflickr.com/65535/47983918048_aa8887b5ca_o.jpg",
    "id_image": "GATE_716855",
    "count_view": 0
  },
  {
    "link_thumb": "https://live.staticflickr.com/65535/48078368576_08736e8973_n.jpg",
    "id_album": "1701495152",
    "description": "Original_854012",
    "title": "Original_854012",
    "link_img": "https://live.staticflickr.com/65535/48078368576_cdda1b2d50_o.jpg",
    "id_image": "Original_854012",
    "count_view": 0
  },
  {
    "link_thumb": "https://live.staticflickr.com/65535/48092527992_9e9a8b36d4_n.jpg",
    "id_album": "1701495152",
    "description": "Original_915506",
    "title": "Original_915506",
    "link_img": "https://live.staticflickr.com/65535/48092527992_477cea6192_o.jpg",
    "id_image": "Original_915506",
    "count_view": 0
  },
  {
    "link_thumb": "https://live.staticflickr.com/65535/48093251077_7fa73aef0b_n.jpg",
    "id_album": "1701495152",
    "description": "Original_956444",
    "title": "Original_956444",
    "link_img": "https://live.staticflickr.com/65535/48093251077_023d5e2a83_o.jpg",
    "id_image": "Original_956444",
    "count_view": 0
  },
  {
    "link_thumb": "https://live.staticflickr.com/65535/48060006871_1395b178a4_n.jpg",
    "id_album": "1701495152",
    "description": "TheSevenDeadlySins_937925",
    "title": "TheSevenDeadlySins_937925",
    "link_img": "https://live.staticflickr.com/65535/48060006871_ee297b6f3d_o.jpg",
    "id_image": "TheSevenDeadlySins_937925",
    "count_view": 0
  },
  {
    "link_thumb": "https://live.staticflickr.com/65535/48060056328_bdfbbb04c7_n.jpg",
    "id_album": "1701495152",
    "description": "TheSevenDeadlySins_937926",
    "title": "TheSevenDeadlySins_937926",
    "link_img": "https://live.staticflickr.com/65535/48060056328_bca7b7d00d_o.jpg",
    "id_image": "TheSevenDeadlySins_937926",
    "count_view": 0
  }
]