[
  {
    "total_img": 77,
    "number_page": 1,
    "title": "Toaru Majutsu no Index",
    "tag": "Febri Toaru Majutsu no Index, Kaori Kanzaki, Kazakiri Hyouka, Mikoto Misaka, Othinus To Aru Kagaku No Railgun, Monochrome, Fukiyose Seiri, Tsuchimikado Motoharu, Weapon, Long Hair, Kuroko Shirai, Hamazura Shiage, Sword, White Hair, Kazari Uiharu, Last Order, Purple Eyes, Purple Hair, Aiho Yomikawa, Accelerator To Aru Kagaku No Railgun, Boy, Red Eyes, Skirt, Komoe Tsukuyomi, Shizuri Mugino, Ruiko Saten, Toaru Majutsu no Index, A Certain Magical Index, Shinobu Nunotaba, Gunha Sogiita, Fiamma of the Right, Sisters Toaru Majutsu no Index, Short Hair, Index Librorum Prohibitorum, Brown Eyes, Brown Hair, Fremea Seivelun, School Uniform, Sunset, Kikyou Yoshikawa, Blue Hair, Teitoku Kakine, Misaki Shokuhou, Cloud, Stiyl Magnus, Aisa Himegami, Dedicatus545, Fraulein Kreutune, Arisa Meigo, Kamijou Touma",
    "description": "Toaru Majutsu no Index",
    "link_thumb": "https://live.staticflickr.com/65535/48060250541_5e30409abf_n.jpg",
    "id_album": "-1046115241",
    "total_view": 77
  },
  {
    "total_img": 3,
    "number_page": 1,
    "title": "Kaori Kanzaki",
    "tag": "Kaori Kanzaki,",
    "description": "Kaori Kanzaki",
    "link_thumb": "https://live.staticflickr.com/65535/48060277751_63f2f0fc29_n.jpg",
    "id_album": "469981761",
    "total_view": 3
  }
]