[
  {
    "total_img": 1479,
    "number_page": 8,
    "title": "Colored Girls",
    "tag": "Colored Girls,",
    "description": "Colored Girls",
    "link_thumb": "https://live.staticflickr.com/65535/50154717077_0e3e1e0b9f_n.jpg",
    "id_album": "-635262135",
    "total_view": 1479
  },
  {
    "total_img": 3863,
    "number_page": 20,
    "title": "Girls Ears Neko",
    "tag": "Girls Ears Neko,",
    "description": "Girls Ears Neko",
    "link_thumb": "https://live.staticflickr.com/65535/51542199025_2343ce2f5b_n.jpg",
    "id_album": "-2118541861",
    "total_view": 3863
  },
  {
    "total_img": 1063,
    "number_page": 6,
    "title": "Girls Sharp Canine Tooth",
    "tag": "Girls Sharp Canine Tooth,",
    "description": "Girls Sharp Canine Tooth",
    "link_thumb": "https://live.staticflickr.com/65535/51541280396_75d06cec3a_n.jpg",
    "id_album": "732099563",
    "total_view": 1063
  },
  {
    "total_img": 1741,
    "number_page": 9,
    "title": "Girls Tie Bows",
    "tag": "Girls Tie Bows,",
    "description": "Girls Tie Bows",
    "link_thumb": "https://live.staticflickr.com/65535/50154717077_0e3e1e0b9f_n.jpg",
    "id_album": "392997562",
    "total_view": 1741
  }
]