[
  {
    "link_thumb": "https://live.staticflickr.com/65535/48095050286_56f7ae6284_n.jpg",
    "id_album": "298638608",
    "description": "Overlord_626763",
    "title": "Overlord_626763",
    "link_img": "https://live.staticflickr.com/65535/48095050286_e1906eae29_o.jpg",
    "id_image": "Overlord_626763",
    "count_view": 0
  },
  {
    "link_thumb": "https://live.staticflickr.com/65535/48095153227_122632fce0_n.jpg",
    "id_album": "298638608",
    "description": "Overlord_626764",
    "title": "Overlord_626764",
    "link_img": "https://live.staticflickr.com/65535/48095153227_0d9764f81a_o.jpg",
    "id_image": "Overlord_626764",
    "count_view": 0
  },
  {
    "link_thumb": "https://live.staticflickr.com/65535/48095153987_406b398181_n.jpg",
    "id_album": "298638608",
    "description": "Overlord_626799",
    "title": "Overlord_626799",
    "link_img": "https://live.staticflickr.com/65535/48095153987_5a56ab2138_o.jpg",
    "id_image": "Overlord_626799",
    "count_view": 0
  },
  {
    "link_thumb": "https://live.staticflickr.com/65535/48095159352_2b5a062305_n.jpg",
    "id_album": "298638608",
    "description": "Overlord_629054",
    "title": "Overlord_629054",
    "link_img": "https://live.staticflickr.com/65535/48095159352_01bd817de8_o.jpg",
    "id_image": "Overlord_629054",
    "count_view": 0
  },
  {
    "link_thumb": "https://live.staticflickr.com/65535/48095159522_6470853709_n.jpg",
    "id_album": "298638608",
    "description": "Overlord_632910",
    "title": "Overlord_632910",
    "link_img": "https://live.staticflickr.com/65535/48095159522_0434540e24_o.jpg",
    "id_image": "Overlord_632910",
    "count_view": 0
  },
  {
    "link_thumb": "https://live.staticflickr.com/65535/48095104213_4d0a60efa1_n.jpg",
    "id_album": "298638608",
    "description": "Overlord_648891",
    "title": "Overlord_648891",
    "link_img": "https://live.staticflickr.com/65535/48095104213_81ea7be540_o.jpg",
    "id_image": "Overlord_648891",
    "count_view": 0
  },
  {
    "link_thumb": "https://live.staticflickr.com/65535/48095059706_93fa61671b_n.jpg",
    "id_album": "298638608",
    "description": "Overlord_648896",
    "title": "Overlord_648896",
    "link_img": "https://live.staticflickr.com/65535/48095059706_3529dbd058_o.jpg",
    "id_image": "Overlord_648896",
    "count_view": 0
  },
  {
    "link_thumb": "https://live.staticflickr.com/65535/48095162942_92f63e860f_n.jpg",
    "id_album": "298638608",
    "description": "Overlord_648900",
    "title": "Overlord_648900",
    "link_img": "https://live.staticflickr.com/65535/48095162942_eccf596648_o.jpg",
    "id_image": "Overlord_648900",
    "count_view": 0
  },
  {
    "link_thumb": "https://live.staticflickr.com/65535/48095163197_78c8c823c0_n.jpg",
    "id_album": "298638608",
    "description": "Overlord_648901",
    "title": "Overlord_648901",
    "link_img": "https://live.staticflickr.com/65535/48095163197_ed342fbdbb_o.jpg",
    "id_image": "Overlord_648901",
    "count_view": 0
  },
  {
    "link_thumb": "https://live.staticflickr.com/65535/48095106648_a62e14a294_n.jpg",
    "id_album": "298638608",
    "description": "Overlord_648902",
    "title": "Overlord_648902",
    "link_img": "https://live.staticflickr.com/65535/48095106648_1d8a52f203_o.jpg",
    "id_image": "Overlord_648902",
    "count_view": 0
  },
  {
    "link_thumb": "https://live.staticflickr.com/65535/48095108728_3e87ce9995_n.jpg",
    "id_album": "298638608",
    "description": "Overlord_648910",
    "title": "Overlord_648910",
    "link_img": "https://live.staticflickr.com/65535/48095108728_8cbeba4b35_o.jpg",
    "id_image": "Overlord_648910",
    "count_view": 0
  },
  {
    "link_thumb": "https://live.staticflickr.com/65535/48095166057_9377a10f04_n.jpg",
    "id_album": "298638608",
    "description": "Overlord_648914",
    "title": "Overlord_648914",
    "link_img": "https://live.staticflickr.com/65535/48095166057_b49f8b2f1c_o.jpg",
    "id_image": "Overlord_648914",
    "count_view": 0
  },
  {
    "link_thumb": "https://live.staticflickr.com/65535/48095166482_9bfb0aa0d1_n.jpg",
    "id_album": "298638608",
    "description": "Overlord_648916",
    "title": "Overlord_648916",
    "link_img": "https://live.staticflickr.com/65535/48095166482_761d3eb26f_o.jpg",
    "id_image": "Overlord_648916",
    "count_view": 0
  },
  {
    "link_thumb": "https://live.staticflickr.com/65535/48095069501_098bdd1907_n.jpg",
    "id_album": "298638608",
    "description": "Overlord_655515",
    "title": "Overlord_655515",
    "link_img": "https://live.staticflickr.com/65535/48095069501_5e543bcca6_o.jpg",
    "id_image": "Overlord_655515",
    "count_view": 0
  },
  {
    "link_thumb": "https://live.staticflickr.com/65535/48095171717_15c080b95a_n.jpg",
    "id_album": "298638608",
    "description": "Overlord_655516",
    "title": "Overlord_655516",
    "link_img": "https://live.staticflickr.com/65535/48095171717_b03361e766_o.jpg",
    "id_image": "Overlord_655516",
    "count_view": 0
  },
  {
    "link_thumb": "https://live.staticflickr.com/65535/48095172007_b6829db319_n.jpg",
    "id_album": "298638608",
    "description": "Overlord_655517",
    "title": "Overlord_655517",
    "link_img": "https://live.staticflickr.com/65535/48095172007_d2a9f41efd_o.jpg",
    "id_image": "Overlord_655517",
    "count_view": 0
  },
  {
    "link_thumb": "https://live.staticflickr.com/65535/48095070781_3a634e1eb2_n.jpg",
    "id_album": "298638608",
    "description": "Overlord_667262",
    "title": "Overlord_667262",
    "link_img": "https://live.staticflickr.com/65535/48095070781_be075f7e2e_o.jpg",
    "id_image": "Overlord_667262",
    "count_view": 0
  },
  {
    "link_thumb": "https://live.staticflickr.com/65535/48095172827_7142e7477d_n.jpg",
    "id_album": "298638608",
    "description": "Overlord_667877",
    "title": "Overlord_667877",
    "link_img": "https://live.staticflickr.com/65535/48095172827_2d71c77be0_o.jpg",
    "id_image": "Overlord_667877",
    "count_view": 0
  },
  {
    "link_thumb": "https://live.staticflickr.com/65535/48095071786_ebdd0c5492_n.jpg",
    "id_album": "298638608",
    "description": "Overlord_676539",
    "title": "Overlord_676539",
    "link_img": "https://live.staticflickr.com/65535/48095071786_be30010120_o.jpg",
    "id_image": "Overlord_676539",
    "count_view": 0
  },
  {
    "link_thumb": "https://live.staticflickr.com/65535/48095174782_36c04ff642_n.jpg",
    "id_album": "298638608",
    "description": "Overlord_680484",
    "title": "Overlord_680484",
    "link_img": "https://live.staticflickr.com/65535/48095174782_54fc5e7452_o.jpg",
    "id_image": "Overlord_680484",
    "count_view": 0
  },
  {
    "link_thumb": "https://live.staticflickr.com/65535/48095129118_15a1dd4d1f_n.jpg",
    "id_album": "298638608",
    "description": "Overlord_934009",
    "title": "Overlord_934009",
    "link_img": "https://live.staticflickr.com/65535/48095129118_5120b2ff54_o.jpg",
    "id_image": "Overlord_934009",
    "count_view": 0
  },
  {
    "link_thumb": "https://live.staticflickr.com/65535/48095084186_93e04c90dc_n.jpg",
    "id_album": "298638608",
    "description": "Overlord_934011",
    "title": "Overlord_934011",
    "link_img": "https://live.staticflickr.com/65535/48095084186_824756cff4_o.jpg",
    "id_image": "Overlord_934011",
    "count_view": 0
  },
  {
    "link_thumb": "https://live.staticflickr.com/65535/48095084746_5eb0649b65_n.jpg",
    "id_album": "298638608",
    "description": "Overlord_934016",
    "title": "Overlord_934016",
    "link_img": "https://live.staticflickr.com/65535/48095084746_9a3bb0ab33_o.jpg",
    "id_image": "Overlord_934016",
    "count_view": 0
  },
  {
    "link_thumb": "https://live.staticflickr.com/65535/48095085596_4d28051948_n.jpg",
    "id_album": "298638608",
    "description": "Overlord_934058",
    "title": "Overlord_934058",
    "link_img": "https://live.staticflickr.com/65535/48095085596_544a477682_o.jpg",
    "id_image": "Overlord_934058",
    "count_view": 0
  },
  {
    "link_thumb": "https://live.staticflickr.com/65535/48095131323_1aa1ba55cc_n.jpg",
    "id_album": "298638608",
    "description": "Overlord_934059",
    "title": "Overlord_934059",
    "link_img": "https://live.staticflickr.com/65535/48095131323_fcabde561e_o.jpg",
    "id_image": "Overlord_934059",
    "count_view": 0
  },
  {
    "link_thumb": "https://live.staticflickr.com/65535/48095086136_a22bc9ff52_n.jpg",
    "id_album": "298638608",
    "description": "Overlord_934060",
    "title": "Overlord_934060",
    "link_img": "https://live.staticflickr.com/65535/48095086136_3c66c33736_o.jpg",
    "id_image": "Overlord_934060",
    "count_view": 0
  },
  {
    "link_thumb": "https://live.staticflickr.com/65535/48095087006_af8cb8bb61_n.jpg",
    "id_album": "298638608",
    "description": "Overlord_934064",
    "title": "Overlord_934064",
    "link_img": "https://live.staticflickr.com/65535/48095087006_7a3407cf52_o.jpg",
    "id_image": "Overlord_934064",
    "count_view": 0
  },
  {
    "link_thumb": "https://live.staticflickr.com/65535/48095189642_7a3e8b9aff_n.jpg",
    "id_album": "298638608",
    "description": "Overlord_934066",
    "title": "Overlord_934066",
    "link_img": "https://live.staticflickr.com/65535/48095189642_3701d44c04_o.jpg",
    "id_image": "Overlord_934066",
    "count_view": 0
  },
  {
    "link_thumb": "https://live.staticflickr.com/65535/48095191022_f9f2978192_n.jpg",
    "id_album": "298638608",
    "description": "Overlord_935156",
    "title": "Overlord_935156",
    "link_img": "https://live.staticflickr.com/65535/48095191022_de4e6d4d12_o.jpg",
    "id_image": "Overlord_935156",
    "count_view": 0
  },
  {
    "link_thumb": "https://live.staticflickr.com/65535/48095193017_4a09c76956_n.jpg",
    "id_album": "298638608",
    "description": "Overlord_944984",
    "title": "Overlord_944984",
    "link_img": "https://live.staticflickr.com/65535/48095193017_36653bf5d7_o.jpg",
    "id_image": "Overlord_944984",
    "count_view": 0
  },
  {
    "link_thumb": "https://live.staticflickr.com/65535/48095091406_de2d083a73_n.jpg",
    "id_album": "298638608",
    "description": "Overlord_945276",
    "title": "Overlord_945276",
    "link_img": "https://live.staticflickr.com/65535/48095091406_f786c43f91_o.jpg",
    "id_image": "Overlord_945276",
    "count_view": 0
  },
  {
    "link_thumb": "https://live.staticflickr.com/65535/48095092711_2886033164_n.jpg",
    "id_album": "298638608",
    "description": "Overlord_945976",
    "title": "Overlord_945976",
    "link_img": "https://live.staticflickr.com/65535/48095092711_9a4e35bbb8_o.jpg",
    "id_image": "Overlord_945976",
    "count_view": 0
  },
  {
    "link_thumb": "https://live.staticflickr.com/65535/48095146328_922e01be5b_n.jpg",
    "id_album": "298638608",
    "description": "Overlord_970502",
    "title": "Overlord_970502",
    "link_img": "https://live.staticflickr.com/65535/48095146328_405358640f_o.jpg",
    "id_image": "Overlord_970502",
    "count_view": 0
  },
  {
    "link_thumb": "https://live.staticflickr.com/65535/48066270003_821340d065_n.jpg",
    "id_album": "298638608",
    "description": "YoujoSenki_810847",
    "title": "YoujoSenki_810847",
    "link_img": "https://live.staticflickr.com/65535/48066270003_826a70cc34_o.jpg",
    "id_image": "YoujoSenki_810847",
    "count_view": 0
  }
]