[
  {
    "link_thumb": "https://live.staticflickr.com/65535/48046954343_91cff1841e_n.jpg",
    "id_album": "39220416",
    "description": "KagerouProject_557197",
    "title": "KagerouProject_557197",
    "link_img": "https://live.staticflickr.com/65535/48046954343_16383d10ef_o.jpg",
    "id_image": "KagerouProject_557197",
    "count_view": 0
  },
  {
    "link_thumb": "https://live.staticflickr.com/65535/48046954518_79ab6a7762_n.jpg",
    "id_album": "39220416",
    "description": "KagerouProject_557261",
    "title": "KagerouProject_557261",
    "link_img": "https://live.staticflickr.com/65535/48046954518_01314b5891_o.jpg",
    "id_image": "KagerouProject_557261",
    "count_view": 0
  },
  {
    "link_thumb": "https://live.staticflickr.com/65535/48046915776_d64d101db1_n.jpg",
    "id_album": "39220416",
    "description": "KagerouProject_688394",
    "title": "KagerouProject_688394",
    "link_img": "https://live.staticflickr.com/65535/48046915776_1643bd4156_o.jpg",
    "id_image": "KagerouProject_688394",
    "count_view": 0
  },
  {
    "link_thumb": "https://live.staticflickr.com/65535/48046917421_7b68b9e7cd_n.jpg",
    "id_album": "39220416",
    "description": "KagerouProject_707871",
    "title": "KagerouProject_707871",
    "link_img": "https://live.staticflickr.com/65535/48046917421_e988ec5eec_o.jpg",
    "id_image": "KagerouProject_707871",
    "count_view": 0
  },
  {
    "link_thumb": "https://live.staticflickr.com/65535/48046917566_e72425c731_n.jpg",
    "id_album": "39220416",
    "description": "KagerouProject_710397",
    "title": "KagerouProject_710397",
    "link_img": "https://live.staticflickr.com/65535/48046917566_eba0e4a706_o.jpg",
    "id_image": "KagerouProject_710397",
    "count_view": 0
  },
  {
    "link_thumb": "https://live.staticflickr.com/65535/48047015027_2f103439d5_n.jpg",
    "id_album": "39220416",
    "description": "KagerouProject_793053",
    "title": "KagerouProject_793053",
    "link_img": "https://live.staticflickr.com/65535/48047015027_d410dc6d88_o.jpg",
    "id_image": "KagerouProject_793053",
    "count_view": 0
  },
  {
    "link_thumb": "https://live.staticflickr.com/65535/48046973878_fb407da787_n.jpg",
    "id_album": "39220416",
    "description": "KagerouProject_915876",
    "title": "KagerouProject_915876",
    "link_img": "https://live.staticflickr.com/65535/48046973878_ae3d52f4b8_o.jpg",
    "id_image": "KagerouProject_915876",
    "count_view": 0
  },
  {
    "link_thumb": "https://live.staticflickr.com/65535/48047030272_7bcc9fc1d4_n.jpg",
    "id_album": "39220416",
    "description": "KagerouProject_960873",
    "title": "KagerouProject_960873",
    "link_img": "https://live.staticflickr.com/65535/48047030272_30c5cec0dc_o.jpg",
    "id_image": "KagerouProject_960873",
    "count_view": 0
  },
  {
    "link_thumb": "https://live.staticflickr.com/65535/48046998003_0f71358973_n.jpg",
    "id_album": "39220416",
    "description": "KagerouProject_966441",
    "title": "KagerouProject_966441",
    "link_img": "https://live.staticflickr.com/65535/48046998003_27c9dfdb2d_o.jpg",
    "id_image": "KagerouProject_966441",
    "count_view": 0
  },
  {
    "link_thumb": "https://live.staticflickr.com/65535/48047045382_5e1300bf53_n.jpg",
    "id_album": "39220416",
    "description": "KagerouProject_966846",
    "title": "KagerouProject_966846",
    "link_img": "https://live.staticflickr.com/65535/48047045382_38bbc2b6cf_o.jpg",
    "id_image": "KagerouProject_966846",
    "count_view": 0
  },
  {
    "link_thumb": "https://live.staticflickr.com/65535/48047050337_da295a9740_n.jpg",
    "id_album": "39220416",
    "description": "KagerouProject_967331",
    "title": "KagerouProject_967331",
    "link_img": "https://live.staticflickr.com/65535/48047050337_8ff780d823_o.jpg",
    "id_image": "KagerouProject_967331",
    "count_view": 0
  },
  {
    "link_thumb": "https://live.staticflickr.com/65535/48047005943_e96052e060_n.jpg",
    "id_album": "39220416",
    "description": "KagerouProject_967335",
    "title": "KagerouProject_967335",
    "link_img": "https://live.staticflickr.com/65535/48047005943_a9891195e7_o.jpg",
    "id_image": "KagerouProject_967335",
    "count_view": 0
  },
  {
    "link_thumb": "https://live.staticflickr.com/65535/48046968666_b51a0d3db5_n.jpg",
    "id_album": "39220416",
    "description": "KagerouProject_967653",
    "title": "KagerouProject_967653",
    "link_img": "https://live.staticflickr.com/65535/48046968666_3dd21f1277_o.jpg",
    "id_image": "KagerouProject_967653",
    "count_view": 0
  },
  {
    "link_thumb": "https://live.staticflickr.com/65535/48046968911_afa69f0091_n.jpg",
    "id_album": "39220416",
    "description": "KagerouProject_967654",
    "title": "KagerouProject_967654",
    "link_img": "https://live.staticflickr.com/65535/48046968911_459b3d3381_o.jpg",
    "id_image": "KagerouProject_967654",
    "count_view": 0
  }
]