[
  {
    "total_img": 156,
    "number_page": 1,
    "title": "Date A Live",
    "tag": "Water, Shiori Itsuka, Black Hair, Minimalist, Clock, Wedding Dress, Weapon, Origami Tobiichi, Long Hair, Mukuro Hoshimiya, Thigh Highs, Goggles, Anime, Sword, Ribbon, Pistol, White Hair, Swing, Date A Live, Kaguya Yamai, Heterochromia, Reine Murasame, Collar, Yoshino Date A Live, Gun, Purple Eyes, Natsumi Date A Live, Glove, Purple Hair, Cute, Kuudere, Chibi, Tohka Yatogami, Black Dress, Smile, Yellow Eyes, Aqua Eyes, Red Eyes, Skirt, Shrine, Blush, Pantyhose, Skyscraper, Miku Izayoi, Mayuri Date A Live, Yuzuru Yamai, Ponytail, Orange Eyes, Orange Hair, Kotori Itsuka, Torii, Sitting, Rose, White Dress, Twintails, Blonde, Maria Arusu, Shido Itsuka, Japanese Clothes, Armor, Tail, bow Clothing, Nia Honjou Date A Live, Marina Arusu, Short Hair, Swimsuit, Face, Flower, Dress, Rinne Sonogami, Brown Hair, Red Dress, Headband, Pink Eyes, Pink Hair, School Uniform, Gothic, Bride, Blue Eyes, Blue Hair, Mio Takamiya, Boots, Kurumi Tokisaki, Animal Ears, Yukata, Tears, Pillow",
    "description": "Date A Live",
    "link_thumb": "https://live.staticflickr.com/65535/47963083226_20ca4d929b_n.jpg",
    "id_album": "-1031242770",
    "total_view": 156
  },
  {
    "total_img": 74,
    "number_page": 1,
    "title": "Japanese Clothes",
    "tag": "Japanese Clothes,",
    "description": "Japanese Clothes",
    "link_thumb": "https://live.staticflickr.com/65535/48066203393_b94f334903_n.jpg",
    "id_album": "-2000306816",
    "total_view": 74
  },
  {
    "total_img": 1729,
    "number_page": 9,
    "title": "Long Hair",
    "tag": "Long Hair,",
    "description": "Long Hair",
    "link_thumb": "https://live.staticflickr.com/65535/48066953706_2771a62522_n.jpg",
    "id_album": "186170098",
    "total_view": 1729
  },
  {
    "total_img": 95,
    "number_page": 1,
    "title": "Ponytail",
    "tag": "Ponytail,",
    "description": "Ponytail",
    "link_thumb": "https://live.staticflickr.com/65535/48066346537_249cf52230_n.jpg",
    "id_album": "-1791757177",
    "total_view": 95
  },
  {
    "total_img": 272,
    "number_page": 2,
    "title": "Purple Eyes",
    "tag": "Purple Eyes,",
    "description": "Purple Eyes",
    "link_thumb": "https://live.staticflickr.com/65535/48609891276_d6beb9cf73_n.jpg",
    "id_album": "1975239528",
    "total_view": 272
  },
  {
    "total_img": 224,
    "number_page": 2,
    "title": "Purple Hair",
    "tag": "Purple Hair,",
    "description": "Purple Hair",
    "link_thumb": "https://live.staticflickr.com/65535/48609891276_d6beb9cf73_n.jpg",
    "id_album": "-84980027",
    "total_view": 224
  },
  {
    "total_img": 130,
    "number_page": 1,
    "title": "Ribbon",
    "tag": "Ribbon,",
    "description": "Ribbon",
    "link_thumb": "https://live.staticflickr.com/65535/48065583018_86d78f68c3_n.jpg",
    "id_album": "-1925832035",
    "total_view": 130
  },
  {
    "total_img": 807,
    "number_page": 5,
    "title": "Smile",
    "tag": "Smile,",
    "description": "Smile",
    "link_thumb": "https://live.staticflickr.com/65535/48066953706_2771a62522_n.jpg",
    "id_album": "419891285",
    "total_view": 807
  },
  {
    "total_img": 33,
    "number_page": 1,
    "title": "Tohka Yatogami",
    "tag": "Tohka Yatogami,",
    "description": "Tohka Yatogami",
    "link_thumb": "https://live.staticflickr.com/65535/47963160957_c77b048b95_n.jpg",
    "id_album": "614630381",
    "total_view": 33
  },
  {
    "total_img": 42,
    "number_page": 1,
    "title": "Yukata",
    "tag": "Yukata,",
    "description": "Yukata",
    "link_thumb": "https://live.staticflickr.com/65535/48065934602_f9befc5ac7_n.jpg",
    "id_album": "-1501301956",
    "total_view": 42
  }
]