[
  {
    "link_thumb": "https://live.staticflickr.com/65535/51553568561_96bc8e2b36_n.jpg",
    "id_album": "-89234980",
    "description": "ANIME_PIC_9a75b45e54e74870290f8b8eadbfb8d7,[GirlsCuteCool],[isGirlAnime],[isCuteAnime],[isGirlsLoliAnime],[isSadAnimeGirl],[isSadAnime]",
    "title": "ANIME_PIC_9a75b45e54e74870290f8b8eadbfb8d7",
    "link_img": "https://live.staticflickr.com/65535/51553568561_52bc29e64f_o.png",
    "id_image": "ANIME_PIC_9a75b45e54e74870290f8b8eadbfb8d7",
    "count_view": 0
  },
  {
    "link_thumb": "https://live.staticflickr.com/65535/51552770592_07b571ddcf_n.jpg",
    "id_album": "-89234980",
    "description": "ANIME_PIC_9a76d195b86e06e7381ed1184a9b143f,[GirlsCuteCool],[isGirlAnime],[isCuteAnime]",
    "title": "ANIME_PIC_9a76d195b86e06e7381ed1184a9b143f",
    "link_img": "https://live.staticflickr.com/65535/51552770592_c281ff1112_o.png",
    "id_image": "ANIME_PIC_9a76d195b86e06e7381ed1184a9b143f",
    "count_view": 0
  },
  {
    "link_thumb": "https://live.staticflickr.com/65535/51554286229_47e5a5a815_n.jpg",
    "id_album": "-89234980",
    "description": "ANIME_PIC_9a77f5ae4a955bd91fbd233085259c7c,[GirlsCuteCool],[isGirlAnime],[isCuteAnime]",
    "title": "ANIME_PIC_9a77f5ae4a955bd91fbd233085259c7c",
    "link_img": "https://live.staticflickr.com/65535/51554286229_cdf182269f_o.jpg",
    "id_image": "ANIME_PIC_9a77f5ae4a955bd91fbd233085259c7c",
    "count_view": 0
  },
  {
    "link_thumb": "https://live.staticflickr.com/65535/51553570286_d4fc9053a7_n.jpg",
    "id_album": "-89234980",
    "description": "ANIME_PIC_9a788181180874b0bcc6b0b8db8545cb,[GirlsCuteCool],[isGirlAnime],[isCuteAnime]",
    "title": "ANIME_PIC_9a788181180874b0bcc6b0b8db8545cb",
    "link_img": "https://live.staticflickr.com/65535/51553570286_bbc22cd094_o.jpg",
    "id_image": "ANIME_PIC_9a788181180874b0bcc6b0b8db8545cb",
    "count_view": 0
  },
  {
    "link_thumb": "https://live.staticflickr.com/65535/51554287049_0e0f7205db_n.jpg",
    "id_album": "-89234980",
    "description": "ANIME_PIC_9a790a3c88729b1ff9befd0b12ee7fff,[GirlsCuteCool],[isGirlAnime],[isCuteAnime]",
    "title": "ANIME_PIC_9a790a3c88729b1ff9befd0b12ee7fff",
    "link_img": "https://live.staticflickr.com/65535/51554287049_e8aa33055e_o.jpg",
    "id_image": "ANIME_PIC_9a790a3c88729b1ff9befd0b12ee7fff",
    "count_view": 0
  },
  {
    "link_thumb": "https://live.staticflickr.com/65535/51554287489_92ec462527_n.jpg",
    "id_album": "-89234980",
    "description": "ANIME_PIC_9a7a1aca1f3b5dc3804d58c8ae41c5a6,[GirlsCuteCool],[isGirlAnime],[isCuteAnime],[isBlackAnime],[isGirlsLoliAnime]",
    "title": "ANIME_PIC_9a7a1aca1f3b5dc3804d58c8ae41c5a6",
    "link_img": "https://live.staticflickr.com/65535/51554287489_255c110ab0_o.jpg",
    "id_image": "ANIME_PIC_9a7a1aca1f3b5dc3804d58c8ae41c5a6",
    "count_view": 0
  },
  {
    "link_thumb": "https://live.staticflickr.com/65535/51554487085_8520b5ed4d_n.jpg",
    "id_album": "-89234980",
    "description": "ANIME_PIC_9a7ae613b2ce20b1bf1d39cc283a11ec,[GirlsCuteCool],[isGirlAnime],[isCuteAnime]",
    "title": "ANIME_PIC_9a7ae613b2ce20b1bf1d39cc283a11ec",
    "link_img": "https://live.staticflickr.com/65535/51554487085_5659f63ef7_o.png",
    "id_image": "ANIME_PIC_9a7ae613b2ce20b1bf1d39cc283a11ec",
    "count_view": 0
  },
  {
    "link_thumb": "https://live.staticflickr.com/65535/51553572171_410cf913b6_n.jpg",
    "id_album": "-89234980",
    "description": "ANIME_PIC_9a7c88a9e1d51eadf3433e9fe3e01ebb,[GirlsCuteCool],[isGirlAnime],[isCuteAnime],[isGirlsHatsHoodieAnime],[isGirlsLoliAnime]",
    "title": "ANIME_PIC_9a7c88a9e1d51eadf3433e9fe3e01ebb",
    "link_img": "https://live.staticflickr.com/65535/51553572171_f0d3254a5a_o.png",
    "id_image": "ANIME_PIC_9a7c88a9e1d51eadf3433e9fe3e01ebb",
    "count_view": 0
  },
  {
    "link_thumb": "https://live.staticflickr.com/65535/51554288889_9431649e92_n.jpg",
    "id_album": "-89234980",
    "description": "ANIME_PIC_9a80df54e009c55623c1a2c859b0d35a,[GirlsCuteCool],[isGirlAnime],[isCuteAnime],[isSadAnimeGirl],[isSadAnime]",
    "title": "ANIME_PIC_9a80df54e009c55623c1a2c859b0d35a",
    "link_img": "https://live.staticflickr.com/65535/51554288889_ce608e14d6_o.jpg",
    "id_image": "ANIME_PIC_9a80df54e009c55623c1a2c859b0d35a",
    "count_view": 0
  },
  {
    "link_thumb": "https://live.staticflickr.com/65535/51554289104_cdee94f17a_n.jpg",
    "id_album": "-89234980",
    "description": "ANIME_PIC_9a83e6e2391d6e51c14df8e7854d6694,[GirlsCuteCool],[isGirlAnime],[isCuteAnime],[isGirlsLoliAnime],[isSadAnimeGirl],[isSadAnime]",
    "title": "ANIME_PIC_9a83e6e2391d6e51c14df8e7854d6694",
    "link_img": "https://live.staticflickr.com/65535/51554289104_44981d437a_o.png",
    "id_image": "ANIME_PIC_9a83e6e2391d6e51c14df8e7854d6694",
    "count_view": 0
  },
  {
    "link_thumb": "https://live.staticflickr.com/65535/51553804288_28968d76a1_n.jpg",
    "id_album": "-89234980",
    "description": "ANIME_PIC_9a84e6b69248d4e9dad5d691e5df6a66,[GirlsCuteCool],[isGirlAnime],[isCuteAnime],[isGirlsLoliAnime]",
    "title": "ANIME_PIC_9a84e6b69248d4e9dad5d691e5df6a66",
    "link_img": "https://live.staticflickr.com/65535/51553804288_b30d9bcb4b_o.png",
    "id_image": "ANIME_PIC_9a84e6b69248d4e9dad5d691e5df6a66",
    "count_view": 0
  },
  {
    "link_thumb": "https://live.staticflickr.com/65535/51554290374_2cca96f013_n.jpg",
    "id_album": "-89234980",
    "description": "ANIME_PIC_9a85163c60a335b33981e0cad526b20a,[GirlsCuteCool],[isGirlAnime],[isCuteAnime]",
    "title": "ANIME_PIC_9a85163c60a335b33981e0cad526b20a",
    "link_img": "https://live.staticflickr.com/65535/51554290374_fc91a283ee_o.jpg",
    "id_image": "ANIME_PIC_9a85163c60a335b33981e0cad526b20a",
    "count_view": 0
  },
  {
    "link_thumb": "https://live.staticflickr.com/65535/51552775957_92b7abe018_n.jpg",
    "id_album": "-89234980",
    "description": "ANIME_PIC_9a877970b11a31243b94dd8d57509a5d,[GirlsCuteCool],[isGirlAnime],[isCuteAnime],[isGirlEarsNekoAnime],[isGirlsHatsHoodieAnime],[isGirlsLoliAnime]",
    "title": "ANIME_PIC_9a877970b11a31243b94dd8d57509a5d",
    "link_img": "https://live.staticflickr.com/65535/51552775957_35abac64d0_o.jpg",
    "id_image": "ANIME_PIC_9a877970b11a31243b94dd8d57509a5d",
    "count_view": 0
  },
  {
    "link_thumb": "https://live.staticflickr.com/65535/51554490685_60311b195f_n.jpg",
    "id_album": "-89234980",
    "description": "ANIME_PIC_9a89d9fc503994e5ec320c85ddd10a80,[GirlsCuteCool],[isGirlAnime],[isCuteAnime],[isGirlsSharpCanineToothAnime]",
    "title": "ANIME_PIC_9a89d9fc503994e5ec320c85ddd10a80",
    "link_img": "https://live.staticflickr.com/65535/51554490685_769bef3d29_o.jpg",
    "id_image": "ANIME_PIC_9a89d9fc503994e5ec320c85ddd10a80",
    "count_view": 0
  },
  {
    "link_thumb": "https://live.staticflickr.com/65535/51554291359_bb24e80db4_n.jpg",
    "id_album": "-89234980",
    "description": "ANIME_PIC_9a8c057873c10fea833ea4e27b0e3c3f,[GirlsCuteCool],[isGirlAnime],[isCuteAnime]",
    "title": "ANIME_PIC_9a8c057873c10fea833ea4e27b0e3c3f",
    "link_img": "https://live.staticflickr.com/65535/51554291359_6cfec28eb4_o.jpg",
    "id_image": "ANIME_PIC_9a8c057873c10fea833ea4e27b0e3c3f",
    "count_view": 0
  },
  {
    "link_thumb": "https://live.staticflickr.com/65535/51554291654_ff518b0a9d_n.jpg",
    "id_album": "-89234980",
    "description": "ANIME_PIC_9a90eadbb9816375a936856a8556f674,[GirlsCuteCool],[isGirlAnime],[isCuteAnime],[isGirlsLoliAnime]",
    "title": "ANIME_PIC_9a90eadbb9816375a936856a8556f674",
    "link_img": "https://live.staticflickr.com/65535/51554291654_78aabca845_o.jpg",
    "id_image": "ANIME_PIC_9a90eadbb9816375a936856a8556f674",
    "count_view": 0
  },
  {
    "link_thumb": "https://live.staticflickr.com/65535/51552777227_6ef0192c51_n.jpg",
    "id_album": "-89234980",
    "description": "ANIME_PIC_9a911f6bef436b00eacb0bc8c406ac04,[GirlsCuteCool],[isGirlAnime],[isCuteAnime],[isGirlsLoliAnime]",
    "title": "ANIME_PIC_9a911f6bef436b00eacb0bc8c406ac04",
    "link_img": "https://live.staticflickr.com/65535/51552777227_527615afcb_o.jpg",
    "id_image": "ANIME_PIC_9a911f6bef436b00eacb0bc8c406ac04",
    "count_view": 0
  },
  {
    "link_thumb": "https://live.staticflickr.com/65535/51553806863_2791cec6aa_n.jpg",
    "id_album": "-89234980",
    "description": "ANIME_PIC_9aa2106717b14815300dabeeedee7770,[GirlsCuteCool],[isGirlAnime],[isCuteAnime],[isGirlsHatsHoodieAnime],[isGirlsLoliAnime]",
    "title": "ANIME_PIC_9aa2106717b14815300dabeeedee7770",
    "link_img": "https://live.staticflickr.com/65535/51553806863_0982879f43_o.jpg",
    "id_image": "ANIME_PIC_9aa2106717b14815300dabeeedee7770",
    "count_view": 0
  },
  {
    "link_thumb": "https://live.staticflickr.com/65535/51553807098_9fe430679e_n.jpg",
    "id_album": "-89234980",
    "description": "ANIME_PIC_9aa30f09b7f5df079266ddc56d1c94a3,[GirlsCuteCool],[isGirlAnime],[isCuteAnime],[isGirlsLoliAnime]",
    "title": "ANIME_PIC_9aa30f09b7f5df079266ddc56d1c94a3",
    "link_img": "https://live.staticflickr.com/65535/51553807098_fd177f7a32_o.jpg",
    "id_image": "ANIME_PIC_9aa30f09b7f5df079266ddc56d1c94a3",
    "count_view": 0
  },
  {
    "link_thumb": "https://live.staticflickr.com/65535/51552778187_dbed8618ac_n.jpg",
    "id_album": "-89234980",
    "description": "ANIME_PIC_9aa971a48b930105bd2ad0bbb017f5f0,[GirlsCuteCool],[isGirlAnime],[isCuteAnime],[isSadAnimeGirl],[isSadAnime]",
    "title": "ANIME_PIC_9aa971a48b930105bd2ad0bbb017f5f0",
    "link_img": "https://live.staticflickr.com/65535/51552778187_e5f9fa031f_o.jpg",
    "id_image": "ANIME_PIC_9aa971a48b930105bd2ad0bbb017f5f0",
    "count_view": 0
  },
  {
    "link_thumb": "https://live.staticflickr.com/65535/51554293074_da1441795b_n.jpg",
    "id_album": "-89234980",
    "description": "ANIME_PIC_9ab3c834dded57578d8cff3561526211,[GirlsCuteCool],[isGirlAnime],[isCuteAnime],[isGirlsLoliAnime]",
    "title": "ANIME_PIC_9ab3c834dded57578d8cff3561526211",
    "link_img": "https://live.staticflickr.com/65535/51554293074_92aa8a6761_o.jpg",
    "id_image": "ANIME_PIC_9ab3c834dded57578d8cff3561526211",
    "count_view": 0
  },
  {
    "link_thumb": "https://live.staticflickr.com/65535/51554493025_f25e392a75_n.jpg",
    "id_album": "-89234980",
    "description": "ANIME_PIC_9ab9fb065c29c1a803c0c570bb5f0f19,[GirlsCuteCool],[isGirlAnime],[isCuteAnime]",
    "title": "ANIME_PIC_9ab9fb065c29c1a803c0c570bb5f0f19",
    "link_img": "https://live.staticflickr.com/65535/51554493025_89ebcab74c_o.jpg",
    "id_image": "ANIME_PIC_9ab9fb065c29c1a803c0c570bb5f0f19",
    "count_view": 0
  },
  {
    "link_thumb": "https://live.staticflickr.com/65535/51553577651_87e897a878_n.jpg",
    "id_album": "-89234980",
    "description": "ANIME_PIC_9abdf36a7cf0972b314f0a8f9b98f865,[GirlsCuteCool],[isGirlAnime],[isCuteAnime],[isGirlsHatsHoodieAnime],[isGirlsLoliAnime]",
    "title": "ANIME_PIC_9abdf36a7cf0972b314f0a8f9b98f865",
    "link_img": "https://live.staticflickr.com/65535/51553577651_66161f5bba_o.jpg",
    "id_image": "ANIME_PIC_9abdf36a7cf0972b314f0a8f9b98f865",
    "count_view": 0
  },
  {
    "link_thumb": "https://live.staticflickr.com/65535/51553808573_fddc3bc122_n.jpg",
    "id_album": "-89234980",
    "description": "ANIME_PIC_9ac4d9b7c3e6d17aca09e392c513d908,[GirlsCuteCool],[isGirlAnime],[isCuteAnime],[isGirlsLoliAnime],[isSadAnimeGirl],[isSadAnime]",
    "title": "ANIME_PIC_9ac4d9b7c3e6d17aca09e392c513d908",
    "link_img": "https://live.staticflickr.com/65535/51553808573_639fba5b16_o.jpg",
    "id_image": "ANIME_PIC_9ac4d9b7c3e6d17aca09e392c513d908",
    "count_view": 0
  },
  {
    "link_thumb": "https://live.staticflickr.com/65535/51552779752_e8882b363c_n.jpg",
    "id_album": "-89234980",
    "description": "ANIME_PIC_9ac4e2591322cd4b21559a38782ed852,[GirlsCuteCool],[isGirlAnime],[isCuteAnime],[isGirlsLoliAnime],[isSadAnimeGirl],[isSadAnime]",
    "title": "ANIME_PIC_9ac4e2591322cd4b21559a38782ed852",
    "link_img": "https://live.staticflickr.com/65535/51552779752_6a7f1854cb_o.jpg",
    "id_image": "ANIME_PIC_9ac4e2591322cd4b21559a38782ed852",
    "count_view": 0
  },
  {
    "link_thumb": "https://live.staticflickr.com/65535/51554294714_240be70be3_n.jpg",
    "id_album": "-89234980",
    "description": "ANIME_PIC_9ac772df8011e0799ff5f8b1eed78b87,[GirlsCuteCool],[isGirlAnime],[isCuteAnime],[isGirlEarsNekoAnime]",
    "title": "ANIME_PIC_9ac772df8011e0799ff5f8b1eed78b87",
    "link_img": "https://live.staticflickr.com/65535/51554294714_f8b97237ae_o.jpg",
    "id_image": "ANIME_PIC_9ac772df8011e0799ff5f8b1eed78b87",
    "count_view": 0
  },
  {
    "link_thumb": "https://live.staticflickr.com/65535/51553578721_e377270b68_n.jpg",
    "id_album": "-89234980",
    "description": "ANIME_PIC_9ac80edb0fd5415fd90ce4f9ea5e0bb6,[GirlsCuteCool],[isGirlAnime],[isCuteAnime],[isGirlEarsNekoAnime],[isGirlsHatsHoodieAnime],[isGirlsLoliAnime]",
    "title": "ANIME_PIC_9ac80edb0fd5415fd90ce4f9ea5e0bb6",
    "link_img": "https://live.staticflickr.com/65535/51553578721_b7ebe065f8_o.jpg",
    "id_image": "ANIME_PIC_9ac80edb0fd5415fd90ce4f9ea5e0bb6",
    "count_view": 0
  },
  {
    "link_thumb": "https://live.staticflickr.com/65535/51553810538_ca5c522fca_n.jpg",
    "id_album": "-89234980",
    "description": "ANIME_PIC_9aca802a159d7f2e1962f5910bea0aa8,[GirlsCuteCool],[isGirlAnime],[isCuteAnime],[isGirlsLoliAnime]",
    "title": "ANIME_PIC_9aca802a159d7f2e1962f5910bea0aa8",
    "link_img": "https://live.staticflickr.com/65535/51553810538_22120f2d16_o.png",
    "id_image": "ANIME_PIC_9aca802a159d7f2e1962f5910bea0aa8",
    "count_view": 0
  },
  {
    "link_thumb": "https://live.staticflickr.com/65535/51552781902_de85fe9b77_n.jpg",
    "id_album": "-89234980",
    "description": "ANIME_PIC_9acdddf17eba759ab8ea2136195f5f42,[GirlsCuteCool],[isGirlAnime],[isCuteAnime],[isGirlsHatsHoodieAnime],[isSadAnimeGirl],[isSadAnime]",
    "title": "ANIME_PIC_9acdddf17eba759ab8ea2136195f5f42",
    "link_img": "https://live.staticflickr.com/65535/51552781902_50b59a6d37_o.jpg",
    "id_image": "ANIME_PIC_9acdddf17eba759ab8ea2136195f5f42",
    "count_view": 0
  },
  {
    "link_thumb": "https://live.staticflickr.com/65535/51554496560_4d4ba5dc2e_n.jpg",
    "id_album": "-89234980",
    "description": "ANIME_PIC_9ace3840614f46a06e4637086db78628,[GirlsCuteCool],[isGirlAnime],[isCuteAnime],[isGirlEarsNekoAnime],[isGirlsLoliAnime]",
    "title": "ANIME_PIC_9ace3840614f46a06e4637086db78628",
    "link_img": "https://live.staticflickr.com/65535/51554496560_9a16ba45ff_o.png",
    "id_image": "ANIME_PIC_9ace3840614f46a06e4637086db78628",
    "count_view": 0
  },
  {
    "link_thumb": "https://live.staticflickr.com/65535/51553581396_778478f2aa_n.jpg",
    "id_album": "-89234980",
    "description": "ANIME_PIC_9ae4d545f403b776d226692ab70663a4,[GirlsCuteCool],[isGirlAnime],[isCuteAnime],[isGirlsHatsHoodieAnime],[isGirlsLoliAnime]",
    "title": "ANIME_PIC_9ae4d545f403b776d226692ab70663a4",
    "link_img": "https://live.staticflickr.com/65535/51553581396_bea2e1fa2c_o.jpg",
    "id_image": "ANIME_PIC_9ae4d545f403b776d226692ab70663a4",
    "count_view": 0
  },
  {
    "link_thumb": "https://live.staticflickr.com/65535/51553812688_d338c12f7f_n.jpg",
    "id_album": "-89234980",
    "description": "ANIME_PIC_9ae6fb2499fa6eea5090dd7cd05ac9f5,[GirlsCuteCool],[isGirlAnime],[isCuteAnime]",
    "title": "ANIME_PIC_9ae6fb2499fa6eea5090dd7cd05ac9f5",
    "link_img": "https://live.staticflickr.com/65535/51553812688_5a69c80fde_o.png",
    "id_image": "ANIME_PIC_9ae6fb2499fa6eea5090dd7cd05ac9f5",
    "count_view": 0
  },
  {
    "link_thumb": "https://live.staticflickr.com/65535/51553582236_d24fc249cb_n.jpg",
    "id_album": "-89234980",
    "description": "ANIME_PIC_9aeaa0e0fc96589bd70cebc05de4d01e,[GirlsCuteCool],[isGirlAnime],[isCuteAnime]",
    "title": "ANIME_PIC_9aeaa0e0fc96589bd70cebc05de4d01e",
    "link_img": "https://live.staticflickr.com/65535/51553582236_8bfb04bdd2_o.jpg",
    "id_image": "ANIME_PIC_9aeaa0e0fc96589bd70cebc05de4d01e",
    "count_view": 0
  },
  {
    "link_thumb": "https://live.staticflickr.com/65535/51554498620_37de21e4b7_n.jpg",
    "id_album": "-89234980",
    "description": "ANIME_PIC_9aef5fb0af2746667cdf321cf02454bc,[GirlsCuteCool],[isGirlAnime],[isCuteAnime],[isGirlsHornsAnime],[isGirlsLoliAnime]",
    "title": "ANIME_PIC_9aef5fb0af2746667cdf321cf02454bc",
    "link_img": "https://live.staticflickr.com/65535/51554498620_d003a0b09e_o.jpg",
    "id_image": "ANIME_PIC_9aef5fb0af2746667cdf321cf02454bc",
    "count_view": 0
  },
  {
    "link_thumb": "https://live.staticflickr.com/65535/51554498935_a16fea27c9_n.jpg",
    "id_album": "-89234980",
    "description": "ANIME_PIC_9af1bfdacec1cb9bc2f8b839f08c3d42,[GirlsCuteCool],[isGirlAnime],[isCuteAnime],[isGirlsLoliAnime],[isSadAnimeGirl],[isSadAnime]",
    "title": "ANIME_PIC_9af1bfdacec1cb9bc2f8b839f08c3d42",
    "link_img": "https://live.staticflickr.com/65535/51554498935_229f7676a6_o.jpg",
    "id_image": "ANIME_PIC_9af1bfdacec1cb9bc2f8b839f08c3d42",
    "count_view": 0
  },
  {
    "link_thumb": "https://live.staticflickr.com/65535/51553814293_acf6871a2e_n.jpg",
    "id_album": "-89234980",
    "description": "ANIME_PIC_9af66bc314b2010a35a4a6e37ecade47,[GirlsCuteCool],[isGirlAnime],[isCuteAnime]",
    "title": "ANIME_PIC_9af66bc314b2010a35a4a6e37ecade47",
    "link_img": "https://live.staticflickr.com/65535/51553814293_9519b367a6_o.jpg",
    "id_image": "ANIME_PIC_9af66bc314b2010a35a4a6e37ecade47",
    "count_view": 0
  },
  {
    "link_thumb": "https://live.staticflickr.com/65535/51553583686_0e7395a1a8_n.jpg",
    "id_album": "-89234980",
    "description": "ANIME_PIC_9af9473d46865fbf3f453b01bcc39312,[GirlsCuteCool],[isGirlAnime],[isCuteAnime],[isGirlsLoliAnime]",
    "title": "ANIME_PIC_9af9473d46865fbf3f453b01bcc39312",
    "link_img": "https://live.staticflickr.com/65535/51553583686_fe2c26d458_o.png",
    "id_image": "ANIME_PIC_9af9473d46865fbf3f453b01bcc39312",
    "count_view": 0
  },
  {
    "link_thumb": "https://live.staticflickr.com/65535/51554300304_5a78dee0f0_n.jpg",
    "id_album": "-89234980",
    "description": "ANIME_PIC_9afb7da54fd437da6e1f0afe132df065,[GirlsCuteCool],[isGirlAnime],[isCuteAnime],[isGirlsHatsHoodieAnime]",
    "title": "ANIME_PIC_9afb7da54fd437da6e1f0afe132df065",
    "link_img": "https://live.staticflickr.com/65535/51554300304_328cb5b836_o.png",
    "id_image": "ANIME_PIC_9afb7da54fd437da6e1f0afe132df065",
    "count_view": 0
  },
  {
    "link_thumb": "https://live.staticflickr.com/65535/51553815763_01aa154838_n.jpg",
    "id_album": "-89234980",
    "description": "ANIME_PIC_9afcf113b99e5c64469138546919e19c,[GirlsCuteCool],[isGirlAnime],[isCuteAnime]",
    "title": "ANIME_PIC_9afcf113b99e5c64469138546919e19c",
    "link_img": "https://live.staticflickr.com/65535/51553815763_4de2de58c6_o.jpg",
    "id_image": "ANIME_PIC_9afcf113b99e5c64469138546919e19c",
    "count_view": 0
  },
  {
    "link_thumb": "https://live.staticflickr.com/65535/51553816193_036999a95d_n.jpg",
    "id_album": "-89234980",
    "description": "ANIME_PIC_9b0ca864d9955f3ca6ce97b4e667d845,[GirlsCuteCool],[isGirlAnime],[isCuteAnime],[isGirlsLoliAnime]",
    "title": "ANIME_PIC_9b0ca864d9955f3ca6ce97b4e667d845",
    "link_img": "https://live.staticflickr.com/65535/51553816193_595b9d59c6_o.jpg",
    "id_image": "ANIME_PIC_9b0ca864d9955f3ca6ce97b4e667d845",
    "count_view": 0
  },
  {
    "link_thumb": "https://live.staticflickr.com/65535/51552786907_ee893022af_n.jpg",
    "id_album": "-89234980",
    "description": "ANIME_PIC_9b1122a931a59b8ea4dd755be0872509,[GirlsCuteCool],[isGirlAnime],[isCuteAnime]",
    "title": "ANIME_PIC_9b1122a931a59b8ea4dd755be0872509",
    "link_img": "https://live.staticflickr.com/65535/51552786907_3164f039b8_o.jpg",
    "id_image": "ANIME_PIC_9b1122a931a59b8ea4dd755be0872509",
    "count_view": 0
  },
  {
    "link_thumb": "https://live.staticflickr.com/65535/51552787177_67c46ec676_n.jpg",
    "id_album": "-89234980",
    "description": "ANIME_PIC_9b12109630896977aed21f0dd9c4dfd7,[GirlsCuteCool],[isGirlAnime],[isCuteAnime],[isGirlEarsNekoAnime],[isGirlsLoliAnime]",
    "title": "ANIME_PIC_9b12109630896977aed21f0dd9c4dfd7",
    "link_img": "https://live.staticflickr.com/65535/51552787177_ecec1b351b_o.jpg",
    "id_image": "ANIME_PIC_9b12109630896977aed21f0dd9c4dfd7",
    "count_view": 0
  },
  {
    "link_thumb": "https://live.staticflickr.com/65535/51552787507_85a9d934f4_n.jpg",
    "id_album": "-89234980",
    "description": "ANIME_PIC_9b12899f2f48966d419bca4b9293957c,[GirlsCuteCool],[isGirlAnime],[isCuteAnime],[isGirlEarsNekoAnime],[isSadAnimeGirl],[isSadAnime]",
    "title": "ANIME_PIC_9b12899f2f48966d419bca4b9293957c",
    "link_img": "https://live.staticflickr.com/65535/51552787507_4a161a6cc0_o.jpg",
    "id_image": "ANIME_PIC_9b12899f2f48966d419bca4b9293957c",
    "count_view": 0
  },
  {
    "link_thumb": "https://live.staticflickr.com/65535/51553586381_cb7e714b56_n.jpg",
    "id_album": "-89234980",
    "description": "ANIME_PIC_9b1370de4060cb084ec3392a97fd38b5,[GirlsCuteCool],[isGirlAnime],[isCuteAnime],[isGirlsLoliAnime],[isSadAnimeGirl],[isSadAnime]",
    "title": "ANIME_PIC_9b1370de4060cb084ec3392a97fd38b5",
    "link_img": "https://live.staticflickr.com/65535/51553586381_4f60795333_o.jpg",
    "id_image": "ANIME_PIC_9b1370de4060cb084ec3392a97fd38b5",
    "count_view": 0
  },
  {
    "link_thumb": "https://live.staticflickr.com/65535/51553817883_012f51eb1e_n.jpg",
    "id_album": "-89234980",
    "description": "ANIME_PIC_9b13f781f5db06a52af2c12d0dc22ac9,[GirlsCuteCool],[isGirlAnime],[isCuteAnime],[isGirlsLoliAnime],[isSadAnimeGirl],[isSadAnime]",
    "title": "ANIME_PIC_9b13f781f5db06a52af2c12d0dc22ac9",
    "link_img": "https://live.staticflickr.com/65535/51553817883_23af53142f_o.jpg",
    "id_image": "ANIME_PIC_9b13f781f5db06a52af2c12d0dc22ac9",
    "count_view": 0
  },
  {
    "link_thumb": "https://live.staticflickr.com/65535/51552788517_154e940d8e_n.jpg",
    "id_album": "-89234980",
    "description": "ANIME_PIC_9b150162fad63cb7fadbd591f1777ff5,[GirlsCuteCool],[isGirlAnime],[isCuteAnime]",
    "title": "ANIME_PIC_9b150162fad63cb7fadbd591f1777ff5",
    "link_img": "https://live.staticflickr.com/65535/51552788517_6a6b4a0668_o.jpg",
    "id_image": "ANIME_PIC_9b150162fad63cb7fadbd591f1777ff5",
    "count_view": 0
  },
  {
    "link_thumb": "https://live.staticflickr.com/65535/51552788952_cf7225f404_n.jpg",
    "id_album": "-89234980",
    "description": "ANIME_PIC_9b151100e7a2c461b7e64cccc31e8853,[GirlsCuteCool],[isGirlAnime],[isCuteAnime],[isGirlsLoliAnime],[isSadAnimeGirl],[isSadAnime]",
    "title": "ANIME_PIC_9b151100e7a2c461b7e64cccc31e8853",
    "link_img": "https://live.staticflickr.com/65535/51552788952_f0b1b7301e_o.jpg",
    "id_image": "ANIME_PIC_9b151100e7a2c461b7e64cccc31e8853",
    "count_view": 0
  },
  {
    "link_thumb": "https://live.staticflickr.com/65535/51554503550_8763d3bb30_n.jpg",
    "id_album": "-89234980",
    "description": "ANIME_PIC_9b1568ee0d674b84d7dd5a90f502d842,[GirlsCuteCool],[isGirlAnime],[isCuteAnime]",
    "title": "ANIME_PIC_9b1568ee0d674b84d7dd5a90f502d842",
    "link_img": "https://live.staticflickr.com/65535/51554503550_f9e9c6932b_o.jpg",
    "id_image": "ANIME_PIC_9b1568ee0d674b84d7dd5a90f502d842",
    "count_view": 0
  },
  {
    "link_thumb": "https://live.staticflickr.com/65535/51553819403_14abbdac04_n.jpg",
    "id_album": "-89234980",
    "description": "ANIME_PIC_9b1808ed3213119158551ce3a600a452,[GirlsCuteCool],[isGirlAnime],[isCuteAnime],[isGirlsLoliAnime]",
    "title": "ANIME_PIC_9b1808ed3213119158551ce3a600a452",
    "link_img": "https://live.staticflickr.com/65535/51553819403_8ecf63e0f9_o.jpg",
    "id_image": "ANIME_PIC_9b1808ed3213119158551ce3a600a452",
    "count_view": 0
  },
  {
    "link_thumb": "https://live.staticflickr.com/65535/51554304324_d22157a431_n.jpg",
    "id_album": "-89234980",
    "description": "ANIME_PIC_9b199ee1ab85d624de6a51b5c50e75b7,[GirlsCuteCool],[isGirlAnime],[isCuteAnime]",
    "title": "ANIME_PIC_9b199ee1ab85d624de6a51b5c50e75b7",
    "link_img": "https://live.staticflickr.com/65535/51554304324_af73df15b4_o.jpg",
    "id_image": "ANIME_PIC_9b199ee1ab85d624de6a51b5c50e75b7",
    "count_view": 0
  },
  {
    "link_thumb": "https://live.staticflickr.com/65535/51553820263_67299a576e_n.jpg",
    "id_album": "-89234980",
    "description": "ANIME_PIC_9b1ce9a3c2e0b0397914964dc750cc1f,[GirlsCuteCool],[isGirlAnime],[isCuteAnime]",
    "title": "ANIME_PIC_9b1ce9a3c2e0b0397914964dc750cc1f",
    "link_img": "https://live.staticflickr.com/65535/51553820263_1b71e2da6a_o.png",
    "id_image": "ANIME_PIC_9b1ce9a3c2e0b0397914964dc750cc1f",
    "count_view": 0
  },
  {
    "link_thumb": "https://live.staticflickr.com/65535/51553589841_4137d49858_n.jpg",
    "id_album": "-89234980",
    "description": "ANIME_PIC_9b1e1264b2e06cf7919eade6c7e45e3e,[GirlsCuteCool],[isGirlAnime],[isCuteAnime]",
    "title": "ANIME_PIC_9b1e1264b2e06cf7919eade6c7e45e3e",
    "link_img": "https://live.staticflickr.com/65535/51553589841_2fde2c405a_o.png",
    "id_image": "ANIME_PIC_9b1e1264b2e06cf7919eade6c7e45e3e",
    "count_view": 0
  },
  {
    "link_thumb": "https://live.staticflickr.com/65535/51553590431_928118949d_n.jpg",
    "id_album": "-89234980",
    "description": "ANIME_PIC_9b1edc0d25cfbbab46208d0e2cde097a,[GirlsCuteCool],[isGirlAnime],[isCuteAnime],[isSadAnimeGirl],[isSadAnime]",
    "title": "ANIME_PIC_9b1edc0d25cfbbab46208d0e2cde097a",
    "link_img": "https://live.staticflickr.com/65535/51553590431_ac62765c99_o.jpg",
    "id_image": "ANIME_PIC_9b1edc0d25cfbbab46208d0e2cde097a",
    "count_view": 0
  },
  {
    "link_thumb": "https://live.staticflickr.com/65535/51553590746_15803a2c81_n.jpg",
    "id_album": "-89234980",
    "description": "ANIME_PIC_9b20537cab52de5df093861c8d809365,[GirlsCuteCool],[isGirlAnime],[isCuteAnime],[isGirlsHatsHoodieAnime],[isGirlsLoliAnime]",
    "title": "ANIME_PIC_9b20537cab52de5df093861c8d809365",
    "link_img": "https://live.staticflickr.com/65535/51553590746_22e372c63c_o.jpg",
    "id_image": "ANIME_PIC_9b20537cab52de5df093861c8d809365",
    "count_view": 0
  },
  {
    "link_thumb": "https://live.staticflickr.com/65535/51553821948_4474d7981a_n.jpg",
    "id_album": "-89234980",
    "description": "ANIME_PIC_9b20d95de02fd5c191dbf669127b166a,[GirlsCuteCool],[isGirlAnime],[isCuteAnime],[isGirlsLoliAnime]",
    "title": "ANIME_PIC_9b20d95de02fd5c191dbf669127b166a",
    "link_img": "https://live.staticflickr.com/65535/51553821948_945828df8c_o.jpg",
    "id_image": "ANIME_PIC_9b20d95de02fd5c191dbf669127b166a",
    "count_view": 0
  },
  {
    "link_thumb": "https://live.staticflickr.com/65535/51554306964_cd5a3e0843_n.jpg",
    "id_album": "-89234980",
    "description": "ANIME_PIC_9b214b15003e9877ed6688c17ddaf87d,[GirlsCuteCool],[isGirlAnime],[isCuteAnime],[isGirlEarsNekoAnime],[isGirlFaceMasksAnime],[isGirlsLoliAnime],[isSadAnimeGirl],[isSadAnime]",
    "title": "ANIME_PIC_9b214b15003e9877ed6688c17ddaf87d",
    "link_img": "https://live.staticflickr.com/65535/51554306964_f63e75ed4f_o.jpg",
    "id_image": "ANIME_PIC_9b214b15003e9877ed6688c17ddaf87d",
    "count_view": 0
  },
  {
    "link_thumb": "https://live.staticflickr.com/65535/51553822838_6e0165a9bc_n.jpg",
    "id_album": "-89234980",
    "description": "ANIME_PIC_9b25008e3a6afe0d593a7214215bf341,[GirlsCuteCool],[isGirlAnime],[isCuteAnime],[isGirlsLoliAnime]",
    "title": "ANIME_PIC_9b25008e3a6afe0d593a7214215bf341",
    "link_img": "https://live.staticflickr.com/65535/51553822838_6d72dee538_o.jpg",
    "id_image": "ANIME_PIC_9b25008e3a6afe0d593a7214215bf341",
    "count_view": 0
  },
  {
    "link_thumb": "https://live.staticflickr.com/65535/51553823323_4a26500ec7_n.jpg",
    "id_album": "-89234980",
    "description": "ANIME_PIC_9b2a17b67265d59961dfc3bf4a374aa6,[GirlsCuteCool],[isGirlAnime],[isCuteAnime],[isGirlsLoliAnime]",
    "title": "ANIME_PIC_9b2a17b67265d59961dfc3bf4a374aa6",
    "link_img": "https://live.staticflickr.com/65535/51553823323_0a452f3868_o.png",
    "id_image": "ANIME_PIC_9b2a17b67265d59961dfc3bf4a374aa6",
    "count_view": 0
  },
  {
    "link_thumb": "https://live.staticflickr.com/65535/51554308399_b97a6fe099_n.jpg",
    "id_album": "-89234980",
    "description": "ANIME_PIC_9b2c87b7b7b3d343ce90977f6dc6ced2,[GirlsCuteCool],[isGirlAnime],[isCuteAnime],[isGirlsHatsHoodieAnime],[isGirlsLoliAnime]",
    "title": "ANIME_PIC_9b2c87b7b7b3d343ce90977f6dc6ced2",
    "link_img": "https://live.staticflickr.com/65535/51554308399_f67fc29826_o.png",
    "id_image": "ANIME_PIC_9b2c87b7b7b3d343ce90977f6dc6ced2",
    "count_view": 0
  },
  {
    "link_thumb": "https://live.staticflickr.com/65535/51554508765_1321355aab_n.jpg",
    "id_album": "-89234980",
    "description": "ANIME_PIC_9b2ec89518fef9be3e0a05e0f6269261,[GirlsCuteCool],[isGirlAnime],[isCuteAnime],[isGirlsHatsHoodieAnime],[isGirlsLoliAnime]",
    "title": "ANIME_PIC_9b2ec89518fef9be3e0a05e0f6269261",
    "link_img": "https://live.staticflickr.com/65535/51554508765_23e77bf826_o.jpg",
    "id_image": "ANIME_PIC_9b2ec89518fef9be3e0a05e0f6269261",
    "count_view": 0
  },
  {
    "link_thumb": "https://live.staticflickr.com/65535/51553842553_c2e69cc368_n.jpg",
    "id_album": "-89234980",
    "description": "ANIME_PIC_9b3091a275a19bb4cded5cac320a77b2,[GirlsCuteCool],[isGirlAnime],[isCuteAnime],[isGirlEarsNekoAnime],[isGirlsHatsHoodieAnime]",
    "title": "ANIME_PIC_9b3091a275a19bb4cded5cac320a77b2",
    "link_img": "https://live.staticflickr.com/65535/51553842553_b5038c6925_o.jpg",
    "id_image": "ANIME_PIC_9b3091a275a19bb4cded5cac320a77b2",
    "count_view": 0
  },
  {
    "link_thumb": "https://live.staticflickr.com/65535/51553842878_107c46d958_n.jpg",
    "id_album": "-89234980",
    "description": "ANIME_PIC_9b3095ec88e1593b2daac40990f9b2fa,[GirlsCuteCool],[isGirlAnime],[isCuteAnime],[isGirlsLoliAnime],[isSadAnimeGirl],[isSadAnime]",
    "title": "ANIME_PIC_9b3095ec88e1593b2daac40990f9b2fa",
    "link_img": "https://live.staticflickr.com/65535/51553842878_c2d501765b_o.png",
    "id_image": "ANIME_PIC_9b3095ec88e1593b2daac40990f9b2fa",
    "count_view": 0
  },
  {
    "link_thumb": "https://live.staticflickr.com/65535/51554527950_747ecef1ea_n.jpg",
    "id_album": "-89234980",
    "description": "ANIME_PIC_9b344642c9c14f300d4a343e4280f9dc,[GirlsCuteCool],[isGirlAnime],[isCuteAnime],[isGirlEarsNekoAnime]",
    "title": "ANIME_PIC_9b344642c9c14f300d4a343e4280f9dc",
    "link_img": "https://live.staticflickr.com/65535/51554527950_2fc6ea38a2_o.png",
    "id_image": "ANIME_PIC_9b344642c9c14f300d4a343e4280f9dc",
    "count_view": 0
  },
  {
    "link_thumb": "https://live.staticflickr.com/65535/51552814242_212601c41e_n.jpg",
    "id_album": "-89234980",
    "description": "ANIME_PIC_9b37a919f4bec4ed5f2fef3b9551e063,[GirlsCuteCool],[isGirlAnime],[isCuteAnime],[isSadAnimeGirl],[isSadAnime]",
    "title": "ANIME_PIC_9b37a919f4bec4ed5f2fef3b9551e063",
    "link_img": "https://live.staticflickr.com/65535/51552814242_b5dc148321_o.jpg",
    "id_image": "ANIME_PIC_9b37a919f4bec4ed5f2fef3b9551e063",
    "count_view": 0
  },
  {
    "link_thumb": "https://live.staticflickr.com/65535/51552814662_1ab04ef3c4_n.jpg",
    "id_album": "-89234980",
    "description": "ANIME_PIC_9b38f0696f8a34123a71115c3439ff7c,[GirlsCuteCool],[isGirlAnime],[isCuteAnime],[isGirlsLoliAnime]",
    "title": "ANIME_PIC_9b38f0696f8a34123a71115c3439ff7c",
    "link_img": "https://live.staticflickr.com/65535/51552814662_457101486c_o.jpg",
    "id_image": "ANIME_PIC_9b38f0696f8a34123a71115c3439ff7c",
    "count_view": 0
  },
  {
    "link_thumb": "https://live.staticflickr.com/65535/51554329819_57c22bde60_n.jpg",
    "id_album": "-89234980",
    "description": "ANIME_PIC_9b3c16f14a9d65fb90cfa8061256d3e4,[GirlsCuteCool],[isGirlAnime],[isCuteAnime],[isGirlsLoliAnime]",
    "title": "ANIME_PIC_9b3c16f14a9d65fb90cfa8061256d3e4",
    "link_img": "https://live.staticflickr.com/65535/51554329819_2ea3439d2a_o.jpg",
    "id_image": "ANIME_PIC_9b3c16f14a9d65fb90cfa8061256d3e4",
    "count_view": 0
  },
  {
    "link_thumb": "https://live.staticflickr.com/65535/51554529690_a418e06367_n.jpg",
    "id_album": "-89234980",
    "description": "ANIME_PIC_9b3c651abdda78c0a093b456a3ab96d4,[GirlsCuteCool],[isGirlAnime],[isCuteAnime],[isGirlsHatsHoodieAnime],[isGirlsLoliAnime]",
    "title": "ANIME_PIC_9b3c651abdda78c0a093b456a3ab96d4",
    "link_img": "https://live.staticflickr.com/65535/51554529690_1c0d956567_o.jpg",
    "id_image": "ANIME_PIC_9b3c651abdda78c0a093b456a3ab96d4",
    "count_view": 0
  },
  {
    "link_thumb": "https://live.staticflickr.com/65535/51552815787_67434f9ffd_n.jpg",
    "id_album": "-89234980",
    "description": "ANIME_PIC_9b3e20bf0fa2f968f54db9f8a340a266,[GirlsCuteCool],[isGirlAnime],[isCuteAnime],[isGirlEarsNekoAnime],[isGirlsLoliAnime],[isSadAnimeGirl],[isSadAnime]",
    "title": "ANIME_PIC_9b3e20bf0fa2f968f54db9f8a340a266",
    "link_img": "https://live.staticflickr.com/65535/51552815787_6b5e66dc94_o.jpg",
    "id_image": "ANIME_PIC_9b3e20bf0fa2f968f54db9f8a340a266",
    "count_view": 0
  },
  {
    "link_thumb": "https://live.staticflickr.com/65535/51554530300_59a021440c_n.jpg",
    "id_album": "-89234980",
    "description": "ANIME_PIC_9b43e504466104e4e40b1eb374660b03,[GirlsCuteCool],[isGirlAnime],[isCuteAnime]",
    "title": "ANIME_PIC_9b43e504466104e4e40b1eb374660b03",
    "link_img": "https://live.staticflickr.com/65535/51554530300_dc4503835f_o.png",
    "id_image": "ANIME_PIC_9b43e504466104e4e40b1eb374660b03",
    "count_view": 0
  },
  {
    "link_thumb": "https://live.staticflickr.com/65535/51552816552_e0db90762a_n.jpg",
    "id_album": "-89234980",
    "description": "ANIME_PIC_9b485ad41f2043f0c0e29387026deb98,[GirlsCuteCool],[isGirlAnime],[isCuteAnime],[isGirlsHatsHoodieAnime],[isGirlsLoliAnime],[isSadAnimeGirl],[isGirlsSharpCanineToothAnime],[isSadAnime]",
    "title": "ANIME_PIC_9b485ad41f2043f0c0e29387026deb98",
    "link_img": "https://live.staticflickr.com/65535/51552816552_3d82b0ed16_o.jpg",
    "id_image": "ANIME_PIC_9b485ad41f2043f0c0e29387026deb98",
    "count_view": 0
  },
  {
    "link_thumb": "https://live.staticflickr.com/65535/51553615336_9ebcf84214_n.jpg",
    "id_album": "-89234980",
    "description": "ANIME_PIC_9b49f39c701848d87bb22ec0c408ea9a,[GirlsCuteCool],[isGirlAnime],[isCuteAnime],[isGirlsLoliAnime]",
    "title": "ANIME_PIC_9b49f39c701848d87bb22ec0c408ea9a",
    "link_img": "https://live.staticflickr.com/65535/51553615336_1134da5a39_o.png",
    "id_image": "ANIME_PIC_9b49f39c701848d87bb22ec0c408ea9a",
    "count_view": 0
  },
  {
    "link_thumb": "https://live.staticflickr.com/65535/51554531795_a82e32fb8f_n.jpg",
    "id_album": "-89234980",
    "description": "ANIME_PIC_9b4fbb12a573f87c66113eda6cfded93,[GirlsCuteCool],[isGirlAnime],[isCuteAnime],[isGirlsHatsHoodieAnime]",
    "title": "ANIME_PIC_9b4fbb12a573f87c66113eda6cfded93",
    "link_img": "https://live.staticflickr.com/65535/51554531795_2a8bb87a24_o.jpg",
    "id_image": "ANIME_PIC_9b4fbb12a573f87c66113eda6cfded93",
    "count_view": 0
  },
  {
    "link_thumb": "https://live.staticflickr.com/65535/51554332569_0ea2f330e7_n.jpg",
    "id_album": "-89234980",
    "description": "ANIME_PIC_9b52a346be24f676fbdd16880ca936ed,[GirlsCuteCool],[isGirlAnime],[isCuteAnime],[isGirlsLoliAnime]",
    "title": "ANIME_PIC_9b52a346be24f676fbdd16880ca936ed",
    "link_img": "https://live.staticflickr.com/65535/51554332569_59fe9e096f_o.png",
    "id_image": "ANIME_PIC_9b52a346be24f676fbdd16880ca936ed",
    "count_view": 0
  },
  {
    "link_thumb": "https://live.staticflickr.com/65535/51553616696_892af64194_n.jpg",
    "id_album": "-89234980",
    "description": "ANIME_PIC_9b52d5bcd2beb39fe9e4086784e565c0,[GirlsCuteCool],[isGirlAnime],[isCuteAnime],[isGirlsLoliAnime]",
    "title": "ANIME_PIC_9b52d5bcd2beb39fe9e4086784e565c0",
    "link_img": "https://live.staticflickr.com/65535/51553616696_2cb9d6204e_o.jpg",
    "id_image": "ANIME_PIC_9b52d5bcd2beb39fe9e4086784e565c0",
    "count_view": 0
  },
  {
    "link_thumb": "https://live.staticflickr.com/65535/51554333299_562eaece37_n.jpg",
    "id_album": "-89234980",
    "description": "ANIME_PIC_9b53c20f07a74dc4571044afd1f77e97,[GirlsCuteCool],[isGirlAnime],[isCuteAnime]",
    "title": "ANIME_PIC_9b53c20f07a74dc4571044afd1f77e97",
    "link_img": "https://live.staticflickr.com/65535/51554333299_d3673eccc0_o.jpg",
    "id_image": "ANIME_PIC_9b53c20f07a74dc4571044afd1f77e97",
    "count_view": 0
  },
  {
    "link_thumb": "https://live.staticflickr.com/65535/51554333684_a11ede7b64_n.jpg",
    "id_album": "-89234980",
    "description": "ANIME_PIC_9b58b8c34bc443ea866f99701c2e757e,[GirlsCuteCool],[isGirlAnime],[isCuteAnime]",
    "title": "ANIME_PIC_9b58b8c34bc443ea866f99701c2e757e",
    "link_img": "https://live.staticflickr.com/65535/51554333684_0169ecb70b_o.png",
    "id_image": "ANIME_PIC_9b58b8c34bc443ea866f99701c2e757e",
    "count_view": 0
  },
  {
    "link_thumb": "https://live.staticflickr.com/65535/51553849208_284726e3ff_n.jpg",
    "id_album": "-89234980",
    "description": "ANIME_PIC_9b5a887049d011813e63344edec797f7,[GirlsCuteCool],[isGirlAnime],[isCuteAnime],[isGirlEarsNekoAnime],[isGirlsLoliAnime],[isSadAnimeGirl],[isSadAnime]",
    "title": "ANIME_PIC_9b5a887049d011813e63344edec797f7",
    "link_img": "https://live.staticflickr.com/65535/51553849208_af4ac89dce_o.jpg",
    "id_image": "ANIME_PIC_9b5a887049d011813e63344edec797f7",
    "count_view": 0
  },
  {
    "link_thumb": "https://live.staticflickr.com/65535/51553849658_d14635f79a_n.jpg",
    "id_album": "-89234980",
    "description": "ANIME_PIC_9b5d16968321eff393fea8d735d69de3,[GirlsCuteCool],[isGirlAnime],[isCuteAnime],[isGirlEarsNekoAnime],[isGirlsLoliAnime]",
    "title": "ANIME_PIC_9b5d16968321eff393fea8d735d69de3",
    "link_img": "https://live.staticflickr.com/65535/51553849658_40e019bf9c_o.jpg",
    "id_image": "ANIME_PIC_9b5d16968321eff393fea8d735d69de3",
    "count_view": 0
  },
  {
    "link_thumb": "https://live.staticflickr.com/65535/51553618646_1871f7528a_n.jpg",
    "id_album": "-89234980",
    "description": "ANIME_PIC_9b610c2d8c632ed4fbc5fbd658482ec3,[GirlsCuteCool],[isGirlAnime],[isCuteAnime],[isSadAnimeGirl],[isSadAnime]",
    "title": "ANIME_PIC_9b610c2d8c632ed4fbc5fbd658482ec3",
    "link_img": "https://live.staticflickr.com/65535/51553618646_fccce6774a_o.jpg",
    "id_image": "ANIME_PIC_9b610c2d8c632ed4fbc5fbd658482ec3",
    "count_view": 0
  },
  {
    "link_thumb": "https://live.staticflickr.com/65535/51553850338_347db4b66d_n.jpg",
    "id_album": "-89234980",
    "description": "ANIME_PIC_9b645b4bda9a4d855849a3f11cb46834,[GirlsCuteCool],[isGirlAnime],[isCuteAnime]",
    "title": "ANIME_PIC_9b645b4bda9a4d855849a3f11cb46834",
    "link_img": "https://live.staticflickr.com/65535/51553850338_09a7bde4e8_o.jpg",
    "id_image": "ANIME_PIC_9b645b4bda9a4d855849a3f11cb46834",
    "count_view": 0
  },
  {
    "link_thumb": "https://live.staticflickr.com/65535/51554335509_e73c4e649d_n.jpg",
    "id_album": "-89234980",
    "description": "ANIME_PIC_9b65e0f557b08a72cf8671f6caa92ae5,[GirlsCuteCool],[isGirlAnime],[isCuteAnime],[isSadAnimeGirl],[isSadAnime]",
    "title": "ANIME_PIC_9b65e0f557b08a72cf8671f6caa92ae5",
    "link_img": "https://live.staticflickr.com/65535/51554335509_dc7010b449_o.png",
    "id_image": "ANIME_PIC_9b65e0f557b08a72cf8671f6caa92ae5",
    "count_view": 0
  },
  {
    "link_thumb": "https://live.staticflickr.com/65535/51553851093_93e0b0889a_n.jpg",
    "id_album": "-89234980",
    "description": "ANIME_PIC_9b6732461c30a289eb1f65982f204e7e,[GirlsCuteCool],[isGirlAnime],[isCuteAnime],[isGirlsHatsHoodieAnime],[isGirlsLoliAnime]",
    "title": "ANIME_PIC_9b6732461c30a289eb1f65982f204e7e",
    "link_img": "https://live.staticflickr.com/65535/51553851093_3155c45653_o.png",
    "id_image": "ANIME_PIC_9b6732461c30a289eb1f65982f204e7e",
    "count_view": 0
  },
  {
    "link_thumb": "https://live.staticflickr.com/65535/51552821907_6a59e9d792_n.jpg",
    "id_album": "-89234980",
    "description": "ANIME_PIC_9b698b045f6695b4fa85a29127a33e0e,[GirlsCuteCool],[isGirlAnime],[isCuteAnime],[isGirlEarsNekoAnime],[isGirlsLoliAnime]",
    "title": "ANIME_PIC_9b698b045f6695b4fa85a29127a33e0e",
    "link_img": "https://live.staticflickr.com/65535/51552821907_186e341c87_o.png",
    "id_image": "ANIME_PIC_9b698b045f6695b4fa85a29127a33e0e",
    "count_view": 0
  },
  {
    "link_thumb": "https://live.staticflickr.com/65535/49904975078_95508fe8e5_n.jpg",
    "id_album": "-89234980",
    "description": "ANIME_PIC_9b6dffa53a8769996140b47b7645924f,[isGirlAnime],[isCuteAnime],[Girls Cute Cool],[GirlsCuteCool],[isBlackAnime],[isGirlEarsNekoAnime]",
    "title": "ANIME_PIC_9b6dffa53a8769996140b47b7645924f",
    "link_img": "https://live.staticflickr.com/65535/49904975078_01ea5c5015_o.png",
    "id_image": "ANIME_PIC_9b6dffa53a8769996140b47b7645924f",
    "count_view": 0
  },
  {
    "link_thumb": "https://live.staticflickr.com/65535/51553620716_0c29a31138_n.jpg",
    "id_album": "-89234980",
    "description": "ANIME_PIC_9b73b319eb9ae05b8f347ef7c8d0810a,[GirlsCuteCool],[isGirlAnime],[isCuteAnime],[isGirlsLoliAnime]",
    "title": "ANIME_PIC_9b73b319eb9ae05b8f347ef7c8d0810a",
    "link_img": "https://live.staticflickr.com/65535/51553620716_817ababd19_o.jpg",
    "id_image": "ANIME_PIC_9b73b319eb9ae05b8f347ef7c8d0810a",
    "count_view": 0
  },
  {
    "link_thumb": "https://live.staticflickr.com/65535/51554537005_51fbc7b67a_n.jpg",
    "id_album": "-89234980",
    "description": "ANIME_PIC_9b74ad9dcc7407e94905677320766d2d,[GirlsCuteCool],[isGirlAnime],[isCuteAnime],[isGirlEarsNekoAnime],[isGirlsLoliAnime]",
    "title": "ANIME_PIC_9b74ad9dcc7407e94905677320766d2d",
    "link_img": "https://live.staticflickr.com/65535/51554537005_02afd28465_o.jpg",
    "id_image": "ANIME_PIC_9b74ad9dcc7407e94905677320766d2d",
    "count_view": 0
  },
  {
    "link_thumb": "https://live.staticflickr.com/65535/51553621381_5266fbd451_n.jpg",
    "id_album": "-89234980",
    "description": "ANIME_PIC_9b75cd62f82deff09f82e01bbfb7d5d1,[GirlsCuteCool],[isGirlAnime],[isCuteAnime]",
    "title": "ANIME_PIC_9b75cd62f82deff09f82e01bbfb7d5d1",
    "link_img": "https://live.staticflickr.com/65535/51553621381_37996b32f0_o.jpg",
    "id_image": "ANIME_PIC_9b75cd62f82deff09f82e01bbfb7d5d1",
    "count_view": 0
  },
  {
    "link_thumb": "https://live.staticflickr.com/65535/51553852918_5ccba4718f_n.jpg",
    "id_album": "-89234980",
    "description": "ANIME_PIC_9b76a34283f17c8fe48558e84763cbe4,[GirlsCuteCool],[isGirlAnime],[isCuteAnime],[isSadAnimeGirl],[isSadAnime]",
    "title": "ANIME_PIC_9b76a34283f17c8fe48558e84763cbe4",
    "link_img": "https://live.staticflickr.com/65535/51553852918_4c1eecc15c_o.png",
    "id_image": "ANIME_PIC_9b76a34283f17c8fe48558e84763cbe4",
    "count_view": 0
  },
  {
    "link_thumb": "https://live.staticflickr.com/65535/51552823812_32dbe6681d_n.jpg",
    "id_album": "-89234980",
    "description": "ANIME_PIC_9b7a27a532c58a06957b092893a9f6af,[GirlsCuteCool],[isGirlAnime],[isCuteAnime],[isSadAnimeGirl],[isSadAnime]",
    "title": "ANIME_PIC_9b7a27a532c58a06957b092893a9f6af",
    "link_img": "https://live.staticflickr.com/65535/51552823812_a1f6df32a0_o.jpg",
    "id_image": "ANIME_PIC_9b7a27a532c58a06957b092893a9f6af",
    "count_view": 0
  },
  {
    "link_thumb": "https://live.staticflickr.com/65535/51553853743_043d7a67e0_n.jpg",
    "id_album": "-89234980",
    "description": "ANIME_PIC_9b7a3fafa4c6d64be468dde9c4de4e9b,[GirlsCuteCool],[isGirlAnime],[isCuteAnime]",
    "title": "ANIME_PIC_9b7a3fafa4c6d64be468dde9c4de4e9b",
    "link_img": "https://live.staticflickr.com/65535/51553853743_9815c48021_o.jpg",
    "id_image": "ANIME_PIC_9b7a3fafa4c6d64be468dde9c4de4e9b",
    "count_view": 0
  },
  {
    "link_thumb": "https://live.staticflickr.com/65535/51554539075_ac351ed9fa_n.jpg",
    "id_album": "-89234980",
    "description": "ANIME_PIC_9b7b5493fb21f0c2aa91f115497b3afe,[GirlsCuteCool],[isGirlAnime],[isCuteAnime]",
    "title": "ANIME_PIC_9b7b5493fb21f0c2aa91f115497b3afe",
    "link_img": "https://live.staticflickr.com/65535/51554539075_1d1cf7aa7c_o.png",
    "id_image": "ANIME_PIC_9b7b5493fb21f0c2aa91f115497b3afe",
    "count_view": 0
  },
  {
    "link_thumb": "https://live.staticflickr.com/65535/51553854643_92cc131a2e_n.jpg",
    "id_album": "-89234980",
    "description": "ANIME_PIC_9b7b870c42e78044cf8cf8c19f2c8a4a,[GirlsCuteCool],[isGirlAnime],[isCuteAnime],[isGirlsLoliAnime]",
    "title": "ANIME_PIC_9b7b870c42e78044cf8cf8c19f2c8a4a",
    "link_img": "https://live.staticflickr.com/65535/51553854643_363f45ed2a_o.jpg",
    "id_image": "ANIME_PIC_9b7b870c42e78044cf8cf8c19f2c8a4a",
    "count_view": 0
  },
  {
    "link_thumb": "https://live.staticflickr.com/65535/51552825492_03e382b97d_n.jpg",
    "id_album": "-89234980",
    "description": "ANIME_PIC_9b7be04665ae32296bc7a2aa641849f6,[GirlsCuteCool],[isGirlAnime],[isCuteAnime]",
    "title": "ANIME_PIC_9b7be04665ae32296bc7a2aa641849f6",
    "link_img": "https://live.staticflickr.com/65535/51552825492_cbb336b328_o.jpg",
    "id_image": "ANIME_PIC_9b7be04665ae32296bc7a2aa641849f6",
    "count_view": 0
  },
  {
    "link_thumb": "https://live.staticflickr.com/65535/51553855523_93b48600e1_n.jpg",
    "id_album": "-89234980",
    "description": "ANIME_PIC_9b7c0bfd8d8f553e7a6c0ae587686a5e,[GirlsCuteCool],[isGirlAnime],[isCuteAnime],[isGirlsLoliAnime]",
    "title": "ANIME_PIC_9b7c0bfd8d8f553e7a6c0ae587686a5e",
    "link_img": "https://live.staticflickr.com/65535/51553855523_e11ce1b0a2_o.jpg",
    "id_image": "ANIME_PIC_9b7c0bfd8d8f553e7a6c0ae587686a5e",
    "count_view": 0
  },
  {
    "link_thumb": "https://live.staticflickr.com/65535/51554541150_cc0779fbba_n.jpg",
    "id_album": "-89234980",
    "description": "ANIME_PIC_9b7f3de08b4f1ade009f6fae7a99c5e4,[GirlsCuteCool],[isGirlAnime],[isCuteAnime]",
    "title": "ANIME_PIC_9b7f3de08b4f1ade009f6fae7a99c5e4",
    "link_img": "https://live.staticflickr.com/65535/51554541150_ced5774afc_o.jpg",
    "id_image": "ANIME_PIC_9b7f3de08b4f1ade009f6fae7a99c5e4",
    "count_view": 0
  },
  {
    "link_thumb": "https://live.staticflickr.com/65535/51553625141_b24e143028_n.jpg",
    "id_album": "-89234980",
    "description": "ANIME_PIC_9b81fffd005b1f3dad7f3549ef900801,[GirlsCuteCool],[isGirlAnime],[isCuteAnime],[isSadAnimeGirl],[isSadAnime]",
    "title": "ANIME_PIC_9b81fffd005b1f3dad7f3549ef900801",
    "link_img": "https://live.staticflickr.com/65535/51553625141_04538b612f_o.jpg",
    "id_image": "ANIME_PIC_9b81fffd005b1f3dad7f3549ef900801",
    "count_view": 0
  },
  {
    "link_thumb": "https://live.staticflickr.com/65535/51553625701_ae8501941a_n.jpg",
    "id_album": "-89234980",
    "description": "ANIME_PIC_9b83af727489409ebc409d6a458c5112,[GirlsCuteCool],[isGirlAnime],[isCuteAnime],[isGirlsLoliAnime]",
    "title": "ANIME_PIC_9b83af727489409ebc409d6a458c5112",
    "link_img": "https://live.staticflickr.com/65535/51553625701_97846b4015_o.jpg",
    "id_image": "ANIME_PIC_9b83af727489409ebc409d6a458c5112",
    "count_view": 0
  },
  {
    "link_thumb": "https://live.staticflickr.com/65535/51553857368_674169096d_n.jpg",
    "id_album": "-89234980",
    "description": "ANIME_PIC_9b85c38db14081d670cb149777cc32f9,[GirlsCuteCool],[isGirlAnime],[isCuteAnime],[isGirlsLoliAnime]",
    "title": "ANIME_PIC_9b85c38db14081d670cb149777cc32f9",
    "link_img": "https://live.staticflickr.com/65535/51553857368_2a2bfb0e5e_o.jpg",
    "id_image": "ANIME_PIC_9b85c38db14081d670cb149777cc32f9",
    "count_view": 0
  },
  {
    "link_thumb": "https://live.staticflickr.com/65535/51553857698_f356b75403_n.jpg",
    "id_album": "-89234980",
    "description": "ANIME_PIC_9b86184a8b2144a4db970a753b89f6be,[GirlsCuteCool],[isGirlAnime],[isCuteAnime],[isGirlsLoliAnime]",
    "title": "ANIME_PIC_9b86184a8b2144a4db970a753b89f6be",
    "link_img": "https://live.staticflickr.com/65535/51553857698_422c7aeb5e_o.png",
    "id_image": "ANIME_PIC_9b86184a8b2144a4db970a753b89f6be",
    "count_view": 0
  },
  {
    "link_thumb": "https://live.staticflickr.com/65535/51553858393_c492e4033c_n.jpg",
    "id_album": "-89234980",
    "description": "ANIME_PIC_9b8ef805a832e4134481255458ee3278,[GirlsCuteCool],[isGirlAnime],[isCuteAnime]",
    "title": "ANIME_PIC_9b8ef805a832e4134481255458ee3278",
    "link_img": "https://live.staticflickr.com/65535/51553858393_2686bbb4ec_o.jpg",
    "id_image": "ANIME_PIC_9b8ef805a832e4134481255458ee3278",
    "count_view": 0
  },
  {
    "link_thumb": "https://live.staticflickr.com/65535/51553627511_cce11cb7c4_n.jpg",
    "id_album": "-89234980",
    "description": "ANIME_PIC_9b90867024e26ce052e70fadb2e9f953,[GirlsCuteCool],[isGirlAnime],[isCuteAnime],[isGirlsHatsHoodieAnime]",
    "title": "ANIME_PIC_9b90867024e26ce052e70fadb2e9f953",
    "link_img": "https://live.staticflickr.com/65535/51553627511_f249d5e462_o.jpg",
    "id_image": "ANIME_PIC_9b90867024e26ce052e70fadb2e9f953",
    "count_view": 0
  },
  {
    "link_thumb": "https://live.staticflickr.com/65535/51554344474_dfe537c992_n.jpg",
    "id_album": "-89234980",
    "description": "ANIME_PIC_9b90a02bbbb34f1b98191243c0bd99ac,[GirlsCuteCool],[isGirlAnime],[isCuteAnime],[isGirlsHatsHoodieAnime],[isGirlsLoliAnime]",
    "title": "ANIME_PIC_9b90a02bbbb34f1b98191243c0bd99ac",
    "link_img": "https://live.staticflickr.com/65535/51554344474_f8654cdbc0_o.jpg",
    "id_image": "ANIME_PIC_9b90a02bbbb34f1b98191243c0bd99ac",
    "count_view": 0
  },
  {
    "link_thumb": "https://live.staticflickr.com/65535/51552829977_5a1017da92_n.jpg",
    "id_album": "-89234980",
    "description": "ANIME_PIC_9b926e9acb87d8982d75d3ffb2d283fb,[GirlsCuteCool],[isGirlAnime],[isCuteAnime]",
    "title": "ANIME_PIC_9b926e9acb87d8982d75d3ffb2d283fb",
    "link_img": "https://live.staticflickr.com/65535/51552829977_52e8e51420_o.jpg",
    "id_image": "ANIME_PIC_9b926e9acb87d8982d75d3ffb2d283fb",
    "count_view": 0
  },
  {
    "link_thumb": "https://live.staticflickr.com/65535/51553628576_08bb725403_n.jpg",
    "id_album": "-89234980",
    "description": "ANIME_PIC_9b95569623d995c81166163f3e46128e,[GirlsCuteCool],[isGirlAnime],[isCuteAnime],[isGirlsLoliAnime]",
    "title": "ANIME_PIC_9b95569623d995c81166163f3e46128e",
    "link_img": "https://live.staticflickr.com/65535/51553628576_ae6074129c_o.jpg",
    "id_image": "ANIME_PIC_9b95569623d995c81166163f3e46128e",
    "count_view": 0
  },
  {
    "link_thumb": "https://live.staticflickr.com/65535/51553628951_14b9cebd32_n.jpg",
    "id_album": "-89234980",
    "description": "ANIME_PIC_9b9ca96c62ab080e8c13f3016f5fbd8e,[GirlsCuteCool],[isGirlAnime],[isCuteAnime],[isSadAnimeGirl],[isSadAnime]",
    "title": "ANIME_PIC_9b9ca96c62ab080e8c13f3016f5fbd8e",
    "link_img": "https://live.staticflickr.com/65535/51553628951_894a901384_o.jpg",
    "id_image": "ANIME_PIC_9b9ca96c62ab080e8c13f3016f5fbd8e",
    "count_view": 0
  },
  {
    "link_thumb": "https://live.staticflickr.com/65535/51553629356_47b2ca5476_n.jpg",
    "id_album": "-89234980",
    "description": "ANIME_PIC_9b9fc76dde8692a1303aafe93aa3ae48,[GirlsCuteCool],[isGirlAnime],[isCuteAnime],[isGirlsHatsHoodieAnime],[isGirlsLoliAnime]",
    "title": "ANIME_PIC_9b9fc76dde8692a1303aafe93aa3ae48",
    "link_img": "https://live.staticflickr.com/65535/51553629356_c0298b006f_o.jpg",
    "id_image": "ANIME_PIC_9b9fc76dde8692a1303aafe93aa3ae48",
    "count_view": 0
  },
  {
    "link_thumb": "https://live.staticflickr.com/65535/51553629941_db73804044_n.jpg",
    "id_album": "-89234980",
    "description": "ANIME_PIC_9ba0bcb263d2ed4fb6bc0425ad8216d6,[GirlsCuteCool],[isGirlAnime],[isCuteAnime],[isGirlsLoliAnime]",
    "title": "ANIME_PIC_9ba0bcb263d2ed4fb6bc0425ad8216d6",
    "link_img": "https://live.staticflickr.com/65535/51553629941_c820646cba_o.png",
    "id_image": "ANIME_PIC_9ba0bcb263d2ed4fb6bc0425ad8216d6",
    "count_view": 0
  },
  {
    "link_thumb": "https://live.staticflickr.com/65535/51554547085_011c39498c_n.jpg",
    "id_album": "-89234980",
    "description": "ANIME_PIC_9ba788e6a15ebf1a740a74879e20385c,[GirlsCuteCool],[isGirlAnime],[isCuteAnime],[isGirlsLoliAnime],[isSadAnimeGirl],[isSadAnime]",
    "title": "ANIME_PIC_9ba788e6a15ebf1a740a74879e20385c",
    "link_img": "https://live.staticflickr.com/65535/51554547085_399256f36f_o.jpg",
    "id_image": "ANIME_PIC_9ba788e6a15ebf1a740a74879e20385c",
    "count_view": 0
  },
  {
    "link_thumb": "https://live.staticflickr.com/65535/49879241916_40f646c24d_n.jpg",
    "id_album": "-89234980",
    "description": "ANIME_PIC_9bab78aef049c11acd9fc289e3716f34,[isGirlAnime],[isCuteAnime],[Girls Cute Cool],[GirlsCuteCool]",
    "title": "ANIME_PIC_9bab78aef049c11acd9fc289e3716f34",
    "link_img": "https://live.staticflickr.com/65535/49879241916_cff7f37b77_o.png",
    "id_image": "ANIME_PIC_9bab78aef049c11acd9fc289e3716f34",
    "count_view": 0
  },
  {
    "link_thumb": "https://live.staticflickr.com/65535/51554347449_f92e1ab58e_n.jpg",
    "id_album": "-89234980",
    "description": "ANIME_PIC_9babe4f73ebaf219113f7f45cf1408ce,[GirlsCuteCool],[isGirlAnime],[isCuteAnime]",
    "title": "ANIME_PIC_9babe4f73ebaf219113f7f45cf1408ce",
    "link_img": "https://live.staticflickr.com/65535/51554347449_0114eb615e_o.png",
    "id_image": "ANIME_PIC_9babe4f73ebaf219113f7f45cf1408ce",
    "count_view": 0
  },
  {
    "link_thumb": "https://live.staticflickr.com/65535/51554547900_3f5f75917c_n.jpg",
    "id_album": "-89234980",
    "description": "ANIME_PIC_9bac7d9823f515f12628007b40c2d9ad,[GirlsCuteCool],[isGirlAnime],[isCuteAnime],[isGirlsLoliAnime]",
    "title": "ANIME_PIC_9bac7d9823f515f12628007b40c2d9ad",
    "link_img": "https://live.staticflickr.com/65535/51554547900_4b05ba1213_o.jpg",
    "id_image": "ANIME_PIC_9bac7d9823f515f12628007b40c2d9ad",
    "count_view": 0
  },
  {
    "link_thumb": "https://live.staticflickr.com/65535/51553631776_c105d8d9fe_n.jpg",
    "id_album": "-89234980",
    "description": "ANIME_PIC_9bb117d558821e6a0ef78587572e289a,[GirlsCuteCool],[isGirlAnime],[isCuteAnime],[isGirlsLoliAnime],[isSadAnimeGirl],[isSadAnime]",
    "title": "ANIME_PIC_9bb117d558821e6a0ef78587572e289a",
    "link_img": "https://live.staticflickr.com/65535/51553631776_86c5d13d77_o.jpg",
    "id_image": "ANIME_PIC_9bb117d558821e6a0ef78587572e289a",
    "count_view": 0
  },
  {
    "link_thumb": "https://live.staticflickr.com/65535/51554348499_6ca7335b0b_n.jpg",
    "id_album": "-89234980",
    "description": "ANIME_PIC_9bb26a034d6cc27b555a56bd47a74030,[GirlsCuteCool],[isGirlAnime],[isCuteAnime],[isGirlsLoliAnime]",
    "title": "ANIME_PIC_9bb26a034d6cc27b555a56bd47a74030",
    "link_img": "https://live.staticflickr.com/65535/51554348499_b0fdea04dc_o.jpg",
    "id_image": "ANIME_PIC_9bb26a034d6cc27b555a56bd47a74030",
    "count_view": 0
  },
  {
    "link_thumb": "https://live.staticflickr.com/65535/51554549055_89ce1de5fd_n.jpg",
    "id_album": "-89234980",
    "description": "ANIME_PIC_9bb30df1841a7f6cb6b4b2bd15809a44,[GirlsCuteCool],[isGirlAnime],[isCuteAnime],[isGirlsLoliAnime]",
    "title": "ANIME_PIC_9bb30df1841a7f6cb6b4b2bd15809a44",
    "link_img": "https://live.staticflickr.com/65535/51554549055_82156df117_o.jpg",
    "id_image": "ANIME_PIC_9bb30df1841a7f6cb6b4b2bd15809a44",
    "count_view": 0
  },
  {
    "link_thumb": "https://live.staticflickr.com/65535/51554349394_2d5d0f1f52_n.jpg",
    "id_album": "-89234980",
    "description": "ANIME_PIC_9bb5c3de872750e39b2f9fe3f39f9d9c,[GirlsCuteCool],[isGirlAnime],[isCuteAnime],[isGirlsHatsHoodieAnime],[isGirlsLoliAnime]",
    "title": "ANIME_PIC_9bb5c3de872750e39b2f9fe3f39f9d9c",
    "link_img": "https://live.staticflickr.com/65535/51554349394_67e7a761b0_o.jpg",
    "id_image": "ANIME_PIC_9bb5c3de872750e39b2f9fe3f39f9d9c",
    "count_view": 0
  },
  {
    "link_thumb": "https://live.staticflickr.com/65535/51552834837_4f9b0e6d19_n.jpg",
    "id_album": "-89234980",
    "description": "ANIME_PIC_9bb66b6a8b83a84e9847bd090247b9f4,[GirlsCuteCool],[isGirlAnime],[isCuteAnime],[isGirlsHatsHoodieAnime],[isGirlsLoliAnime]",
    "title": "ANIME_PIC_9bb66b6a8b83a84e9847bd090247b9f4",
    "link_img": "https://live.staticflickr.com/65535/51552834837_86ecdc601e_o.jpg",
    "id_image": "ANIME_PIC_9bb66b6a8b83a84e9847bd090247b9f4",
    "count_view": 0
  },
  {
    "link_thumb": "https://live.staticflickr.com/65535/51554349994_4a0567ddaa_n.jpg",
    "id_album": "-89234980",
    "description": "ANIME_PIC_9bb884f7352af0da9369ac2d7a614b69,[GirlsCuteCool],[isGirlAnime],[isCuteAnime],[isGirlsLoliAnime]",
    "title": "ANIME_PIC_9bb884f7352af0da9369ac2d7a614b69",
    "link_img": "https://live.staticflickr.com/65535/51554349994_029ac1afa4_o.jpg",
    "id_image": "ANIME_PIC_9bb884f7352af0da9369ac2d7a614b69",
    "count_view": 0
  },
  {
    "link_thumb": "https://live.staticflickr.com/65535/51553865323_86b0672235_n.jpg",
    "id_album": "-89234980",
    "description": "ANIME_PIC_9bb8de95a0ca03656e09659ff6f1d90a,[GirlsCuteCool],[isGirlAnime],[isCuteAnime],[isGirlFaceMasksAnime],[isGirlsLoliAnime]",
    "title": "ANIME_PIC_9bb8de95a0ca03656e09659ff6f1d90a",
    "link_img": "https://live.staticflickr.com/65535/51553865323_3b9743ca83_o.jpg",
    "id_image": "ANIME_PIC_9bb8de95a0ca03656e09659ff6f1d90a",
    "count_view": 0
  },
  {
    "link_thumb": "https://live.staticflickr.com/65535/51552836122_1b1e067fc0_n.jpg",
    "id_album": "-89234980",
    "description": "ANIME_PIC_9bb9b8e91f6214dcc35a17bfcaec3357,[GirlsCuteCool],[isGirlAnime],[isCuteAnime],[isGirlsLoliAnime],[isGirlsSharpCanineToothAnime]",
    "title": "ANIME_PIC_9bb9b8e91f6214dcc35a17bfcaec3357",
    "link_img": "https://live.staticflickr.com/65535/51552836122_4081dd6c49_o.png",
    "id_image": "ANIME_PIC_9bb9b8e91f6214dcc35a17bfcaec3357",
    "count_view": 0
  },
  {
    "link_thumb": "https://live.staticflickr.com/65535/51553866503_af69084c47_n.jpg",
    "id_album": "-89234980",
    "description": "ANIME_PIC_9bba569fd7cc05946faf00df875bcb4b,[GirlsCuteCool],[isGirlAnime],[isCuteAnime]",
    "title": "ANIME_PIC_9bba569fd7cc05946faf00df875bcb4b",
    "link_img": "https://live.staticflickr.com/65535/51553866503_32da2f4c58_o.png",
    "id_image": "ANIME_PIC_9bba569fd7cc05946faf00df875bcb4b",
    "count_view": 0
  },
  {
    "link_thumb": "https://live.staticflickr.com/65535/51553867123_6b066d0fcb_n.jpg",
    "id_album": "-89234980",
    "description": "ANIME_PIC_9bc0ae623967b7d65e2e32c6e276f38e,[GirlsCuteCool],[isGirlAnime],[isCuteAnime],[isGirlEarsNekoAnime],[isGirlsLoliAnime]",
    "title": "ANIME_PIC_9bc0ae623967b7d65e2e32c6e276f38e",
    "link_img": "https://live.staticflickr.com/65535/51553867123_7056e55604_o.jpg",
    "id_image": "ANIME_PIC_9bc0ae623967b7d65e2e32c6e276f38e",
    "count_view": 0
  },
  {
    "link_thumb": "https://live.staticflickr.com/65535/51552837677_02fb07428e_n.jpg",
    "id_album": "-89234980",
    "description": "ANIME_PIC_9bc0fc9c410dcd605673911e18b1ee33,[GirlsCuteCool],[isGirlAnime],[isCuteAnime],[isGirlsLoliAnime]",
    "title": "ANIME_PIC_9bc0fc9c410dcd605673911e18b1ee33",
    "link_img": "https://live.staticflickr.com/65535/51552837677_cc929845d5_o.jpg",
    "id_image": "ANIME_PIC_9bc0fc9c410dcd605673911e18b1ee33",
    "count_view": 0
  },
  {
    "link_thumb": "https://live.staticflickr.com/65535/51554352899_d9d18438b8_n.jpg",
    "id_album": "-89234980",
    "description": "ANIME_PIC_9bc12943dc358a640cfbd94b98408815,[GirlsCuteCool],[isGirlAnime],[isCuteAnime],[isGirlsLoliAnime],[isSadAnimeGirl],[isSadAnime]",
    "title": "ANIME_PIC_9bc12943dc358a640cfbd94b98408815",
    "link_img": "https://live.staticflickr.com/65535/51554352899_a20fe4eeda_o.png",
    "id_image": "ANIME_PIC_9bc12943dc358a640cfbd94b98408815",
    "count_view": 0
  },
  {
    "link_thumb": "https://live.staticflickr.com/65535/51553637021_8b3273a071_n.jpg",
    "id_album": "-89234980",
    "description": "ANIME_PIC_9bc53dd08db7e5069491c08e8dbc49fb,[GirlsCuteCool],[isGirlAnime],[isCuteAnime],[isGirlsHatsHoodieAnime],[isGirlsLoliAnime],[isSadAnimeGirl],[isSadAnime]",
    "title": "ANIME_PIC_9bc53dd08db7e5069491c08e8dbc49fb",
    "link_img": "https://live.staticflickr.com/65535/51553637021_1a739e34d6_o.jpg",
    "id_image": "ANIME_PIC_9bc53dd08db7e5069491c08e8dbc49fb",
    "count_view": 0
  },
  {
    "link_thumb": "https://live.staticflickr.com/65535/51553868858_deddd80c99_n.jpg",
    "id_album": "-89234980",
    "description": "ANIME_PIC_9bc883caa620c8d5473e4594850e14a1,[GirlsCuteCool],[isGirlAnime],[isCuteAnime],[isGirlsLoliAnime],[isSadAnimeGirl],[isSadAnime]",
    "title": "ANIME_PIC_9bc883caa620c8d5473e4594850e14a1",
    "link_img": "https://live.staticflickr.com/65535/51553868858_50da625940_o.jpg",
    "id_image": "ANIME_PIC_9bc883caa620c8d5473e4594850e14a1",
    "count_view": 0
  },
  {
    "link_thumb": "https://live.staticflickr.com/65535/51554554255_742e1cbea0_n.jpg",
    "id_album": "-89234980",
    "description": "ANIME_PIC_9bc98ae6bb791e3a21aca24313c31e3a,[GirlsCuteCool],[isGirlAnime],[isCuteAnime]",
    "title": "ANIME_PIC_9bc98ae6bb791e3a21aca24313c31e3a",
    "link_img": "https://live.staticflickr.com/65535/51554554255_fa6b3cbafc_o.jpg",
    "id_image": "ANIME_PIC_9bc98ae6bb791e3a21aca24313c31e3a",
    "count_view": 0
  },
  {
    "link_thumb": "https://live.staticflickr.com/65535/51553869423_8cc2c99d52_n.jpg",
    "id_album": "-89234980",
    "description": "ANIME_PIC_9bca70c56fa1583eaeb0377f5a308455,[GirlsCuteCool],[isGirlAnime],[isCuteAnime],[isGirlEarsNekoAnime],[isGirlsLoliAnime]",
    "title": "ANIME_PIC_9bca70c56fa1583eaeb0377f5a308455",
    "link_img": "https://live.staticflickr.com/65535/51553869423_8251e1e1f6_o.jpg",
    "id_image": "ANIME_PIC_9bca70c56fa1583eaeb0377f5a308455",
    "count_view": 0
  },
  {
    "link_thumb": "https://live.staticflickr.com/65535/51553638226_fda61d6b6c_n.jpg",
    "id_album": "-89234980",
    "description": "ANIME_PIC_9bcb483ec3d17bda343b8888833aa537,[GirlsCuteCool],[isGirlAnime],[isCuteAnime],[isGirlsLoliAnime],[isSadAnimeGirl],[isSadAnime]",
    "title": "ANIME_PIC_9bcb483ec3d17bda343b8888833aa537",
    "link_img": "https://live.staticflickr.com/65535/51553638226_3227e29169_o.png",
    "id_image": "ANIME_PIC_9bcb483ec3d17bda343b8888833aa537",
    "count_view": 0
  },
  {
    "link_thumb": "https://live.staticflickr.com/65535/51554355029_be10a70eae_n.jpg",
    "id_album": "-89234980",
    "description": "ANIME_PIC_9bcc50a3ea615673b07326bf8253ce2c,[GirlsCuteCool],[isGirlAnime],[isCuteAnime]",
    "title": "ANIME_PIC_9bcc50a3ea615673b07326bf8253ce2c",
    "link_img": "https://live.staticflickr.com/65535/51554355029_9d3051b425_o.jpg",
    "id_image": "ANIME_PIC_9bcc50a3ea615673b07326bf8253ce2c",
    "count_view": 0
  },
  {
    "link_thumb": "https://live.staticflickr.com/65535/51554355524_442f46b4e0_n.jpg",
    "id_album": "-89234980",
    "description": "ANIME_PIC_9bd03cdf92c92dfcebdc946f87b2b337,[GirlsCuteCool],[isGirlAnime],[isCuteAnime],[isGirlsLoliAnime]",
    "title": "ANIME_PIC_9bd03cdf92c92dfcebdc946f87b2b337",
    "link_img": "https://live.staticflickr.com/65535/51554355524_835a3fcd60_o.png",
    "id_image": "ANIME_PIC_9bd03cdf92c92dfcebdc946f87b2b337",
    "count_view": 0
  },
  {
    "link_thumb": "https://live.staticflickr.com/65535/51553871013_2aee55621d_n.jpg",
    "id_album": "-89234980",
    "description": "ANIME_PIC_9bd2c9123b5e10dfb5c608688727464d,[GirlsCuteCool],[isGirlAnime],[isCuteAnime],[isGirlsLoliAnime]",
    "title": "ANIME_PIC_9bd2c9123b5e10dfb5c608688727464d",
    "link_img": "https://live.staticflickr.com/65535/51553871013_eecac01cfc_o.png",
    "id_image": "ANIME_PIC_9bd2c9123b5e10dfb5c608688727464d",
    "count_view": 0
  },
  {
    "link_thumb": "https://live.staticflickr.com/65535/51552841897_295c383d4a_n.jpg",
    "id_album": "-89234980",
    "description": "ANIME_PIC_9bd3f5883c2658d2bd489136ef766844,[GirlsCuteCool],[isGirlAnime],[isCuteAnime],[isGirlsLoliAnime]",
    "title": "ANIME_PIC_9bd3f5883c2658d2bd489136ef766844",
    "link_img": "https://live.staticflickr.com/65535/51552841897_a1d1cc3a7e_o.jpg",
    "id_image": "ANIME_PIC_9bd3f5883c2658d2bd489136ef766844",
    "count_view": 0
  },
  {
    "link_thumb": "https://live.staticflickr.com/65535/51553640506_8345487647_n.jpg",
    "id_album": "-89234980",
    "description": "ANIME_PIC_9bd8fd128ef4242853eaf6e150ef0ab2,[GirlsCuteCool],[isGirlAnime],[isCuteAnime]",
    "title": "ANIME_PIC_9bd8fd128ef4242853eaf6e150ef0ab2",
    "link_img": "https://live.staticflickr.com/65535/51553640506_e9519b3113_o.png",
    "id_image": "ANIME_PIC_9bd8fd128ef4242853eaf6e150ef0ab2",
    "count_view": 0
  },
  {
    "link_thumb": "https://live.staticflickr.com/65535/51554557635_a384eb1ef6_n.jpg",
    "id_album": "-89234980",
    "description": "ANIME_PIC_9bda7acf69c5963f89b18e5cd8c0a1ea,[GirlsCuteCool],[isGirlAnime],[isCuteAnime]",
    "title": "ANIME_PIC_9bda7acf69c5963f89b18e5cd8c0a1ea",
    "link_img": "https://live.staticflickr.com/65535/51554557635_30a5d8a9e8_o.png",
    "id_image": "ANIME_PIC_9bda7acf69c5963f89b18e5cd8c0a1ea",
    "count_view": 0
  },
  {
    "link_thumb": "https://live.staticflickr.com/65535/51553641316_1daf128919_n.jpg",
    "id_album": "-89234980",
    "description": "ANIME_PIC_9bddde169319824a0aeead654a395c2b,[GirlsCuteCool],[isGirlAnime],[isCuteAnime]",
    "title": "ANIME_PIC_9bddde169319824a0aeead654a395c2b",
    "link_img": "https://live.staticflickr.com/65535/51553641316_68584b7861_o.png",
    "id_image": "ANIME_PIC_9bddde169319824a0aeead654a395c2b",
    "count_view": 0
  },
  {
    "link_thumb": "https://live.staticflickr.com/65535/51553873683_3f1879643c_n.jpg",
    "id_album": "-89234980",
    "description": "ANIME_PIC_9bdde46a4faf67fb2a52611fa3c13fd2,[GirlsCuteCool],[isGirlAnime],[isCuteAnime],[isGirlsHatsHoodieAnime],[isGirlsLoliAnime]",
    "title": "ANIME_PIC_9bdde46a4faf67fb2a52611fa3c13fd2",
    "link_img": "https://live.staticflickr.com/65535/51553873683_53689ac4ae_o.png",
    "id_image": "ANIME_PIC_9bdde46a4faf67fb2a52611fa3c13fd2",
    "count_view": 0
  },
  {
    "link_thumb": "https://live.staticflickr.com/65535/51553874533_104e2221b4_n.jpg",
    "id_album": "-89234980",
    "description": "ANIME_PIC_9bdf56bf3bff292d3a9f94ca11164609,[GirlsCuteCool],[isGirlAnime],[isCuteAnime],[isGirlFaceMasksAnime]",
    "title": "ANIME_PIC_9bdf56bf3bff292d3a9f94ca11164609",
    "link_img": "https://live.staticflickr.com/65535/51553874533_cc23068ca6_o.png",
    "id_image": "ANIME_PIC_9bdf56bf3bff292d3a9f94ca11164609",
    "count_view": 0
  },
  {
    "link_thumb": "https://live.staticflickr.com/65535/51552845362_72297e855f_n.jpg",
    "id_album": "-89234980",
    "description": "ANIME_PIC_9be151aecd13d003ffe687618d15b3b5,[GirlsCuteCool],[isGirlAnime],[isCuteAnime]",
    "title": "ANIME_PIC_9be151aecd13d003ffe687618d15b3b5",
    "link_img": "https://live.staticflickr.com/65535/51552845362_ec88e5ed4e_o.png",
    "id_image": "ANIME_PIC_9be151aecd13d003ffe687618d15b3b5",
    "count_view": 0
  },
  {
    "link_thumb": "https://live.staticflickr.com/65535/51553644071_dd71b04e3c_n.jpg",
    "id_album": "-89234980",
    "description": "ANIME_PIC_9be25291d286b70813004ce4edbaa00f,[GirlsCuteCool],[isGirlAnime],[isCuteAnime],[isGirlsLoliAnime]",
    "title": "ANIME_PIC_9be25291d286b70813004ce4edbaa00f",
    "link_img": "https://live.staticflickr.com/65535/51553644071_0d44f294d4_o.jpg",
    "id_image": "ANIME_PIC_9be25291d286b70813004ce4edbaa00f",
    "count_view": 0
  },
  {
    "link_thumb": "https://live.staticflickr.com/65535/51563862466_8aed89033f_n.jpg",
    "id_album": "-89234980",
    "description": "ANIME_PIC_9be4322b724bf5c800305dd387af9618,[GirlsCuteCool],[isGirlAnime],[isCuteAnime],[isGirlFaceMasksAnime],[isGirlsHatsHoodieAnime],[isGirlsLoliAnime]",
    "title": "ANIME_PIC_9be4322b724bf5c800305dd387af9618",
    "link_img": "https://live.staticflickr.com/65535/51563862466_7476b62cc9_o.png",
    "id_image": "ANIME_PIC_9be4322b724bf5c800305dd387af9618",
    "count_view": 0
  },
  {
    "link_thumb": "https://live.staticflickr.com/65535/51554361339_6ef154b238_n.jpg",
    "id_album": "-89234980",
    "description": "ANIME_PIC_9be9bc292846399689adc8711a2a762b,[GirlsCuteCool],[isGirlAnime],[isCuteAnime]",
    "title": "ANIME_PIC_9be9bc292846399689adc8711a2a762b",
    "link_img": "https://live.staticflickr.com/65535/51554361339_c62181fca6_o.jpg",
    "id_image": "ANIME_PIC_9be9bc292846399689adc8711a2a762b",
    "count_view": 0
  },
  {
    "link_thumb": "https://live.staticflickr.com/65535/51552846942_c760ac2c00_n.jpg",
    "id_album": "-89234980",
    "description": "ANIME_PIC_9beaa52a4613df16a0ab9850d33fd622,[GirlsCuteCool],[isGirlAnime],[isCuteAnime],[isGirlsLoliAnime],[isSadAnimeGirl],[isSadAnime]",
    "title": "ANIME_PIC_9beaa52a4613df16a0ab9850d33fd622",
    "link_img": "https://live.staticflickr.com/65535/51552846942_5f5e4a7ddb_o.jpg",
    "id_image": "ANIME_PIC_9beaa52a4613df16a0ab9850d33fd622",
    "count_view": 0
  },
  {
    "link_thumb": "https://live.staticflickr.com/65535/51554562070_a4ed6c7f63_n.jpg",
    "id_album": "-89234980",
    "description": "ANIME_PIC_9beb1ceb8c1ee9bf6082eb5335c02358,[GirlsCuteCool],[isGirlAnime],[isCuteAnime],[isGirlsLoliAnime]",
    "title": "ANIME_PIC_9beb1ceb8c1ee9bf6082eb5335c02358",
    "link_img": "https://live.staticflickr.com/65535/51554562070_eeafe70445_o.jpg",
    "id_image": "ANIME_PIC_9beb1ceb8c1ee9bf6082eb5335c02358",
    "count_view": 0
  },
  {
    "link_thumb": "https://live.staticflickr.com/65535/51553877323_9f31e8e105_n.jpg",
    "id_album": "-89234980",
    "description": "ANIME_PIC_9bebaad643f8220350b93c47bb8b9c64,[GirlsCuteCool],[isGirlAnime],[isCuteAnime],[isGirlsLoliAnime]",
    "title": "ANIME_PIC_9bebaad643f8220350b93c47bb8b9c64",
    "link_img": "https://live.staticflickr.com/65535/51553877323_5375be6ce7_o.jpg",
    "id_image": "ANIME_PIC_9bebaad643f8220350b93c47bb8b9c64",
    "count_view": 0
  },
  {
    "link_thumb": "https://live.staticflickr.com/65535/51554562680_1678684bb1_n.jpg",
    "id_album": "-89234980",
    "description": "ANIME_PIC_9bf0994a7ad7f5f103558b20e8f3342a,[GirlsCuteCool],[isGirlAnime],[isCuteAnime]",
    "title": "ANIME_PIC_9bf0994a7ad7f5f103558b20e8f3342a",
    "link_img": "https://live.staticflickr.com/65535/51554562680_68129e55cb_o.jpg",
    "id_image": "ANIME_PIC_9bf0994a7ad7f5f103558b20e8f3342a",
    "count_view": 0
  },
  {
    "link_thumb": "https://live.staticflickr.com/65535/51554562910_f1e5dfa045_n.jpg",
    "id_album": "-89234980",
    "description": "ANIME_PIC_9bf3092b2bd2fa65e523965fa77a84d5,[GirlsCuteCool],[isGirlAnime],[isCuteAnime],[isGirlsLoliAnime]",
    "title": "ANIME_PIC_9bf3092b2bd2fa65e523965fa77a84d5",
    "link_img": "https://live.staticflickr.com/65535/51554562910_2569646825_o.jpg",
    "id_image": "ANIME_PIC_9bf3092b2bd2fa65e523965fa77a84d5",
    "count_view": 0
  },
  {
    "link_thumb": "https://live.staticflickr.com/65535/51553646566_38dd8941f7_n.jpg",
    "id_album": "-89234980",
    "description": "ANIME_PIC_9bf9c06b31d592993efe5342bdc3774c,[GirlsCuteCool],[isGirlAnime],[isCuteAnime],[isSadAnimeGirl],[isSadAnime]",
    "title": "ANIME_PIC_9bf9c06b31d592993efe5342bdc3774c",
    "link_img": "https://live.staticflickr.com/65535/51553646566_2ef6a07a87_o.jpg",
    "id_image": "ANIME_PIC_9bf9c06b31d592993efe5342bdc3774c",
    "count_view": 0
  },
  {
    "link_thumb": "https://live.staticflickr.com/65535/51554363689_8fb7fac18a_n.jpg",
    "id_album": "-89234980",
    "description": "ANIME_PIC_9bfa923bd5474319e2da22b04633569b,[GirlsCuteCool],[isGirlAnime],[isCuteAnime],[isGirlsLoliAnime]",
    "title": "ANIME_PIC_9bfa923bd5474319e2da22b04633569b",
    "link_img": "https://live.staticflickr.com/65535/51554363689_8d596c3b70_o.jpg",
    "id_image": "ANIME_PIC_9bfa923bd5474319e2da22b04633569b",
    "count_view": 0
  },
  {
    "link_thumb": "https://live.staticflickr.com/65535/51552850227_bc1e97db8c_n.jpg",
    "id_album": "-89234980",
    "description": "ANIME_PIC_9bfbd6e2c7149b2c6f1dd23648d6c5ce,[GirlsCuteCool],[isGirlAnime],[isCuteAnime]",
    "title": "ANIME_PIC_9bfbd6e2c7149b2c6f1dd23648d6c5ce",
    "link_img": "https://live.staticflickr.com/65535/51552850227_fac3cf0ca2_o.png",
    "id_image": "ANIME_PIC_9bfbd6e2c7149b2c6f1dd23648d6c5ce",
    "count_view": 0
  },
  {
    "link_thumb": "https://live.staticflickr.com/65535/51554566390_10a03a7664_n.jpg",
    "id_album": "-89234980",
    "description": "ANIME_PIC_9bfd7ed29500fadd68011ebcaf2f7b47,[GirlsCuteCool],[isGirlAnime],[isCuteAnime],[isGirlsHatsHoodieAnime]",
    "title": "ANIME_PIC_9bfd7ed29500fadd68011ebcaf2f7b47",
    "link_img": "https://live.staticflickr.com/65535/51554566390_497d358ce7_o.jpg",
    "id_image": "ANIME_PIC_9bfd7ed29500fadd68011ebcaf2f7b47",
    "count_view": 0
  },
  {
    "link_thumb": "https://live.staticflickr.com/65535/51554566925_5d3745ccff_n.jpg",
    "id_album": "-89234980",
    "description": "ANIME_PIC_9bfe2290e8ded337df958c7a1967504e,[GirlsCuteCool],[isGirlAnime],[isCuteAnime],[isGirlFaceMasksAnime],[isGirlsLoliAnime]",
    "title": "ANIME_PIC_9bfe2290e8ded337df958c7a1967504e",
    "link_img": "https://live.staticflickr.com/65535/51554566925_42b6be791e_o.png",
    "id_image": "ANIME_PIC_9bfe2290e8ded337df958c7a1967504e",
    "count_view": 0
  },
  {
    "link_thumb": "https://live.staticflickr.com/65535/51554366914_2cf19a190c_n.jpg",
    "id_album": "-89234980",
    "description": "ANIME_PIC_9bfec95f664c88ca0e5133806a851d9e,[GirlsCuteCool],[isGirlAnime],[isCuteAnime]",
    "title": "ANIME_PIC_9bfec95f664c88ca0e5133806a851d9e",
    "link_img": "https://live.staticflickr.com/65535/51554366914_563551e298_o.png",
    "id_image": "ANIME_PIC_9bfec95f664c88ca0e5133806a851d9e",
    "count_view": 0
  },
  {
    "link_thumb": "https://live.staticflickr.com/65535/51553650766_3b40aff5f4_n.jpg",
    "id_album": "-89234980",
    "description": "ANIME_PIC_9c051a47797b795a3bc4dfe01f9957cb,[GirlsCuteCool],[isGirlAnime],[isCuteAnime],[isSadAnimeGirl],[isSadAnime]",
    "title": "ANIME_PIC_9c051a47797b795a3bc4dfe01f9957cb",
    "link_img": "https://live.staticflickr.com/65535/51553650766_84058141f5_o.jpg",
    "id_image": "ANIME_PIC_9c051a47797b795a3bc4dfe01f9957cb",
    "count_view": 0
  },
  {
    "link_thumb": "https://live.staticflickr.com/65535/51553651126_10bf1926e4_n.jpg",
    "id_album": "-89234980",
    "description": "ANIME_PIC_9c0704fd22abd248feafc7a56bda03b6,[GirlsCuteCool],[isGirlAnime],[isCuteAnime],[isGirlsLoliAnime]",
    "title": "ANIME_PIC_9c0704fd22abd248feafc7a56bda03b6",
    "link_img": "https://live.staticflickr.com/65535/51553651126_87a3f7a499_o.jpg",
    "id_image": "ANIME_PIC_9c0704fd22abd248feafc7a56bda03b6",
    "count_view": 0
  },
  {
    "link_thumb": "https://live.staticflickr.com/65535/51553883238_1aa306f1ac_n.jpg",
    "id_album": "-89234980",
    "description": "ANIME_PIC_9c0877ab437b454cb34adeab08bd23a5,[GirlsCuteCool],[isGirlAnime],[isCuteAnime]",
    "title": "ANIME_PIC_9c0877ab437b454cb34adeab08bd23a5",
    "link_img": "https://live.staticflickr.com/65535/51553883238_9735638d98_o.jpg",
    "id_image": "ANIME_PIC_9c0877ab437b454cb34adeab08bd23a5",
    "count_view": 0
  },
  {
    "link_thumb": "https://live.staticflickr.com/65535/51564795580_aa3da2fc4e_n.jpg",
    "id_album": "-89234980",
    "description": "ANIME_PIC_9c09d36842ee43aa48fb091176fb33c0,[GirlsCuteCool],[isGirlAnime],[isCuteAnime],[isGirlsHatsHoodieAnime],[isGirlsLoliAnime]",
    "title": "ANIME_PIC_9c09d36842ee43aa48fb091176fb33c0",
    "link_img": "https://live.staticflickr.com/65535/51564795580_a161556549_o.jpg",
    "id_image": "ANIME_PIC_9c09d36842ee43aa48fb091176fb33c0",
    "count_view": 0
  },
  {
    "link_thumb": "https://live.staticflickr.com/65535/51552856697_0910ac855c_n.jpg",
    "id_album": "-89234980",
    "description": "ANIME_PIC_9c09e4262cf6d34bc825e1515dea7244,[GirlsCuteCool],[isGirlAnime],[isCuteAnime],[isGirlsLoliAnime]",
    "title": "ANIME_PIC_9c09e4262cf6d34bc825e1515dea7244",
    "link_img": "https://live.staticflickr.com/65535/51552856697_2bbc0c3bfe_o.jpg",
    "id_image": "ANIME_PIC_9c09e4262cf6d34bc825e1515dea7244",
    "count_view": 0
  },
  {
    "link_thumb": "https://live.staticflickr.com/65535/51554571970_2d42e39566_n.jpg",
    "id_album": "-89234980",
    "description": "ANIME_PIC_9c0aa60199f5ef3f8fd16c5d32ee6409,[GirlsCuteCool],[isGirlAnime],[isCuteAnime],[isGirlsLoliAnime]",
    "title": "ANIME_PIC_9c0aa60199f5ef3f8fd16c5d32ee6409",
    "link_img": "https://live.staticflickr.com/65535/51554571970_fe58500a55_o.png",
    "id_image": "ANIME_PIC_9c0aa60199f5ef3f8fd16c5d32ee6409",
    "count_view": 0
  },
  {
    "link_thumb": "https://live.staticflickr.com/65535/51553887738_dbffeed822_n.jpg",
    "id_album": "-89234980",
    "description": "ANIME_PIC_9c102e00ae67f1cb03c4145d4b94021f,[GirlsCuteCool],[isGirlAnime],[isCuteAnime]",
    "title": "ANIME_PIC_9c102e00ae67f1cb03c4145d4b94021f",
    "link_img": "https://live.staticflickr.com/65535/51553887738_4c5f96a28c_o.jpg",
    "id_image": "ANIME_PIC_9c102e00ae67f1cb03c4145d4b94021f",
    "count_view": 0
  },
  {
    "link_thumb": "https://live.staticflickr.com/65535/51553888078_bb5046640c_n.jpg",
    "id_album": "-89234980",
    "description": "ANIME_PIC_9c11cdc5d565ede489cdd8c4f51f78fb,[GirlsCuteCool],[isGirlAnime],[isCuteAnime],[isGirlsLoliAnime]",
    "title": "ANIME_PIC_9c11cdc5d565ede489cdd8c4f51f78fb",
    "link_img": "https://live.staticflickr.com/65535/51553888078_149cfec4c4_o.jpg",
    "id_image": "ANIME_PIC_9c11cdc5d565ede489cdd8c4f51f78fb",
    "count_view": 0
  },
  {
    "link_thumb": "https://live.staticflickr.com/65535/51554373144_5db4abf42f_n.jpg",
    "id_album": "-89234980",
    "description": "ANIME_PIC_9c150ec7fed193b0f293a16ed6908fc7,[GirlsCuteCool],[isBoyAnime],[isGirlAnime],[isCuteAnime]",
    "title": "ANIME_PIC_9c150ec7fed193b0f293a16ed6908fc7",
    "link_img": "https://live.staticflickr.com/65535/51554373144_40027d92f6_o.jpg",
    "id_image": "ANIME_PIC_9c150ec7fed193b0f293a16ed6908fc7",
    "count_view": 0
  },
  {
    "link_thumb": "https://live.staticflickr.com/65535/51554573495_5b55df0fdf_n.jpg",
    "id_album": "-89234980",
    "description": "ANIME_PIC_9c163aa1e52807354d0aa5e96531ead9,[GirlsCuteCool],[isGirlAnime],[isCuteAnime]",
    "title": "ANIME_PIC_9c163aa1e52807354d0aa5e96531ead9",
    "link_img": "https://live.staticflickr.com/65535/51554573495_328fe544dd_o.jpg",
    "id_image": "ANIME_PIC_9c163aa1e52807354d0aa5e96531ead9",
    "count_view": 0
  },
  {
    "link_thumb": "https://live.staticflickr.com/65535/51554573785_12f700456e_n.jpg",
    "id_album": "-89234980",
    "description": "ANIME_PIC_9c1788cfc90d1079422dec8cb67ec0a6,[GirlsCuteCool],[isGirlAnime],[isCuteAnime],[isSadAnimeGirl],[isSadAnime]",
    "title": "ANIME_PIC_9c1788cfc90d1079422dec8cb67ec0a6",
    "link_img": "https://live.staticflickr.com/65535/51554573785_d709d055f3_o.jpg",
    "id_image": "ANIME_PIC_9c1788cfc90d1079422dec8cb67ec0a6",
    "count_view": 0
  },
  {
    "link_thumb": "https://live.staticflickr.com/65535/51554374134_558e355b2b_n.jpg",
    "id_album": "-89234980",
    "description": "ANIME_PIC_9c18e22972bf61f080b9f2368f1d89d3,[GirlsCuteCool],[isBoyAnime],[isCoupleAnime],[isGirlAnime],[isCuteAnime]",
    "title": "ANIME_PIC_9c18e22972bf61f080b9f2368f1d89d3",
    "link_img": "https://live.staticflickr.com/65535/51554374134_30f58c540f_o.jpg",
    "id_image": "ANIME_PIC_9c18e22972bf61f080b9f2368f1d89d3",
    "count_view": 0
  },
  {
    "link_thumb": "https://live.staticflickr.com/65535/51563071787_1699d0ecc3_n.jpg",
    "id_album": "-89234980",
    "description": "ANIME_PIC_9c1cb64bdcfa7389986650d7f9ec5fd3,[GirlsCuteCool],[isGirlAnime],[isCuteAnime]",
    "title": "ANIME_PIC_9c1cb64bdcfa7389986650d7f9ec5fd3",
    "link_img": "https://live.staticflickr.com/65535/51563071787_1ea64de049_o.jpg",
    "id_image": "ANIME_PIC_9c1cb64bdcfa7389986650d7f9ec5fd3",
    "count_view": 0
  },
  {
    "link_thumb": "https://live.staticflickr.com/65535/51554577450_4682cd6a9a_n.jpg",
    "id_album": "-89234980",
    "description": "ANIME_PIC_9c1d5440ae87318ca2e547af4c53c090,[GirlsCuteCool],[isGirlAnime],[isCuteAnime],[isGirlEarsNekoAnime],[isGirlsLoliAnime],[isSadAnimeGirl],[isSadAnime]",
    "title": "ANIME_PIC_9c1d5440ae87318ca2e547af4c53c090",
    "link_img": "https://live.staticflickr.com/65535/51554577450_fb4b2b18e5_o.jpg",
    "id_image": "ANIME_PIC_9c1d5440ae87318ca2e547af4c53c090",
    "count_view": 0
  },
  {
    "link_thumb": "https://live.staticflickr.com/65535/51553660621_fe036f4386_n.jpg",
    "id_album": "-89234980",
    "description": "ANIME_PIC_9c1efa9c160c1dd7d109db394be90fd5,[GirlsCuteCool],[isGirlAnime],[isCuteAnime],[isGirlsLoliAnime]",
    "title": "ANIME_PIC_9c1efa9c160c1dd7d109db394be90fd5",
    "link_img": "https://live.staticflickr.com/65535/51553660621_3f83f3a105_o.jpg",
    "id_image": "ANIME_PIC_9c1efa9c160c1dd7d109db394be90fd5",
    "count_view": 0
  },
  {
    "link_thumb": "https://live.staticflickr.com/65535/51552864177_7b7b8044ca_n.jpg",
    "id_album": "-89234980",
    "description": "ANIME_PIC_9c1fd3ea33dbde0cdd99519f19fa79bf,[GirlsCuteCool],[isGirlAnime],[isCuteAnime],[isGirlEarsNekoAnime],[isGirlsHatsHoodieAnime],[isGirlsLoliAnime],[isSadAnimeGirl],[isSadAnime]",
    "title": "ANIME_PIC_9c1fd3ea33dbde0cdd99519f19fa79bf",
    "link_img": "https://live.staticflickr.com/65535/51552864177_dcdc8a7e30_o.png",
    "id_image": "ANIME_PIC_9c1fd3ea33dbde0cdd99519f19fa79bf",
    "count_view": 0
  },
  {
    "link_thumb": "https://live.staticflickr.com/65535/51552865137_2c35f2a9b3_n.jpg",
    "id_album": "-89234980",
    "description": "ANIME_PIC_9c29d86de9043326ab52c7052b388f15,[GirlsCuteCool],[isGirlAnime],[isCuteAnime],[isSadAnimeGirl],[isSadAnime]",
    "title": "ANIME_PIC_9c29d86de9043326ab52c7052b388f15",
    "link_img": "https://live.staticflickr.com/65535/51552865137_84cce8e02d_o.png",
    "id_image": "ANIME_PIC_9c29d86de9043326ab52c7052b388f15",
    "count_view": 0
  },
  {
    "link_thumb": "https://live.staticflickr.com/65535/51553663301_308f935747_n.jpg",
    "id_album": "-89234980",
    "description": "ANIME_PIC_9c2b4efab7b8cfa9ec44ce88daf00b4d,[GirlsCuteCool],[isGirlAnime],[isCuteAnime],[isGirlsLoliAnime]",
    "title": "ANIME_PIC_9c2b4efab7b8cfa9ec44ce88daf00b4d",
    "link_img": "https://live.staticflickr.com/65535/51553663301_3157b3aa34_o.jpg",
    "id_image": "ANIME_PIC_9c2b4efab7b8cfa9ec44ce88daf00b4d",
    "count_view": 0
  },
  {
    "link_thumb": "https://live.staticflickr.com/65535/51553895918_b046d63bf9_n.jpg",
    "id_album": "-89234980",
    "description": "ANIME_PIC_9c2becaf34d5f951b17e70b6b1a098d4,[GirlsCuteCool],[isGirlAnime],[isCuteAnime],[isGirlsHatsHoodieAnime]",
    "title": "ANIME_PIC_9c2becaf34d5f951b17e70b6b1a098d4",
    "link_img": "https://live.staticflickr.com/65535/51553895918_31e2c9821e_o.jpg",
    "id_image": "ANIME_PIC_9c2becaf34d5f951b17e70b6b1a098d4",
    "count_view": 0
  },
  {
    "link_thumb": "https://live.staticflickr.com/65535/51553664251_19772d137c_n.jpg",
    "id_album": "-89234980",
    "description": "ANIME_PIC_9c35ae180976446260de224623638c86,[GirlsCuteCool],[isGirlAnime],[isCuteAnime],[isGirlsLoliAnime],[isSadAnimeGirl],[isSadAnime]",
    "title": "ANIME_PIC_9c35ae180976446260de224623638c86",
    "link_img": "https://live.staticflickr.com/65535/51553664251_091db57f98_o.jpg",
    "id_image": "ANIME_PIC_9c35ae180976446260de224623638c86",
    "count_view": 0
  },
  {
    "link_thumb": "https://live.staticflickr.com/65535/51552866847_27784137d0_n.jpg",
    "id_album": "-89234980",
    "description": "ANIME_PIC_9c37712c957ea409c9ddb68bd02b8127,[GirlsCuteCool],[isGirlAnime],[isCuteAnime],[isGirlEarsNekoAnime],[isGirlsHatsHoodieAnime],[isGirlsLoliAnime]",
    "title": "ANIME_PIC_9c37712c957ea409c9ddb68bd02b8127",
    "link_img": "https://live.staticflickr.com/65535/51552866847_da5c39e0eb_o.jpg",
    "id_image": "ANIME_PIC_9c37712c957ea409c9ddb68bd02b8127",
    "count_view": 0
  },
  {
    "link_thumb": "https://live.staticflickr.com/65535/51554382264_c4e0306daf_n.jpg",
    "id_album": "-89234980",
    "description": "ANIME_PIC_9c37bc8eee21f5bf7f90b28924356df9,[GirlsCuteCool],[isGirlAnime],[isCuteAnime],[isGirlsLoliAnime]",
    "title": "ANIME_PIC_9c37bc8eee21f5bf7f90b28924356df9",
    "link_img": "https://live.staticflickr.com/65535/51554382264_978cc34e75_o.png",
    "id_image": "ANIME_PIC_9c37bc8eee21f5bf7f90b28924356df9",
    "count_view": 0
  },
  {
    "link_thumb": "https://live.staticflickr.com/65535/51553666746_5148ea32aa_n.jpg",
    "id_album": "-89234980",
    "description": "ANIME_PIC_9c3b867e4dc138291e8c5ccdd158b5d9,[GirlsCuteCool],[isGirlAnime],[isCuteAnime],[isGirlsLoliAnime]",
    "title": "ANIME_PIC_9c3b867e4dc138291e8c5ccdd158b5d9",
    "link_img": "https://live.staticflickr.com/65535/51553666746_9e6fee0e0a_o.png",
    "id_image": "ANIME_PIC_9c3b867e4dc138291e8c5ccdd158b5d9",
    "count_view": 0
  },
  {
    "link_thumb": "https://live.staticflickr.com/65535/51554384164_4f47e42bdc_n.jpg",
    "id_album": "-89234980",
    "description": "ANIME_PIC_9c3bbe8e934af2a4e2c9611c0f19cdd1,[GirlsCuteCool],[isGirlAnime],[isCuteAnime],[isGirlEarsNekoAnime]",
    "title": "ANIME_PIC_9c3bbe8e934af2a4e2c9611c0f19cdd1",
    "link_img": "https://live.staticflickr.com/65535/51554384164_e0feb62bd2_o.jpg",
    "id_image": "ANIME_PIC_9c3bbe8e934af2a4e2c9611c0f19cdd1",
    "count_view": 0
  },
  {
    "link_thumb": "https://live.staticflickr.com/65535/51552870082_7fc5c5bec5_n.jpg",
    "id_album": "-89234980",
    "description": "ANIME_PIC_9c3bf75cef5b3a8ac556a1355d7be8c5,[GirlsCuteCool],[isGirlAnime],[isCuteAnime],[isGirlsLoliAnime]",
    "title": "ANIME_PIC_9c3bf75cef5b3a8ac556a1355d7be8c5",
    "link_img": "https://live.staticflickr.com/65535/51552870082_5b32675f02_o.jpg",
    "id_image": "ANIME_PIC_9c3bf75cef5b3a8ac556a1355d7be8c5",
    "count_view": 0
  },
  {
    "link_thumb": "https://live.staticflickr.com/65535/51564109598_62d4547491_n.jpg",
    "id_album": "-89234980",
    "description": "ANIME_PIC_9c3f69d79e4393fcb3a6cd3b2d05c03f,[GirlsCuteCool],[isGirlAnime],[isCuteAnime],[isGirlsLoliAnime]",
    "title": "ANIME_PIC_9c3f69d79e4393fcb3a6cd3b2d05c03f",
    "link_img": "https://live.staticflickr.com/65535/51564109598_530079f327_o.jpg",
    "id_image": "ANIME_PIC_9c3f69d79e4393fcb3a6cd3b2d05c03f",
    "count_view": 0
  },
  {
    "link_thumb": "https://live.staticflickr.com/65535/51552871212_ac8ea9a532_n.jpg",
    "id_album": "-89234980",
    "description": "ANIME_PIC_9c40366f316c030d4821018d56913a6d,[GirlsCuteCool],[isGirlAnime],[isCuteAnime],[isGirlEarsNekoAnime],[isGirlsLoliAnime]",
    "title": "ANIME_PIC_9c40366f316c030d4821018d56913a6d",
    "link_img": "https://live.staticflickr.com/65535/51552871212_bdb1e39254_o.jpg",
    "id_image": "ANIME_PIC_9c40366f316c030d4821018d56913a6d",
    "count_view": 0
  },
  {
    "link_thumb": "https://live.staticflickr.com/65535/51553669416_4d1dfd6062_n.jpg",
    "id_album": "-89234980",
    "description": "ANIME_PIC_9c42c54729d6870e477736b533d3f1d3,[GirlsCuteCool],[isGirlAnime],[isCuteAnime],[isGirlsLoliAnime]",
    "title": "ANIME_PIC_9c42c54729d6870e477736b533d3f1d3",
    "link_img": "https://live.staticflickr.com/65535/51553669416_8f207f0670_o.jpg",
    "id_image": "ANIME_PIC_9c42c54729d6870e477736b533d3f1d3",
    "count_view": 0
  },
  {
    "link_thumb": "https://live.staticflickr.com/65535/51553901733_116733851b_n.jpg",
    "id_album": "-89234980",
    "description": "ANIME_PIC_9c44779e174903538ef85fd4c1a73f4f,[GirlsCuteCool],[isGirlAnime],[isCuteAnime],[isGirlFaceMasksAnime],[isGirlsLoliAnime]",
    "title": "ANIME_PIC_9c44779e174903538ef85fd4c1a73f4f",
    "link_img": "https://live.staticflickr.com/65535/51553901733_7999385aec_o.jpg",
    "id_image": "ANIME_PIC_9c44779e174903538ef85fd4c1a73f4f",
    "count_view": 0
  },
  {
    "link_thumb": "https://live.staticflickr.com/65535/51553670171_209d9e4abd_n.jpg",
    "id_album": "-89234980",
    "description": "ANIME_PIC_9c4b91ad682230ac259469e1b5ed0227,[GirlsCuteCool],[isGirlAnime],[isCuteAnime],[isGirlEarsNekoAnime],[isGirlsHornsAnime],[isGirlsLoliAnime]",
    "title": "ANIME_PIC_9c4b91ad682230ac259469e1b5ed0227",
    "link_img": "https://live.staticflickr.com/65535/51553670171_45af2eb24a_o.png",
    "id_image": "ANIME_PIC_9c4b91ad682230ac259469e1b5ed0227",
    "count_view": 0
  },
  {
    "link_thumb": "https://live.staticflickr.com/65535/51552873417_62f752c0b0_n.jpg",
    "id_album": "-89234980",
    "description": "ANIME_PIC_9c511f4505aa0a0ff5e6e112783bbb6d,[GirlsCuteCool],[isGirlAnime],[isCuteAnime],[isGirlsLoliAnime]",
    "title": "ANIME_PIC_9c511f4505aa0a0ff5e6e112783bbb6d",
    "link_img": "https://live.staticflickr.com/65535/51552873417_387a2126dd_o.png",
    "id_image": "ANIME_PIC_9c511f4505aa0a0ff5e6e112783bbb6d",
    "count_view": 0
  },
  {
    "link_thumb": "https://live.staticflickr.com/65535/51553903728_f46709db8d_n.jpg",
    "id_album": "-89234980",
    "description": "ANIME_PIC_9c51cc500d9c695e5ac803a3c5bb784a,[GirlsCuteCool],[isGirlAnime],[isCuteAnime],[isGirlsHatsHoodieAnime]",
    "title": "ANIME_PIC_9c51cc500d9c695e5ac803a3c5bb784a",
    "link_img": "https://live.staticflickr.com/65535/51553903728_17036d5635_o.jpg",
    "id_image": "ANIME_PIC_9c51cc500d9c695e5ac803a3c5bb784a",
    "count_view": 0
  },
  {
    "link_thumb": "https://live.staticflickr.com/65535/51563863446_1ab5e1e1ca_n.jpg",
    "id_album": "-89234980",
    "description": "ANIME_PIC_9c554ded9dbb5b504680f303b7a96029,[GirlsCuteCool],[isGirlAnime],[isCuteAnime],[isGirlsLoliAnime]",
    "title": "ANIME_PIC_9c554ded9dbb5b504680f303b7a96029",
    "link_img": "https://live.staticflickr.com/65535/51563863446_11c71e52cc_o.png",
    "id_image": "ANIME_PIC_9c554ded9dbb5b504680f303b7a96029",
    "count_view": 0
  },
  {
    "link_thumb": "https://live.staticflickr.com/65535/51553907053_929a9dc154_n.jpg",
    "id_album": "-89234980",
    "description": "ANIME_PIC_9c5aa5ad3896dc80a165242b6a4713a4,[GirlsCuteCool],[isGirlAnime],[isCuteAnime],[isGirlEarsNekoAnime],[isGirlsLoliAnime]",
    "title": "ANIME_PIC_9c5aa5ad3896dc80a165242b6a4713a4",
    "link_img": "https://live.staticflickr.com/65535/51553907053_dc3c4716ba_o.png",
    "id_image": "ANIME_PIC_9c5aa5ad3896dc80a165242b6a4713a4",
    "count_view": 0
  },
  {
    "link_thumb": "https://live.staticflickr.com/65535/51554392214_c5602aa4ca_n.jpg",
    "id_album": "-89234980",
    "description": "ANIME_PIC_9c5b2995d2e069b15e0c69730f7fe0c3,[GirlsCuteCool],[isGirlAnime],[isCuteAnime]",
    "title": "ANIME_PIC_9c5b2995d2e069b15e0c69730f7fe0c3",
    "link_img": "https://live.staticflickr.com/65535/51554392214_0bdcbd6277_o.jpg",
    "id_image": "ANIME_PIC_9c5b2995d2e069b15e0c69730f7fe0c3",
    "count_view": 0
  },
  {
    "link_thumb": "https://live.staticflickr.com/65535/51554392609_f2af0feed6_n.jpg",
    "id_album": "-89234980",
    "description": "ANIME_PIC_9c5b7c437fb10173c7705088bf9b7848,[GirlsCuteCool],[isGirlAnime],[isCuteAnime],[isGirlsLoliAnime],[isSadAnimeGirl],[isSadAnime]",
    "title": "ANIME_PIC_9c5b7c437fb10173c7705088bf9b7848",
    "link_img": "https://live.staticflickr.com/65535/51554392609_62de974e37_o.png",
    "id_image": "ANIME_PIC_9c5b7c437fb10173c7705088bf9b7848",
    "count_view": 0
  },
  {
    "link_thumb": "https://live.staticflickr.com/65535/51564553059_d3115b117b_n.jpg",
    "id_album": "-89234980",
    "description": "ANIME_PIC_9c5f07d55fd57bc6bf3997871481b5a6,[GirlsCuteCool],[isGirlAnime],[isCuteAnime]",
    "title": "ANIME_PIC_9c5f07d55fd57bc6bf3997871481b5a6",
    "link_img": "https://live.staticflickr.com/65535/51564553059_103a529232_o.jpg",
    "id_image": "ANIME_PIC_9c5f07d55fd57bc6bf3997871481b5a6",
    "count_view": 0
  },
  {
    "link_thumb": "https://live.staticflickr.com/65535/51553909023_e76a90472a_n.jpg",
    "id_album": "-89234980",
    "description": "ANIME_PIC_9c5fbc078412394aef748c8b2e2ce2c6,[GirlsCuteCool],[isGirlAnime],[isCuteAnime],[isGirlFaceMasksAnime],[isGirlsLoliAnime]",
    "title": "ANIME_PIC_9c5fbc078412394aef748c8b2e2ce2c6",
    "link_img": "https://live.staticflickr.com/65535/51553909023_9e8fba695a_o.jpg",
    "id_image": "ANIME_PIC_9c5fbc078412394aef748c8b2e2ce2c6",
    "count_view": 0
  },
  {
    "link_thumb": "https://live.staticflickr.com/65535/51552879942_2b2882b382_n.jpg",
    "id_album": "-89234980",
    "description": "ANIME_PIC_9c61a7035c4eec715649e5a43caa62f6,[GirlsCuteCool],[isGirlAnime],[isCuteAnime]",
    "title": "ANIME_PIC_9c61a7035c4eec715649e5a43caa62f6",
    "link_img": "https://live.staticflickr.com/65535/51552879942_7b819222de_o.png",
    "id_image": "ANIME_PIC_9c61a7035c4eec715649e5a43caa62f6",
    "count_view": 0
  },
  {
    "link_thumb": "https://live.staticflickr.com/65535/51552880407_d44090a7c9_n.jpg",
    "id_album": "-89234980",
    "description": "ANIME_PIC_9c62eaf62b6419405a4d3cac3d636c38,[GirlsCuteCool],[isGirlAnime],[isCuteAnime]",
    "title": "ANIME_PIC_9c62eaf62b6419405a4d3cac3d636c38",
    "link_img": "https://live.staticflickr.com/65535/51552880407_aa2900cc68_o.png",
    "id_image": "ANIME_PIC_9c62eaf62b6419405a4d3cac3d636c38",
    "count_view": 0
  },
  {
    "link_thumb": "https://live.staticflickr.com/65535/51552880907_c4a8fc0257_n.jpg",
    "id_album": "-89234980",
    "description": "ANIME_PIC_9c6478fd11cc52452d15932606c3ea94,[GirlsCuteCool],[isGirlAnime],[isCuteAnime],[isGirlsLoliAnime]",
    "title": "ANIME_PIC_9c6478fd11cc52452d15932606c3ea94",
    "link_img": "https://live.staticflickr.com/65535/51552880907_299948a559_o.jpg",
    "id_image": "ANIME_PIC_9c6478fd11cc52452d15932606c3ea94",
    "count_view": 0
  },
  {
    "link_thumb": "https://live.staticflickr.com/65535/51554595885_375309b071_n.jpg",
    "id_album": "-89234980",
    "description": "ANIME_PIC_9c65603c9074fd4552c034b56b8368c0,[GirlsCuteCool],[isGirlAnime],[isCuteAnime],[isGirlsHatsHoodieAnime]",
    "title": "ANIME_PIC_9c65603c9074fd4552c034b56b8368c0",
    "link_img": "https://live.staticflickr.com/65535/51554595885_098153b922_o.png",
    "id_image": "ANIME_PIC_9c65603c9074fd4552c034b56b8368c0",
    "count_view": 0
  },
  {
    "link_thumb": "https://live.staticflickr.com/65535/51554596290_0f44f8ba23_n.jpg",
    "id_album": "-89234980",
    "description": "ANIME_PIC_9c681fe588b2e3c6ddc33a3f02c312d7,[GirlsCuteCool],[isGirlAnime],[isCuteAnime],[isGirlEarsNekoAnime],[isGirlsLoliAnime]",
    "title": "ANIME_PIC_9c681fe588b2e3c6ddc33a3f02c312d7",
    "link_img": "https://live.staticflickr.com/65535/51554596290_a694db7f62_o.jpg",
    "id_image": "ANIME_PIC_9c681fe588b2e3c6ddc33a3f02c312d7",
    "count_view": 0
  },
  {
    "link_thumb": "https://live.staticflickr.com/65535/51554396084_0d97c125da_n.jpg",
    "id_album": "-89234980",
    "description": "ANIME_PIC_9c6b4091aac38082533a31e28e03d27d,[GirlsCuteCool],[isGirlAnime],[isCuteAnime],[isGirlsLoliAnime]",
    "title": "ANIME_PIC_9c6b4091aac38082533a31e28e03d27d",
    "link_img": "https://live.staticflickr.com/65535/51554396084_52b2e9ff0d_o.png",
    "id_image": "ANIME_PIC_9c6b4091aac38082533a31e28e03d27d",
    "count_view": 0
  },
  {
    "link_thumb": "https://live.staticflickr.com/65535/51554597135_95fb4bdffa_n.jpg",
    "id_album": "-89234980",
    "description": "ANIME_PIC_9c6c5e48933b8c9322df4fa5bc4dda86,[GirlsCuteCool],[isGirlAnime],[isCuteAnime],[isGirlsLoliAnime],[isSadAnimeGirl],[isSadAnime]",
    "title": "ANIME_PIC_9c6c5e48933b8c9322df4fa5bc4dda86",
    "link_img": "https://live.staticflickr.com/65535/51554597135_cded75e754_o.jpg",
    "id_image": "ANIME_PIC_9c6c5e48933b8c9322df4fa5bc4dda86",
    "count_view": 0
  },
  {
    "link_thumb": "https://live.staticflickr.com/65535/49879552272_c4b53491c7_n.jpg",
    "id_album": "-89234980",
    "description": "ANIME_PIC_9c6d7ff348004865cb72d1b3d18abb81,[isGirlAnime],[isCuteAnime],[Girls Cute Cool],[GirlsCuteCool],[isGirlsHatsHoodieAnime],[isGirlsLoliAnime]",
    "title": "ANIME_PIC_9c6d7ff348004865cb72d1b3d18abb81",
    "link_img": "https://live.staticflickr.com/65535/49879552272_b53886a0a5_o.jpg",
    "id_image": "ANIME_PIC_9c6d7ff348004865cb72d1b3d18abb81",
    "count_view": 0
  },
  {
    "link_thumb": "https://live.staticflickr.com/65535/51554396989_5eafc299d1_n.jpg",
    "id_album": "-89234980",
    "description": "ANIME_PIC_9c73d1e6856f8b17efa97b66f86f701c,[GirlsCuteCool],[isBoyAnime],[isCoupleAnime],[isGirlAnime],[isCuteAnime]",
    "title": "ANIME_PIC_9c73d1e6856f8b17efa97b66f86f701c",
    "link_img": "https://live.staticflickr.com/65535/51554396989_04b90036d3_o.jpg",
    "id_image": "ANIME_PIC_9c73d1e6856f8b17efa97b66f86f701c",
    "count_view": 0
  },
  {
    "link_thumb": "https://live.staticflickr.com/65535/51554597925_7b90fef1df_n.jpg",
    "id_album": "-89234980",
    "description": "ANIME_PIC_9c7a9ce447b242ea55e5715f7d346582,[GirlsCuteCool],[isGirlAnime],[isCuteAnime]",
    "title": "ANIME_PIC_9c7a9ce447b242ea55e5715f7d346582",
    "link_img": "https://live.staticflickr.com/65535/51554597925_45969afaba_o.png",
    "id_image": "ANIME_PIC_9c7a9ce447b242ea55e5715f7d346582",
    "count_view": 0
  }
]