[
  {
    "total_img": 467,
    "number_page": 3,
    "title": "Angel Beats",
    "tag": "Hinata Hideki, Green Eyes, Moon, Uniform, Grenade, Wedding Dress, Weapon, Yuzuru Otonashi, Long Hair, Thigh Highs, Anime, Takeyama Angel Beats, Hatsune Otonashi, Pistol, White Hair, Kimono, Headdress, Veil, Woman, Gun, Glove, Purple Hair, Kanade Tachibana, Yellow Eyes, Smile, Skirt, Piano, Hisako Angel Beats, Blush, Belt, Miyuki Irie, Fujimaki Angel Beats, Sunflower, Ayato Naoi, Noda Angel Beats, Sitting, Socks, Saitou Angel Beats, White Dress, Ooyama Angel Beats, Yusa Angel Beats, Yui Angel Beats, Angel Beats, Matsushita Angel Beats, Handgun, Shiina Angel Beats, Wings, Sunbeam, Eri Shiina, Shiori Sekine, TK Angel Beats, Flower, Azusa Nakano, Chaa Angel Beats, Dress, Headband, Pink Hair, Blue Hair, Yuri Nakamura, Takamatsu Angel Beats, Masami Iwasawa, Hat",
    "description": "Angel Beats",
    "link_thumb": "https://live.staticflickr.com/65535/47891904701_75cc6e44fe_n.jpg",
    "id_album": "-1326058986",
    "total_view": 467
  },
  {
    "total_img": 1083,
    "number_page": 6,
    "title": "Anime",
    "tag": "Anime,",
    "description": "Anime",
    "link_thumb": "https://live.staticflickr.com/65535/48066953706_2771a62522_n.jpg",
    "id_album": "-1920923841",
    "total_view": 1083
  },
  {
    "total_img": 690,
    "number_page": 4,
    "title": "Blush",
    "tag": "Blush,",
    "description": "Blush",
    "link_thumb": "https://live.staticflickr.com/65535/48066945096_efda4835b6_n.jpg",
    "id_album": "1964454893",
    "total_view": 690
  },
  {
    "total_img": 320,
    "number_page": 2,
    "title": "Dress",
    "tag": "Dress,",
    "description": "Dress",
    "link_thumb": "https://live.staticflickr.com/65535/48066945096_efda4835b6_n.jpg",
    "id_album": "-1596424748",
    "total_view": 320
  },
  {
    "total_img": 256,
    "number_page": 2,
    "title": "Kanade Tachibana",
    "tag": "Kanade Tachibana,",
    "description": "Kanade Tachibana",
    "link_thumb": "https://live.staticflickr.com/65535/47960731458_804cb5beee_n.jpg",
    "id_album": "-1114316477",
    "total_view": 256
  },
  {
    "total_img": 1729,
    "number_page": 9,
    "title": "Long Hair",
    "tag": "Long Hair,",
    "description": "Long Hair",
    "link_thumb": "https://live.staticflickr.com/65535/48066953706_2771a62522_n.jpg",
    "id_album": "186170098",
    "total_view": 1729
  },
  {
    "total_img": 69,
    "number_page": 1,
    "title": "Sitting",
    "tag": "Sitting,",
    "description": "Sitting",
    "link_thumb": "https://live.staticflickr.com/65535/48066953706_2771a62522_n.jpg",
    "id_album": "418651337",
    "total_view": 69
  },
  {
    "total_img": 34,
    "number_page": 1,
    "title": "Sunbeam",
    "tag": "Sunbeam,",
    "description": "Sunbeam",
    "link_thumb": "https://live.staticflickr.com/65535/48065934602_f9befc5ac7_n.jpg",
    "id_album": "1319814729",
    "total_view": 34
  },
  {
    "total_img": 48,
    "number_page": 1,
    "title": "White Dress",
    "tag": "White Dress,",
    "description": "White Dress",
    "link_thumb": "https://live.staticflickr.com/65535/48066945096_efda4835b6_n.jpg",
    "id_album": "131756070",
    "total_view": 48
  },
  {
    "total_img": 512,
    "number_page": 3,
    "title": "White Hair",
    "tag": "White Hair,",
    "description": "White Hair",
    "link_thumb": "https://live.staticflickr.com/65535/48066258522_1a2a958ca1_n.jpg",
    "id_album": "-843201771",
    "total_view": 512
  },
  {
    "total_img": 211,
    "number_page": 2,
    "title": "Yellow Eyes",
    "tag": "Yellow Eyes,",
    "description": "Yellow Eyes",
    "link_thumb": "https://live.staticflickr.com/65535/48066963397_8bc256f64f_n.jpg",
    "id_album": "187695074",
    "total_view": 211
  }
]