[
  {
    "total_img": 79,
    "number_page": 1,
    "title": "Kill La Kill",
    "tag": "Ira Gamagoori, Green Hair, Genderbend, Black Hair, Minimalist, Uzu Sanageyama, White Dress, Wound, Blood, Long Hair, Blonde, Twintails, Eye, Nonon Jakuzure, Thigh Highs, Rain, Anime, Sword, Nui Harime, Kill La Kill, Short Hair, TwoToned Hair, Flame, Glove, Original Anime, Dress, Hoka Inumuta, Houka Inumuta, Red Dress, Mako Mankanshoku, Pink Eyes, School Uniform, Pink Hair, Blade, Smile, Aqua Eyes, Skirt, Blue Eyes, Aikuro Mikisugi, Blue Hair, Senketsu Kill la Kill, Boots, Lying Down, Ryuko Matoi, Hat, Tsumugu Kinagase, Satsuki Kiryuin, Tears",
    "description": "Kill La Kill",
    "link_thumb": "https://live.staticflickr.com/65535/48047830561_ba1eaa6c7b_n.jpg",
    "id_album": "1058285257",
    "total_view": 79
  },
  {
    "total_img": 771,
    "number_page": 4,
    "title": "Blonde",
    "tag": "Blonde,",
    "description": "Blonde",
    "link_thumb": "https://live.staticflickr.com/65535/48066912028_16d8f475b6_n.jpg",
    "id_album": "-768622073",
    "total_view": 771
  },
  {
    "total_img": 321,
    "number_page": 2,
    "title": "Blue Hair",
    "tag": "Blue Hair,",
    "description": "Blue Hair",
    "link_thumb": "https://live.staticflickr.com/65535/48066963397_8bc256f64f_n.jpg",
    "id_album": "-1193928153",
    "total_view": 321
  },
  {
    "total_img": 88,
    "number_page": 1,
    "title": "Green Hair",
    "tag": "Green Hair,",
    "description": "Green Hair",
    "link_thumb": "https://live.staticflickr.com/65535/48065975592_a83847ce6c_n.jpg",
    "id_album": "601521951",
    "total_view": 88
  },
  {
    "total_img": 297,
    "number_page": 2,
    "title": "Hat",
    "tag": "Hat,",
    "description": "Hat",
    "link_thumb": "https://live.staticflickr.com/65535/48609886896_3658155406_n.jpg",
    "id_album": "-1741487314",
    "total_view": 297
  },
  {
    "total_img": 1729,
    "number_page": 9,
    "title": "Long Hair",
    "tag": "Long Hair,",
    "description": "Long Hair",
    "link_thumb": "https://live.staticflickr.com/65535/48066953706_2771a62522_n.jpg",
    "id_album": "186170098",
    "total_view": 1729
  },
  {
    "total_img": 12,
    "number_page": 1,
    "title": "Mako Mankanshoku",
    "tag": "Mako Mankanshoku,",
    "description": "Mako Mankanshoku",
    "link_thumb": "https://live.staticflickr.com/65535/48047904611_f5615a9fd6_n.jpg",
    "id_album": "-302075256",
    "total_view": 12
  },
  {
    "total_img": 15,
    "number_page": 1,
    "title": "Nonon Jakuzure",
    "tag": "Nonon Jakuzure,",
    "description": "Nonon Jakuzure",
    "link_thumb": "https://live.staticflickr.com/65535/48047903851_c251098ce6_n.jpg",
    "id_album": "1003782692",
    "total_view": 15
  },
  {
    "total_img": 295,
    "number_page": 2,
    "title": "Pink Hair",
    "tag": "Pink Hair,",
    "description": "Pink Hair",
    "link_thumb": "https://live.staticflickr.com/65535/48066953706_2771a62522_n.jpg",
    "id_album": "-30741026",
    "total_view": 295
  },
  {
    "total_img": 53,
    "number_page": 1,
    "title": "Ryuko Matoi",
    "tag": "Ryuko Matoi,",
    "description": "Ryuko Matoi",
    "link_thumb": "https://live.staticflickr.com/65535/48047983902_90299eb35f_n.jpg",
    "id_album": "1689177901",
    "total_view": 53
  },
  {
    "total_img": 21,
    "number_page": 1,
    "title": "Satsuki Kiryuin",
    "tag": "Satsuki Kiryuin,",
    "description": "Satsuki Kiryuin",
    "link_thumb": "https://live.staticflickr.com/65535/48047983902_90299eb35f_n.jpg",
    "id_album": "-1511525282",
    "total_view": 21
  },
  {
    "total_img": 436,
    "number_page": 3,
    "title": "School Uniform",
    "tag": "School Uniform,",
    "description": "School Uniform",
    "link_thumb": "https://live.staticflickr.com/65535/48066912028_16d8f475b6_n.jpg",
    "id_album": "873278772",
    "total_view": 436
  },
  {
    "total_img": 6,
    "number_page": 1,
    "title": "Senketsu Kill la Kill",
    "tag": "Senketsu Kill la Kill,",
    "description": "Senketsu Kill la Kill",
    "link_thumb": "https://live.staticflickr.com/65535/48047983902_90299eb35f_n.jpg",
    "id_album": "1425567072",
    "total_view": 6
  },
  {
    "total_img": 900,
    "number_page": 5,
    "title": "Short Hair",
    "tag": "Short Hair,",
    "description": "Short Hair",
    "link_thumb": "https://live.staticflickr.com/65535/48066522393_1c85dd9992_n.jpg",
    "id_album": "1749242000",
    "total_view": 900
  },
  {
    "total_img": 354,
    "number_page": 2,
    "title": "Skirt",
    "tag": "Skirt,",
    "description": "Skirt",
    "link_thumb": "https://live.staticflickr.com/65535/48066953706_2771a62522_n.jpg",
    "id_album": "-1959065500",
    "total_view": 354
  }
]