[
  {
    "link_thumb": "https://live.staticflickr.com/65535/48060638267_eaebb5e02c_n.jpg",
    "id_album": "1254321898",
    "description": "TokyoMewMew_873472,[isGirlAnime],[isSadAnime],[isSadAnimeGirl],[isCuteAnime],[isGirlEarsNekoAnime],[isGirlsLoliAnime],[Tokyo Mew Mew],[TokyoMewMew]",
    "title": "TokyoMewMew_873472",
    "link_img": "https://live.staticflickr.com/65535/48060638267_aa1c58c259_o.jpg",
    "id_image": "TokyoMewMew_873472",
    "count_view": 0
  },
  {
    "link_thumb": "https://live.staticflickr.com/65535/48060542761_16b30edd05_n.jpg",
    "id_album": "1254321898",
    "description": "TokyoMewMew_873473,[isGirlAnime],[isSadAnime],[isSadAnimeGirl],[isCuteAnime],[isGirlEarsNekoAnime],[isGirlsLoliAnime],[Tokyo Mew Mew],[TokyoMewMew]",
    "title": "TokyoMewMew_873473",
    "link_img": "https://live.staticflickr.com/65535/48060542761_56b451d73d_o.jpg",
    "id_image": "TokyoMewMew_873473",
    "count_view": 0
  },
  {
    "link_thumb": "https://live.staticflickr.com/65535/48060639072_e99c1afacf_n.jpg",
    "id_album": "1254321898",
    "description": "TokyoMewMew_873476,[isGirlAnime],[isCuteAnime],[isGirlsLoliAnime],[Tokyo Mew Mew],[TokyoMewMew]",
    "title": "TokyoMewMew_873476",
    "link_img": "https://live.staticflickr.com/65535/48060639072_ff3b70fb63_o.jpg",
    "id_image": "TokyoMewMew_873476",
    "count_view": 0
  },
  {
    "link_thumb": "https://live.staticflickr.com/65535/48060543816_c5f51fcbda_n.jpg",
    "id_album": "1254321898",
    "description": "TokyoMewMew_873479,[isGirlAnime],[Tokyo Mew Mew],[TokyoMewMew]",
    "title": "TokyoMewMew_873479",
    "link_img": "https://live.staticflickr.com/65535/48060543816_f776316f57_o.jpg",
    "id_image": "TokyoMewMew_873479",
    "count_view": 0
  }
]