[
  {
    "link_thumb": "https://live.staticflickr.com/65535/51552452996_9a18da1997_n.jpg",
    "id_album": "-89234980",
    "description": "ANIME_PIC_6bc5013acc41162071f511dd9aae492a,[GirlsCuteCool],[isGirlAnime],[isCuteAnime]",
    "title": "ANIME_PIC_6bc5013acc41162071f511dd9aae492a",
    "link_img": "https://live.staticflickr.com/65535/51552452996_bf03ca87d8_o.png",
    "id_image": "ANIME_PIC_6bc5013acc41162071f511dd9aae492a",
    "count_view": 0
  },
  {
    "link_thumb": "https://live.staticflickr.com/65535/51553367860_9650174361_n.jpg",
    "id_album": "-89234980",
    "description": "ANIME_PIC_6bc64b2ddd7f4289efe028a2e467c767,[GirlsCuteCool],[isGirlAnime],[isCuteAnime],[isGirlsHatsHoodieAnime],[isGirlsLoliAnime]",
    "title": "ANIME_PIC_6bc64b2ddd7f4289efe028a2e467c767",
    "link_img": "https://live.staticflickr.com/65535/51553367860_1e3f342773_o.jpg",
    "id_image": "ANIME_PIC_6bc64b2ddd7f4289efe028a2e467c767",
    "count_view": 0
  },
  {
    "link_thumb": "https://live.staticflickr.com/65535/51551655777_6f18005fc4_n.jpg",
    "id_album": "-89234980",
    "description": "ANIME_PIC_6bc95ba43a6d5ea37edcf710650d6f61,[GirlsCuteCool],[isGirlAnime],[isCuteAnime],[isGirlsLoliAnime]",
    "title": "ANIME_PIC_6bc95ba43a6d5ea37edcf710650d6f61",
    "link_img": "https://live.staticflickr.com/65535/51551655777_8efe710b08_o.jpg",
    "id_image": "ANIME_PIC_6bc95ba43a6d5ea37edcf710650d6f61",
    "count_view": 0
  },
  {
    "link_thumb": "https://live.staticflickr.com/65535/51553368190_27698d9431_n.jpg",
    "id_album": "-89234980",
    "description": "ANIME_PIC_6bcab492b7d91b5f9f4b7fee67270675,[GirlsCuteCool],[isGirlAnime],[isCuteAnime],[isGirlsHatsHoodieAnime],[isGirlsLoliAnime],[isSadAnimeGirl],[isSadAnime]",
    "title": "ANIME_PIC_6bcab492b7d91b5f9f4b7fee67270675",
    "link_img": "https://live.staticflickr.com/65535/51553368190_ae1f7fa8fd_o.jpg",
    "id_image": "ANIME_PIC_6bcab492b7d91b5f9f4b7fee67270675",
    "count_view": 0
  },
  {
    "link_thumb": "https://live.staticflickr.com/65535/51553173859_e47aea1a96_n.jpg",
    "id_album": "-89234980",
    "description": "ANIME_PIC_6bcb693d470fe54fa88578babb922830,[GirlsCuteCool],[isGirlAnime],[isCuteAnime]",
    "title": "ANIME_PIC_6bcb693d470fe54fa88578babb922830",
    "link_img": "https://live.staticflickr.com/65535/51553173859_be610b5b44_o.png",
    "id_image": "ANIME_PIC_6bcb693d470fe54fa88578babb922830",
    "count_view": 0
  },
  {
    "link_thumb": "https://live.staticflickr.com/65535/51553369455_709265033e_n.jpg",
    "id_album": "-89234980",
    "description": "ANIME_PIC_6bd4c38def8a6712af66f320c617f47a,[GirlsCuteCool],[isGirlAnime],[isCuteAnime]",
    "title": "ANIME_PIC_6bd4c38def8a6712af66f320c617f47a",
    "link_img": "https://live.staticflickr.com/65535/51553369455_92f3afec82_o.jpg",
    "id_image": "ANIME_PIC_6bd4c38def8a6712af66f320c617f47a",
    "count_view": 0
  },
  {
    "link_thumb": "https://live.staticflickr.com/65535/51551657407_11f6cc56c2_n.jpg",
    "id_album": "-89234980",
    "description": "ANIME_PIC_6bdfbed82910346afcd1605c13b37207,[GirlsCuteCool],[isGirlAnime],[isCuteAnime],[isGirlsLoliAnime]",
    "title": "ANIME_PIC_6bdfbed82910346afcd1605c13b37207",
    "link_img": "https://live.staticflickr.com/65535/51551657407_0c2c91829b_o.jpg",
    "id_image": "ANIME_PIC_6bdfbed82910346afcd1605c13b37207",
    "count_view": 0
  },
  {
    "link_thumb": "https://live.staticflickr.com/65535/51553174984_9bba62b0a3_n.jpg",
    "id_album": "-89234980",
    "description": "ANIME_PIC_6be69a238ce8b95908d58b35e793ac52,[GirlsCuteCool],[isGirlAnime],[isCuteAnime],[isGirlEarsNekoAnime],[isGirlsHornsAnime],[isGirlsLoliAnime]",
    "title": "ANIME_PIC_6be69a238ce8b95908d58b35e793ac52",
    "link_img": "https://live.staticflickr.com/65535/51553174984_1764a0841e_o.png",
    "id_image": "ANIME_PIC_6be69a238ce8b95908d58b35e793ac52",
    "count_view": 0
  },
  {
    "link_thumb": "https://live.staticflickr.com/65535/51552455496_a2b8bf3f57_n.jpg",
    "id_album": "-89234980",
    "description": "ANIME_PIC_6be70d2f9a60c59282aef4bdc5db9fcd,[GirlsCuteCool],[isGirlAnime],[isCuteAnime],[isGirlsLoliAnime],[isSadAnimeGirl],[isSadAnime]",
    "title": "ANIME_PIC_6be70d2f9a60c59282aef4bdc5db9fcd",
    "link_img": "https://live.staticflickr.com/65535/51552455496_dd62aa2730_o.png",
    "id_image": "ANIME_PIC_6be70d2f9a60c59282aef4bdc5db9fcd",
    "count_view": 0
  },
  {
    "link_thumb": "https://live.staticflickr.com/65535/51553370420_98f99f9b73_n.jpg",
    "id_album": "-89234980",
    "description": "ANIME_PIC_6be95b6cca818d0d5e7b96333ac5f526,[GirlsCuteCool],[isGirlAnime],[isCuteAnime],[isGirlsLoliAnime]",
    "title": "ANIME_PIC_6be95b6cca818d0d5e7b96333ac5f526",
    "link_img": "https://live.staticflickr.com/65535/51553370420_33c5ea8080_o.jpg",
    "id_image": "ANIME_PIC_6be95b6cca818d0d5e7b96333ac5f526",
    "count_view": 0
  },
  {
    "link_thumb": "https://live.staticflickr.com/65535/51551658252_b29d213eea_n.jpg",
    "id_album": "-89234980",
    "description": "ANIME_PIC_6be9d3dcdf1e057ed0d81b290782fb71,[GirlsCuteCool],[isGirlAnime],[isCuteAnime],[isSadAnimeGirl],[isSadAnime]",
    "title": "ANIME_PIC_6be9d3dcdf1e057ed0d81b290782fb71",
    "link_img": "https://live.staticflickr.com/65535/51551658252_3cc9affd3a_o.jpg",
    "id_image": "ANIME_PIC_6be9d3dcdf1e057ed0d81b290782fb71",
    "count_view": 0
  },
  {
    "link_thumb": "https://live.staticflickr.com/65535/51551660177_5423bacaa4_n.jpg",
    "id_album": "-89234980",
    "description": "ANIME_PIC_6beaea5bef5a917d9915cf8c4f4822df,[GirlsCuteCool],[isGirlAnime],[isCuteAnime],[isGirlsHatsHoodieAnime],[isGirlsLoliAnime]",
    "title": "ANIME_PIC_6beaea5bef5a917d9915cf8c4f4822df",
    "link_img": "https://live.staticflickr.com/65535/51551660177_743c7b04ed_o.jpg",
    "id_image": "ANIME_PIC_6beaea5bef5a917d9915cf8c4f4822df",
    "count_view": 0
  },
  {
    "link_thumb": "https://live.staticflickr.com/65535/51551660407_a968fee6bf_n.jpg",
    "id_album": "-89234980",
    "description": "ANIME_PIC_6bebb197d1545dcfd55f923b22c4cdb6,[GirlsCuteCool],[isGirlAnime],[isCuteAnime],[isGirlEarsNekoAnime],[isGirlsLoliAnime]",
    "title": "ANIME_PIC_6bebb197d1545dcfd55f923b22c4cdb6",
    "link_img": "https://live.staticflickr.com/65535/51551660407_fe03707489_o.jpg",
    "id_image": "ANIME_PIC_6bebb197d1545dcfd55f923b22c4cdb6",
    "count_view": 0
  },
  {
    "link_thumb": "https://live.staticflickr.com/65535/51553372745_5e10449f09_n.jpg",
    "id_album": "-89234980",
    "description": "ANIME_PIC_6bed304df8f2b28ed9554838c156b585,[GirlsCuteCool],[isGirlAnime],[isCuteAnime],[isGirlsLoliAnime],[isSadAnimeGirl],[isSadAnime]",
    "title": "ANIME_PIC_6bed304df8f2b28ed9554838c156b585",
    "link_img": "https://live.staticflickr.com/65535/51553372745_e61ef64bff_o.png",
    "id_image": "ANIME_PIC_6bed304df8f2b28ed9554838c156b585",
    "count_view": 0
  },
  {
    "link_thumb": "https://live.staticflickr.com/65535/51553178059_f52168532a_n.jpg",
    "id_album": "-89234980",
    "description": "ANIME_PIC_6beee9facba49b19ffce5705fef28798,[GirlsCuteCool],[isGirlAnime],[isCuteAnime],[isSadAnimeGirl],[isSadAnime]",
    "title": "ANIME_PIC_6beee9facba49b19ffce5705fef28798",
    "link_img": "https://live.staticflickr.com/65535/51553178059_e3516fbdf4_o.jpg",
    "id_image": "ANIME_PIC_6beee9facba49b19ffce5705fef28798",
    "count_view": 0
  },
  {
    "link_thumb": "https://live.staticflickr.com/65535/51553178189_b9cf09d0ee_n.jpg",
    "id_album": "-89234980",
    "description": "ANIME_PIC_6bf4d0014125b84470d4e001a658f9cd,[GirlsCuteCool],[isGirlAnime],[isCuteAnime],[isGirlsLoliAnime]",
    "title": "ANIME_PIC_6bf4d0014125b84470d4e001a658f9cd",
    "link_img": "https://live.staticflickr.com/65535/51553178189_978952400b_o.jpg",
    "id_image": "ANIME_PIC_6bf4d0014125b84470d4e001a658f9cd",
    "count_view": 0
  },
  {
    "link_thumb": "https://live.staticflickr.com/65535/51552692308_bcc95753b1_n.jpg",
    "id_album": "-89234980",
    "description": "ANIME_PIC_6bf5c42b1d1d72e8aef16063ad3de783,[GirlsCuteCool],[isGirlAnime],[isCuteAnime],[isGirlsLoliAnime]",
    "title": "ANIME_PIC_6bf5c42b1d1d72e8aef16063ad3de783",
    "link_img": "https://live.staticflickr.com/65535/51552692308_afe59f92b4_o.jpg",
    "id_image": "ANIME_PIC_6bf5c42b1d1d72e8aef16063ad3de783",
    "count_view": 0
  },
  {
    "link_thumb": "https://live.staticflickr.com/65535/51552458711_69767e066b_n.jpg",
    "id_album": "-89234980",
    "description": "ANIME_PIC_6bfce13bdfe49931f27190a0c5e404d6,[GirlsCuteCool],[isGirlAnime],[isCuteAnime],[isGirlsLoliAnime]",
    "title": "ANIME_PIC_6bfce13bdfe49931f27190a0c5e404d6",
    "link_img": "https://live.staticflickr.com/65535/51552458711_af6fda9bd3_o.png",
    "id_image": "ANIME_PIC_6bfce13bdfe49931f27190a0c5e404d6",
    "count_view": 0
  },
  {
    "link_thumb": "https://live.staticflickr.com/65535/51552692933_7f9c74bc9c_n.jpg",
    "id_album": "-89234980",
    "description": "ANIME_PIC_6c0040f165160cf97d2a9e9ecbb265d0,[GirlsCuteCool],[isBoyAnime],[isGirlAnime],[isCuteAnime]",
    "title": "ANIME_PIC_6c0040f165160cf97d2a9e9ecbb265d0",
    "link_img": "https://live.staticflickr.com/65535/51552692933_3f46bb5e1f_o.jpg",
    "id_image": "ANIME_PIC_6c0040f165160cf97d2a9e9ecbb265d0",
    "count_view": 0
  },
  {
    "link_thumb": "https://live.staticflickr.com/65535/51553374105_7137e6ea74_n.jpg",
    "id_album": "-89234980",
    "description": "ANIME_PIC_6c00f34add413f8ad20637f67b1552cc,[GirlsCuteCool],[isGirlAnime],[isCuteAnime],[isGirlEarsNekoAnime],[isGirlsLoliAnime]",
    "title": "ANIME_PIC_6c00f34add413f8ad20637f67b1552cc",
    "link_img": "https://live.staticflickr.com/65535/51553374105_02707fd17a_o.png",
    "id_image": "ANIME_PIC_6c00f34add413f8ad20637f67b1552cc",
    "count_view": 0
  },
  {
    "link_thumb": "https://live.staticflickr.com/65535/51553179624_fd6b2b182b_n.jpg",
    "id_album": "-89234980",
    "description": "ANIME_PIC_6c013d830f1d332cb509d58ef07bdaab,[GirlsCuteCool],[isGirlAnime],[isCuteAnime]",
    "title": "ANIME_PIC_6c013d830f1d332cb509d58ef07bdaab",
    "link_img": "https://live.staticflickr.com/65535/51553179624_39ea169581_o.jpg",
    "id_image": "ANIME_PIC_6c013d830f1d332cb509d58ef07bdaab",
    "count_view": 0
  },
  {
    "link_thumb": "https://live.staticflickr.com/65535/51553179899_fde20c117d_n.jpg",
    "id_album": "-89234980",
    "description": "ANIME_PIC_6c036bc32dc58f8da736d86275861b04,[GirlsCuteCool],[isGirlAnime],[isCuteAnime]",
    "title": "ANIME_PIC_6c036bc32dc58f8da736d86275861b04",
    "link_img": "https://live.staticflickr.com/65535/51553179899_45c14838bf_o.png",
    "id_image": "ANIME_PIC_6c036bc32dc58f8da736d86275861b04",
    "count_view": 0
  },
  {
    "link_thumb": "https://live.staticflickr.com/65535/51552694183_a3a0fcc32a_n.jpg",
    "id_album": "-89234980",
    "description": "ANIME_PIC_6c070ce18d0cf43b1105529c9d96f19a,[GirlsCuteCool],[isGirlAnime],[isCuteAnime],[isGirlsHatsHoodieAnime]",
    "title": "ANIME_PIC_6c070ce18d0cf43b1105529c9d96f19a",
    "link_img": "https://live.staticflickr.com/65535/51552694183_e8349a2d27_o.jpg",
    "id_image": "ANIME_PIC_6c070ce18d0cf43b1105529c9d96f19a",
    "count_view": 0
  },
  {
    "link_thumb": "https://live.staticflickr.com/65535/51552694308_2892f28250_n.jpg",
    "id_album": "-89234980",
    "description": "ANIME_PIC_6c074ed52409778da9d48f62f0c66135,[GirlsCuteCool],[isGirlAnime],[isCuteAnime],[isGirlsLoliAnime]",
    "title": "ANIME_PIC_6c074ed52409778da9d48f62f0c66135",
    "link_img": "https://live.staticflickr.com/65535/51552694308_a1a357f590_o.jpg",
    "id_image": "ANIME_PIC_6c074ed52409778da9d48f62f0c66135",
    "count_view": 0
  },
  {
    "link_thumb": "https://live.staticflickr.com/65535/51551663437_42cbf30d9c_n.jpg",
    "id_album": "-89234980",
    "description": "ANIME_PIC_6c08e709f98557eb6daf1340267614ca,[GirlsCuteCool],[isGirlAnime],[isCuteAnime],[isGirlsHatsHoodieAnime],[isGirlsLoliAnime]",
    "title": "ANIME_PIC_6c08e709f98557eb6daf1340267614ca",
    "link_img": "https://live.staticflickr.com/65535/51551663437_30ddd5aa15_o.jpg",
    "id_image": "ANIME_PIC_6c08e709f98557eb6daf1340267614ca",
    "count_view": 0
  },
  {
    "link_thumb": "https://live.staticflickr.com/65535/51552694653_15caf9175e_n.jpg",
    "id_album": "-89234980",
    "description": "ANIME_PIC_6c0b4344868a92871cab47002eac8d42,[GirlsCuteCool],[isGirlAnime],[isCuteAnime]",
    "title": "ANIME_PIC_6c0b4344868a92871cab47002eac8d42",
    "link_img": "https://live.staticflickr.com/65535/51552694653_38ffc32c50_o.png",
    "id_image": "ANIME_PIC_6c0b4344868a92871cab47002eac8d42",
    "count_view": 0
  },
  {
    "link_thumb": "https://live.staticflickr.com/65535/51552461081_71c7c65d0f_n.jpg",
    "id_album": "-89234980",
    "description": "ANIME_PIC_6c0d714cdb0195a05c890bee01333065,[GirlsCuteCool],[isGirlAnime],[isCuteAnime]",
    "title": "ANIME_PIC_6c0d714cdb0195a05c890bee01333065",
    "link_img": "https://live.staticflickr.com/65535/51552461081_f5f11dcba9_o.jpg",
    "id_image": "ANIME_PIC_6c0d714cdb0195a05c890bee01333065",
    "count_view": 0
  },
  {
    "link_thumb": "https://live.staticflickr.com/65535/51553376845_8c51053bdd_n.jpg",
    "id_album": "-89234980",
    "description": "ANIME_PIC_6c153c406d8fce250c1c73cec0ee3512,[GirlsCuteCool],[isGirlAnime],[isCuteAnime],[isGirlsLoliAnime]",
    "title": "ANIME_PIC_6c153c406d8fce250c1c73cec0ee3512",
    "link_img": "https://live.staticflickr.com/65535/51553376845_4861ae9b3f_o.jpg",
    "id_image": "ANIME_PIC_6c153c406d8fce250c1c73cec0ee3512",
    "count_view": 0
  },
  {
    "link_thumb": "https://live.staticflickr.com/65535/51553182024_5971f27763_n.jpg",
    "id_album": "-89234980",
    "description": "ANIME_PIC_6c204db16ebb0b6921d314095c386349,[GirlsCuteCool],[isGirlAnime],[isCuteAnime],[isGirlEarsNekoAnime],[isGirlsLoliAnime]",
    "title": "ANIME_PIC_6c204db16ebb0b6921d314095c386349",
    "link_img": "https://live.staticflickr.com/65535/51553182024_3e8cac9d7b_o.jpg",
    "id_image": "ANIME_PIC_6c204db16ebb0b6921d314095c386349",
    "count_view": 0
  },
  {
    "link_thumb": "https://live.staticflickr.com/65535/51552696058_1b60c6d043_n.jpg",
    "id_album": "-89234980",
    "description": "ANIME_PIC_6c23583a77c90b84a09797322957e83b,[GirlsCuteCool],[isGirlAnime],[isCuteAnime],[isGirlEarsNekoAnime],[isGirlsLoliAnime]",
    "title": "ANIME_PIC_6c23583a77c90b84a09797322957e83b",
    "link_img": "https://live.staticflickr.com/65535/51552696058_e72b39457d_o.png",
    "id_image": "ANIME_PIC_6c23583a77c90b84a09797322957e83b",
    "count_view": 0
  },
  {
    "link_thumb": "https://live.staticflickr.com/65535/51553182514_74d91c3bd7_n.jpg",
    "id_album": "-89234980",
    "description": "ANIME_PIC_6c24760e53461d4c6cedd20e11e4b49f,[GirlsCuteCool],[isGirlAnime],[isCuteAnime],[isGirlsLoliAnime]",
    "title": "ANIME_PIC_6c24760e53461d4c6cedd20e11e4b49f",
    "link_img": "https://live.staticflickr.com/65535/51553182514_b6e7154123_o.jpg",
    "id_image": "ANIME_PIC_6c24760e53461d4c6cedd20e11e4b49f",
    "count_view": 0
  },
  {
    "link_thumb": "https://live.staticflickr.com/65535/51553182709_3abdbd9cb0_n.jpg",
    "id_album": "-89234980",
    "description": "ANIME_PIC_6c25cabbb126440e4eb9d8361c04c6d9,[GirlsCuteCool],[isGirlAnime],[isCuteAnime],[isGirlsLoliAnime],[isSadAnimeGirl],[isSadAnime]",
    "title": "ANIME_PIC_6c25cabbb126440e4eb9d8361c04c6d9",
    "link_img": "https://live.staticflickr.com/65535/51553182709_9cb912354e_o.jpg",
    "id_image": "ANIME_PIC_6c25cabbb126440e4eb9d8361c04c6d9",
    "count_view": 0
  },
  {
    "link_thumb": "https://live.staticflickr.com/65535/51553182879_00f027f8d1_n.jpg",
    "id_album": "-89234980",
    "description": "ANIME_PIC_6c295142abbb6e2809e3934034752f42,[GirlsCuteCool],[isGirlAnime],[isCuteAnime],[isGirlsLoliAnime]",
    "title": "ANIME_PIC_6c295142abbb6e2809e3934034752f42",
    "link_img": "https://live.staticflickr.com/65535/51553182879_4325bb5f07_o.png",
    "id_image": "ANIME_PIC_6c295142abbb6e2809e3934034752f42",
    "count_view": 0
  },
  {
    "link_thumb": "https://live.staticflickr.com/65535/51552463166_d4e55387d3_n.jpg",
    "id_album": "-89234980",
    "description": "ANIME_PIC_6c36f5a47cde9f1d131af098bdc9b37a,[GirlsCuteCool],[isGirlAnime],[isCuteAnime]",
    "title": "ANIME_PIC_6c36f5a47cde9f1d131af098bdc9b37a",
    "link_img": "https://live.staticflickr.com/65535/51552463166_7248558f9b_o.jpg",
    "id_image": "ANIME_PIC_6c36f5a47cde9f1d131af098bdc9b37a",
    "count_view": 0
  },
  {
    "link_thumb": "https://live.staticflickr.com/65535/51552463316_3a0cd38300_n.jpg",
    "id_album": "-89234980",
    "description": "ANIME_PIC_6c37f66ea08d1deac74c362c1ed9afd2,[GirlsCuteCool],[isGirlAnime],[isCuteAnime],[isSadAnimeGirl],[isSadAnime]",
    "title": "ANIME_PIC_6c37f66ea08d1deac74c362c1ed9afd2",
    "link_img": "https://live.staticflickr.com/65535/51552463316_beabe62e49_o.jpg",
    "id_image": "ANIME_PIC_6c37f66ea08d1deac74c362c1ed9afd2",
    "count_view": 0
  },
  {
    "link_thumb": "https://live.staticflickr.com/65535/51553183454_14b210fe91_n.jpg",
    "id_album": "-89234980",
    "description": "ANIME_PIC_6c381264a60efc150ed8e43f26c64fc4,[GirlsCuteCool],[isGirlAnime],[isCuteAnime],[isSadAnimeGirl],[isSadAnime]",
    "title": "ANIME_PIC_6c381264a60efc150ed8e43f26c64fc4",
    "link_img": "https://live.staticflickr.com/65535/51553183454_20b640aa58_o.jpg",
    "id_image": "ANIME_PIC_6c381264a60efc150ed8e43f26c64fc4",
    "count_view": 0
  },
  {
    "link_thumb": "https://live.staticflickr.com/65535/51552697583_7f84aeba6c_n.jpg",
    "id_album": "-89234980",
    "description": "ANIME_PIC_6c3ebada503903b635c5b831351d5ae2,[GirlsCuteCool],[isGirlAnime],[isCuteAnime]",
    "title": "ANIME_PIC_6c3ebada503903b635c5b831351d5ae2",
    "link_img": "https://live.staticflickr.com/65535/51552697583_61dbcab9c8_o.jpg",
    "id_image": "ANIME_PIC_6c3ebada503903b635c5b831351d5ae2",
    "count_view": 0
  },
  {
    "link_thumb": "https://live.staticflickr.com/65535/51552697798_4689445fd3_n.jpg",
    "id_album": "-89234980",
    "description": "ANIME_PIC_6c413f826ca7014679357b35e69ea0ad,[GirlsCuteCool],[isGirlAnime],[isCuteAnime]",
    "title": "ANIME_PIC_6c413f826ca7014679357b35e69ea0ad",
    "link_img": "https://live.staticflickr.com/65535/51552697798_3c37ded376_o.jpg",
    "id_image": "ANIME_PIC_6c413f826ca7014679357b35e69ea0ad",
    "count_view": 0
  },
  {
    "link_thumb": "https://live.staticflickr.com/65535/51553379000_1ff3188d6a_n.jpg",
    "id_album": "-89234980",
    "description": "ANIME_PIC_6c45530872d962564765d145d3f4c9f9,[GirlsCuteCool],[isGirlAnime],[isCuteAnime],[isGirlsLoliAnime]",
    "title": "ANIME_PIC_6c45530872d962564765d145d3f4c9f9",
    "link_img": "https://live.staticflickr.com/65535/51553379000_45063eb802_o.jpg",
    "id_image": "ANIME_PIC_6c45530872d962564765d145d3f4c9f9",
    "count_view": 0
  },
  {
    "link_thumb": "https://live.staticflickr.com/65535/51552464091_de9cd57b05_n.jpg",
    "id_album": "-89234980",
    "description": "ANIME_PIC_6c460cde965687060b424328e126793a,[GirlsCuteCool],[isGirlAnime],[isCuteAnime],[isGirlsLoliAnime]",
    "title": "ANIME_PIC_6c460cde965687060b424328e126793a",
    "link_img": "https://live.staticflickr.com/65535/51552464091_e8896cc4fc_o.jpg",
    "id_image": "ANIME_PIC_6c460cde965687060b424328e126793a",
    "count_view": 0
  },
  {
    "link_thumb": "https://live.staticflickr.com/65535/51553379355_646008dd6e_n.jpg",
    "id_album": "-89234980",
    "description": "ANIME_PIC_6c4670b659262c4629443bbb2f8a35e6,[GirlsCuteCool],[isGirlAnime],[isCuteAnime],[isGirlsHatsHoodieAnime],[isGirlsLoliAnime]",
    "title": "ANIME_PIC_6c4670b659262c4629443bbb2f8a35e6",
    "link_img": "https://live.staticflickr.com/65535/51553379355_20ae15108f_o.jpg",
    "id_image": "ANIME_PIC_6c4670b659262c4629443bbb2f8a35e6",
    "count_view": 0
  },
  {
    "link_thumb": "https://live.staticflickr.com/65535/51552698403_7552a18ed2_n.jpg",
    "id_album": "-89234980",
    "description": "ANIME_PIC_6c52bf6b679c0839e86f2fde81e13f63,[GirlsCuteCool],[isGirlAnime],[isCuteAnime],[isGirlsLoliAnime]",
    "title": "ANIME_PIC_6c52bf6b679c0839e86f2fde81e13f63",
    "link_img": "https://live.staticflickr.com/65535/51552698403_54932a4d32_o.jpg",
    "id_image": "ANIME_PIC_6c52bf6b679c0839e86f2fde81e13f63",
    "count_view": 0
  },
  {
    "link_thumb": "https://live.staticflickr.com/65535/51552464581_06b6e47578_n.jpg",
    "id_album": "-89234980",
    "description": "ANIME_PIC_6c5307a52b10c9760ffc1ed07bafb3e6,[GirlsCuteCool],[isGirlAnime],[isCuteAnime]",
    "title": "ANIME_PIC_6c5307a52b10c9760ffc1ed07bafb3e6",
    "link_img": "https://live.staticflickr.com/65535/51552464581_43b418ccd0_o.png",
    "id_image": "ANIME_PIC_6c5307a52b10c9760ffc1ed07bafb3e6",
    "count_view": 0
  },
  {
    "link_thumb": "https://live.staticflickr.com/65535/51552464926_398c123fe6_n.jpg",
    "id_album": "-89234980",
    "description": "ANIME_PIC_6c540f105cb4705b6039d42d3b90349c,[GirlsCuteCool],[isGirlAnime],[isCuteAnime],[isGirlsHatsHoodieAnime],[isGirlsLoliAnime]",
    "title": "ANIME_PIC_6c540f105cb4705b6039d42d3b90349c",
    "link_img": "https://live.staticflickr.com/65535/51552464926_e288493a8d_o.jpg",
    "id_image": "ANIME_PIC_6c540f105cb4705b6039d42d3b90349c",
    "count_view": 0
  },
  {
    "link_thumb": "https://live.staticflickr.com/65535/51552465171_f70b013926_n.jpg",
    "id_album": "-89234980",
    "description": "ANIME_PIC_6c566c80ade0cd744efc82b25b308081,[GirlsCuteCool],[isGirlAnime],[isCuteAnime]",
    "title": "ANIME_PIC_6c566c80ade0cd744efc82b25b308081",
    "link_img": "https://live.staticflickr.com/65535/51552465171_ac39e5a5b2_o.jpg",
    "id_image": "ANIME_PIC_6c566c80ade0cd744efc82b25b308081",
    "count_view": 0
  },
  {
    "link_thumb": "https://live.staticflickr.com/65535/51553185434_171deaefea_n.jpg",
    "id_album": "-89234980",
    "description": "ANIME_PIC_6c5c3ef3979758f32973eb86b4c1665c,[GirlsCuteCool],[isGirlAnime],[isCuteAnime],[isGirlsLoliAnime]",
    "title": "ANIME_PIC_6c5c3ef3979758f32973eb86b4c1665c",
    "link_img": "https://live.staticflickr.com/65535/51553185434_8cd69fe70b_o.jpg",
    "id_image": "ANIME_PIC_6c5c3ef3979758f32973eb86b4c1665c",
    "count_view": 0
  },
  {
    "link_thumb": "https://live.staticflickr.com/65535/51551668507_6489ab060e_n.jpg",
    "id_album": "-89234980",
    "description": "ANIME_PIC_6c5db4a18d3f140e2781a1ef8b964b9d,[GirlsCuteCool],[isGirlAnime],[isCuteAnime],[isGirlsSharpCanineToothAnime]",
    "title": "ANIME_PIC_6c5db4a18d3f140e2781a1ef8b964b9d",
    "link_img": "https://live.staticflickr.com/65535/51551668507_3dc10880cd_o.jpg",
    "id_image": "ANIME_PIC_6c5db4a18d3f140e2781a1ef8b964b9d",
    "count_view": 0
  },
  {
    "link_thumb": "https://live.staticflickr.com/65535/51552465701_0377018383_n.jpg",
    "id_album": "-89234980",
    "description": "ANIME_PIC_6c64a329c63b07596ff29245fa9c061e,[GirlsCuteCool],[isGirlAnime],[isCuteAnime],[isGirlEarsNekoAnime],[isGirlsLoliAnime],[isSadAnimeGirl],[isSadAnime]",
    "title": "ANIME_PIC_6c64a329c63b07596ff29245fa9c061e",
    "link_img": "https://live.staticflickr.com/65535/51552465701_2a75e0b048_o.png",
    "id_image": "ANIME_PIC_6c64a329c63b07596ff29245fa9c061e",
    "count_view": 0
  },
  {
    "link_thumb": "https://live.staticflickr.com/65535/51553381015_2fc201fa6e_n.jpg",
    "id_album": "-89234980",
    "description": "ANIME_PIC_6c668a5f8c5e0377e4987f60a8da391e,[GirlsCuteCool],[isGirlAnime],[isCuteAnime]",
    "title": "ANIME_PIC_6c668a5f8c5e0377e4987f60a8da391e",
    "link_img": "https://live.staticflickr.com/65535/51553381015_84c91f62b7_o.jpg",
    "id_image": "ANIME_PIC_6c668a5f8c5e0377e4987f60a8da391e",
    "count_view": 0
  },
  {
    "link_thumb": "https://live.staticflickr.com/65535/51553186184_a3ea3313fd_n.jpg",
    "id_album": "-89234980",
    "description": "ANIME_PIC_6c67834b6d9396064378062f047fb289,[GirlsCuteCool],[isGirlAnime],[isCuteAnime],[isGirlsLoliAnime]",
    "title": "ANIME_PIC_6c67834b6d9396064378062f047fb289",
    "link_img": "https://live.staticflickr.com/65535/51553186184_988461129a_o.jpg",
    "id_image": "ANIME_PIC_6c67834b6d9396064378062f047fb289",
    "count_view": 0
  },
  {
    "link_thumb": "https://live.staticflickr.com/65535/51552466381_6787e6290a_n.jpg",
    "id_album": "-89234980",
    "description": "ANIME_PIC_6c6b8a57cdddde5596a966ccc10f726c,[GirlsCuteCool],[isGirlAnime],[isCuteAnime],[isGirlFaceMasksAnime],[isGirlsLoliAnime]",
    "title": "ANIME_PIC_6c6b8a57cdddde5596a966ccc10f726c",
    "link_img": "https://live.staticflickr.com/65535/51552466381_e5042959a6_o.jpg",
    "id_image": "ANIME_PIC_6c6b8a57cdddde5596a966ccc10f726c",
    "count_view": 0
  },
  {
    "link_thumb": "https://live.staticflickr.com/65535/51552700553_e0905c0e17_n.jpg",
    "id_album": "-89234980",
    "description": "ANIME_PIC_6c6be94f994331e1212fdc9325920f74,[GirlsCuteCool],[isGirlAnime],[isCuteAnime],[isGirlEarsNekoAnime]",
    "title": "ANIME_PIC_6c6be94f994331e1212fdc9325920f74",
    "link_img": "https://live.staticflickr.com/65535/51552700553_49ab62718d_o.jpg",
    "id_image": "ANIME_PIC_6c6be94f994331e1212fdc9325920f74",
    "count_view": 0
  },
  {
    "link_thumb": "https://live.staticflickr.com/65535/51551669802_dea15c1f86_n.jpg",
    "id_album": "-89234980",
    "description": "ANIME_PIC_6c6c0cba0497433063a19ed039abe9b0,[GirlsCuteCool],[isGirlAnime],[isCuteAnime],[isGirlsLoliAnime]",
    "title": "ANIME_PIC_6c6c0cba0497433063a19ed039abe9b0",
    "link_img": "https://live.staticflickr.com/65535/51551669802_21e8069b26_o.jpg",
    "id_image": "ANIME_PIC_6c6c0cba0497433063a19ed039abe9b0",
    "count_view": 0
  },
  {
    "link_thumb": "https://live.staticflickr.com/65535/51551669962_6c463c35de_n.jpg",
    "id_album": "-89234980",
    "description": "ANIME_PIC_6c6c6a39782446225b32b258b5b0d846,[GirlsCuteCool],[isGirlAnime],[isCuteAnime],[isGirlEarsNekoAnime],[isGirlsLoliAnime]",
    "title": "ANIME_PIC_6c6c6a39782446225b32b258b5b0d846",
    "link_img": "https://live.staticflickr.com/65535/51551669962_f1f31a8ff8_o.png",
    "id_image": "ANIME_PIC_6c6c6a39782446225b32b258b5b0d846",
    "count_view": 0
  },
  {
    "link_thumb": "https://live.staticflickr.com/65535/51551670287_a49f5dea65_n.jpg",
    "id_album": "-89234980",
    "description": "ANIME_PIC_6c71da706af7cd64fd9907f7c0a9c1c3,[GirlsCuteCool],[isGirlAnime],[isCuteAnime],[isGirlFaceMasksAnime],[isGirlsLoliAnime]",
    "title": "ANIME_PIC_6c71da706af7cd64fd9907f7c0a9c1c3",
    "link_img": "https://live.staticflickr.com/65535/51551670287_c1945a47f8_o.jpg",
    "id_image": "ANIME_PIC_6c71da706af7cd64fd9907f7c0a9c1c3",
    "count_view": 0
  },
  {
    "link_thumb": "https://live.staticflickr.com/65535/51553382555_c10246599f_n.jpg",
    "id_album": "-89234980",
    "description": "ANIME_PIC_6c7a4eddc44044e0e653c95c460673a8,[GirlsCuteCool],[isGirlAnime],[isCuteAnime],[isSadAnimeGirl],[isSadAnime]",
    "title": "ANIME_PIC_6c7a4eddc44044e0e653c95c460673a8",
    "link_img": "https://live.staticflickr.com/65535/51553382555_6ba6040111_o.jpg",
    "id_image": "ANIME_PIC_6c7a4eddc44044e0e653c95c460673a8",
    "count_view": 0
  },
  {
    "link_thumb": "https://live.staticflickr.com/65535/51551670712_1d8fa81ddd_n.jpg",
    "id_album": "-89234980",
    "description": "ANIME_PIC_6c7b3fee8c8bb2e445ab38cd0c3e09b0,[GirlsCuteCool],[isGirlAnime],[isCuteAnime]",
    "title": "ANIME_PIC_6c7b3fee8c8bb2e445ab38cd0c3e09b0",
    "link_img": "https://live.staticflickr.com/65535/51551670712_b325aaf867_o.jpg",
    "id_image": "ANIME_PIC_6c7b3fee8c8bb2e445ab38cd0c3e09b0",
    "count_view": 0
  },
  {
    "link_thumb": "https://live.staticflickr.com/65535/51552702068_eaf3e242bd_n.jpg",
    "id_album": "-89234980",
    "description": "ANIME_PIC_6c7d24b236ab7145d56808b65e6917e8,[GirlsCuteCool],[isGirlAnime],[isCuteAnime],[isGirlsLoliAnime],[isSadAnimeGirl],[isGirlsSharpCanineToothAnime],[isSadAnime]",
    "title": "ANIME_PIC_6c7d24b236ab7145d56808b65e6917e8",
    "link_img": "https://live.staticflickr.com/65535/51552702068_9d7ed9660f_o.png",
    "id_image": "ANIME_PIC_6c7d24b236ab7145d56808b65e6917e8",
    "count_view": 0
  },
  {
    "link_thumb": "https://live.staticflickr.com/65535/51553383410_f779435b92_n.jpg",
    "id_album": "-89234980",
    "description": "ANIME_PIC_6c7d63bd73aa11fee7312af40db3b0a7,[GirlsCuteCool],[isGirlAnime],[isCuteAnime],[isGirlsLoliAnime],[isSadAnimeGirl],[isSadAnime]",
    "title": "ANIME_PIC_6c7d63bd73aa11fee7312af40db3b0a7",
    "link_img": "https://live.staticflickr.com/65535/51553383410_8776dda2fc_o.jpg",
    "id_image": "ANIME_PIC_6c7d63bd73aa11fee7312af40db3b0a7",
    "count_view": 0
  },
  {
    "link_thumb": "https://live.staticflickr.com/65535/51553188559_4bcf12b3b4_n.jpg",
    "id_album": "-89234980",
    "description": "ANIME_PIC_6c801b1493d1e7c531eebebe8fcb439f,[GirlsCuteCool],[isGirlAnime],[isCuteAnime],[isGirlsLoliAnime],[isSadAnimeGirl],[isSadAnime]",
    "title": "ANIME_PIC_6c801b1493d1e7c531eebebe8fcb439f",
    "link_img": "https://live.staticflickr.com/65535/51553188559_1469643eb4_o.png",
    "id_image": "ANIME_PIC_6c801b1493d1e7c531eebebe8fcb439f",
    "count_view": 0
  },
  {
    "link_thumb": "https://live.staticflickr.com/65535/51552469131_d098969bbd_n.jpg",
    "id_album": "-89234980",
    "description": "ANIME_PIC_6c802c919b2a8b69450e321aff23d7af,[GirlsCuteCool],[isGirlAnime],[isCuteAnime],[isGirlsHatsHoodieAnime],[isGirlsLoliAnime]",
    "title": "ANIME_PIC_6c802c919b2a8b69450e321aff23d7af",
    "link_img": "https://live.staticflickr.com/65535/51552469131_86373143f0_o.jpg",
    "id_image": "ANIME_PIC_6c802c919b2a8b69450e321aff23d7af",
    "count_view": 0
  },
  {
    "link_thumb": "https://live.staticflickr.com/65535/51552702988_b3f91c5a85_n.jpg",
    "id_album": "-89234980",
    "description": "ANIME_PIC_6c822b11db7ba817345a8c0c5d88c681,[GirlsCuteCool],[isGirlAnime],[isCuteAnime]",
    "title": "ANIME_PIC_6c822b11db7ba817345a8c0c5d88c681",
    "link_img": "https://live.staticflickr.com/65535/51552702988_d08b3e4f77_o.jpg",
    "id_image": "ANIME_PIC_6c822b11db7ba817345a8c0c5d88c681",
    "count_view": 0
  },
  {
    "link_thumb": "https://live.staticflickr.com/65535/51553384235_f0f7329f39_n.jpg",
    "id_album": "-89234980",
    "description": "ANIME_PIC_6c825e612d7b34a6bbf9c2989d0344a6,[GirlsCuteCool],[isGirlAnime],[isCuteAnime],[isGirlsLoliAnime]",
    "title": "ANIME_PIC_6c825e612d7b34a6bbf9c2989d0344a6",
    "link_img": "https://live.staticflickr.com/65535/51553384235_38c3839c7e_o.jpg",
    "id_image": "ANIME_PIC_6c825e612d7b34a6bbf9c2989d0344a6",
    "count_view": 0
  },
  {
    "link_thumb": "https://live.staticflickr.com/65535/51552469646_b5666d612e_n.jpg",
    "id_album": "-89234980",
    "description": "ANIME_PIC_6c94b0c8f9c8470eec645c0364edcdf8,[GirlsCuteCool],[isGirlAnime],[isCuteAnime],[isGirlEarsNekoAnime]",
    "title": "ANIME_PIC_6c94b0c8f9c8470eec645c0364edcdf8",
    "link_img": "https://live.staticflickr.com/65535/51552469646_4cc288d748_o.jpg",
    "id_image": "ANIME_PIC_6c94b0c8f9c8470eec645c0364edcdf8",
    "count_view": 0
  },
  {
    "link_thumb": "https://live.staticflickr.com/65535/51552703533_2913ba32c1_n.jpg",
    "id_album": "-89234980",
    "description": "ANIME_PIC_6c95168c61d985ef86394686b5ae366d,[GirlsCuteCool],[isGirlAnime],[isCuteAnime]",
    "title": "ANIME_PIC_6c95168c61d985ef86394686b5ae366d",
    "link_img": "https://live.staticflickr.com/65535/51552703533_e8ff643d73_o.jpg",
    "id_image": "ANIME_PIC_6c95168c61d985ef86394686b5ae366d",
    "count_view": 0
  },
  {
    "link_thumb": "https://live.staticflickr.com/65535/51553189739_634a4104b8_n.jpg",
    "id_album": "-89234980",
    "description": "ANIME_PIC_6c9bce2b0bef6e8b8f06e20a01f12b21,[GirlsCuteCool],[isGirlAnime],[isCuteAnime]",
    "title": "ANIME_PIC_6c9bce2b0bef6e8b8f06e20a01f12b21",
    "link_img": "https://live.staticflickr.com/65535/51553189739_4f7931d06f_o.jpg",
    "id_image": "ANIME_PIC_6c9bce2b0bef6e8b8f06e20a01f12b21",
    "count_view": 0
  },
  {
    "link_thumb": "https://live.staticflickr.com/65535/51553385060_c7de6c83b6_n.jpg",
    "id_album": "-89234980",
    "description": "ANIME_PIC_6c9c144cc53ba2516a6d0e71b7d82c08,[GirlsCuteCool],[isGirlAnime],[isCuteAnime],[isGirlsLoliAnime]",
    "title": "ANIME_PIC_6c9c144cc53ba2516a6d0e71b7d82c08",
    "link_img": "https://live.staticflickr.com/65535/51553385060_dd483a67d1_o.png",
    "id_image": "ANIME_PIC_6c9c144cc53ba2516a6d0e71b7d82c08",
    "count_view": 0
  },
  {
    "link_thumb": "https://live.staticflickr.com/65535/51552470551_a68a0d9631_n.jpg",
    "id_album": "-89234980",
    "description": "ANIME_PIC_6c9fba5d2fea8309c383ac13840e0c86,[GirlsCuteCool],[isGirlAnime],[isCuteAnime],[isGirlsLoliAnime]",
    "title": "ANIME_PIC_6c9fba5d2fea8309c383ac13840e0c86",
    "link_img": "https://live.staticflickr.com/65535/51552470551_24ffdacaae_o.jpg",
    "id_image": "ANIME_PIC_6c9fba5d2fea8309c383ac13840e0c86",
    "count_view": 0
  },
  {
    "link_thumb": "https://live.staticflickr.com/65535/51552470741_3e3d6cc306_n.jpg",
    "id_album": "-89234980",
    "description": "ANIME_PIC_6ca53ca5a6d58c878c7d80fc1758d340,[GirlsCuteCool],[isGirlAnime],[isCuteAnime],[isGirlsLoliAnime]",
    "title": "ANIME_PIC_6ca53ca5a6d58c878c7d80fc1758d340",
    "link_img": "https://live.staticflickr.com/65535/51552470741_6570213803_o.jpg",
    "id_image": "ANIME_PIC_6ca53ca5a6d58c878c7d80fc1758d340",
    "count_view": 0
  },
  {
    "link_thumb": "https://live.staticflickr.com/65535/51551673382_3ef5ddac94_n.jpg",
    "id_album": "-89234980",
    "description": "ANIME_PIC_6ca8c081beb58f13aa70512a136d474b,[GirlsCuteCool],[isGirlAnime],[isCuteAnime],[isSadAnimeGirl],[isSadAnime]",
    "title": "ANIME_PIC_6ca8c081beb58f13aa70512a136d474b",
    "link_img": "https://live.staticflickr.com/65535/51551673382_1b346855f4_o.jpg",
    "id_image": "ANIME_PIC_6ca8c081beb58f13aa70512a136d474b",
    "count_view": 0
  },
  {
    "link_thumb": "https://live.staticflickr.com/65535/51553190974_9722ae91c8_n.jpg",
    "id_album": "-89234980",
    "description": "ANIME_PIC_6caa248968a145f241986d1352be59cb,[GirlsCuteCool],[isGirlAnime],[isCuteAnime]",
    "title": "ANIME_PIC_6caa248968a145f241986d1352be59cb",
    "link_img": "https://live.staticflickr.com/65535/51553190974_e64170e55d_o.jpg",
    "id_image": "ANIME_PIC_6caa248968a145f241986d1352be59cb",
    "count_view": 0
  },
  {
    "link_thumb": "https://live.staticflickr.com/65535/49799174137_d3caa20650_n.jpg",
    "id_album": "-89234980",
    "description": "ANIME_PIC_6cb0ea6bf9387c9d3e42439ef18af798,[isGirlAnime],[isCuteAnime],[Girls Cute Cool],[GirlsCuteCool]",
    "title": "ANIME_PIC_6cb0ea6bf9387c9d3e42439ef18af798",
    "link_img": "https://live.staticflickr.com/65535/49799174137_e5382a8a0d_o.png",
    "id_image": "ANIME_PIC_6cb0ea6bf9387c9d3e42439ef18af798",
    "count_view": 0
  },
  {
    "link_thumb": "https://live.staticflickr.com/65535/51552705043_16ca5fa656_n.jpg",
    "id_album": "-89234980",
    "description": "ANIME_PIC_6cb2cd273f20674ab70cacfd1d5c8545,[GirlsCuteCool],[isGirlAnime],[isCuteAnime],[isGirlFaceMasksAnime],[isGirlsHatsHoodieAnime],[isGirlsLoliAnime]",
    "title": "ANIME_PIC_6cb2cd273f20674ab70cacfd1d5c8545",
    "link_img": "https://live.staticflickr.com/65535/51552705043_c464d2cf18_o.jpg",
    "id_image": "ANIME_PIC_6cb2cd273f20674ab70cacfd1d5c8545",
    "count_view": 0
  },
  {
    "link_thumb": "https://live.staticflickr.com/65535/51553386420_3fa8745497_n.jpg",
    "id_album": "-89234980",
    "description": "ANIME_PIC_6cb8feee68bd0597eed3cc6e72b63014,[GirlsCuteCool],[isGirlAnime],[isCuteAnime],[isGirlsHatsHoodieAnime],[isGirlsLoliAnime]",
    "title": "ANIME_PIC_6cb8feee68bd0597eed3cc6e72b63014",
    "link_img": "https://live.staticflickr.com/65535/51553386420_7fa0b80684_o.jpg",
    "id_image": "ANIME_PIC_6cb8feee68bd0597eed3cc6e72b63014",
    "count_view": 0
  },
  {
    "link_thumb": "https://live.staticflickr.com/65535/49798869546_2194bab5b2_n.jpg",
    "id_album": "-89234980",
    "description": "ANIME_PIC_6cbd7a1467ccaf5825014fe56322760d,[isGirlAnime],[isCuteAnime],[Girls Cute Cool],[GirlsCuteCool],[isGirlsSharpCanineToothAnime]",
    "title": "ANIME_PIC_6cbd7a1467ccaf5825014fe56322760d",
    "link_img": "https://live.staticflickr.com/65535/49798869546_b632247dc2_o.jpg",
    "id_image": "ANIME_PIC_6cbd7a1467ccaf5825014fe56322760d",
    "count_view": 0
  },
  {
    "link_thumb": "https://live.staticflickr.com/65535/51551674492_d808a5fd67_n.jpg",
    "id_album": "-89234980",
    "description": "ANIME_PIC_6cbdbf2adf98d38acf1a56ba3fe542c8,[GirlsCuteCool],[isGirlAnime],[isCuteAnime],[isGirlEarsNekoAnime]",
    "title": "ANIME_PIC_6cbdbf2adf98d38acf1a56ba3fe542c8",
    "link_img": "https://live.staticflickr.com/65535/51551674492_e99ea6bacb_o.png",
    "id_image": "ANIME_PIC_6cbdbf2adf98d38acf1a56ba3fe542c8",
    "count_view": 0
  },
  {
    "link_thumb": "https://live.staticflickr.com/65535/51552706768_fc688b046a_n.jpg",
    "id_album": "-89234980",
    "description": "ANIME_PIC_6cbf08d1fe664162e0817baff2756fea,[GirlsCuteCool],[isGirlAnime],[isCuteAnime],[isGirlsLoliAnime]",
    "title": "ANIME_PIC_6cbf08d1fe664162e0817baff2756fea",
    "link_img": "https://live.staticflickr.com/65535/51552706768_9bdbee7248_o.png",
    "id_image": "ANIME_PIC_6cbf08d1fe664162e0817baff2756fea",
    "count_view": 0
  },
  {
    "link_thumb": "https://live.staticflickr.com/65535/51553193544_dae7e2b9dd_n.jpg",
    "id_album": "-89234980",
    "description": "ANIME_PIC_6cbf5e4ea18ff1073da5cb06711a84a4,[GirlsCuteCool],[isGirlAnime],[isCuteAnime],[isGirlsLoliAnime]",
    "title": "ANIME_PIC_6cbf5e4ea18ff1073da5cb06711a84a4",
    "link_img": "https://live.staticflickr.com/65535/51553193544_1b889e9f8a_o.jpg",
    "id_image": "ANIME_PIC_6cbf5e4ea18ff1073da5cb06711a84a4",
    "count_view": 0
  },
  {
    "link_thumb": "https://live.staticflickr.com/65535/51551676432_8545dd9af2_n.jpg",
    "id_album": "-89234980",
    "description": "ANIME_PIC_6cc2a25539a194451107e04f57e2cdbd,[GirlsCuteCool],[isGirlAnime],[isCuteAnime],[isSadAnimeGirl],[isSadAnime]",
    "title": "ANIME_PIC_6cc2a25539a194451107e04f57e2cdbd",
    "link_img": "https://live.staticflickr.com/65535/51551676432_0f869fc3cb_o.png",
    "id_image": "ANIME_PIC_6cc2a25539a194451107e04f57e2cdbd",
    "count_view": 0
  },
  {
    "link_thumb": "https://live.staticflickr.com/65535/51552473841_ec6f6ac43a_n.jpg",
    "id_album": "-89234980",
    "description": "ANIME_PIC_6cc48f2f87dfe3386dfaee53bf118591,[GirlsCuteCool],[isGirlAnime],[isCuteAnime],[isGirlsLoliAnime]",
    "title": "ANIME_PIC_6cc48f2f87dfe3386dfaee53bf118591",
    "link_img": "https://live.staticflickr.com/65535/51552473841_328e670582_o.jpg",
    "id_image": "ANIME_PIC_6cc48f2f87dfe3386dfaee53bf118591",
    "count_view": 0
  },
  {
    "link_thumb": "https://live.staticflickr.com/65535/51552707928_0bd27f5e6f_n.jpg",
    "id_album": "-89234980",
    "description": "ANIME_PIC_6cc9023fd98b3b523aa0be8614b94a1f,[GirlsCuteCool],[isGirlAnime],[isCuteAnime],[isSadAnimeGirl],[isSadAnime]",
    "title": "ANIME_PIC_6cc9023fd98b3b523aa0be8614b94a1f",
    "link_img": "https://live.staticflickr.com/65535/51552707928_f66906d4c2_o.jpg",
    "id_image": "ANIME_PIC_6cc9023fd98b3b523aa0be8614b94a1f",
    "count_view": 0
  },
  {
    "link_thumb": "https://live.staticflickr.com/65535/51551677267_28965695b9_n.jpg",
    "id_album": "-89234980",
    "description": "ANIME_PIC_6ccfeff49c8f5be7ec5d6dd2d6f6683e,[GirlsCuteCool],[isGirlAnime],[isCuteAnime],[isGirlsHatsHoodieAnime],[isGirlsLoliAnime]",
    "title": "ANIME_PIC_6ccfeff49c8f5be7ec5d6dd2d6f6683e",
    "link_img": "https://live.staticflickr.com/65535/51551677267_ef35f49cfb_o.jpg",
    "id_image": "ANIME_PIC_6ccfeff49c8f5be7ec5d6dd2d6f6683e",
    "count_view": 0
  },
  {
    "link_thumb": "https://live.staticflickr.com/65535/51552708338_fa9db9ac69_n.jpg",
    "id_album": "-89234980",
    "description": "ANIME_PIC_6cd82f8cdb8387aa70537f4d8126106b,[GirlsCuteCool],[isGirlAnime],[isCuteAnime],[isGirlEarsNekoAnime]",
    "title": "ANIME_PIC_6cd82f8cdb8387aa70537f4d8126106b",
    "link_img": "https://live.staticflickr.com/65535/51552708338_cfbed200a4_o.jpg",
    "id_image": "ANIME_PIC_6cd82f8cdb8387aa70537f4d8126106b",
    "count_view": 0
  },
  {
    "link_thumb": "https://live.staticflickr.com/65535/51553194899_b468476053_n.jpg",
    "id_album": "-89234980",
    "description": "ANIME_PIC_6cd83308119558b52685b8056b83b11d,[GirlsCuteCool],[isGirlAnime],[isCuteAnime],[isGirlsHatsHoodieAnime]",
    "title": "ANIME_PIC_6cd83308119558b52685b8056b83b11d",
    "link_img": "https://live.staticflickr.com/65535/51553194899_b30a8c091a_o.png",
    "id_image": "ANIME_PIC_6cd83308119558b52685b8056b83b11d",
    "count_view": 0
  },
  {
    "link_thumb": "https://live.staticflickr.com/65535/51552708883_bb4278afcf_n.jpg",
    "id_album": "-89234980",
    "description": "ANIME_PIC_6cdcbd8038cb01eb7427b71e32f7722d,[GirlsCuteCool],[isGirlAnime],[isCuteAnime]",
    "title": "ANIME_PIC_6cdcbd8038cb01eb7427b71e32f7722d",
    "link_img": "https://live.staticflickr.com/65535/51552708883_c49caa8d5e_o.jpg",
    "id_image": "ANIME_PIC_6cdcbd8038cb01eb7427b71e32f7722d",
    "count_view": 0
  },
  {
    "link_thumb": "https://live.staticflickr.com/65535/51551678047_1180ba8a91_n.jpg",
    "id_album": "-89234980",
    "description": "ANIME_PIC_6cddaf850a1619954810e70dbd66afea,[GirlsCuteCool],[isGirlAnime],[isCuteAnime],[isGirlsHatsHoodieAnime],[isGirlsLoliAnime]",
    "title": "ANIME_PIC_6cddaf850a1619954810e70dbd66afea",
    "link_img": "https://live.staticflickr.com/65535/51551678047_d23d196d13_o.jpg",
    "id_image": "ANIME_PIC_6cddaf850a1619954810e70dbd66afea",
    "count_view": 0
  },
  {
    "link_thumb": "https://live.staticflickr.com/65535/51553390535_1319442d0e_n.jpg",
    "id_album": "-89234980",
    "description": "ANIME_PIC_6cdf4a2caa6144f530ca48521839f6c4,[GirlsCuteCool],[isBoyAnime],[isCoupleAnime],[isGirlAnime],[isCuteAnime]",
    "title": "ANIME_PIC_6cdf4a2caa6144f530ca48521839f6c4",
    "link_img": "https://live.staticflickr.com/65535/51553390535_2c6674b913_o.jpg",
    "id_image": "ANIME_PIC_6cdf4a2caa6144f530ca48521839f6c4",
    "count_view": 0
  },
  {
    "link_thumb": "https://live.staticflickr.com/65535/51552709463_583319f661_n.jpg",
    "id_album": "-89234980",
    "description": "ANIME_PIC_6ce521b1f0695243bc694647f5aa30bc,[GirlsCuteCool],[isGirlAnime],[isCuteAnime],[isGirlsLoliAnime]",
    "title": "ANIME_PIC_6ce521b1f0695243bc694647f5aa30bc",
    "link_img": "https://live.staticflickr.com/65535/51552709463_bf64182855_o.jpg",
    "id_image": "ANIME_PIC_6ce521b1f0695243bc694647f5aa30bc",
    "count_view": 0
  },
  {
    "link_thumb": "https://live.staticflickr.com/65535/51552709648_9a6b92336c_n.jpg",
    "id_album": "-89234980",
    "description": "ANIME_PIC_6ce8572d4b336765c01032128caed9c6,[GirlsCuteCool],[isGirlAnime],[isCuteAnime],[isGirlEarsNekoAnime]",
    "title": "ANIME_PIC_6ce8572d4b336765c01032128caed9c6",
    "link_img": "https://live.staticflickr.com/65535/51552709648_8bbd58680e_o.jpg",
    "id_image": "ANIME_PIC_6ce8572d4b336765c01032128caed9c6",
    "count_view": 0
  },
  {
    "link_thumb": "https://live.staticflickr.com/65535/51553391065_c227096f45_n.jpg",
    "id_album": "-89234980",
    "description": "ANIME_PIC_6ce953e042c6a3dc749819e877a87af1,[GirlsCuteCool],[isGirlAnime],[isCuteAnime]",
    "title": "ANIME_PIC_6ce953e042c6a3dc749819e877a87af1",
    "link_img": "https://live.staticflickr.com/65535/51553391065_ffb092b7b8_o.jpg",
    "id_image": "ANIME_PIC_6ce953e042c6a3dc749819e877a87af1",
    "count_view": 0
  },
  {
    "link_thumb": "https://live.staticflickr.com/65535/51551679132_f54f34dc48_n.jpg",
    "id_album": "-89234980",
    "description": "ANIME_PIC_6ce98a075bc66ad81e14115a05f48ba4,[GirlsCuteCool],[isGirlAnime],[isCuteAnime]",
    "title": "ANIME_PIC_6ce98a075bc66ad81e14115a05f48ba4",
    "link_img": "https://live.staticflickr.com/65535/51551679132_cbba5eeabc_o.jpg",
    "id_image": "ANIME_PIC_6ce98a075bc66ad81e14115a05f48ba4",
    "count_view": 0
  },
  {
    "link_thumb": "https://live.staticflickr.com/65535/51552710168_63be75c289_n.jpg",
    "id_album": "-89234980",
    "description": "ANIME_PIC_6ceb527ccd793fe06f379392f0062b85,[GirlsCuteCool],[isGirlAnime],[isCuteAnime],[isGirlsHornsAnime],[isGirlsLoliAnime]",
    "title": "ANIME_PIC_6ceb527ccd793fe06f379392f0062b85",
    "link_img": "https://live.staticflickr.com/65535/51552710168_1c997925b5_o.jpg",
    "id_image": "ANIME_PIC_6ceb527ccd793fe06f379392f0062b85",
    "count_view": 0
  },
  {
    "link_thumb": "https://live.staticflickr.com/65535/51553196654_3351666abb_n.jpg",
    "id_album": "-89234980",
    "description": "ANIME_PIC_6cebe7b23fe69ddb4c5e9e932f0b5a5d,[GirlsCuteCool],[isGirlAnime],[isCuteAnime],[isGirlsLoliAnime]",
    "title": "ANIME_PIC_6cebe7b23fe69ddb4c5e9e932f0b5a5d",
    "link_img": "https://live.staticflickr.com/65535/51553196654_b1c1bc750c_o.jpg",
    "id_image": "ANIME_PIC_6cebe7b23fe69ddb4c5e9e932f0b5a5d",
    "count_view": 0
  },
  {
    "link_thumb": "https://live.staticflickr.com/65535/51551679527_2ca5651d1f_n.jpg",
    "id_album": "-89234980",
    "description": "ANIME_PIC_6cf15023cbb5a09e3a3a4fc621c39627,[GirlsCuteCool],[isGirlAnime],[isCuteAnime]",
    "title": "ANIME_PIC_6cf15023cbb5a09e3a3a4fc621c39627",
    "link_img": "https://live.staticflickr.com/65535/51551679527_e96754c7a2_o.jpg",
    "id_image": "ANIME_PIC_6cf15023cbb5a09e3a3a4fc621c39627",
    "count_view": 0
  },
  {
    "link_thumb": "https://live.staticflickr.com/65535/51551679752_b0c0cb1a7b_n.jpg",
    "id_album": "-89234980",
    "description": "ANIME_PIC_6cf19f1d5ad48ba32806b0eeca1c71aa,[GirlsCuteCool],[isGirlAnime],[isCuteAnime],[isGirlEarsNekoAnime]",
    "title": "ANIME_PIC_6cf19f1d5ad48ba32806b0eeca1c71aa",
    "link_img": "https://live.staticflickr.com/65535/51551679752_13f4a2dcab_o.jpg",
    "id_image": "ANIME_PIC_6cf19f1d5ad48ba32806b0eeca1c71aa",
    "count_view": 0
  },
  {
    "link_thumb": "https://live.staticflickr.com/65535/51553392070_8a9d2900d7_n.jpg",
    "id_album": "-89234980",
    "description": "ANIME_PIC_6cf7a0edf0d944bcbeae554f8d2130f4,[GirlsCuteCool],[isGirlAnime],[isCuteAnime],[isGirlsLoliAnime]",
    "title": "ANIME_PIC_6cf7a0edf0d944bcbeae554f8d2130f4",
    "link_img": "https://live.staticflickr.com/65535/51553392070_deea260087_o.jpg",
    "id_image": "ANIME_PIC_6cf7a0edf0d944bcbeae554f8d2130f4",
    "count_view": 0
  },
  {
    "link_thumb": "https://live.staticflickr.com/65535/51553392230_80dca2bd25_n.jpg",
    "id_album": "-89234980",
    "description": "ANIME_PIC_6cf8316589440bf65eb1b0e8aeea11b4,[GirlsCuteCool],[isGirlAnime],[isCuteAnime],[isGirlsLoliAnime]",
    "title": "ANIME_PIC_6cf8316589440bf65eb1b0e8aeea11b4",
    "link_img": "https://live.staticflickr.com/65535/51553392230_6a4f3ceddf_o.jpg",
    "id_image": "ANIME_PIC_6cf8316589440bf65eb1b0e8aeea11b4",
    "count_view": 0
  },
  {
    "link_thumb": "https://live.staticflickr.com/65535/51552477276_b7a1f3f16f_n.jpg",
    "id_album": "-89234980",
    "description": "ANIME_PIC_6cfbe78d21e9dde425bcf454de040f04,[GirlsCuteCool],[isGirlAnime],[isCuteAnime]",
    "title": "ANIME_PIC_6cfbe78d21e9dde425bcf454de040f04",
    "link_img": "https://live.staticflickr.com/65535/51552477276_1508a7375c_o.png",
    "id_image": "ANIME_PIC_6cfbe78d21e9dde425bcf454de040f04",
    "count_view": 0
  },
  {
    "link_thumb": "https://live.staticflickr.com/65535/51552711513_65eff9b37f_n.jpg",
    "id_album": "-89234980",
    "description": "ANIME_PIC_6cfd0ad68ccb63f46643ae1ccd21b863,[GirlsCuteCool],[isGirlAnime],[isCuteAnime],[isGirlsLoliAnime]",
    "title": "ANIME_PIC_6cfd0ad68ccb63f46643ae1ccd21b863",
    "link_img": "https://live.staticflickr.com/65535/51552711513_29b71da3c2_o.png",
    "id_image": "ANIME_PIC_6cfd0ad68ccb63f46643ae1ccd21b863",
    "count_view": 0
  },
  {
    "link_thumb": "https://live.staticflickr.com/65535/51552477851_a349f6a742_n.jpg",
    "id_album": "-89234980",
    "description": "ANIME_PIC_6cfdf07db702454e6bf9d5e2fe4a7e0e,[GirlsCuteCool],[isGirlAnime],[isCuteAnime],[isGirlsLoliAnime],[isSadAnimeGirl],[isSadAnime]",
    "title": "ANIME_PIC_6cfdf07db702454e6bf9d5e2fe4a7e0e",
    "link_img": "https://live.staticflickr.com/65535/51552477851_1c41e3dcc7_o.jpg",
    "id_image": "ANIME_PIC_6cfdf07db702454e6bf9d5e2fe4a7e0e",
    "count_view": 0
  },
  {
    "link_thumb": "https://live.staticflickr.com/65535/51552478026_e7988e6005_n.jpg",
    "id_album": "-89234980",
    "description": "ANIME_PIC_6d0173d0e314adafee4287d9b9807bd4,[GirlsCuteCool],[isBoyAnime],[isGirlAnime],[isCuteAnime]",
    "title": "ANIME_PIC_6d0173d0e314adafee4287d9b9807bd4",
    "link_img": "https://live.staticflickr.com/65535/51552478026_0d052ece6f_o.jpg",
    "id_image": "ANIME_PIC_6d0173d0e314adafee4287d9b9807bd4",
    "count_view": 0
  },
  {
    "link_thumb": "https://live.staticflickr.com/65535/51552478206_224371ebf5_n.jpg",
    "id_album": "-89234980",
    "description": "ANIME_PIC_6d0189abc9f7f4d7fb666079b138b1e5,[GirlsCuteCool],[isGirlAnime],[isCuteAnime],[isGirlsHatsHoodieAnime],[isGirlsLoliAnime]",
    "title": "ANIME_PIC_6d0189abc9f7f4d7fb666079b138b1e5",
    "link_img": "https://live.staticflickr.com/65535/51552478206_bbf9ea6261_o.png",
    "id_image": "ANIME_PIC_6d0189abc9f7f4d7fb666079b138b1e5",
    "count_view": 0
  },
  {
    "link_thumb": "https://live.staticflickr.com/65535/51553198789_8bbb00c4c5_n.jpg",
    "id_album": "-89234980",
    "description": "ANIME_PIC_6d01ef916cf2314bc760e4409fce4103,[GirlsCuteCool],[isGirlAnime],[isCuteAnime],[isGirlsLoliAnime]",
    "title": "ANIME_PIC_6d01ef916cf2314bc760e4409fce4103",
    "link_img": "https://live.staticflickr.com/65535/51553198789_dd9e31df18_o.jpg",
    "id_image": "ANIME_PIC_6d01ef916cf2314bc760e4409fce4103",
    "count_view": 0
  },
  {
    "link_thumb": "https://live.staticflickr.com/65535/51551681517_369ac4cf32_n.jpg",
    "id_album": "-89234980",
    "description": "ANIME_PIC_6d04ce3ecfeddcd5f0d87d6e9446ab99,[GirlsCuteCool],[isGirlAnime],[isCuteAnime],[isGirlsHatsHoodieAnime],[isGirlsLoliAnime]",
    "title": "ANIME_PIC_6d04ce3ecfeddcd5f0d87d6e9446ab99",
    "link_img": "https://live.staticflickr.com/65535/51551681517_6a2f5245a3_o.jpg",
    "id_image": "ANIME_PIC_6d04ce3ecfeddcd5f0d87d6e9446ab99",
    "count_view": 0
  },
  {
    "link_thumb": "https://live.staticflickr.com/65535/51552712658_0fba9ddcc5_n.jpg",
    "id_album": "-89234980",
    "description": "ANIME_PIC_6d101226432212873bdc2b6fe567798c,[GirlsCuteCool],[isGirlAnime],[isCuteAnime],[isGirlsLoliAnime]",
    "title": "ANIME_PIC_6d101226432212873bdc2b6fe567798c",
    "link_img": "https://live.staticflickr.com/65535/51552712658_0c8a2a10f0_o.jpg",
    "id_image": "ANIME_PIC_6d101226432212873bdc2b6fe567798c",
    "count_view": 0
  },
  {
    "link_thumb": "https://live.staticflickr.com/65535/51553199174_21f1a187b1_n.jpg",
    "id_album": "-89234980",
    "description": "ANIME_PIC_6d13d08c225cd87776b9c4fa46d73336,[GirlsCuteCool],[isGirlAnime],[isCuteAnime],[isGirlsHatsHoodieAnime],[isGirlsLoliAnime],[isSadAnimeGirl],[isSadAnime]",
    "title": "ANIME_PIC_6d13d08c225cd87776b9c4fa46d73336",
    "link_img": "https://live.staticflickr.com/65535/51553199174_ae659f64e8_o.png",
    "id_image": "ANIME_PIC_6d13d08c225cd87776b9c4fa46d73336",
    "count_view": 0
  },
  {
    "link_thumb": "https://live.staticflickr.com/65535/51553394415_0e78f6c4f9_n.jpg",
    "id_album": "-89234980",
    "description": "ANIME_PIC_6d153404a942dbfef2fa7e66b8326f7e,[GirlsCuteCool],[isGirlAnime],[isCuteAnime],[isGirlsLoliAnime],[isSadAnimeGirl],[isGirlsSharpCanineToothAnime],[isSadAnime]",
    "title": "ANIME_PIC_6d153404a942dbfef2fa7e66b8326f7e",
    "link_img": "https://live.staticflickr.com/65535/51553394415_ccb5b993e5_o.jpg",
    "id_image": "ANIME_PIC_6d153404a942dbfef2fa7e66b8326f7e",
    "count_view": 0
  },
  {
    "link_thumb": "https://live.staticflickr.com/65535/51552713303_8b77249892_n.jpg",
    "id_album": "-89234980",
    "description": "ANIME_PIC_6d17d9bfa3ae8e0b7d28784a1220e044,[GirlsCuteCool],[isGirlAnime],[isCuteAnime],[isGirlsLoliAnime]",
    "title": "ANIME_PIC_6d17d9bfa3ae8e0b7d28784a1220e044",
    "link_img": "https://live.staticflickr.com/65535/51552713303_cd4bd52381_o.jpg",
    "id_image": "ANIME_PIC_6d17d9bfa3ae8e0b7d28784a1220e044",
    "count_view": 0
  },
  {
    "link_thumb": "https://live.staticflickr.com/65535/51552479616_1799cc0e76_n.jpg",
    "id_album": "-89234980",
    "description": "ANIME_PIC_6d1caac9ae52a6a7141a5eb1e3e03cdc,[GirlsCuteCool],[isGirlAnime],[isCuteAnime],[isGirlsHatsHoodieAnime],[isGirlsLoliAnime]",
    "title": "ANIME_PIC_6d1caac9ae52a6a7141a5eb1e3e03cdc",
    "link_img": "https://live.staticflickr.com/65535/51552479616_0fdf888245_o.jpg",
    "id_image": "ANIME_PIC_6d1caac9ae52a6a7141a5eb1e3e03cdc",
    "count_view": 0
  },
  {
    "link_thumb": "https://live.staticflickr.com/65535/51553199899_e5ff3353d7_n.jpg",
    "id_album": "-89234980",
    "description": "ANIME_PIC_6d1f4b5e1ba4205a66445ea1588c75ae,[GirlsCuteCool],[isGirlAnime],[isCuteAnime],[isGirlsLoliAnime]",
    "title": "ANIME_PIC_6d1f4b5e1ba4205a66445ea1588c75ae",
    "link_img": "https://live.staticflickr.com/65535/51553199899_a28e5fdc25_o.png",
    "id_image": "ANIME_PIC_6d1f4b5e1ba4205a66445ea1588c75ae",
    "count_view": 0
  },
  {
    "link_thumb": "https://live.staticflickr.com/65535/51551682867_d0318ac71f_n.jpg",
    "id_album": "-89234980",
    "description": "ANIME_PIC_6d20a48cbe06d01780cbf291b6ccba3c,[GirlsCuteCool],[isGirlAnime],[isCuteAnime],[isGirlsLoliAnime]",
    "title": "ANIME_PIC_6d20a48cbe06d01780cbf291b6ccba3c",
    "link_img": "https://live.staticflickr.com/65535/51551682867_4a33a8c96a_o.jpg",
    "id_image": "ANIME_PIC_6d20a48cbe06d01780cbf291b6ccba3c",
    "count_view": 0
  },
  {
    "link_thumb": "https://live.staticflickr.com/65535/51552480366_9d76246bf6_n.jpg",
    "id_album": "-89234980",
    "description": "ANIME_PIC_6d22b289d28312117872082ed44325aa,[GirlsCuteCool],[isGirlAnime],[isCuteAnime],[isGirlsHatsHoodieAnime],[isGirlsLoliAnime]",
    "title": "ANIME_PIC_6d22b289d28312117872082ed44325aa",
    "link_img": "https://live.staticflickr.com/65535/51552480366_3f271a45cd_o.jpg",
    "id_image": "ANIME_PIC_6d22b289d28312117872082ed44325aa",
    "count_view": 0
  },
  {
    "link_thumb": "https://live.staticflickr.com/65535/51552480561_64a9a7340a_n.jpg",
    "id_album": "-89234980",
    "description": "ANIME_PIC_6d23bd1697d11a86c38dcf397bcea20c,[GirlsCuteCool],[isGirlAnime],[isCuteAnime]",
    "title": "ANIME_PIC_6d23bd1697d11a86c38dcf397bcea20c",
    "link_img": "https://live.staticflickr.com/65535/51552480561_5f59b89fb4_o.jpg",
    "id_image": "ANIME_PIC_6d23bd1697d11a86c38dcf397bcea20c",
    "count_view": 0
  },
  {
    "link_thumb": "https://live.staticflickr.com/65535/51552714743_12bdc35471_n.jpg",
    "id_album": "-89234980",
    "description": "ANIME_PIC_6d26b9bc93141afea87bf197b40e2e20,[GirlsCuteCool],[isGirlAnime],[isCuteAnime]",
    "title": "ANIME_PIC_6d26b9bc93141afea87bf197b40e2e20",
    "link_img": "https://live.staticflickr.com/65535/51552714743_0e1e925901_o.png",
    "id_image": "ANIME_PIC_6d26b9bc93141afea87bf197b40e2e20",
    "count_view": 0
  },
  {
    "link_thumb": "https://live.staticflickr.com/65535/51552715273_d00a774f8c_n.jpg",
    "id_album": "-89234980",
    "description": "ANIME_PIC_6d27b11cd43f162f93beeb184d436c85,[GirlsCuteCool],[isGirlAnime],[isCuteAnime],[isSadAnimeGirl],[isSadAnime]",
    "title": "ANIME_PIC_6d27b11cd43f162f93beeb184d436c85",
    "link_img": "https://live.staticflickr.com/65535/51552715273_aae7693a81_o.jpg",
    "id_image": "ANIME_PIC_6d27b11cd43f162f93beeb184d436c85",
    "count_view": 0
  },
  {
    "link_thumb": "https://live.staticflickr.com/65535/51552715468_159d36a4e2_n.jpg",
    "id_album": "-89234980",
    "description": "ANIME_PIC_6d28527dc30909bf38ee6d410c8438e0,[GirlsCuteCool],[isGirlAnime],[isCuteAnime],[isGirlsLoliAnime]",
    "title": "ANIME_PIC_6d28527dc30909bf38ee6d410c8438e0",
    "link_img": "https://live.staticflickr.com/65535/51552715468_db0596320b_o.png",
    "id_image": "ANIME_PIC_6d28527dc30909bf38ee6d410c8438e0",
    "count_view": 0
  },
  {
    "link_thumb": "https://live.staticflickr.com/65535/51552481936_438179d07c_n.jpg",
    "id_album": "-89234980",
    "description": "ANIME_PIC_6d2c4efd15b4596ee214e8c2b25e0a18,[GirlsCuteCool],[isGirlAnime],[isCuteAnime],[isGirlsLoliAnime]",
    "title": "ANIME_PIC_6d2c4efd15b4596ee214e8c2b25e0a18",
    "link_img": "https://live.staticflickr.com/65535/51552481936_24db7c4e6c_o.jpg",
    "id_image": "ANIME_PIC_6d2c4efd15b4596ee214e8c2b25e0a18",
    "count_view": 0
  },
  {
    "link_thumb": "https://live.staticflickr.com/65535/51553202104_0a95fd2b46_n.jpg",
    "id_album": "-89234980",
    "description": "ANIME_PIC_6d2ddf777bb079330921364e2b13f4a8,[GirlsCuteCool],[isGirlAnime],[isCuteAnime],[isGirlsLoliAnime]",
    "title": "ANIME_PIC_6d2ddf777bb079330921364e2b13f4a8",
    "link_img": "https://live.staticflickr.com/65535/51553202104_638e417d64_o.jpg",
    "id_image": "ANIME_PIC_6d2ddf777bb079330921364e2b13f4a8",
    "count_view": 0
  },
  {
    "link_thumb": "https://live.staticflickr.com/65535/51551684882_9f5c6f5a3a_n.jpg",
    "id_album": "-89234980",
    "description": "ANIME_PIC_6d30628581e95b586873fb0c42b2a5e4,[GirlsCuteCool],[isGirlAnime],[isCuteAnime],[isGirlEarsNekoAnime]",
    "title": "ANIME_PIC_6d30628581e95b586873fb0c42b2a5e4",
    "link_img": "https://live.staticflickr.com/65535/51551684882_fbb5f66d90_o.jpg",
    "id_image": "ANIME_PIC_6d30628581e95b586873fb0c42b2a5e4",
    "count_view": 0
  },
  {
    "link_thumb": "https://live.staticflickr.com/65535/51552482411_be59660f10_n.jpg",
    "id_album": "-89234980",
    "description": "ANIME_PIC_6d344176bd375f0b04c98aaef445bed2,[GirlsCuteCool],[isGirlAnime],[isCuteAnime],[isGirlsHatsHoodieAnime]",
    "title": "ANIME_PIC_6d344176bd375f0b04c98aaef445bed2",
    "link_img": "https://live.staticflickr.com/65535/51552482411_575eab4662_o.jpg",
    "id_image": "ANIME_PIC_6d344176bd375f0b04c98aaef445bed2",
    "count_view": 0
  },
  {
    "link_thumb": "https://live.staticflickr.com/65535/51553202544_07f5f7c5b8_n.jpg",
    "id_album": "-89234980",
    "description": "ANIME_PIC_6d34467b2e2f4f9b4903949ac6ad827a,[GirlsCuteCool],[isGirlAnime],[isCuteAnime],[isGirlsLoliAnime]",
    "title": "ANIME_PIC_6d34467b2e2f4f9b4903949ac6ad827a",
    "link_img": "https://live.staticflickr.com/65535/51553202544_8cd38c0fec_o.jpg",
    "id_image": "ANIME_PIC_6d34467b2e2f4f9b4903949ac6ad827a",
    "count_view": 0
  },
  {
    "link_thumb": "https://live.staticflickr.com/65535/51552482736_89e6b96700_n.jpg",
    "id_album": "-89234980",
    "description": "ANIME_PIC_6d3815fa5b0b0362288976f6b51d7b73,[GirlsCuteCool],[isGirlAnime],[isCuteAnime],[isGirlsLoliAnime],[isGirlsSharpCanineToothAnime]",
    "title": "ANIME_PIC_6d3815fa5b0b0362288976f6b51d7b73",
    "link_img": "https://live.staticflickr.com/65535/51552482736_5fc4a62ab3_o.jpg",
    "id_image": "ANIME_PIC_6d3815fa5b0b0362288976f6b51d7b73",
    "count_view": 0
  },
  {
    "link_thumb": "https://live.staticflickr.com/65535/51553202879_df75f42aea_n.jpg",
    "id_album": "-89234980",
    "description": "ANIME_PIC_6d3a35209cee2ba431b6dc8b8c96dc27,[GirlsCuteCool],[isGirlAnime],[isCuteAnime]",
    "title": "ANIME_PIC_6d3a35209cee2ba431b6dc8b8c96dc27",
    "link_img": "https://live.staticflickr.com/65535/51553202879_88ae9caf3e_o.jpg",
    "id_image": "ANIME_PIC_6d3a35209cee2ba431b6dc8b8c96dc27",
    "count_view": 0
  },
  {
    "link_thumb": "https://live.staticflickr.com/65535/51551685687_98f5c95809_n.jpg",
    "id_album": "-89234980",
    "description": "ANIME_PIC_6d3bb1e676d224ad56822430298de4b8,[GirlsCuteCool],[isGirlAnime],[isCuteAnime],[isGirlsLoliAnime]",
    "title": "ANIME_PIC_6d3bb1e676d224ad56822430298de4b8",
    "link_img": "https://live.staticflickr.com/65535/51551685687_571bd1a26a_o.jpg",
    "id_image": "ANIME_PIC_6d3bb1e676d224ad56822430298de4b8",
    "count_view": 0
  },
  {
    "link_thumb": "https://live.staticflickr.com/65535/51553203134_fccdd7b1e3_n.jpg",
    "id_album": "-89234980",
    "description": "ANIME_PIC_6d3cf2309c7c38a5bd19e16cfae90fd3,[GirlsCuteCool],[isGirlAnime],[isCuteAnime]",
    "title": "ANIME_PIC_6d3cf2309c7c38a5bd19e16cfae90fd3",
    "link_img": "https://live.staticflickr.com/65535/51553203134_f1a29b0232_o.jpg",
    "id_image": "ANIME_PIC_6d3cf2309c7c38a5bd19e16cfae90fd3",
    "count_view": 0
  },
  {
    "link_thumb": "https://live.staticflickr.com/65535/51551685952_70ce3968d5_n.jpg",
    "id_album": "-89234980",
    "description": "ANIME_PIC_6d403f222006506d6fdca455a42bde4f,[GirlsCuteCool],[isGirlAnime],[isCuteAnime],[isGirlsLoliAnime]",
    "title": "ANIME_PIC_6d403f222006506d6fdca455a42bde4f",
    "link_img": "https://live.staticflickr.com/65535/51551685952_96708619db_o.png",
    "id_image": "ANIME_PIC_6d403f222006506d6fdca455a42bde4f",
    "count_view": 0
  },
  {
    "link_thumb": "https://live.staticflickr.com/65535/51552717213_d2983498fe_n.jpg",
    "id_album": "-89234980",
    "description": "ANIME_PIC_6d420671b202c041aebba19bee819aa2,[GirlsCuteCool],[isGirlAnime],[isCuteAnime],[isGirlsLoliAnime],[isSadAnimeGirl],[isSadAnime]",
    "title": "ANIME_PIC_6d420671b202c041aebba19bee819aa2",
    "link_img": "https://live.staticflickr.com/65535/51552717213_461d35e46f_o.jpg",
    "id_image": "ANIME_PIC_6d420671b202c041aebba19bee819aa2",
    "count_view": 0
  },
  {
    "link_thumb": "https://live.staticflickr.com/65535/51552483826_75b3ed5e2d_n.jpg",
    "id_album": "-89234980",
    "description": "ANIME_PIC_6d42c74c543db03421d8400c2630cd3d,[GirlsCuteCool],[isGirlAnime],[isCuteAnime],[isGirlsLoliAnime]",
    "title": "ANIME_PIC_6d42c74c543db03421d8400c2630cd3d",
    "link_img": "https://live.staticflickr.com/65535/51552483826_e774433302_o.jpg",
    "id_image": "ANIME_PIC_6d42c74c543db03421d8400c2630cd3d",
    "count_view": 0
  },
  {
    "link_thumb": "https://live.staticflickr.com/65535/51552484041_612358f5f9_n.jpg",
    "id_album": "-89234980",
    "description": "ANIME_PIC_6d4370743444cf24a7e8d19ec11d8917,[GirlsCuteCool],[isGirlAnime],[isCuteAnime],[isGirlsLoliAnime]",
    "title": "ANIME_PIC_6d4370743444cf24a7e8d19ec11d8917",
    "link_img": "https://live.staticflickr.com/65535/51552484041_4058d7c7d7_o.jpg",
    "id_image": "ANIME_PIC_6d4370743444cf24a7e8d19ec11d8917",
    "count_view": 0
  },
  {
    "link_thumb": "https://live.staticflickr.com/65535/51553399105_21abe3ddf8_n.jpg",
    "id_album": "-89234980",
    "description": "ANIME_PIC_6d437dcad67eb76eebf6a8577daf2dcb,[GirlsCuteCool],[isGirlAnime],[isCuteAnime]",
    "title": "ANIME_PIC_6d437dcad67eb76eebf6a8577daf2dcb",
    "link_img": "https://live.staticflickr.com/65535/51553399105_712551e553_o.jpg",
    "id_image": "ANIME_PIC_6d437dcad67eb76eebf6a8577daf2dcb",
    "count_view": 0
  },
  {
    "link_thumb": "https://live.staticflickr.com/65535/51553399295_3a2d4c6608_n.jpg",
    "id_album": "-89234980",
    "description": "ANIME_PIC_6d4be8ec6b5ec02d44b1bd93320f8dd1,[GirlsCuteCool],[isGirlAnime],[isCuteAnime],[isSadAnimeGirl],[isSadAnime]",
    "title": "ANIME_PIC_6d4be8ec6b5ec02d44b1bd93320f8dd1",
    "link_img": "https://live.staticflickr.com/65535/51553399295_f71c845d88_o.png",
    "id_image": "ANIME_PIC_6d4be8ec6b5ec02d44b1bd93320f8dd1",
    "count_view": 0
  },
  {
    "link_thumb": "https://live.staticflickr.com/65535/51553204634_015b9cc6f4_n.jpg",
    "id_album": "-89234980",
    "description": "ANIME_PIC_6d4cd6206f6aa129854861269160cf0e,[GirlsCuteCool],[isGirlAnime],[isCuteAnime],[isGirlsLoliAnime],[isGirlsSharpCanineToothAnime]",
    "title": "ANIME_PIC_6d4cd6206f6aa129854861269160cf0e",
    "link_img": "https://live.staticflickr.com/65535/51553204634_630d0e7728_o.jpg",
    "id_image": "ANIME_PIC_6d4cd6206f6aa129854861269160cf0e",
    "count_view": 0
  },
  {
    "link_thumb": "https://live.staticflickr.com/65535/51553399820_de977896df_n.jpg",
    "id_album": "-89234980",
    "description": "ANIME_PIC_6d4f78626d2284830db122857c5c811c,[GirlsCuteCool],[isGirlAnime],[isCuteAnime]",
    "title": "ANIME_PIC_6d4f78626d2284830db122857c5c811c",
    "link_img": "https://live.staticflickr.com/65535/51553399820_b7d60f41b6_o.jpg",
    "id_image": "ANIME_PIC_6d4f78626d2284830db122857c5c811c",
    "count_view": 0
  },
  {
    "link_thumb": "https://live.staticflickr.com/65535/51553204994_710b55903c_n.jpg",
    "id_album": "-89234980",
    "description": "ANIME_PIC_6d4f9b018210e59a19b489acdd9ddd52,[GirlsCuteCool],[isGirlAnime],[isCuteAnime],[isGirlsLoliAnime],[isSadAnimeGirl],[isSadAnime]",
    "title": "ANIME_PIC_6d4f9b018210e59a19b489acdd9ddd52",
    "link_img": "https://live.staticflickr.com/65535/51553204994_3fbca6d92b_o.png",
    "id_image": "ANIME_PIC_6d4f9b018210e59a19b489acdd9ddd52",
    "count_view": 0
  },
  {
    "link_thumb": "https://live.staticflickr.com/65535/51552485516_5787b9beb3_n.jpg",
    "id_album": "-89234980",
    "description": "ANIME_PIC_6d4fcc66e0ff8b39f1c9d557f36684f8,[GirlsCuteCool],[isGirlAnime],[isCuteAnime]",
    "title": "ANIME_PIC_6d4fcc66e0ff8b39f1c9d557f36684f8",
    "link_img": "https://live.staticflickr.com/65535/51552485516_751c4b5f24_o.jpg",
    "id_image": "ANIME_PIC_6d4fcc66e0ff8b39f1c9d557f36684f8",
    "count_view": 0
  },
  {
    "link_thumb": "https://live.staticflickr.com/65535/51552485686_e8c583fde0_n.jpg",
    "id_album": "-89234980",
    "description": "ANIME_PIC_6d5071ba15a8b4f997fe90303eef4ed6,[GirlsCuteCool],[isGirlAnime],[isCuteAnime],[isGirlsLoliAnime]",
    "title": "ANIME_PIC_6d5071ba15a8b4f997fe90303eef4ed6",
    "link_img": "https://live.staticflickr.com/65535/51552485686_1554eb5393_o.jpg",
    "id_image": "ANIME_PIC_6d5071ba15a8b4f997fe90303eef4ed6",
    "count_view": 0
  },
  {
    "link_thumb": "https://live.staticflickr.com/65535/51553400570_e6935698b2_n.jpg",
    "id_album": "-89234980",
    "description": "ANIME_PIC_6d50ce31da29abf395d620e372bdaf88,[GirlsCuteCool],[isGirlAnime],[isCuteAnime],[isBlackAnime],[isGirlsLoliAnime]",
    "title": "ANIME_PIC_6d50ce31da29abf395d620e372bdaf88",
    "link_img": "https://live.staticflickr.com/65535/51553400570_0fefab1731_o.jpg",
    "id_image": "ANIME_PIC_6d50ce31da29abf395d620e372bdaf88",
    "count_view": 0
  },
  {
    "link_thumb": "https://live.staticflickr.com/65535/51553205664_1d1e4e4200_n.jpg",
    "id_album": "-89234980",
    "description": "ANIME_PIC_6d5485da853af2a8092c29f25ff1022f,[GirlsCuteCool],[isGirlAnime],[isCuteAnime],[isSadAnimeGirl],[isSadAnime]",
    "title": "ANIME_PIC_6d5485da853af2a8092c29f25ff1022f",
    "link_img": "https://live.staticflickr.com/65535/51553205664_2570fce4af_o.jpg",
    "id_image": "ANIME_PIC_6d5485da853af2a8092c29f25ff1022f",
    "count_view": 0
  },
  {
    "link_thumb": "https://live.staticflickr.com/65535/51552486296_d0b2941b4d_n.jpg",
    "id_album": "-89234980",
    "description": "ANIME_PIC_6d55d6f622730dd2ce256d46231e824d,[GirlsCuteCool],[isGirlAnime],[isCuteAnime]",
    "title": "ANIME_PIC_6d55d6f622730dd2ce256d46231e824d",
    "link_img": "https://live.staticflickr.com/65535/51552486296_557195fb1a_o.png",
    "id_image": "ANIME_PIC_6d55d6f622730dd2ce256d46231e824d",
    "count_view": 0
  },
  {
    "link_thumb": "https://live.staticflickr.com/65535/51551688932_4b1e133b38_n.jpg",
    "id_album": "-89234980",
    "description": "ANIME_PIC_6d5956c49a09a97e9b84dd06b0bfa917,[GirlsCuteCool],[isGirlAnime],[isCuteAnime],[isSadAnimeGirl],[isSadAnime]",
    "title": "ANIME_PIC_6d5956c49a09a97e9b84dd06b0bfa917",
    "link_img": "https://live.staticflickr.com/65535/51551688932_de990c2c71_o.png",
    "id_image": "ANIME_PIC_6d5956c49a09a97e9b84dd06b0bfa917",
    "count_view": 0
  },
  {
    "link_thumb": "https://live.staticflickr.com/65535/51553206574_57fb0cb3fc_n.jpg",
    "id_album": "-89234980",
    "description": "ANIME_PIC_6d5c74e84ea4eebe1008cafcf61ef4fb,[GirlsCuteCool],[isGirlAnime],[isCuteAnime],[isGirlEarsNekoAnime]",
    "title": "ANIME_PIC_6d5c74e84ea4eebe1008cafcf61ef4fb",
    "link_img": "https://live.staticflickr.com/65535/51553206574_074c83d920_o.png",
    "id_image": "ANIME_PIC_6d5c74e84ea4eebe1008cafcf61ef4fb",
    "count_view": 0
  },
  {
    "link_thumb": "https://live.staticflickr.com/65535/51552487026_cfa9385d63_n.jpg",
    "id_album": "-89234980",
    "description": "ANIME_PIC_6d5d580f62f52f6a6904ccd798e38b14,[GirlsCuteCool],[isGirlAnime],[isCuteAnime],[isGirlsHatsHoodieAnime],[isGirlsLoliAnime]",
    "title": "ANIME_PIC_6d5d580f62f52f6a6904ccd798e38b14",
    "link_img": "https://live.staticflickr.com/65535/51552487026_947063be99_o.jpg",
    "id_image": "ANIME_PIC_6d5d580f62f52f6a6904ccd798e38b14",
    "count_view": 0
  },
  {
    "link_thumb": "https://live.staticflickr.com/65535/51552487096_359df91c4f_n.jpg",
    "id_album": "-89234980",
    "description": "ANIME_PIC_6d5ffade8e301d846a8ffd785f4787ba,[GirlsCuteCool],[isGirlAnime],[isCuteAnime],[isSadAnimeGirl],[isSadAnime]",
    "title": "ANIME_PIC_6d5ffade8e301d846a8ffd785f4787ba",
    "link_img": "https://live.staticflickr.com/65535/51552487096_0891942774_o.jpg",
    "id_image": "ANIME_PIC_6d5ffade8e301d846a8ffd785f4787ba",
    "count_view": 0
  },
  {
    "link_thumb": "https://live.staticflickr.com/65535/49798317133_38141cae44_n.jpg",
    "id_album": "-89234980",
    "description": "ANIME_PIC_6d6194a0b190f4a76ace91b58a6836d3,[isGirlAnime],[isCuteAnime],[Girls Cute Cool],[GirlsCuteCool]",
    "title": "ANIME_PIC_6d6194a0b190f4a76ace91b58a6836d3",
    "link_img": "https://live.staticflickr.com/65535/49798317133_2286792a1d_o.jpg",
    "id_image": "ANIME_PIC_6d6194a0b190f4a76ace91b58a6836d3",
    "count_view": 0
  },
  {
    "link_thumb": "https://live.staticflickr.com/65535/51552487191_8e7f3e72cf_n.jpg",
    "id_album": "-89234980",
    "description": "ANIME_PIC_6d64e040091a7d1cf2cb466c256d09aa,[GirlsCuteCool],[isGirlAnime],[isCuteAnime]",
    "title": "ANIME_PIC_6d64e040091a7d1cf2cb466c256d09aa",
    "link_img": "https://live.staticflickr.com/65535/51552487191_c969a98931_o.jpg",
    "id_image": "ANIME_PIC_6d64e040091a7d1cf2cb466c256d09aa",
    "count_view": 0
  },
  {
    "link_thumb": "https://live.staticflickr.com/65535/51553207249_87b617ab07_n.jpg",
    "id_album": "-89234980",
    "description": "ANIME_PIC_6d6a0f6e116b732d10c2fe28258568ce,[GirlsCuteCool],[isGirlAnime],[isCuteAnime],[isGirlsHatsHoodieAnime],[isGirlsLoliAnime]",
    "title": "ANIME_PIC_6d6a0f6e116b732d10c2fe28258568ce",
    "link_img": "https://live.staticflickr.com/65535/51553207249_a493bf558e_o.jpg",
    "id_image": "ANIME_PIC_6d6a0f6e116b732d10c2fe28258568ce",
    "count_view": 0
  },
  {
    "link_thumb": "https://live.staticflickr.com/65535/51553207374_1ca6502e53_n.jpg",
    "id_album": "-89234980",
    "description": "ANIME_PIC_6d6ae086d7414c9728803253af9162f3,[GirlsCuteCool],[isGirlAnime],[isCuteAnime]",
    "title": "ANIME_PIC_6d6ae086d7414c9728803253af9162f3",
    "link_img": "https://live.staticflickr.com/65535/51553207374_8c902ce35d_o.png",
    "id_image": "ANIME_PIC_6d6ae086d7414c9728803253af9162f3",
    "count_view": 0
  },
  {
    "link_thumb": "https://live.staticflickr.com/65535/51553402725_ac7c9616c0_n.jpg",
    "id_album": "-89234980",
    "description": "ANIME_PIC_6d6cc701f24ddf48b3e058248debff48,[GirlsCuteCool],[isGirlAnime],[isCuteAnime],[isGirlsHatsHoodieAnime],[isGirlsLoliAnime]",
    "title": "ANIME_PIC_6d6cc701f24ddf48b3e058248debff48",
    "link_img": "https://live.staticflickr.com/65535/51553402725_0aa02995ea_o.png",
    "id_image": "ANIME_PIC_6d6cc701f24ddf48b3e058248debff48",
    "count_view": 0
  },
  {
    "link_thumb": "https://live.staticflickr.com/65535/51552488011_d854db1592_n.jpg",
    "id_album": "-89234980",
    "description": "ANIME_PIC_6d6f03f450bac5a73cc85e79ceb34659,[GirlsCuteCool],[isGirlAnime],[isCuteAnime],[isGirlsHatsHoodieAnime],[isGirlsLoliAnime]",
    "title": "ANIME_PIC_6d6f03f450bac5a73cc85e79ceb34659",
    "link_img": "https://live.staticflickr.com/65535/51552488011_19d101a129_o.png",
    "id_image": "ANIME_PIC_6d6f03f450bac5a73cc85e79ceb34659",
    "count_view": 0
  },
  {
    "link_thumb": "https://live.staticflickr.com/65535/51553207989_9b9fa88cb1_n.jpg",
    "id_album": "-89234980",
    "description": "ANIME_PIC_6d7085c4d791c7aa04a9530faaf11d14,[GirlsCuteCool],[isBoyAnime],[isCoupleAnime],[isGirlAnime],[isCuteAnime]",
    "title": "ANIME_PIC_6d7085c4d791c7aa04a9530faaf11d14",
    "link_img": "https://live.staticflickr.com/65535/51553207989_1f697a82e7_o.jpg",
    "id_image": "ANIME_PIC_6d7085c4d791c7aa04a9530faaf11d14",
    "count_view": 0
  },
  {
    "link_thumb": "https://live.staticflickr.com/65535/51553208194_9609e64c63_n.jpg",
    "id_album": "-89234980",
    "description": "ANIME_PIC_6d70f1139bed7b055e99816a7c8e06b5,[GirlsCuteCool],[isGirlAnime],[isCuteAnime],[isGirlsLoliAnime]",
    "title": "ANIME_PIC_6d70f1139bed7b055e99816a7c8e06b5",
    "link_img": "https://live.staticflickr.com/65535/51553208194_d157d7418e_o.jpg",
    "id_image": "ANIME_PIC_6d70f1139bed7b055e99816a7c8e06b5",
    "count_view": 0
  },
  {
    "link_thumb": "https://live.staticflickr.com/65535/51553208329_d43938560a_n.jpg",
    "id_album": "-89234980",
    "description": "ANIME_PIC_6d710fc906f2ede73ecb1562521a2a9f,[GirlsCuteCool],[isGirlAnime],[isCuteAnime],[isSadAnimeGirl],[isSadAnime]",
    "title": "ANIME_PIC_6d710fc906f2ede73ecb1562521a2a9f",
    "link_img": "https://live.staticflickr.com/65535/51553208329_04fca3acfe_o.jpg",
    "id_image": "ANIME_PIC_6d710fc906f2ede73ecb1562521a2a9f",
    "count_view": 0
  },
  {
    "link_thumb": "https://live.staticflickr.com/65535/51552488841_ab9aa64c13_n.jpg",
    "id_album": "-89234980",
    "description": "ANIME_PIC_6d7242abc0fdbd1fe562c067c9b4bb7e,[GirlsCuteCool],[isGirlAnime],[isCuteAnime],[isGirlsLoliAnime],[isSadAnimeGirl],[isSadAnime]",
    "title": "ANIME_PIC_6d7242abc0fdbd1fe562c067c9b4bb7e",
    "link_img": "https://live.staticflickr.com/65535/51552488841_2e09a25f2c_o.png",
    "id_image": "ANIME_PIC_6d7242abc0fdbd1fe562c067c9b4bb7e",
    "count_view": 0
  },
  {
    "link_thumb": "https://live.staticflickr.com/65535/51552722483_82a920e806_n.jpg",
    "id_album": "-89234980",
    "description": "ANIME_PIC_6d72ab04b470f666801c5ce2e1fe1944,[GirlsCuteCool],[isGirlAnime],[isCuteAnime],[isGirlsLoliAnime],[isGirlsSharpCanineToothAnime]",
    "title": "ANIME_PIC_6d72ab04b470f666801c5ce2e1fe1944",
    "link_img": "https://live.staticflickr.com/65535/51552722483_be39dff02b_o.jpg",
    "id_image": "ANIME_PIC_6d72ab04b470f666801c5ce2e1fe1944",
    "count_view": 0
  },
  {
    "link_thumb": "https://live.staticflickr.com/65535/51551691747_36ce63c666_n.jpg",
    "id_album": "-89234980",
    "description": "ANIME_PIC_6d74173c12a41ae5e932ed4d6c07fdef,[GirlsCuteCool],[isGirlAnime],[isCuteAnime],[isGirlsHatsHoodieAnime],[isGirlsSharpCanineToothAnime]",
    "title": "ANIME_PIC_6d74173c12a41ae5e932ed4d6c07fdef",
    "link_img": "https://live.staticflickr.com/65535/51551691747_e0d1f4865b_o.png",
    "id_image": "ANIME_PIC_6d74173c12a41ae5e932ed4d6c07fdef",
    "count_view": 0
  },
  {
    "link_thumb": "https://live.staticflickr.com/65535/50056555966_b9d1e29cfb_n.jpg",
    "id_album": "-89234980",
    "description": "ANIME_PIC_6d766a9895408bf39f9dcf46421b83ce,[isGirlAnime],[isCuteAnime],[Girls Cute Cool],[GirlsCuteCool],[isGirlEarsNekoAnime],[isGirlsHornsAnime],[isGirlsLoliAnime]",
    "title": "ANIME_PIC_6d766a9895408bf39f9dcf46421b83ce",
    "link_img": "https://live.staticflickr.com/65535/50056555966_5188df6b51_o.jpg",
    "id_image": "ANIME_PIC_6d766a9895408bf39f9dcf46421b83ce",
    "count_view": 0
  },
  {
    "link_thumb": "https://live.staticflickr.com/65535/51552722788_2b83fcabd6_n.jpg",
    "id_album": "-89234980",
    "description": "ANIME_PIC_6d7be65f87e5648155550a066cd1dbf4,[GirlsCuteCool],[isGirlAnime],[isCuteAnime]",
    "title": "ANIME_PIC_6d7be65f87e5648155550a066cd1dbf4",
    "link_img": "https://live.staticflickr.com/65535/51552722788_ef03ae5d07_o.jpg",
    "id_image": "ANIME_PIC_6d7be65f87e5648155550a066cd1dbf4",
    "count_view": 0
  },
  {
    "link_thumb": "https://live.staticflickr.com/65535/51553404605_130d573404_n.jpg",
    "id_album": "-89234980",
    "description": "ANIME_PIC_6d800f24aed401b6776631d5f325154a,[GirlsCuteCool],[isGirlAnime],[isCuteAnime],[isGirlsLoliAnime],[isSadAnimeGirl],[isSadAnime]",
    "title": "ANIME_PIC_6d800f24aed401b6776631d5f325154a",
    "link_img": "https://live.staticflickr.com/65535/51553404605_96ea87084e_o.png",
    "id_image": "ANIME_PIC_6d800f24aed401b6776631d5f325154a",
    "count_view": 0
  },
  {
    "link_thumb": "https://live.staticflickr.com/65535/51553404910_985367b8a5_n.jpg",
    "id_album": "-89234980",
    "description": "ANIME_PIC_6d8363833241f537dd9b73cf20686dc2,[GirlsCuteCool],[isGirlAnime],[isCuteAnime],[isGirlsLoliAnime]",
    "title": "ANIME_PIC_6d8363833241f537dd9b73cf20686dc2",
    "link_img": "https://live.staticflickr.com/65535/51553404910_52df0fdfd1_o.jpg",
    "id_image": "ANIME_PIC_6d8363833241f537dd9b73cf20686dc2",
    "count_view": 0
  },
  {
    "link_thumb": "https://live.staticflickr.com/65535/51552723383_dfd60538c1_n.jpg",
    "id_album": "-89234980",
    "description": "ANIME_PIC_6d8bd3205cdf60240f37c3802e8dcca5,[GirlsCuteCool],[isGirlAnime],[isCuteAnime],[isGirlsLoliAnime]",
    "title": "ANIME_PIC_6d8bd3205cdf60240f37c3802e8dcca5",
    "link_img": "https://live.staticflickr.com/65535/51552723383_c92758d2a9_o.jpg",
    "id_image": "ANIME_PIC_6d8bd3205cdf60240f37c3802e8dcca5",
    "count_view": 0
  },
  {
    "link_thumb": "https://live.staticflickr.com/65535/51552490301_0f35a1865c_n.jpg",
    "id_album": "-89234980",
    "description": "ANIME_PIC_6d8c4ea5dc56c0af42ff600d265287bd,[GirlsCuteCool],[isGirlAnime],[isCuteAnime],[isGirlsLoliAnime]",
    "title": "ANIME_PIC_6d8c4ea5dc56c0af42ff600d265287bd",
    "link_img": "https://live.staticflickr.com/65535/51552490301_c33b08b4f8_o.png",
    "id_image": "ANIME_PIC_6d8c4ea5dc56c0af42ff600d265287bd",
    "count_view": 0
  },
  {
    "link_thumb": "https://live.staticflickr.com/65535/51553210219_c8931b329f_n.jpg",
    "id_album": "-89234980",
    "description": "ANIME_PIC_6d8d724bd49fa741ed7c82273048c3f9,[GirlsCuteCool],[isGirlAnime],[isCuteAnime],[isGirlsHatsHoodieAnime],[isGirlsLoliAnime]",
    "title": "ANIME_PIC_6d8d724bd49fa741ed7c82273048c3f9",
    "link_img": "https://live.staticflickr.com/65535/51553210219_694857f221_o.jpg",
    "id_image": "ANIME_PIC_6d8d724bd49fa741ed7c82273048c3f9",
    "count_view": 0
  },
  {
    "link_thumb": "https://live.staticflickr.com/65535/51552490756_808343ac1a_n.jpg",
    "id_album": "-89234980",
    "description": "ANIME_PIC_6d8d99b1861cc3de16c68cd790b66bfe,[GirlsCuteCool],[isGirlAnime],[isCuteAnime],[isGirlsHatsHoodieAnime],[isSadAnimeGirl],[isSadAnime]",
    "title": "ANIME_PIC_6d8d99b1861cc3de16c68cd790b66bfe",
    "link_img": "https://live.staticflickr.com/65535/51552490756_62ddf170c6_o.png",
    "id_image": "ANIME_PIC_6d8d99b1861cc3de16c68cd790b66bfe",
    "count_view": 0
  },
  {
    "link_thumb": "https://live.staticflickr.com/65535/51553405910_7523406fd3_n.jpg",
    "id_album": "-89234980",
    "description": "ANIME_PIC_6d90d5f303935838d03de43c6f61d881,[GirlsCuteCool],[isGirlAnime],[isCuteAnime]",
    "title": "ANIME_PIC_6d90d5f303935838d03de43c6f61d881",
    "link_img": "https://live.staticflickr.com/65535/51553405910_e1d600f7bf_o.jpg",
    "id_image": "ANIME_PIC_6d90d5f303935838d03de43c6f61d881",
    "count_view": 0
  },
  {
    "link_thumb": "https://live.staticflickr.com/65535/51553210914_93c50954c3_n.jpg",
    "id_album": "-89234980",
    "description": "ANIME_PIC_6d917459e609c5e860657cc2a6994af2,[GirlsCuteCool],[isGirlAnime],[isCuteAnime]",
    "title": "ANIME_PIC_6d917459e609c5e860657cc2a6994af2",
    "link_img": "https://live.staticflickr.com/65535/51553210914_3b13423804_o.jpg",
    "id_image": "ANIME_PIC_6d917459e609c5e860657cc2a6994af2",
    "count_view": 0
  },
  {
    "link_thumb": "https://live.staticflickr.com/65535/51553406315_ba93c8b672_n.jpg",
    "id_album": "-89234980",
    "description": "ANIME_PIC_6d9ac290140293ff749556d58839c79d,[GirlsCuteCool],[isGirlAnime],[isCuteAnime],[isGirlsLoliAnime],[isSadAnimeGirl],[isSadAnime]",
    "title": "ANIME_PIC_6d9ac290140293ff749556d58839c79d",
    "link_img": "https://live.staticflickr.com/65535/51553406315_2e2968772a_o.jpg",
    "id_image": "ANIME_PIC_6d9ac290140293ff749556d58839c79d",
    "count_view": 0
  },
  {
    "link_thumb": "https://live.staticflickr.com/65535/51552724723_6912576021_n.jpg",
    "id_album": "-89234980",
    "description": "ANIME_PIC_6d9c01f9de98b209f6c87b2bc1ae2ab9,[GirlsCuteCool],[isGirlAnime],[isCuteAnime],[isGirlEarsNekoAnime],[isGirlsLoliAnime]",
    "title": "ANIME_PIC_6d9c01f9de98b209f6c87b2bc1ae2ab9",
    "link_img": "https://live.staticflickr.com/65535/51552724723_dba01753ab_o.jpg",
    "id_image": "ANIME_PIC_6d9c01f9de98b209f6c87b2bc1ae2ab9",
    "count_view": 0
  },
  {
    "link_thumb": "https://live.staticflickr.com/65535/51551693997_e3e6514c37_n.jpg",
    "id_album": "-89234980",
    "description": "ANIME_PIC_6d9f3328610e0b80057f984e3348d073,[GirlsCuteCool],[isGirlAnime],[isCuteAnime]",
    "title": "ANIME_PIC_6d9f3328610e0b80057f984e3348d073",
    "link_img": "https://live.staticflickr.com/65535/51551693997_398b3bf904_o.jpg",
    "id_image": "ANIME_PIC_6d9f3328610e0b80057f984e3348d073",
    "count_view": 0
  },
  {
    "link_thumb": "https://live.staticflickr.com/65535/51553211569_b8ded7edb0_n.jpg",
    "id_album": "-89234980",
    "description": "ANIME_PIC_6d9f3da025e585d08560d05cf48e4419,[GirlsCuteCool],[isGirlAnime],[isCuteAnime],[isGirlEarsNekoAnime],[isGirlsLoliAnime]",
    "title": "ANIME_PIC_6d9f3da025e585d08560d05cf48e4419",
    "link_img": "https://live.staticflickr.com/65535/51553211569_c263f11be3_o.png",
    "id_image": "ANIME_PIC_6d9f3da025e585d08560d05cf48e4419",
    "count_view": 0
  },
  {
    "link_thumb": "https://live.staticflickr.com/65535/51551694652_c61f5ee580_n.jpg",
    "id_album": "-89234980",
    "description": "ANIME_PIC_6da332ebd7b8e5ccce47e865fe2423e3,[GirlsCuteCool],[isGirlAnime],[isCuteAnime]",
    "title": "ANIME_PIC_6da332ebd7b8e5ccce47e865fe2423e3",
    "link_img": "https://live.staticflickr.com/65535/51551694652_23ffe77a73_o.jpg",
    "id_image": "ANIME_PIC_6da332ebd7b8e5ccce47e865fe2423e3",
    "count_view": 0
  },
  {
    "link_thumb": "https://live.staticflickr.com/65535/51553212239_e501e5bfe1_n.jpg",
    "id_album": "-89234980",
    "description": "ANIME_PIC_6dae2fbb710a998150b98eaf2e84f7f0,[GirlsCuteCool],[isGirlAnime],[isCuteAnime]",
    "title": "ANIME_PIC_6dae2fbb710a998150b98eaf2e84f7f0",
    "link_img": "https://live.staticflickr.com/65535/51553212239_9b2fb278db_o.jpg",
    "id_image": "ANIME_PIC_6dae2fbb710a998150b98eaf2e84f7f0",
    "count_view": 0
  },
  {
    "link_thumb": "https://live.staticflickr.com/65535/51551694997_d87d125f53_n.jpg",
    "id_album": "-89234980",
    "description": "ANIME_PIC_6daf1fcf6ebaf07ada665fc6363e4086,[GirlsCuteCool],[isGirlAnime],[isCuteAnime],[isGirlsHatsHoodieAnime],[isGirlsLoliAnime]",
    "title": "ANIME_PIC_6daf1fcf6ebaf07ada665fc6363e4086",
    "link_img": "https://live.staticflickr.com/65535/51551694997_2f54a01dea_o.png",
    "id_image": "ANIME_PIC_6daf1fcf6ebaf07ada665fc6363e4086",
    "count_view": 0
  },
  {
    "link_thumb": "https://live.staticflickr.com/65535/51551695482_b15d010b84_n.jpg",
    "id_album": "-89234980",
    "description": "ANIME_PIC_6db26a8c95652e4b37b27acaca3f7b10,[GirlsCuteCool],[isGirlAnime],[isCuteAnime],[isGirlEarsNekoAnime]",
    "title": "ANIME_PIC_6db26a8c95652e4b37b27acaca3f7b10",
    "link_img": "https://live.staticflickr.com/65535/51551695482_1b143c6621_o.jpg",
    "id_image": "ANIME_PIC_6db26a8c95652e4b37b27acaca3f7b10",
    "count_view": 0
  },
  {
    "link_thumb": "https://live.staticflickr.com/65535/51553408305_e6c6ba4dd7_n.jpg",
    "id_album": "-89234980",
    "description": "ANIME_PIC_6db683df2174baee4c6720d3bc2900d1,[GirlsCuteCool],[isGirlAnime],[isCuteAnime],[isGirlsLoliAnime]",
    "title": "ANIME_PIC_6db683df2174baee4c6720d3bc2900d1",
    "link_img": "https://live.staticflickr.com/65535/51553408305_d6014c75e9_o.jpg",
    "id_image": "ANIME_PIC_6db683df2174baee4c6720d3bc2900d1",
    "count_view": 0
  },
  {
    "link_thumb": "https://live.staticflickr.com/65535/51553408460_88df55e064_n.jpg",
    "id_album": "-89234980",
    "description": "ANIME_PIC_6db7cb553aced160d92673b4c71ee190,[GirlsCuteCool],[isGirlAnime],[isCuteAnime]",
    "title": "ANIME_PIC_6db7cb553aced160d92673b4c71ee190",
    "link_img": "https://live.staticflickr.com/65535/51553408460_26f5ff4af2_o.jpg",
    "id_image": "ANIME_PIC_6db7cb553aced160d92673b4c71ee190",
    "count_view": 0
  },
  {
    "link_thumb": "https://live.staticflickr.com/65535/51552493401_aedc536cbf_n.jpg",
    "id_album": "-89234980",
    "description": "ANIME_PIC_6db852ae5c3ed62523ba03aaf1faa8db,[GirlsCuteCool],[isGirlAnime],[isCuteAnime],[isGirlsHatsHoodieAnime]",
    "title": "ANIME_PIC_6db852ae5c3ed62523ba03aaf1faa8db",
    "link_img": "https://live.staticflickr.com/65535/51552493401_611ea5fc2a_o.jpg",
    "id_image": "ANIME_PIC_6db852ae5c3ed62523ba03aaf1faa8db",
    "count_view": 0
  },
  {
    "link_thumb": "https://live.staticflickr.com/65535/51553213669_31d212449f_n.jpg",
    "id_album": "-89234980",
    "description": "ANIME_PIC_6db87725964a4ac159cc944b05ae1a90,[GirlsCuteCool],[isGirlAnime],[isCuteAnime],[isGirlsLoliAnime],[isSadAnimeGirl],[isSadAnime]",
    "title": "ANIME_PIC_6db87725964a4ac159cc944b05ae1a90",
    "link_img": "https://live.staticflickr.com/65535/51553213669_753f979a7c_o.jpg",
    "id_image": "ANIME_PIC_6db87725964a4ac159cc944b05ae1a90",
    "count_view": 0
  },
  {
    "link_thumb": "https://live.staticflickr.com/65535/51552727213_25cc04f5d4_n.jpg",
    "id_album": "-89234980",
    "description": "ANIME_PIC_6dbbee0811644d91ca2b5e50625c8664,[GirlsCuteCool],[isGirlAnime],[isCuteAnime],[isGirlsHatsHoodieAnime],[isGirlsLoliAnime]",
    "title": "ANIME_PIC_6dbbee0811644d91ca2b5e50625c8664",
    "link_img": "https://live.staticflickr.com/65535/51552727213_f21fc3d468_o.jpg",
    "id_image": "ANIME_PIC_6dbbee0811644d91ca2b5e50625c8664",
    "count_view": 0
  },
  {
    "link_thumb": "https://live.staticflickr.com/65535/51551696522_4f7b5b2dd1_n.jpg",
    "id_album": "-89234980",
    "description": "ANIME_PIC_6dbd8ca3b7bb7469cc40a3833beff5c9,[GirlsCuteCool],[isGirlAnime],[isCuteAnime],[isGirlsLoliAnime]",
    "title": "ANIME_PIC_6dbd8ca3b7bb7469cc40a3833beff5c9",
    "link_img": "https://live.staticflickr.com/65535/51551696522_e301be7265_o.jpg",
    "id_image": "ANIME_PIC_6dbd8ca3b7bb7469cc40a3833beff5c9",
    "count_view": 0
  },
  {
    "link_thumb": "https://live.staticflickr.com/65535/51553409340_3c04ed213d_n.jpg",
    "id_album": "-89234980",
    "description": "ANIME_PIC_6dc38bbf5d965d995ada11fb7cc3aee3,[GirlsCuteCool],[isGirlAnime],[isCuteAnime],[isGirlsHatsHoodieAnime],[isGirlsLoliAnime],[isSadAnimeGirl],[isSadAnime]",
    "title": "ANIME_PIC_6dc38bbf5d965d995ada11fb7cc3aee3",
    "link_img": "https://live.staticflickr.com/65535/51553409340_535f44aecb_o.jpg",
    "id_image": "ANIME_PIC_6dc38bbf5d965d995ada11fb7cc3aee3",
    "count_view": 0
  },
  {
    "link_thumb": "https://live.staticflickr.com/65535/51552494076_c7f75da859_n.jpg",
    "id_album": "-89234980",
    "description": "ANIME_PIC_6dc54283dfebdcd6910d538f552ce597,[GirlsCuteCool],[isGirlAnime],[isCuteAnime],[isGirlsLoliAnime]",
    "title": "ANIME_PIC_6dc54283dfebdcd6910d538f552ce597",
    "link_img": "https://live.staticflickr.com/65535/51552494076_ac8b239929_o.jpg",
    "id_image": "ANIME_PIC_6dc54283dfebdcd6910d538f552ce597",
    "count_view": 0
  },
  {
    "link_thumb": "https://live.staticflickr.com/65535/51553214499_886be71107_n.jpg",
    "id_album": "-89234980",
    "description": "ANIME_PIC_6dc5f95f3dd1660d4ac70e239f12eea4,[GirlsCuteCool],[isGirlAnime],[isCuteAnime]",
    "title": "ANIME_PIC_6dc5f95f3dd1660d4ac70e239f12eea4",
    "link_img": "https://live.staticflickr.com/65535/51553214499_80ce4f14ae_o.jpg",
    "id_image": "ANIME_PIC_6dc5f95f3dd1660d4ac70e239f12eea4",
    "count_view": 0
  },
  {
    "link_thumb": "https://live.staticflickr.com/65535/51552494451_bc43b163f9_n.jpg",
    "id_album": "-89234980",
    "description": "ANIME_PIC_6dc6bc278bf5462984574da76ec39372,[GirlsCuteCool],[isGirlAnime],[isCuteAnime],[isGirlsLoliAnime]",
    "title": "ANIME_PIC_6dc6bc278bf5462984574da76ec39372",
    "link_img": "https://live.staticflickr.com/65535/51552494451_eed2902971_o.png",
    "id_image": "ANIME_PIC_6dc6bc278bf5462984574da76ec39372",
    "count_view": 0
  },
  {
    "link_thumb": "https://live.staticflickr.com/65535/51552494681_e1b0e0e700_n.jpg",
    "id_album": "-89234980",
    "description": "ANIME_PIC_6dcb128293263c36c586eb19cdba11dc,[GirlsCuteCool],[isGirlAnime],[isCuteAnime],[isGirlsHatsHoodieAnime],[isGirlsLoliAnime]",
    "title": "ANIME_PIC_6dcb128293263c36c586eb19cdba11dc",
    "link_img": "https://live.staticflickr.com/65535/51552494681_f1d4d005bf_o.jpg",
    "id_image": "ANIME_PIC_6dcb128293263c36c586eb19cdba11dc",
    "count_view": 0
  },
  {
    "link_thumb": "https://live.staticflickr.com/65535/51552728268_a1981d42a7_n.jpg",
    "id_album": "-89234980",
    "description": "ANIME_PIC_6dcbb5cd37100523adb46b1e5047c766,[GirlsCuteCool],[isGirlAnime],[isCuteAnime],[isGirlsLoliAnime]",
    "title": "ANIME_PIC_6dcbb5cd37100523adb46b1e5047c766",
    "link_img": "https://live.staticflickr.com/65535/51552728268_0198046616_o.jpg",
    "id_image": "ANIME_PIC_6dcbb5cd37100523adb46b1e5047c766",
    "count_view": 0
  },
  {
    "link_thumb": "https://live.staticflickr.com/65535/51553410425_08afb1488e_n.jpg",
    "id_album": "-89234980",
    "description": "ANIME_PIC_6dcd8a47eb9520b7a75961c04db9b2f0,[GirlsCuteCool],[isGirlAnime],[isCuteAnime],[isGirlEarsNekoAnime],[isGirlsLoliAnime]",
    "title": "ANIME_PIC_6dcd8a47eb9520b7a75961c04db9b2f0",
    "link_img": "https://live.staticflickr.com/65535/51553410425_8db4141446_o.jpg",
    "id_image": "ANIME_PIC_6dcd8a47eb9520b7a75961c04db9b2f0",
    "count_view": 0
  },
  {
    "link_thumb": "https://live.staticflickr.com/65535/51552728673_e8d5c2938a_n.jpg",
    "id_album": "-89234980",
    "description": "ANIME_PIC_6dcee49c1cadef95d706018ca3329132,[GirlsCuteCool],[isGirlAnime],[isCuteAnime]",
    "title": "ANIME_PIC_6dcee49c1cadef95d706018ca3329132",
    "link_img": "https://live.staticflickr.com/65535/51552728673_082d5ffdf1_o.png",
    "id_image": "ANIME_PIC_6dcee49c1cadef95d706018ca3329132",
    "count_view": 0
  },
  {
    "link_thumb": "https://live.staticflickr.com/65535/51551698147_87db1ceb38_n.jpg",
    "id_album": "-89234980",
    "description": "ANIME_PIC_6dcef825e418433af37116e4ef07510a,[GirlsCuteCool],[isGirlAnime],[isCuteAnime]",
    "title": "ANIME_PIC_6dcef825e418433af37116e4ef07510a",
    "link_img": "https://live.staticflickr.com/65535/51551698147_7416087e83_o.png",
    "id_image": "ANIME_PIC_6dcef825e418433af37116e4ef07510a",
    "count_view": 0
  },
  {
    "link_thumb": "https://live.staticflickr.com/65535/51553215884_e67bb08d16_n.jpg",
    "id_album": "-89234980",
    "description": "ANIME_PIC_6dd0db0392f4fca9aa33aa432d408a07,[GirlsCuteCool],[isGirlAnime],[isCuteAnime],[isGirlsLoliAnime]",
    "title": "ANIME_PIC_6dd0db0392f4fca9aa33aa432d408a07",
    "link_img": "https://live.staticflickr.com/65535/51553215884_ed586fd117_o.jpg",
    "id_image": "ANIME_PIC_6dd0db0392f4fca9aa33aa432d408a07",
    "count_view": 0
  },
  {
    "link_thumb": "https://live.staticflickr.com/65535/51553216064_faf49e727a_n.jpg",
    "id_album": "-89234980",
    "description": "ANIME_PIC_6dd4155a163deefbaf4dcf51da26aecf,[GirlsCuteCool],[isGirlAnime],[isCuteAnime],[isGirlFaceMasksAnime],[isGirlsLoliAnime]",
    "title": "ANIME_PIC_6dd4155a163deefbaf4dcf51da26aecf",
    "link_img": "https://live.staticflickr.com/65535/51553216064_a6c99b261a_o.jpg",
    "id_image": "ANIME_PIC_6dd4155a163deefbaf4dcf51da26aecf",
    "count_view": 0
  },
  {
    "link_thumb": "https://live.staticflickr.com/65535/51552729603_aa7b85ee0e_n.jpg",
    "id_album": "-89234980",
    "description": "ANIME_PIC_6dd7503e267039f2a78fa7969f89568d,[GirlsCuteCool],[isGirlAnime],[isCuteAnime],[isGirlsLoliAnime],[isSadAnimeGirl],[isSadAnime]",
    "title": "ANIME_PIC_6dd7503e267039f2a78fa7969f89568d",
    "link_img": "https://live.staticflickr.com/65535/51552729603_22fc9823fd_o.png",
    "id_image": "ANIME_PIC_6dd7503e267039f2a78fa7969f89568d",
    "count_view": 0
  },
  {
    "link_thumb": "https://live.staticflickr.com/65535/51553411720_0882b62222_n.jpg",
    "id_album": "-89234980",
    "description": "ANIME_PIC_6ddc5dc8af015935334de18c1f19f7ef,[GirlsCuteCool],[isGirlAnime],[isCuteAnime],[isGirlEarsNekoAnime]",
    "title": "ANIME_PIC_6ddc5dc8af015935334de18c1f19f7ef",
    "link_img": "https://live.staticflickr.com/65535/51553411720_3939d82e6c_o.jpg",
    "id_image": "ANIME_PIC_6ddc5dc8af015935334de18c1f19f7ef",
    "count_view": 0
  },
  {
    "link_thumb": "https://live.staticflickr.com/65535/51552496326_ce0a9a79bf_n.jpg",
    "id_album": "-89234980",
    "description": "ANIME_PIC_6ddd60fe6ef35fc42e70db08fd7f3170,[GirlsCuteCool],[isGirlAnime],[isCuteAnime],[isSadAnimeGirl],[isSadAnime]",
    "title": "ANIME_PIC_6ddd60fe6ef35fc42e70db08fd7f3170",
    "link_img": "https://live.staticflickr.com/65535/51552496326_5a06db9d27_o.jpg",
    "id_image": "ANIME_PIC_6ddd60fe6ef35fc42e70db08fd7f3170",
    "count_view": 0
  },
  {
    "link_thumb": "https://live.staticflickr.com/65535/51551699222_b134d8ec45_n.jpg",
    "id_album": "-89234980",
    "description": "ANIME_PIC_6de1fd45b387f1b517745de25fca9a4d,[GirlsCuteCool],[isGirlAnime],[isCuteAnime],[isGirlFaceMasksAnime]",
    "title": "ANIME_PIC_6de1fd45b387f1b517745de25fca9a4d",
    "link_img": "https://live.staticflickr.com/65535/51551699222_e61716033f_o.png",
    "id_image": "ANIME_PIC_6de1fd45b387f1b517745de25fca9a4d",
    "count_view": 0
  },
  {
    "link_thumb": "https://live.staticflickr.com/65535/51552730453_fd7fb3a48c_n.jpg",
    "id_album": "-89234980",
    "description": "ANIME_PIC_6de2c7c4a111e0b976092eea73c028d5,[GirlsCuteCool],[isGirlAnime],[isCuteAnime]",
    "title": "ANIME_PIC_6de2c7c4a111e0b976092eea73c028d5",
    "link_img": "https://live.staticflickr.com/65535/51552730453_7369ac8799_o.png",
    "id_image": "ANIME_PIC_6de2c7c4a111e0b976092eea73c028d5",
    "count_view": 0
  },
  {
    "link_thumb": "https://live.staticflickr.com/65535/51553217529_ceef323c41_n.jpg",
    "id_album": "-89234980",
    "description": "ANIME_PIC_6de6ab5f49a76516a216cb5a2be74655,[GirlsCuteCool],[isGirlAnime],[isCuteAnime],[isGirlsLoliAnime]",
    "title": "ANIME_PIC_6de6ab5f49a76516a216cb5a2be74655",
    "link_img": "https://live.staticflickr.com/65535/51553217529_762160276a_o.jpg",
    "id_image": "ANIME_PIC_6de6ab5f49a76516a216cb5a2be74655",
    "count_view": 0
  },
  {
    "link_thumb": "https://live.staticflickr.com/65535/51553217774_fcf9162dcc_n.jpg",
    "id_album": "-89234980",
    "description": "ANIME_PIC_6de82fb15d1d345b1ba60be52cd817b1,[GirlsCuteCool],[isGirlAnime],[isCuteAnime],[isGirlsHatsHoodieAnime]",
    "title": "ANIME_PIC_6de82fb15d1d345b1ba60be52cd817b1",
    "link_img": "https://live.staticflickr.com/65535/51553217774_2269c064c5_o.jpg",
    "id_image": "ANIME_PIC_6de82fb15d1d345b1ba60be52cd817b1",
    "count_view": 0
  },
  {
    "link_thumb": "https://live.staticflickr.com/65535/51551700567_8d138ba62d_n.jpg",
    "id_album": "-89234980",
    "description": "ANIME_PIC_6de8958b9251e0f7525879d705a8a171,[GirlsCuteCool],[isGirlAnime],[isCuteAnime],[isSadAnimeGirl],[isSadAnime]",
    "title": "ANIME_PIC_6de8958b9251e0f7525879d705a8a171",
    "link_img": "https://live.staticflickr.com/65535/51551700567_b85d51c4b6_o.jpg",
    "id_image": "ANIME_PIC_6de8958b9251e0f7525879d705a8a171",
    "count_view": 0
  },
  {
    "link_thumb": "https://live.staticflickr.com/65535/51553413535_5c343e3e36_n.jpg",
    "id_album": "-89234980",
    "description": "ANIME_PIC_6de9502ebf332a350621c37c5cef07e5,[GirlsCuteCool],[isGirlAnime],[isCuteAnime],[isGirlsLoliAnime],[isSadAnimeGirl],[isSadAnime]",
    "title": "ANIME_PIC_6de9502ebf332a350621c37c5cef07e5",
    "link_img": "https://live.staticflickr.com/65535/51553413535_1474b2ea47_o.jpg",
    "id_image": "ANIME_PIC_6de9502ebf332a350621c37c5cef07e5",
    "count_view": 0
  },
  {
    "link_thumb": "https://live.staticflickr.com/65535/51553218339_2c95f0a2bc_n.jpg",
    "id_album": "-89234980",
    "description": "ANIME_PIC_6df1a586e77e4ec1cdcb909ba21d4904,[GirlsCuteCool],[isGirlAnime],[isCuteAnime],[isGirlsHatsHoodieAnime]",
    "title": "ANIME_PIC_6df1a586e77e4ec1cdcb909ba21d4904",
    "link_img": "https://live.staticflickr.com/65535/51553218339_40648fc2bd_o.jpg",
    "id_image": "ANIME_PIC_6df1a586e77e4ec1cdcb909ba21d4904",
    "count_view": 0
  }
]