[
  {
    "total_img": 164,
    "number_page": 1,
    "title": "Touken Ranbu",
    "tag": "Oodenta Mitsuyo, Shishiou Touken Ranbu, Toushirou Yagen, Imanotsurugi Touken Ranbu, Nakigitsune Touken Ranbu, Kashuu Kiyomitsu, Taroutachi Touken Ranbu, Gotou Toushirou, Mikazuki Munechika, Higekiri Touken Ranbu, Izuminokami Kanesada, Yamato no Kami Yasusada, Yamatonokami Yasusada, Anime, Sword, Nikkari Aoe, Gokotai Touken Ranbu, Souza Samonji, Honebami Toushirou, Smile, Toushirou Honebami, Boy, Horikawa Kunihiro, Nagasone Kotetsu, Shrine, Sohayanotsurugi Touken Ranbu, Kogitsunemaru Touken Ranbu, Taikogane Sadamune, Tsurumaru Kuninaga, Toushirou Namazuo, Akita Toushirou, Atsushi Toushirou, Maeda Toushirou, Kasen Kanesada, Chain, Monoyoshi Sadamune, Butterfly, Midare Toushirou, Otegine Touken Ranbu, Uguisumaru Touken Ranbu, Heshikiri Hasebe, Hakata Toushirou, Hirano Toushirou, Shokudaikiri Mitsutada, Kikkou Sadamune, Katana, Yamabushi Kunihiro, Touken Ranbu, Touken Ranbu Hanamaru, Yamanbagiri Kunihiro, Namazuo Toushirou, Ichigo Hitofuri, Hotarumaru Touken Ranbu, Yagen Toushirou, Beast, Urashima Kotetsu, Blue Eyes, Kogarasumaru Touken Ranbu, Temple, Izumi no Kami Kanesada, Doudanuki Masakuni, Girls Frontline, Fire, Hizamaru Touken Ranbu, Ookurikara Touken Ranbu, Tonbokiri Touken Ranbu",
    "description": "Touken Ranbu",
    "link_thumb": "https://live.staticflickr.com/65535/48062979487_577b67773c_n.jpg",
    "id_album": "-586120661",
    "total_view": 164
  },
  {
    "total_img": 6,
    "number_page": 1,
    "title": "Mikazuki Munechika",
    "tag": "Mikazuki Munechika,",
    "description": "Mikazuki Munechika",
    "link_thumb": "https://live.staticflickr.com/65535/48062966091_14640fc505_n.jpg",
    "id_album": "991424323",
    "total_view": 6
  }
]