[
  {
    "total_img": 521,
    "number_page": 3,
    "title": "Original 7",
    "tag": "Heart, Water, Ball, Green Hair, Wink, Black Hair, Staff, Wand, Jewelry, Black, boa Clothing, Bright, Blood, Weapon, Bouquet, Goggles, Umbrella, Shorts, Bikini, Street, Veil, Pool, Bike, Cup, Arrow, Hair, Aurora Australis, Space, Glove, Gauntlets, Smile, Blade, Sun, Sea, Towel, Origami, Skirt, Comet, Bunny Ears, Spoon, Dagger, Chicken, Squirrel, Key, Clownfish, Miko Outfit, Building, Carrot, Orange Hair, Paper Plane, Cake, Kite, Dragon, Train Station, Machine, Cloak, Magnifying Glass, Star, Tail, Stairs, Feather, Fish, Lamp Post, Wolf, Toothbrush, Military, Food, Nature, Bed, Window, Original Anime, Blue, Nekomimi, Brown Hair, Mushroom, Chocolate, Pink Hair, Tie, Blue Eyes, Hoodie, Cube, Teddy Bear, Chandelier, Fire, Boots, Snowman, Hat, Mermaid, Ship, Parasol, Animal Ears, Ice Cream, Green Eyes, Stars, Pumpkin, DJ, Tattoo, Parking Garage, Syrup, Long Hair, Thigh Highs, Beach, Winter, Light, Kimono, Snowflake, White Eyes, Headdress, Heterochromia, Camera, Festival, Purple Hair, Cute, Tea Cup, Birdcage, Clover, Paint, Market, Pocket Watch, Aqua Hair, Decoration, Gears, Glasses, Eye Patch, Sunflower, Twins, Puddle, Mirror, Bunny, Orb, Bridge, Crystal, Laptop, Cannon, Fork, Archer, Yukikotan Wasabi, Bird, Light Bulb, Gas Mask, Christmas Tree, Blonde, Twintails, Field, Shell, Plant, Mountain, Armor, Rainbow, Classroom, Skeleton, Hug, Room, Katana, People, Jeans, Apron, Pink Eyes, Speakers, School Uniform, Snack, 5 Nenme no Houkago, Cape, Bicycle, Beast, Ruin, Axe, Sunset, Apple, Fan, Jellyfish, Airplane, Pointed Ears, Grey Hair, Lightning, Pen, Castle, Vampire, Robot, Tears, Green, Sky, The Place Promised in Our Early Days, Moon, Colorful, Balloon, Lighthouse, Palm Tree, Bread, Cigarette, Schoolgirl, Lemonade, Sword, Bottle, Aquarium, Ribbon, White Hair, Book, Fangs, Horns, Braid, Chalk, Planet, Dog, Dandelion, Hood, Earrings, Gun, Purple Eyes, Jacket, Cold, Scarf, Black Hole, Mask, Reflection, House, Shoe, Tank, Compass, Red Hair, Deer, Aqua Eyes, Card, Letter, Lollipop, Wave, Shop, Blush, Belt, Grapes, Animal, Daisy, Snow White, Bell, Train, Map, Graveyard, Original 7, Chain, Red Riding Hood, Lantern, Water Lily, Birch, Evening, Glass, Aurora Borealis, Rabbit, Rose, Tiara, Wings, Sunbeam, River, Onigiri, Leaf, Twisted Tree, Teacup, Fireworks, Wreath, Railroad, Abstract, Necrosan CHR, Pencil, Teapot, Gift, Crown, Creepy, Sweater, Grey Eyes, Sunlight, Smartphone, Pillow, Black Eyes, Pancake, Galaxy, Snow, Night, Cherry, Penguin, Mecha, Chocolate Cake, Uniform, Drink, Grass, Lake, Smoke, Wedding Dress, Abandoned, Bubble, Rain, Anime, Strawberry, Tree, Hose, Woman, Mug, Coat, Helicopter, Samurai, Scroll, Violin, Bow, Street Light, Yellow Eyes, Flag, Boy, Red Eyes, Can, Piano, Cave, Shrine, Cap, Pink, Car, Takagix TNSK, Dark, Cat, Fantasy, Library, Ponytail, Fairy, Bench, Orange Eyes, Microphone, Cherry Blossom, Cage, Butterfly, Cross, Broom, Basket, Sunshine, Socks, Athlete, Lily, Earth, Globe, Phone, bow Clothing, Horizon, Short Hair, Swimsuit, Flower, Cat Girl, Fruit, Dress, Egg, Brown Eyes, Frog, Magic, Bag, Maid, Pipe, Confetti, Spirit, Painting, Tea, Whip, Blue Hair, Whale, Bat, Cyborg, Coral, Cloud, Grave, Sheep, Paper, Forest, Skull, Petal, Yukata",
    "description": "Original 7",
    "link_thumb": "https://live.staticflickr.com/65535/48078042951_96203324c4_n.jpg",
    "id_album": "1165247966",
    "total_view": 521
  },
  {
    "total_img": 111,
    "number_page": 1,
    "title": "Bird",
    "tag": "Bird,",
    "description": "Bird",
    "link_thumb": "https://live.staticflickr.com/65535/48066344622_9137ffb0ba_n.jpg",
    "id_album": "-1846011410",
    "total_view": 111
  },
  {
    "total_img": 690,
    "number_page": 4,
    "title": "Blush",
    "tag": "Blush,",
    "description": "Blush",
    "link_thumb": "https://live.staticflickr.com/65535/48066945096_efda4835b6_n.jpg",
    "id_album": "1964454893",
    "total_view": 690
  },
  {
    "total_img": 718,
    "number_page": 4,
    "title": "Brown Hair",
    "tag": "Brown Hair,",
    "description": "Brown Hair",
    "link_thumb": "https://live.staticflickr.com/65535/48609891276_d6beb9cf73_n.jpg",
    "id_album": "119672248",
    "total_view": 718
  },
  {
    "total_img": 76,
    "number_page": 1,
    "title": "Cherry Blossom",
    "tag": "Cherry Blossom,",
    "description": "Cherry Blossom",
    "link_thumb": "https://live.staticflickr.com/65535/48066261556_ce03a38e7f_n.jpg",
    "id_album": "537955507",
    "total_view": 76
  },
  {
    "total_img": 191,
    "number_page": 1,
    "title": "Kimono",
    "tag": "Kimono,",
    "description": "Kimono",
    "link_thumb": "https://live.staticflickr.com/65535/48066764371_7c6ce14d3b_n.jpg",
    "id_album": "35576254",
    "total_view": 191
  },
  {
    "total_img": 73,
    "number_page": 1,
    "title": "Orange Eyes",
    "tag": "Orange Eyes,",
    "description": "Orange Eyes",
    "link_thumb": "https://live.staticflickr.com/65535/48066345617_97d1390213_n.jpg",
    "id_album": "278864224",
    "total_view": 73
  },
  {
    "total_img": 65,
    "number_page": 1,
    "title": "Petal",
    "tag": "Petal,",
    "description": "Petal",
    "link_thumb": "https://live.staticflickr.com/65535/48066945096_efda4835b6_n.jpg",
    "id_album": "834716128",
    "total_view": 65
  },
  {
    "total_img": 11,
    "number_page": 1,
    "title": "Phone",
    "tag": "Phone,",
    "description": "Phone",
    "link_thumb": "https://live.staticflickr.com/65535/48061152493_c949c961e3_n.jpg",
    "id_album": "-758201200",
    "total_view": 11
  },
  {
    "total_img": 900,
    "number_page": 5,
    "title": "Short Hair",
    "tag": "Short Hair,",
    "description": "Short Hair",
    "link_thumb": "https://live.staticflickr.com/65535/48066522393_1c85dd9992_n.jpg",
    "id_album": "1749242000",
    "total_view": 900
  },
  {
    "total_img": 807,
    "number_page": 5,
    "title": "Smile",
    "tag": "Smile,",
    "description": "Smile",
    "link_thumb": "https://live.staticflickr.com/65535/48066953706_2771a62522_n.jpg",
    "id_album": "419891285",
    "total_view": 807
  }
]