[
  {
    "link_thumb": "https://live.staticflickr.com/65535/48063208737_b9359ff7df_n.jpg",
    "id_album": "1944761639",
    "description": "TwinStarExorcists_699318",
    "title": "TwinStarExorcists_699318",
    "link_img": "https://live.staticflickr.com/65535/48063208737_37fe7beaf0_o.jpg",
    "id_image": "TwinStarExorcists_699318",
    "count_view": 0
  },
  {
    "link_thumb": "https://live.staticflickr.com/65535/48063111426_d0edbfd695_n.jpg",
    "id_album": "1944761639",
    "description": "TwinStarExorcists_699339",
    "title": "TwinStarExorcists_699339",
    "link_img": "https://live.staticflickr.com/65535/48063111426_ffb10a3e9c_o.jpg",
    "id_image": "TwinStarExorcists_699339",
    "count_view": 0
  },
  {
    "link_thumb": "https://live.staticflickr.com/65535/48063161008_8567106681_n.jpg",
    "id_album": "1944761639",
    "description": "TwinStarExorcists_699344",
    "title": "TwinStarExorcists_699344",
    "link_img": "https://live.staticflickr.com/65535/48063161008_01f07c1310_o.jpg",
    "id_image": "TwinStarExorcists_699344",
    "count_view": 0
  }
]