[
  {
    "link_thumb": "https://live.staticflickr.com/65535/48061203252_5376ab35eb_n.jpg",
    "id_album": "1434067144",
    "description": "Touhou_673446",
    "title": "Touhou_673446",
    "link_img": "https://live.staticflickr.com/65535/48061203252_e798761b6e_o.jpg",
    "id_image": "Touhou_673446",
    "count_view": 0
  },
  {
    "link_thumb": "https://live.staticflickr.com/65535/48061438086_1d06b3905c_n.jpg",
    "id_album": "1434067144",
    "description": "Touhou_751878",
    "title": "Touhou_751878",
    "link_img": "https://live.staticflickr.com/65535/48061438086_9e7e7fdf12_o.jpg",
    "id_image": "Touhou_751878",
    "count_view": 0
  },
  {
    "link_thumb": "https://live.staticflickr.com/65535/48061653408_bcc85d31c9_n.jpg",
    "id_album": "1434067144",
    "description": "Touhou_761154",
    "title": "Touhou_761154",
    "link_img": "https://live.staticflickr.com/65535/48061653408_f43967a87d_o.jpg",
    "id_image": "Touhou_761154",
    "count_view": 0
  },
  {
    "link_thumb": "https://live.staticflickr.com/65535/48061803767_82a5f27ee5_n.jpg",
    "id_album": "1434067144",
    "description": "Touhou_761511",
    "title": "Touhou_761511",
    "link_img": "https://live.staticflickr.com/65535/48061803767_61b1b7d66b_o.jpg",
    "id_image": "Touhou_761511",
    "count_view": 0
  },
  {
    "link_thumb": "https://live.staticflickr.com/65535/48061730271_dc4a4438dd_n.jpg",
    "id_album": "1434067144",
    "description": "Touhou_761659",
    "title": "Touhou_761659",
    "link_img": "https://live.staticflickr.com/65535/48061730271_297d9a1597_o.jpg",
    "id_image": "Touhou_761659",
    "count_view": 0
  },
  {
    "link_thumb": "https://live.staticflickr.com/65535/48061730946_e673e141cb_n.jpg",
    "id_album": "1434067144",
    "description": "Touhou_761662",
    "title": "Touhou_761662",
    "link_img": "https://live.staticflickr.com/65535/48061730946_5e7aa86c1d_o.jpg",
    "id_image": "Touhou_761662",
    "count_view": 0
  },
  {
    "link_thumb": "https://live.staticflickr.com/65535/48061827772_424637f2ce_n.jpg",
    "id_album": "1434067144",
    "description": "Touhou_761690",
    "title": "Touhou_761690",
    "link_img": "https://live.staticflickr.com/65535/48061827772_a0d56026fb_o.jpg",
    "id_image": "Touhou_761690",
    "count_view": 0
  },
  {
    "link_thumb": "https://live.staticflickr.com/65535/48061828327_6d0b62db21_n.jpg",
    "id_album": "1434067144",
    "description": "Touhou_761708",
    "title": "Touhou_761708",
    "link_img": "https://live.staticflickr.com/65535/48061828327_e80000eabd_o.jpg",
    "id_image": "Touhou_761708",
    "count_view": 0
  },
  {
    "link_thumb": "https://live.staticflickr.com/65535/48061835233_a83aee8e63_n.jpg",
    "id_album": "1434067144",
    "description": "Touhou_762054",
    "title": "Touhou_762054",
    "link_img": "https://live.staticflickr.com/65535/48061835233_1bd5fe6871_o.jpg",
    "id_image": "Touhou_762054",
    "count_view": 0
  },
  {
    "link_thumb": "https://live.staticflickr.com/65535/48062412433_e79b2dde9e_n.jpg",
    "id_album": "1434067144",
    "description": "Touhou_804238",
    "title": "Touhou_804238",
    "link_img": "https://live.staticflickr.com/65535/48062412433_fc5997862b_o.jpg",
    "id_image": "Touhou_804238",
    "count_view": 0
  },
  {
    "link_thumb": "https://live.staticflickr.com/65535/48062367796_957b1308ff_n.jpg",
    "id_album": "1434067144",
    "description": "Touhou_810818",
    "title": "Touhou_810818",
    "link_img": "https://live.staticflickr.com/65535/48062367796_66fefe0c7c_o.jpg",
    "id_image": "Touhou_810818",
    "count_view": 0
  },
  {
    "link_thumb": "https://live.staticflickr.com/65535/48062509447_be7429fe80_n.jpg",
    "id_album": "1434067144",
    "description": "Touhou_830680",
    "title": "Touhou_830680",
    "link_img": "https://live.staticflickr.com/65535/48062509447_e58e8e465b_o.jpg",
    "id_image": "Touhou_830680",
    "count_view": 0
  },
  {
    "link_thumb": "https://live.staticflickr.com/65535/48062565811_33de07d1cc_n.jpg",
    "id_album": "1434067144",
    "description": "Touhou_878974",
    "title": "Touhou_878974",
    "link_img": "https://live.staticflickr.com/65535/48062565811_3c176e4f94_o.jpg",
    "id_image": "Touhou_878974",
    "count_view": 0
  },
  {
    "link_thumb": "https://live.staticflickr.com/65535/48062573136_cb045a3b03_n.jpg",
    "id_album": "1434067144",
    "description": "Touhou_885642",
    "title": "Touhou_885642",
    "link_img": "https://live.staticflickr.com/65535/48062573136_598092e0ca_o.jpg",
    "id_image": "Touhou_885642",
    "count_view": 0
  },
  {
    "link_thumb": "https://live.staticflickr.com/65535/48062731182_8f6a1155b7_n.jpg",
    "id_album": "1434067144",
    "description": "Touhou_913700",
    "title": "Touhou_913700",
    "link_img": "https://live.staticflickr.com/65535/48062731182_555eee9a7c_o.jpg",
    "id_image": "Touhou_913700",
    "count_view": 0
  },
  {
    "link_thumb": "https://live.staticflickr.com/65535/48062712556_14d209617d_n.jpg",
    "id_album": "1434067144",
    "description": "Touhou_917374",
    "title": "Touhou_917374",
    "link_img": "https://live.staticflickr.com/65535/48062712556_70a87cbbf1_o.jpg",
    "id_image": "Touhou_917374",
    "count_view": 0
  }
]